﻿TrialNum,Targ,TargPos,Group,Reward,Colour,ColBoxStartTime,CorrAns,RespStimDur
1,J,8,1,HR,red,124,j,57
2,K,8,1,HR,red,124,k,57
3,J,8,1,HR,red,124,j,57
4,K,8,1,HR,red,124,k,57
5,J,8,1,HR,red,124,j,57
6,K,8,1,HR,red,124,k,57
7,J,8,1,HR,red,124,j,57
8,K,8,1,HR,red,124,k,57
9,J,8,1,HR,red,124,j,57
10,K,8,1,HR,red,124,k,57
11,J,9,1,HR,red,131,j,64
12,K,9,1,HR,red,131,k,64
13,J,9,1,HR,red,131,j,64
14,K,9,1,HR,red,131,k,64
15,J,9,1,HR,red,131,j,64
16,K,9,1,HR,red,131,k,64
17,J,9,1,HR,red,131,j,64
18,K,9,1,HR,red,131,k,64
19,J,9,1,HR,red,131,j,64
20,K,9,1,HR,red,131,k,64
21,J,10,1,HR,red,138,j,71
22,K,10,1,HR,red,138,k,71
23,J,10,1,HR,red,138,j,71
24,K,10,1,HR,red,138,k,71
25,J,10,1,HR,red,138,j,71
26,K,10,1,HR,red,138,k,71
27,J,10,1,HR,red,138,j,71
28,K,10,1,HR,red,138,k,71
29,J,10,1,HR,red,138,j,71
30,K,10,1,HR,red,138,k,71
31,J,11,1,HR,red,145,j,78
32,K,11,1,HR,red,145,k,78
33,J,11,1,HR,red,145,j,78
34,K,11,1,HR,red,145,k,78
35,J,11,1,HR,red,145,j,78
36,K,11,1,HR,red,145,k,78
37,J,11,1,HR,red,145,j,78
38,K,11,1,HR,red,145,k,78
39,J,11,1,HR,red,145,j,78
40,K,11,1,HR,red,145,k,78
41,J,12,1,HR,red,152,j,85
42,K,12,1,HR,red,152,k,85
43,J,12,1,HR,red,152,j,85
44,K,12,1,HR,red,152,k,85
45,J,12,1,HR,red,152,j,85
46,K,12,1,HR,red,152,k,85
47,J,12,1,HR,red,152,j,85
48,K,12,1,HR,red,152,k,85
49,J,12,1,HR,red,152,j,85
50,K,12,1,HR,red,152,k,85
51,J,13,1,HR,red,159,j,92
52,K,13,1,HR,red,159,k,92
53,J,13,1,HR,red,159,j,92
54,K,13,1,HR,red,159,k,92
55,J,13,1,HR,red,159,j,92
56,K,13,1,HR,red,159,k,92
57,J,13,1,HR,red,159,j,92
58,K,13,1,HR,red,159,k,92
59,J,13,1,HR,red,159,j,92
60,K,13,1,HR,red,159,k,92
61,J,8,1,LR,blue,124,j,57
62,K,8,1,LR,blue,124,k,57
63,J,8,1,LR,blue,124,j,57
64,K,8,1,LR,blue,124,k,57
65,J,8,1,LR,blue,124,j,57
66,K,8,1,LR,blue,124,k,57
67,J,8,1,LR,blue,124,j,57
68,K,8,1,LR,blue,124,k,57
69,J,8,1,LR,blue,124,j,57
70,K,8,1,LR,blue,124,k,57
71,J,9,1,LR,blue,131,j,64
72,K,9,1,LR,blue,131,k,64
73,J,9,1,LR,blue,131,j,64
74,K,9,1,LR,blue,131,k,64
75,J,9,1,LR,blue,131,j,64
76,K,9,1,LR,blue,131,k,64
77,J,9,1,LR,blue,131,j,64
78,K,9,1,LR,blue,131,k,64
79,J,9,1,LR,blue,131,j,64
80,K,9,1,LR,blue,131,k,64
81,J,10,1,LR,blue,138,j,71
82,K,10,1,LR,blue,138,k,71
83,J,10,1,LR,blue,138,j,71
84,K,10,1,LR,blue,138,k,71
85,J,10,1,LR,blue,138,j,71
86,K,10,1,LR,blue,138,k,71
87,J,10,1,LR,blue,138,j,71
88,K,10,1,LR,blue,138,k,71
89,J,10,1,LR,blue,138,j,71
90,K,10,1,LR,blue,138,k,71
91,J,11,1,LR,blue,145,j,78
92,K,11,1,LR,blue,145,k,78
93,J,11,1,LR,blue,145,j,78
94,K,11,1,LR,blue,145,k,78
95,J,11,1,LR,blue,145,j,78
96,K,11,1,LR,blue,145,k,78
97,J,11,1,LR,blue,145,j,78
98,K,11,1,LR,blue,145,k,78
99,J,11,1,LR,blue,145,j,78
100,K,11,1,LR,blue,145,k,78
101,J,12,1,LR,blue,152,j,85
102,K,12,1,LR,blue,152,k,85
103,J,12,1,LR,blue,152,j,85
104,K,12,1,LR,blue,152,k,85
105,J,12,1,LR,blue,152,j,85
106,K,12,1,LR,blue,152,k,85
107,J,12,1,LR,blue,152,j,85
108,K,12,1,LR,blue,152,k,85
109,J,12,1,LR,blue,152,j,85
110,K,12,1,LR,blue,152,k,85
111,J,13,1,LR,blue,159,j,92
112,K,13,1,LR,blue,159,k,92
113,J,13,1,LR,blue,159,j,92
114,K,13,1,LR,blue,159,k,92
115,J,13,1,LR,blue,159,j,92
116,K,13,1,LR,blue,159,k,92
117,J,13,1,LR,blue,159,j,92
118,K,13,1,LR,blue,159,k,92
119,J,13,1,LR,blue,159,j,92
120,K,13,1,LR,blue,159,k,92
121,J,8,1,NR,green,124,j,57
122,K,8,1,NR,green,124,k,57
123,J,8,1,NR,green,124,j,57
124,K,8,1,NR,green,124,k,57
125,J,8,1,NR,green,124,j,57
126,K,8,1,NR,green,124,k,57
127,J,8,1,NR,green,124,j,57
128,K,8,1,NR,green,124,k,57
129,J,8,1,NR,green,124,j,57
130,K,8,1,NR,green,124,k,57
131,J,9,1,NR,green,131,j,64
132,K,9,1,NR,green,131,k,64
133,J,9,1,NR,green,131,j,64
134,K,9,1,NR,green,131,k,64
135,J,9,1,NR,green,131,j,64
136,K,9,1,NR,green,131,k,64
137,J,9,1,NR,green,131,j,64
138,K,9,1,NR,green,131,k,64
139,J,9,1,NR,green,131,j,64
140,K,9,1,NR,green,131,k,64
141,J,10,1,NR,green,138,j,71
142,K,10,1,NR,green,138,k,71
143,J,10,1,NR,green,138,j,71
144,K,10,1,NR,green,138,k,71
145,J,10,1,NR,green,138,j,71
146,K,10,1,NR,green,138,k,71
147,J,10,1,NR,green,138,j,71
148,K,10,1,NR,green,138,k,71
149,J,10,1,NR,green,138,j,71
150,K,10,1,NR,green,138,k,71
151,J,11,1,NR,green,145,j,78
152,K,11,1,NR,green,145,k,78
153,J,11,1,NR,green,145,j,78
154,K,11,1,NR,green,145,k,78
155,J,11,1,NR,green,145,j,78
156,K,11,1,NR,green,145,k,78
157,J,11,1,NR,green,145,j,78
158,K,11,1,NR,green,145,k,78
159,J,11,1,NR,green,145,j,78
160,K,11,1,NR,green,145,k,78
161,J,12,1,NR,green,152,j,85
162,K,12,1,NR,green,152,k,85
163,J,12,1,NR,green,152,j,85
164,K,12,1,NR,green,152,k,85
165,J,12,1,NR,green,152,j,85
166,K,12,1,NR,green,152,k,85
167,J,12,1,NR,green,152,j,85
168,K,12,1,NR,green,152,k,85
169,J,12,1,NR,green,152,j,85
170,K,12,1,NR,green,152,k,85
171,J,13,1,NR,green,159,j,92
172,K,13,1,NR,green,159,k,92
173,J,13,1,NR,green,159,j,92
174,K,13,1,NR,green,159,k,92
175,J,13,1,NR,green,159,j,92
176,K,13,1,NR,green,159,k,92
177,J,13,1,NR,green,159,j,92
178,K,13,1,NR,green,159,k,92
179,J,13,1,NR,green,159,j,92
180,K,13,1,NR,green,159,k,92