SubID,Group,Pay_Partpn,PayBonus,PayTotal,Status,Demog_Age,Demog_Sex
203,1,13,4.7,17.7,Completed,19,F
204,1,13,4.5,17.5,Completed,21,F
205,3,13,4.92,17.92,Completed,23,M
206,3,13,4.72,17.72,Completed,25,M
207,3,13,4.72,17.72,Completed,21,M
208,1,13,4.85,17.85,Completed,20,F
209,1,13,4.81,17.81,Completed,26,F
210,3,13,4.67,17.67,Completed,21,F
211,3,13,4.91,17.91,Completed,22,F
212,3,13,4.82,17.82,Completed,32,Non-binary
302,2,13,4.78,17.78,completed,20,F
303,2,13,4.3,17.3,completed,20,F
304,2,13,4.7,17.7,completed,23,F
305,2,13,4.84,17.84,completed,21,M
306,2,13,4.69,17.69,completed,22,F
307,2,13,4.61,17.61,completed,24,M
308,2,13,4.82,17.82,completed,22,M
309,2,13,4.41,17.41,completed,24,F
310,2,13,4.74,17.74,completed,25,M
311,1,13,4.77,17.77,completed,23,M
312,2,13,4.54,17.54,completed,20,F
402,3,0,4.51,4.51,completed ,21,M
403,3,13,4.83,17.83,completed ,23,M
404,3,13,4.89,17.89,completed,23,M
405,3,13,4.85,17.85,completed ,23,M
406,3,13,4.91,17.91,completed,22,M
407,3,13,4.89,17.89,completed ,20,F
408,3,13,4.91,17.91,completed,20,F
409,1,13,4.86,17.86,completed ,22,F
410,1,13,4.75,17.75,completed,19,M
411,3,13,4.63,17.63,completed ,19,F
412,1,13,4.84,17.84,completed,18,M
413,3,13,4.86,17.86,completed ,22,M
414,1,13,4.73,17.73,completed,21,F
415,2,13,4.88,17.88,completed ,22,M
416,3,13,4.82,17.82,completed ,21,F
501,2,13,4.92,17.92,completed,23,M
502,2,13,4.83,17.83,completed,21,F
503,2,13,4.38,17.38,completed,22,M
504,1,13,4.9,17.9,completed,22,M
505,1,13,4.92,17.92,completed,21,M
506,1,13,4.73,17.73,completed,20,F
507,1,13,4.82,17.82,completed,21,F
508,1,13,4.54,17.54,completed,22,F
509,1,13,4.76,17.76,completed,24,M
