"","SubID","Reward","Lag","PropT2T1_Acc_B1","PropT2T1_Acc_B2","PropT2T1_Acc_BCombined"
"1",2204,"HR","Lag2",0.766666666666667,0.733333333333333,0.75
"2",2204,"HR","Lag8",0.966666666666667,0.933333333333333,0.95
"3",2204,"LR","Lag2",0.8,0.8,0.8
"4",2204,"LR","Lag8",0.866666666666667,0.933333333333333,0.9
"5",2204,"NR","Lag2",0.833333333333333,0.733333333333333,0.783333333333333
"6",2204,"NR","Lag8",0.866666666666667,0.9,0.883333333333333
"7",4877,"HR","Lag2",0.866666666666667,0.9,0.883333333333333
"8",4877,"HR","Lag8",0.966666666666667,0.966666666666667,0.966666666666667
"9",4877,"LR","Lag2",0.833333333333333,0.866666666666667,0.85
"10",4877,"LR","Lag8",1,0.966666666666667,0.983333333333333
"11",4877,"NR","Lag2",0.966666666666667,0.966666666666667,0.966666666666667
"12",4877,"NR","Lag8",0.966666666666667,0.966666666666667,0.966666666666667
"13",4588,"HR","Lag2",0.866666666666667,0.9,0.883333333333333
"14",4588,"HR","Lag8",0.9,0.866666666666667,0.883333333333333
"15",4588,"LR","Lag2",0.8,0.833333333333333,0.816666666666667
"16",4588,"LR","Lag8",0.933333333333333,0.933333333333333,0.933333333333333
"17",4588,"NR","Lag2",0.733333333333333,0.866666666666667,0.8
"18",4588,"NR","Lag8",0.966666666666667,0.9,0.933333333333333
"19",4763,"HR","Lag2",0.8,0.966666666666667,0.883333333333333
"20",4763,"HR","Lag8",0.933333333333333,1,0.966666666666667
"21",4763,"LR","Lag2",0.933333333333333,0.933333333333333,0.933333333333333
"22",4763,"LR","Lag8",0.933333333333333,1,0.966666666666667
"23",4763,"NR","Lag2",0.966666666666667,1,0.983333333333333
"24",4763,"NR","Lag8",1,1,1
"25",4767,"HR","Lag2",0.8,0.933333333333333,0.866666666666667
"26",4767,"HR","Lag8",0.933333333333333,1,0.966666666666667
"27",4767,"LR","Lag2",0.733333333333333,0.7,0.716666666666667
"28",4767,"LR","Lag8",0.866666666666667,1,0.933333333333333
"29",4767,"NR","Lag2",0.766666666666667,0.866666666666667,0.816666666666667
"30",4767,"NR","Lag8",1,0.966666666666667,0.983333333333333
"31",4702,"HR","Lag2",0.833333333333333,0.9,0.866666666666667
"32",4702,"HR","Lag8",1,0.966666666666667,0.983333333333333
"33",4702,"LR","Lag2",0.866666666666667,0.866666666666667,0.866666666666667
"34",4702,"LR","Lag8",0.966666666666667,0.933333333333333,0.95
"35",4702,"NR","Lag2",0.933333333333333,0.866666666666667,0.9
"36",4702,"NR","Lag8",1,0.933333333333333,0.966666666666667
"37",4964,"HR","Lag2",0.833333333333333,0.866666666666667,0.85
"38",4964,"HR","Lag8",0.933333333333333,0.966666666666667,0.95
"39",4964,"LR","Lag2",0.733333333333333,0.933333333333333,0.833333333333333
"40",4964,"LR","Lag8",1,0.9,0.95
"41",4964,"NR","Lag2",0.866666666666667,0.866666666666667,0.866666666666667
"42",4964,"NR","Lag8",0.933333333333333,1,0.966666666666667
"43",4923,"HR","Lag2",0.5,0.633333333333333,0.566666666666667
"44",4923,"HR","Lag8",0.7,0.966666666666667,0.833333333333333
"45",4923,"LR","Lag2",0.566666666666667,0.7,0.633333333333333
"46",4923,"LR","Lag8",0.833333333333333,0.966666666666667,0.9
"47",4923,"NR","Lag2",0.466666666666667,0.566666666666667,0.516666666666667
"48",4923,"NR","Lag8",0.733333333333333,0.9,0.816666666666667
"49",4566,"HR","Lag2",0.866666666666667,0.966666666666667,0.916666666666667
"50",4566,"HR","Lag8",0.966666666666667,0.966666666666667,0.966666666666667
"51",4566,"LR","Lag2",0.866666666666667,0.9,0.883333333333333
"52",4566,"LR","Lag8",0.966666666666667,1,0.983333333333333
"53",4566,"NR","Lag2",0.8,0.9,0.85
"54",4566,"NR","Lag8",0.933333333333333,1,0.966666666666667
"55",4753,"HR","Lag2",1,0.966666666666667,0.983333333333333
"56",4753,"HR","Lag8",0.933333333333333,0.966666666666667,0.95
"57",4753,"LR","Lag2",0.933333333333333,0.866666666666667,0.9
"58",4753,"LR","Lag8",0.933333333333333,0.966666666666667,0.95
"59",4753,"NR","Lag2",1,0.866666666666667,0.933333333333333
"60",4753,"NR","Lag8",0.933333333333333,0.966666666666667,0.95
"61",4904,"HR","Lag2",0.9,0.966666666666667,0.933333333333333
"62",4904,"HR","Lag8",1,0.966666666666667,0.983333333333333
"63",4904,"LR","Lag2",0.833333333333333,0.933333333333333,0.883333333333333
"64",4904,"LR","Lag8",1,0.966666666666667,0.983333333333333
"65",4904,"NR","Lag2",0.9,0.9,0.9
"66",4904,"NR","Lag8",0.966666666666667,1,0.983333333333333
"67",4576,"HR","Lag2",0.566666666666667,0.733333333333333,0.65
"68",4576,"HR","Lag8",0.966666666666667,1,0.983333333333333
"69",4576,"LR","Lag2",0.666666666666667,0.9,0.783333333333333
"70",4576,"LR","Lag8",0.9,0.966666666666667,0.933333333333333
"71",4576,"NR","Lag2",0.633333333333333,0.8,0.716666666666667
"72",4576,"NR","Lag8",0.933333333333333,0.966666666666667,0.95
"73",4794,"HR","Lag2",0.9,1,0.95
"74",4794,"HR","Lag8",0.966666666666667,1,0.983333333333333
"75",4794,"LR","Lag2",0.966666666666667,1,0.983333333333333
"76",4794,"LR","Lag8",0.866666666666667,1,0.933333333333333
"77",4794,"NR","Lag2",0.766666666666667,1,0.883333333333333
"78",4794,"NR","Lag8",0.933333333333333,1,0.966666666666667
"79",4718,"HR","Lag2",0.4,0.9,0.65
"80",4718,"HR","Lag8",0.0666666666666667,0.933333333333333,0.5
"81",4718,"LR","Lag2",0.366666666666667,0.866666666666667,0.616666666666667
"82",4718,"LR","Lag8",0.0333333333333333,0.933333333333333,0.483333333333333
"83",4718,"NR","Lag2",0.2,0.733333333333333,0.466666666666667
"84",4718,"NR","Lag8",0.1,0.933333333333333,0.516666666666667
"85",4911,"HR","Lag2",0.866666666666667,0.866666666666667,0.866666666666667
"86",4911,"HR","Lag8",0.6,0.4,0.5
"87",4911,"LR","Lag2",0.833333333333333,0.666666666666667,0.75
"88",4911,"LR","Lag8",0.566666666666667,0.633333333333333,0.6
"89",4911,"NR","Lag2",0.9,0.833333333333333,0.866666666666667
"90",4911,"NR","Lag8",0.5,0.6,0.55
