"","SubID","Reward","Lag","PropT2T1_Acc_B1","PropT2T1_Acc_B2","PropT2T1_Acc_BCombined"
"1",3347,"HR","Lag2",0.866666666666667,0.766666666666667,0.816666666666667
"2",3347,"HR","Lag8",0.933333333333333,1,0.966666666666667
"3",3347,"LR","Lag2",1,1,1
"4",3347,"LR","Lag8",1,1,1
"5",3347,"NR","Lag2",0.733333333333333,0.866666666666667,0.8
"6",3347,"NR","Lag8",0.866666666666667,0.966666666666667,0.916666666666667
"7",3957,"HR","Lag2",0.566666666666667,0.633333333333333,0.6
"8",3957,"HR","Lag8",0.633333333333333,0.8,0.716666666666667
"9",3957,"LR","Lag2",0.566666666666667,1,0.783333333333333
"10",3957,"LR","Lag8",0.7,0.933333333333333,0.816666666666667
"11",3957,"NR","Lag2",0.6,0.9,0.75
"12",3957,"NR","Lag8",0.633333333333333,0.8,0.716666666666667
"13",4486,"HR","Lag2",0.533333333333333,0.5,0.516666666666667
"14",4486,"HR","Lag8",0.833333333333333,0.866666666666667,0.85
"15",4486,"LR","Lag2",0.7,0.633333333333333,0.666666666666667
"16",4486,"LR","Lag8",0.833333333333333,0.8,0.816666666666667
"17",4486,"NR","Lag2",0.766666666666667,0.566666666666667,0.666666666666667
"18",4486,"NR","Lag8",0.766666666666667,0.8,0.783333333333333
"19",4422,"HR","Lag2",0.966666666666667,0.833333333333333,0.9
"20",4422,"HR","Lag8",0.933333333333333,1,0.966666666666667
"21",4422,"LR","Lag2",0.9,0.966666666666667,0.933333333333333
"22",4422,"LR","Lag8",1,1,1
"23",4422,"NR","Lag2",1,0.966666666666667,0.983333333333333
"24",4422,"NR","Lag8",0.966666666666667,1,0.983333333333333
"25",4535,"HR","Lag2",0.2,0.166666666666667,0.183333333333333
"26",4535,"HR","Lag8",0.366666666666667,0.5,0.433333333333333
"27",4535,"LR","Lag2",0.8,0.766666666666667,0.783333333333333
"28",4535,"LR","Lag8",0.133333333333333,0.666666666666667,0.4
"29",4535,"NR","Lag2",0.766666666666667,0.566666666666667,0.666666666666667
"30",4535,"NR","Lag8",0.6,0.6,0.6
"31",4455,"HR","Lag2",0.833333333333333,0.766666666666667,0.8
"32",4455,"HR","Lag8",1,1,1
"33",4455,"LR","Lag2",1,1,1
"34",4455,"LR","Lag8",1,0.966666666666667,0.983333333333333
"35",4455,"NR","Lag2",1,1,1
"36",4455,"NR","Lag8",1,1,1
"37",4648,"HR","Lag2",0.3,0.466666666666667,0.383333333333333
"38",4648,"HR","Lag8",0.9,0.966666666666667,0.933333333333333
"39",4648,"LR","Lag2",0.966666666666667,1,0.983333333333333
"40",4648,"LR","Lag8",0.966666666666667,1,0.983333333333333
"41",4648,"NR","Lag2",0.966666666666667,1,0.983333333333333
"42",4648,"NR","Lag8",0.966666666666667,1,0.983333333333333
"43",4568,"HR","Lag2",0.6,0.633333333333333,0.616666666666667
"44",4568,"HR","Lag8",0.9,0.933333333333333,0.916666666666667
"45",4568,"LR","Lag2",0.9,0.9,0.9
"46",4568,"LR","Lag8",0.966666666666667,0.966666666666667,0.966666666666667
"47",4568,"NR","Lag2",0.9,0.9,0.9
"48",4568,"NR","Lag8",1,0.9,0.95
"49",4386,"HR","Lag2",0.9,0.833333333333333,0.866666666666667
"50",4386,"HR","Lag8",0.933333333333333,0.966666666666667,0.95
"51",4386,"LR","Lag2",0.866666666666667,1,0.933333333333333
"52",4386,"LR","Lag8",1,0.9,0.95
"53",4386,"NR","Lag2",0.9,0.9,0.9
"54",4386,"NR","Lag8",0.933333333333333,0.966666666666667,0.95
"55",4304,"HR","Lag2",0.866666666666667,0.866666666666667,0.866666666666667
"56",4304,"HR","Lag8",0.8,0.733333333333333,0.766666666666667
"57",4304,"LR","Lag2",0.933333333333333,0.866666666666667,0.9
"58",4304,"LR","Lag8",0.733333333333333,0.7,0.716666666666667
"59",4304,"NR","Lag2",0.933333333333333,0.866666666666667,0.9
"60",4304,"NR","Lag8",0.866666666666667,0.766666666666667,0.816666666666667
"61",4337,"HR","Lag2",0.9,0.933333333333333,0.916666666666667
"62",4337,"HR","Lag8",1,0.933333333333333,0.966666666666667
"63",4337,"LR","Lag2",0.933333333333333,0.933333333333333,0.933333333333333
"64",4337,"LR","Lag8",1,0.966666666666667,0.983333333333333
"65",4337,"NR","Lag2",0.966666666666667,0.833333333333333,0.9
"66",4337,"NR","Lag8",0.966666666666667,0.9,0.933333333333333
"67",4529,"HR","Lag2",0.966666666666667,1,0.983333333333333
"68",4529,"HR","Lag8",1,1,1
"69",4529,"LR","Lag2",1,1,1
"70",4529,"LR","Lag8",1,1,1
"71",4529,"NR","Lag2",1,1,1
"72",4529,"NR","Lag8",1,1,1
"73",4461,"HR","Lag2",0.4,0.366666666666667,0.383333333333333
"74",4461,"HR","Lag8",0.9,0.933333333333333,0.916666666666667
"75",4461,"LR","Lag2",0.833333333333333,0.766666666666667,0.8
"76",4461,"LR","Lag8",0.666666666666667,0.866666666666667,0.766666666666667
"77",4461,"NR","Lag2",0.8,0.6,0.7
"78",4461,"NR","Lag8",0.9,0.966666666666667,0.933333333333333
"79",2171,"HR","Lag2",0.666666666666667,0.733333333333333,0.7
"80",2171,"HR","Lag8",1,0.966666666666667,0.983333333333333
"81",2171,"LR","Lag2",0.966666666666667,0.933333333333333,0.95
"82",2171,"LR","Lag8",0.966666666666667,0.966666666666667,0.966666666666667
"83",2171,"NR","Lag2",0.933333333333333,0.966666666666667,0.95
"84",2171,"NR","Lag8",1,1,1
