Group,trial_number,block,trial_type,SpTr,SpNum,Lag,T1,D1,T2,D2,RSVPlength,fixationduration,RSVPduration,videoduration,Reward
3,1,1,RP2_23,RP2,23,Lag2,N,2,R,6,5,0.37,0.5,1.47,NR
3,2,1,GP2_12,GP2,12,Lag2,X,4,Y,3,5,0.35,0.5,1.45,LR
3,3,1,RP8_21,RP8,21,Lag8,W,2,K,3,11,0.35,1.1,2.05,NR
3,4,1,RP2_22,RP2,22,Lag2,K,4,R,2,5,0.45,0.5,1.55,NR
3,5,1,RP2_7,RP2,7,Lag2,K,7,J,2,5,0.57,0.5,1.67,NR
3,6,1,GP8_2,GP8,2,Lag8,K,4,X,7,11,0.53,1.1,2.23,LR
3,7,1,GP2_21,GP2,21,Lag2,M,4,K,7,5,0.47,0.5,1.57,LR
3,8,1,GP2_17,GP2,17,Lag2,R,7,Y,6,5,0.53,0.5,1.63,LR
3,9,1,RP2_3,RP2,3,Lag2,X,4,F,3,5,0.38,0.5,1.48,NR
3,10,1,RP8_6,RP8,6,Lag8,Y,4,E,2,11,0.45,1.1,2.15,NR
3,11,1,GP8_25,GP8,25,Lag8,V,7,J,3,11,0.33,1.1,2.03,LR
3,12,1,BP2_21,BP2,21,Lag2,R,3,H,4,5,0.65,0.5,1.75,HR
3,13,1,GP8_7,GP8,7,Lag8,L,6,W,3,11,0.45,1.1,2.15,LR
3,14,1,GP2_24,GP2,24,Lag2,V,2,F,4,5,0.67,0.5,1.77,LR
3,15,1,RP2_5,RP2,5,Lag2,J,4,C,3,5,0.68,0.5,1.78,NR
3,16,1,GP8_15,GP8,15,Lag8,X,4,E,2,11,0.57,1.1,2.27,LR
3,17,1,GP2_29,GP2,29,Lag2,B,7,A,3,5,0.48,0.5,1.58,LR
3,18,1,BP2_19,BP2,19,Lag2,N,2,A,3,5,0.45,0.5,1.55,HR
3,19,1,BP8_25,BP8,25,Lag8,G,3,M,2,11,0.45,1.1,2.15,HR
3,20,1,RP8_24,RP8,24,Lag8,U,4,Y,3,11,0.48,1.1,2.18,NR
3,21,1,RP2_20,RP2,20,Lag2,P,3,K,7,5,0.47,0.5,1.57,NR
3,22,1,RP2_2,RP2,2,Lag2,X,2,M,3,5,0.35,0.5,1.45,NR
3,23,1,RP2_14,RP2,14,Lag2,B,4,L,2,5,0.38,0.5,1.48,NR
3,24,1,GP2_3,GP2,3,Lag2,M,7,X,4,5,0.5,0.5,1.6,LR
3,25,1,BP2_8,BP2,8,Lag2,U,2,F,7,5,0.35,0.5,1.45,HR
3,26,1,BP8_27,BP8,27,Lag8,L,3,X,4,11,0.63,1.1,2.33,HR
3,27,1,GP2_27,GP2,27,Lag2,B,3,E,6,5,0.67,0.5,1.77,LR
3,28,1,RP2_11,RP2,11,Lag2,W,6,L,2,5,0.3,0.5,1.4,NR
3,29,1,RP2_17,RP2,17,Lag2,U,3,H,2,5,0.63,0.5,1.73,NR
3,30,1,RP2_25,RP2,25,Lag2,R,7,F,4,5,0.62,0.5,1.72,NR
3,31,1,GP2_10,GP2,10,Lag2,X,7,E,4,5,0.68,0.5,1.78,LR
3,32,1,RP2_26,RP2,26,Lag2,R,3,B,7,5,0.48,0.5,1.58,NR
3,33,1,BP2_11,BP2,11,Lag2,C,2,K,3,5,0.45,0.5,1.55,HR
3,34,1,GP8_17,GP8,17,Lag8,V,7,B,3,11,0.5,1.1,2.2,LR
3,35,1,BP8_5,BP8,5,Lag8,K,3,C,6,11,0.32,1.1,2.02,HR
3,36,1,GP2_25,GP2,25,Lag2,Y,7,X,6,5,0.35,0.5,1.45,LR
3,37,1,GP8_19,GP8,19,Lag8,F,2,G,4,11,0.47,1.1,2.17,LR
3,38,1,GP8_28,GP8,28,Lag8,H,7,J,6,11,0.33,1.1,2.03,LR
3,39,1,RP8_10,RP8,10,Lag8,G,6,V,2,11,0.57,1.1,2.27,NR
3,40,1,BP8_11,BP8,11,Lag8,N,3,R,6,11,0.7,1.1,2.4,HR
3,41,1,RP8_11,RP8,11,Lag8,J,6,G,4,11,0.4,1.1,2.1,NR
3,42,1,GP2_18,GP2,18,Lag2,P,3,N,4,5,0.7,0.5,1.8,LR
3,43,1,BP2_9,BP2,9,Lag2,F,6,W,7,5,0.53,0.5,1.63,HR
3,44,1,BP2_26,BP2,26,Lag2,A,4,B,7,5,0.48,0.5,1.58,HR
3,45,1,GP8_23,GP8,23,Lag8,H,7,F,4,11,0.57,1.1,2.27,LR
3,46,1,BP2_24,BP2,24,Lag2,N,6,J,2,5,0.47,0.5,1.57,HR
3,47,1,RP2_24,RP2,24,Lag2,K,2,J,4,5,0.67,0.5,1.77,NR
3,48,1,RP2_10,RP2,10,Lag2,E,7,N,4,5,0.38,0.5,1.48,NR
3,49,1,RP2_21,RP2,21,Lag2,G,4,V,3,5,0.38,0.5,1.48,NR
3,50,1,GP2_16,GP2,16,Lag2,J,3,E,2,5,0.38,0.5,1.48,LR
3,51,1,BP2_12,BP2,12,Lag2,R,2,F,6,5,0.33,0.5,1.43,HR
3,52,1,GP8_6,GP8,6,Lag8,X,2,J,4,11,0.42,1.1,2.12,LR
3,53,1,GP8_8,GP8,8,Lag8,V,2,F,4,11,0.62,1.1,2.32,LR
3,54,1,BP8_10,BP8,10,Lag8,N,2,C,3,11,0.43,1.1,2.13,HR
3,55,1,RP2_8,RP2,8,Lag2,H,4,V,6,5,0.65,0.5,1.75,NR
3,56,1,BP8_21,BP8,21,Lag8,P,4,E,6,11,0.68,1.1,2.38,HR
3,57,1,GP8_21,GP8,21,Lag8,R,2,K,6,11,0.63,1.1,2.33,LR
3,58,1,RP2_29,RP2,29,Lag2,U,4,K,2,5,0.48,0.5,1.58,NR
3,59,1,RP8_8,RP8,8,Lag8,W,3,H,6,11,0.58,1.1,2.28,NR
3,60,1,BP8_7,BP8,7,Lag8,J,7,F,2,11,0.32,1.1,2.02,HR
3,61,1,BP2_13,BP2,13,Lag2,L,6,G,3,5,0.7,0.5,1.8,HR
3,62,1,BP8_2,BP8,2,Lag8,E,6,L,3,11,0.67,1.1,2.37,HR
3,63,1,RP8_30,RP8,30,Lag8,H,4,G,3,11,0.68,1.1,2.38,NR
3,64,1,BP8_20,BP8,20,Lag8,P,3,J,7,11,0.6,1.1,2.3,HR
3,65,1,GP8_3,GP8,3,Lag8,V,3,K,6,11,0.6,1.1,2.3,LR
3,66,1,BP2_4,BP2,4,Lag2,Y,6,F,2,5,0.42,0.5,1.52,HR
3,67,1,BP8_18,BP8,18,Lag8,Y,2,C,6,11,0.57,1.1,2.27,HR
3,68,1,GP8_14,GP8,14,Lag8,N,6,A,2,11,0.35,1.1,2.05,LR
3,69,1,BP2_1,BP2,1,Lag2,G,3,U,7,5,0.6,0.5,1.7,HR
3,70,1,BP2_30,BP2,30,Lag2,F,4,N,2,5,0.43,0.5,1.53,HR
3,71,1,BP2_29,BP2,29,Lag2,P,2,V,4,5,0.48,0.5,1.58,HR
3,72,1,BP8_19,BP8,19,Lag8,P,7,W,6,11,0.48,1.1,2.18,HR
3,73,1,GP8_11,GP8,11,Lag8,V,3,M,2,11,0.42,1.1,2.12,LR
3,74,1,RP8_2,RP8,2,Lag8,N,6,C,4,11,0.42,1.1,2.12,NR
3,75,1,GP2_9,GP2,9,Lag2,R,3,J,2,5,0.62,0.5,1.72,LR
3,76,1,RP8_28,RP8,28,Lag8,H,3,E,4,11,0.42,1.1,2.12,NR
3,77,1,GP2_2,GP2,2,Lag2,V,7,B,2,5,0.68,0.5,1.78,LR
3,78,1,GP2_22,GP2,22,Lag2,G,7,X,2,5,0.53,0.5,1.63,LR
3,79,1,BP8_17,BP8,17,Lag8,G,3,P,7,11,0.6,1.1,2.3,HR
3,80,1,GP2_11,GP2,11,Lag2,F,7,K,4,5,0.5,0.5,1.6,LR
3,81,1,RP8_19,RP8,19,Lag8,Y,2,U,7,11,0.65,1.1,2.35,NR
3,82,1,RP8_14,RP8,14,Lag8,X,4,L,2,11,0.62,1.1,2.32,NR
3,83,1,GP8_10,GP8,10,Lag8,H,3,E,4,11,0.52,1.1,2.22,LR
3,84,1,RP2_18,RP2,18,Lag2,Y,3,M,2,5,0.43,0.5,1.53,NR
3,85,1,BP8_24,BP8,24,Lag8,W,7,U,3,11,0.48,1.1,2.18,HR
3,86,1,RP8_26,RP8,26,Lag8,B,4,Y,6,11,0.47,1.1,2.17,NR
3,87,1,BP8_13,BP8,13,Lag8,E,4,P,6,11,0.7,1.1,2.4,HR
3,88,1,RP2_15,RP2,15,Lag2,L,6,C,7,5,0.33,0.5,1.43,NR
3,89,1,RP8_23,RP8,23,Lag8,E,4,M,6,11,0.35,1.1,2.05,NR
3,90,1,GP2_28,GP2,28,Lag2,U,2,W,3,5,0.3,0.5,1.4,LR
3,91,1,BP8_1,BP8,1,Lag8,K,6,R,4,11,0.33,1.1,2.03,HR
3,92,1,GP8_27,GP8,27,Lag8,B,3,A,4,11,0.3,1.1,2,LR
3,93,1,RP8_9,RP8,9,Lag8,M,4,K,7,11,0.63,1.1,2.33,NR
3,94,1,RP8_1,RP8,1,Lag8,W,4,M,2,11,0.42,1.1,2.12,NR
3,95,1,BP8_8,BP8,8,Lag8,F,7,V,6,11,0.37,1.1,2.07,HR
3,96,1,BP2_5,BP2,5,Lag2,A,2,J,7,5,0.6,0.5,1.7,HR
3,97,1,BP8_16,BP8,16,Lag8,K,6,A,4,11,0.65,1.1,2.35,HR
3,98,1,RP8_7,RP8,7,Lag8,M,6,K,4,11,0.3,1.1,2,NR
3,99,1,BP2_14,BP2,14,Lag2,U,2,J,4,5,0.32,0.5,1.42,HR
3,100,1,GP8_1,GP8,1,Lag8,W,7,M,2,11,0.45,1.1,2.15,LR
3,101,1,GP8_24,GP8,24,Lag8,H,4,R,7,11,0.32,1.1,2.02,LR
3,102,1,BP8_4,BP8,4,Lag8,F,2,V,4,11,0.52,1.1,2.22,HR
3,103,1,BP2_10,BP2,10,Lag2,A,3,X,4,5,0.58,0.5,1.68,HR
3,104,1,RP2_30,RP2,30,Lag2,H,2,K,6,5,0.42,0.5,1.52,NR
3,105,1,RP2_16,RP2,16,Lag2,V,6,R,4,5,0.65,0.5,1.75,NR
3,106,1,BP2_6,BP2,6,Lag2,L,6,F,2,5,0.6,0.5,1.7,HR
3,107,1,RP8_22,RP8,22,Lag8,M,2,W,4,11,0.3,1.1,2,NR
3,108,1,BP8_9,BP8,9,Lag8,V,2,J,6,11,0.48,1.1,2.18,HR
3,109,1,BP2_2,BP2,2,Lag2,R,7,E,3,5,0.52,0.5,1.62,HR
3,110,1,RP8_25,RP8,25,Lag8,L,3,B,4,11,0.48,1.1,2.18,NR
3,111,1,GP8_4,GP8,4,Lag8,W,3,R,2,11,0.47,1.1,2.17,LR
3,112,1,GP2_4,GP2,4,Lag2,V,4,K,3,5,0.52,0.5,1.62,LR
3,113,1,GP2_15,GP2,15,Lag2,M,6,Y,3,5,0.57,0.5,1.67,LR
3,114,1,BP8_14,BP8,14,Lag8,F,7,J,6,11,0.55,1.1,2.25,HR
3,115,1,GP2_26,GP2,26,Lag2,L,2,G,7,5,0.37,0.5,1.47,LR
3,116,1,GP2_14,GP2,14,Lag2,F,6,Y,3,5,0.52,0.5,1.62,LR
3,117,1,BP2_17,BP2,17,Lag2,N,7,U,3,5,0.57,0.5,1.67,HR
3,118,1,BP2_25,BP2,25,Lag2,A,6,C,7,5,0.47,0.5,1.57,HR
3,119,1,BP8_26,BP8,26,Lag8,F,4,G,6,11,0.5,1.1,2.2,HR
3,120,1,BP8_15,BP8,15,Lag8,R,6,N,3,11,0.48,1.1,2.18,HR
3,121,1,GP2_7,GP2,7,Lag2,F,3,L,2,5,0.38,0.5,1.48,LR
3,122,1,GP8_9,GP8,9,Lag8,G,6,W,4,11,0.57,1.1,2.27,LR
3,123,1,GP2_6,GP2,6,Lag2,H,3,B,6,5,0.42,0.5,1.52,LR
3,124,1,GP8_26,GP8,26,Lag8,E,2,M,6,11,0.32,1.1,2.02,LR
3,125,1,BP2_20,BP2,20,Lag2,B,6,P,2,5,0.57,0.5,1.67,HR
3,126,1,RP2_4,RP2,4,Lag2,B,4,F,6,5,0.42,0.5,1.52,NR
3,127,1,RP8_13,RP8,13,Lag8,U,4,J,7,11,0.52,1.1,2.22,NR
3,128,1,BP2_23,BP2,23,Lag2,J,7,W,6,5,0.3,0.5,1.4,HR
3,129,1,BP2_7,BP2,7,Lag2,N,4,M,6,5,0.32,0.5,1.42,HR
3,130,1,RP2_13,RP2,13,Lag2,U,7,P,3,5,0.4,0.5,1.5,NR
3,131,1,GP8_18,GP8,18,Lag8,E,6,U,7,11,0.33,1.1,2.03,LR
3,132,1,RP8_18,RP8,18,Lag8,J,7,B,4,11,0.32,1.1,2.02,NR
3,133,1,GP2_13,GP2,13,Lag2,Y,2,E,7,5,0.6,0.5,1.7,LR
3,134,1,BP2_27,BP2,27,Lag2,M,7,A,4,5,0.52,0.5,1.62,HR
3,135,1,BP2_16,BP2,16,Lag2,G,3,H,7,5,0.68,0.5,1.78,HR
3,136,1,RP8_20,RP8,20,Lag8,W,3,C,6,11,0.35,1.1,2.05,NR
3,137,1,RP2_6,RP2,6,Lag2,M,3,P,2,5,0.65,0.5,1.75,NR
3,138,1,GP2_20,GP2,20,Lag2,V,3,K,2,5,0.55,0.5,1.65,LR
3,139,1,BP2_3,BP2,3,Lag2,N,7,R,2,5,0.65,0.5,1.75,HR
3,140,1,BP8_6,BP8,6,Lag8,U,2,H,3,11,0.45,1.1,2.15,HR
3,141,1,GP8_29,GP8,29,Lag8,X,6,M,2,11,0.68,1.1,2.38,LR
3,142,1,RP8_4,RP8,4,Lag8,X,2,Y,3,11,0.47,1.1,2.17,NR
3,143,1,GP2_1,GP2,1,Lag2,G,2,V,4,5,0.3,0.5,1.4,LR
3,144,1,RP8_3,RP8,3,Lag8,B,6,M,3,11,0.4,1.1,2.1,NR
3,145,1,GP8_20,GP8,20,Lag8,V,6,F,2,11,0.63,1.1,2.33,LR
3,146,1,BP2_22,BP2,22,Lag2,L,2,X,4,5,0.4,0.5,1.5,HR
3,147,1,GP2_23,GP2,23,Lag2,F,7,K,6,5,0.37,0.5,1.47,LR
3,148,1,RP2_27,RP2,27,Lag2,F,2,L,7,5,0.55,0.5,1.65,NR
3,149,1,GP2_8,GP2,8,Lag2,L,3,B,2,5,0.37,0.5,1.47,LR
3,150,1,RP2_28,RP2,28,Lag2,C,4,U,2,5,0.45,0.5,1.55,NR
3,151,1,BP2_15,BP2,15,Lag2,X,3,K,2,5,0.33,0.5,1.43,HR
3,152,1,BP2_28,BP2,28,Lag2,K,2,A,3,5,0.47,0.5,1.57,HR
3,153,1,BP8_28,BP8,28,Lag8,P,3,B,6,11,0.4,1.1,2.1,HR
3,154,1,GP2_19,GP2,19,Lag2,R,6,N,3,5,0.62,0.5,1.72,LR
3,155,1,BP8_3,BP8,3,Lag8,V,6,G,3,11,0.32,1.1,2.02,HR
3,156,1,RP8_16,RP8,16,Lag8,A,6,G,2,11,0.62,1.1,2.32,NR
3,157,1,GP2_5,GP2,5,Lag2,J,2,R,6,5,0.62,0.5,1.72,LR
3,158,1,RP8_5,RP8,5,Lag8,E,4,G,6,11,0.43,1.1,2.13,NR
3,159,1,GP8_16,GP8,16,Lag8,W,3,K,6,11,0.45,1.1,2.15,LR
3,160,1,RP8_12,RP8,12,Lag8,N,4,J,3,11,0.7,1.1,2.4,NR
3,161,1,RP8_17,RP8,17,Lag8,G,6,C,7,11,0.62,1.1,2.32,NR
3,162,1,RP2_1,RP2,1,Lag2,M,4,L,3,5,0.43,0.5,1.53,NR
3,163,1,GP8_22,GP8,22,Lag8,B,7,U,4,11,0.58,1.1,2.28,LR
3,164,1,BP8_12,BP8,12,Lag8,U,6,W,4,11,0.42,1.1,2.12,HR
3,165,1,RP8_27,RP8,27,Lag8,P,6,J,2,11,0.53,1.1,2.23,NR
3,166,1,GP8_13,GP8,13,Lag8,E,2,A,7,11,0.47,1.1,2.17,LR
3,167,1,BP8_30,BP8,30,Lag8,J,7,E,2,11,0.58,1.1,2.28,HR
3,168,1,BP8_29,BP8,29,Lag8,Y,7,A,3,11,0.47,1.1,2.17,HR
3,169,1,GP2_30,GP2,30,Lag2,M,6,X,4,5,0.53,0.5,1.63,LR
3,170,1,RP2_19,RP2,19,Lag2,U,2,G,4,5,0.45,0.5,1.55,NR
3,171,1,BP8_22,BP8,22,Lag8,F,3,U,7,11,0.62,1.1,2.32,HR
3,172,1,GP8_12,GP8,12,Lag8,A,6,B,2,11,0.32,1.1,2.02,LR
3,173,1,BP8_23,BP8,23,Lag8,F,2,J,7,11,0.68,1.1,2.38,HR
3,174,1,GP8_5,GP8,5,Lag8,J,7,M,3,11,0.37,1.1,2.07,LR
3,175,1,RP8_15,RP8,15,Lag8,L,6,F,4,11,0.62,1.1,2.32,NR
3,176,1,GP8_30,GP8,30,Lag8,V,6,E,2,11,0.35,1.1,2.05,LR
3,177,1,BP2_18,BP2,18,Lag2,E,4,X,3,5,0.57,0.5,1.67,HR
3,178,1,RP8_29,RP8,29,Lag8,K,6,R,2,11,0.5,1.1,2.2,NR
3,179,1,RP2_12,RP2,12,Lag2,M,2,G,7,5,0.58,0.5,1.68,NR
3,180,1,RP2_9,RP2,9,Lag2,P,6,U,4,5,0.58,0.5,1.68,NR
3,181,2,GP8_52,GP8,52,Lag8,U,7,Y,2,11,0.63,1.1,2.33,LR
3,182,2,RP2_49,RP2,49,Lag2,F,7,P,4,5,0.7,0.5,1.8,NR
3,183,2,GP2_54,GP2,54,Lag2,A,2,P,4,5,0.3,0.5,1.4,LR
3,184,2,RP8_60,RP8,60,Lag8,C,2,J,7,11,0.3,1.1,2,NR
3,185,2,BP8_55,BP8,55,Lag8,V,7,G,6,11,0.3,1.1,2,HR
3,186,2,GP2_56,GP2,56,Lag2,W,6,H,3,5,0.55,0.5,1.65,LR
3,187,2,GP8_49,GP8,49,Lag8,X,6,P,3,11,0.4,1.1,2.1,LR
3,188,2,GP2_57,GP2,57,Lag2,F,4,P,6,5,0.43,0.5,1.53,LR
3,189,2,BP8_44,BP8,44,Lag8,W,7,V,6,11,0.42,1.1,2.12,HR
3,190,2,GP2_39,GP2,39,Lag2,P,2,W,3,5,0.35,0.5,1.45,LR
3,191,2,RP8_34,RP8,34,Lag8,N,6,L,2,11,0.3,1.1,2,NR
3,192,2,RP8_44,RP8,44,Lag8,R,6,F,3,11,0.37,1.1,2.07,NR
3,193,2,BP2_47,BP2,47,Lag2,W,4,X,7,5,0.48,0.5,1.58,HR
3,194,2,GP8_54,GP8,54,Lag8,E,6,X,4,11,0.7,1.1,2.4,LR
3,195,2,GP8_38,GP8,38,Lag8,U,2,F,4,11,0.7,1.1,2.4,LR
3,196,2,GP2_41,GP2,41,Lag2,R,4,C,7,5,0.42,0.5,1.52,LR
3,197,2,BP2_44,BP2,44,Lag2,R,3,W,7,5,0.55,0.5,1.65,HR
3,198,2,BP8_52,BP8,52,Lag8,A,6,J,7,11,0.3,1.1,2,HR
3,199,2,GP2_47,GP2,47,Lag2,P,6,W,2,5,0.45,0.5,1.55,LR
3,200,2,GP2_44,GP2,44,Lag2,B,6,A,3,5,0.45,0.5,1.55,LR
3,201,2,GP8_60,GP8,60,Lag8,V,2,U,3,11,0.62,1.1,2.32,LR
3,202,2,BP2_46,BP2,46,Lag2,E,2,V,6,5,0.63,0.5,1.73,HR
3,203,2,GP2_59,GP2,59,Lag2,K,2,H,6,5,0.55,0.5,1.65,LR
3,204,2,BP8_57,BP8,57,Lag8,C,2,U,7,11,0.55,1.1,2.25,HR
3,205,2,GP8_48,GP8,48,Lag8,M,7,K,3,11,0.65,1.1,2.35,LR
3,206,2,RP2_35,RP2,35,Lag2,R,4,G,7,5,0.53,0.5,1.63,NR
3,207,2,GP2_46,GP2,46,Lag2,B,2,G,7,5,0.43,0.5,1.53,LR
3,208,2,BP2_55,BP2,55,Lag2,G,3,N,6,5,0.68,0.5,1.78,HR
3,209,2,RP2_31,RP2,31,Lag2,L,7,F,2,5,0.48,0.5,1.58,NR
3,210,2,GP2_32,GP2,32,Lag2,A,3,V,4,5,0.63,0.5,1.73,LR
3,211,2,BP2_34,BP2,34,Lag2,C,4,A,2,5,0.65,0.5,1.75,HR
3,212,2,RP8_57,RP8,57,Lag8,A,3,K,6,11,0.42,1.1,2.12,NR
3,213,2,BP2_53,BP2,53,Lag2,M,3,N,2,5,0.68,0.5,1.78,HR
3,214,2,BP8_51,BP8,51,Lag8,V,4,M,2,11,0.45,1.1,2.15,HR
3,215,2,RP8_54,RP8,54,Lag8,N,3,H,7,11,0.62,1.1,2.32,NR
3,216,2,RP8_51,RP8,51,Lag8,W,2,H,4,11,0.5,1.1,2.2,NR
3,217,2,BP8_42,BP8,42,Lag8,W,7,L,6,11,0.57,1.1,2.27,HR
3,218,2,BP2_50,BP2,50,Lag2,U,4,P,7,5,0.47,0.5,1.57,HR
3,219,2,BP2_43,BP2,43,Lag2,R,2,B,7,5,0.52,0.5,1.62,HR
3,220,2,BP2_49,BP2,49,Lag2,V,3,F,2,5,0.52,0.5,1.62,HR
3,221,2,GP8_36,GP8,36,Lag8,N,7,U,6,11,0.63,1.1,2.33,LR
3,222,2,BP8_38,BP8,38,Lag8,H,7,A,4,11,0.3,1.1,2,HR
3,223,2,RP2_53,RP2,53,Lag2,R,3,X,2,5,0.62,0.5,1.72,NR
3,224,2,GP8_32,GP8,32,Lag8,A,7,Y,2,11,0.53,1.1,2.23,LR
3,225,2,GP2_43,GP2,43,Lag2,X,7,R,4,5,0.3,0.5,1.4,LR
3,226,2,GP8_34,GP8,34,Lag8,P,3,G,4,11,0.63,1.1,2.33,LR
3,227,2,RP8_32,RP8,32,Lag8,J,3,X,2,11,0.33,1.1,2.03,NR
3,228,2,GP2_50,GP2,50,Lag2,V,4,F,2,5,0.63,0.5,1.73,LR
3,229,2,BP8_31,BP8,31,Lag8,L,7,A,2,11,0.4,1.1,2.1,HR
3,230,2,RP8_50,RP8,50,Lag8,C,3,J,6,11,0.53,1.1,2.23,NR
3,231,2,RP8_38,RP8,38,Lag8,V,7,W,6,11,0.37,1.1,2.07,NR
3,232,2,GP2_60,GP2,60,Lag2,L,7,X,3,5,0.47,0.5,1.57,LR
3,233,2,GP2_42,GP2,42,Lag2,L,7,A,2,5,0.62,0.5,1.72,LR
3,234,2,RP8_40,RP8,40,Lag8,Y,6,R,2,11,0.52,1.1,2.22,NR
3,235,2,RP2_51,RP2,51,Lag2,E,2,H,3,5,0.68,0.5,1.78,NR
3,236,2,BP8_47,BP8,47,Lag8,C,6,B,2,11,0.38,1.1,2.08,HR
3,237,2,GP8_44,GP8,44,Lag8,A,4,X,2,11,0.35,1.1,2.05,LR
3,238,2,BP8_48,BP8,48,Lag8,B,2,Y,3,11,0.68,1.1,2.38,HR
3,239,2,RP2_44,RP2,44,Lag2,G,7,X,4,5,0.42,0.5,1.52,NR
3,240,2,RP8_48,RP8,48,Lag8,Y,2,L,7,11,0.52,1.1,2.22,NR
3,241,2,GP2_40,GP2,40,Lag2,J,3,X,7,5,0.5,0.5,1.6,LR
3,242,2,RP8_56,RP8,56,Lag8,E,4,B,6,11,0.57,1.1,2.27,NR
3,243,2,GP8_50,GP8,50,Lag8,P,7,X,3,11,0.52,1.1,2.22,LR
3,244,2,RP2_42,RP2,42,Lag2,E,3,K,2,5,0.6,0.5,1.7,NR
3,245,2,RP2_50,RP2,50,Lag2,V,3,A,2,5,0.53,0.5,1.63,NR
3,246,2,BP2_38,BP2,38,Lag2,W,2,R,7,5,0.52,0.5,1.62,HR
3,247,2,RP8_36,RP8,36,Lag8,K,6,A,3,11,0.6,1.1,2.3,NR
3,248,2,BP2_32,BP2,32,Lag2,M,6,N,7,5,0.47,0.5,1.57,HR
3,249,2,RP2_41,RP2,41,Lag2,M,7,E,6,5,0.57,0.5,1.67,NR
3,250,2,RP8_43,RP8,43,Lag8,A,4,H,2,11,0.52,1.1,2.22,NR
3,251,2,GP2_58,GP2,58,Lag2,E,3,K,6,5,0.37,0.5,1.47,LR
3,252,2,RP2_55,RP2,55,Lag2,W,6,K,2,5,0.65,0.5,1.75,NR
3,253,2,RP2_34,RP2,34,Lag2,A,3,L,2,5,0.55,0.5,1.65,NR
3,254,2,BP2_31,BP2,31,Lag2,G,7,V,3,5,0.43,0.5,1.53,HR
3,255,2,RP8_52,RP8,52,Lag8,Y,6,X,7,11,0.35,1.1,2.05,NR
3,256,2,GP8_46,GP8,46,Lag8,G,3,R,6,11,0.38,1.1,2.08,LR
3,257,2,GP2_36,GP2,36,Lag2,M,7,R,4,5,0.37,0.5,1.47,LR
3,258,2,RP2_43,RP2,43,Lag2,N,2,M,4,5,0.58,0.5,1.68,NR
3,259,2,RP8_45,RP8,45,Lag8,K,7,J,2,11,0.43,1.1,2.13,NR
3,260,2,RP8_49,RP8,49,Lag8,K,7,L,6,11,0.35,1.1,2.05,NR
3,261,2,GP8_55,GP8,55,Lag8,L,3,M,2,11,0.32,1.1,2.02,LR
3,262,2,BP2_59,BP2,59,Lag2,C,2,N,6,5,0.65,0.5,1.75,HR
3,263,2,GP8_47,GP8,47,Lag8,U,3,X,4,11,0.53,1.1,2.23,LR
3,264,2,BP8_46,BP8,46,Lag8,K,3,L,2,11,0.6,1.1,2.3,HR
3,265,2,RP2_54,RP2,54,Lag2,E,4,H,2,5,0.47,0.5,1.57,NR
3,266,2,GP2_38,GP2,38,Lag2,P,7,A,4,5,0.43,0.5,1.53,LR
3,267,2,BP8_35,BP8,35,Lag8,R,7,M,3,11,0.37,1.1,2.07,HR
3,268,2,GP8_37,GP8,37,Lag8,A,2,W,3,11,0.58,1.1,2.28,LR
3,269,2,GP2_35,GP2,35,Lag2,H,7,U,3,5,0.62,0.5,1.72,LR
3,270,2,BP2_58,BP2,58,Lag2,X,7,F,4,5,0.38,0.5,1.48,HR
3,271,2,BP2_45,BP2,45,Lag2,Y,2,K,6,5,0.65,0.5,1.75,HR
3,272,2,GP8_42,GP8,42,Lag8,M,3,X,7,11,0.5,1.1,2.2,LR
3,273,2,RP2_40,RP2,40,Lag2,Y,4,G,2,5,0.38,0.5,1.48,NR
3,274,2,RP8_35,RP8,35,Lag8,L,7,X,2,11,0.67,1.1,2.37,NR
3,275,2,RP2_45,RP2,45,Lag2,J,4,P,2,5,0.35,0.5,1.45,NR
3,276,2,BP8_45,BP8,45,Lag8,Y,4,R,2,11,0.65,1.1,2.35,HR
3,277,2,BP8_37,BP8,37,Lag8,L,7,Y,3,11,0.53,1.1,2.23,HR
3,278,2,BP2_36,BP2,36,Lag2,A,4,E,7,5,0.67,0.5,1.77,HR
3,279,2,BP8_33,BP8,33,Lag8,N,4,M,6,11,0.57,1.1,2.27,HR
3,280,2,GP8_43,GP8,43,Lag8,F,3,E,4,11,0.4,1.1,2.1,LR
3,281,2,GP8_45,GP8,45,Lag8,V,7,K,2,11,0.68,1.1,2.38,LR
3,282,2,GP2_55,GP2,55,Lag2,H,3,M,4,5,0.32,0.5,1.42,LR
3,283,2,RP8_31,RP8,31,Lag8,C,4,K,7,11,0.37,1.1,2.07,NR
3,284,2,BP8_53,BP8,53,Lag8,V,7,F,6,11,0.5,1.1,2.2,HR
3,285,2,BP2_41,BP2,41,Lag2,V,6,J,3,5,0.47,0.5,1.57,HR
3,286,2,GP8_57,GP8,57,Lag8,F,2,G,3,11,0.38,1.1,2.08,LR
3,287,2,RP2_32,RP2,32,Lag2,N,7,V,4,5,0.68,0.5,1.78,NR
3,288,2,RP2_36,RP2,36,Lag2,C,6,R,4,5,0.42,0.5,1.52,NR
3,289,2,BP8_56,BP8,56,Lag8,J,3,E,7,11,0.38,1.1,2.08,HR
3,290,2,GP8_41,GP8,41,Lag8,W,4,J,6,11,0.35,1.1,2.05,LR
3,291,2,GP2_34,GP2,34,Lag2,Y,7,J,3,5,0.5,0.5,1.6,LR
3,292,2,BP2_56,BP2,56,Lag2,L,4,F,2,5,0.55,0.5,1.65,HR
3,293,2,RP8_41,RP8,41,Lag8,X,2,J,4,11,0.52,1.1,2.22,NR
3,294,2,GP8_40,GP8,40,Lag8,E,7,P,6,11,0.57,1.1,2.27,LR
3,295,2,BP8_54,BP8,54,Lag8,N,3,L,7,11,0.3,1.1,2,HR
3,296,2,BP8_60,BP8,60,Lag8,A,3,E,7,11,0.38,1.1,2.08,HR
3,297,2,BP8_41,BP8,41,Lag8,M,4,W,2,11,0.42,1.1,2.12,HR
3,298,2,RP2_58,RP2,58,Lag2,A,3,C,2,5,0.32,0.5,1.42,NR
3,299,2,GP8_56,GP8,56,Lag8,H,4,J,2,11,0.63,1.1,2.33,LR
3,300,2,GP8_39,GP8,39,Lag8,K,6,Y,4,11,0.35,1.1,2.05,LR
3,301,2,GP2_31,GP2,31,Lag2,F,6,G,3,5,0.4,0.5,1.5,LR
3,302,2,BP8_58,BP8,58,Lag8,Y,6,N,4,11,0.53,1.1,2.23,HR
3,303,2,BP2_40,BP2,40,Lag2,F,3,G,4,5,0.65,0.5,1.75,HR
3,304,2,BP2_37,BP2,37,Lag2,W,2,V,7,5,0.58,0.5,1.68,HR
3,305,2,BP2_42,BP2,42,Lag2,Y,3,R,2,5,0.67,0.5,1.77,HR
3,306,2,GP8_59,GP8,59,Lag8,N,6,R,3,11,0.4,1.1,2.1,LR
3,307,2,GP2_33,GP2,33,Lag2,U,3,X,6,5,0.33,0.5,1.43,LR
3,308,2,RP8_39,RP8,39,Lag8,E,7,U,2,11,0.63,1.1,2.33,NR
3,309,2,RP8_58,RP8,58,Lag8,W,2,H,6,11,0.33,1.1,2.03,NR
3,310,2,BP2_39,BP2,39,Lag2,X,2,M,7,5,0.32,0.5,1.42,HR
3,311,2,BP8_32,BP8,32,Lag8,X,7,G,6,11,0.35,1.1,2.05,HR
3,312,2,GP8_33,GP8,33,Lag8,G,2,M,4,11,0.47,1.1,2.17,LR
3,313,2,BP2_52,BP2,52,Lag2,P,3,K,4,5,0.57,0.5,1.67,HR
3,314,2,RP8_55,RP8,55,Lag8,H,7,J,6,11,0.65,1.1,2.35,NR
3,315,2,GP2_48,GP2,48,Lag2,B,4,F,3,5,0.6,0.5,1.7,LR
3,316,2,BP2_48,BP2,48,Lag2,P,7,C,6,5,0.48,0.5,1.58,HR
3,317,2,BP8_34,BP8,34,Lag8,X,2,G,6,11,0.48,1.1,2.18,HR
3,318,2,GP8_51,GP8,51,Lag8,V,4,R,3,11,0.48,1.1,2.18,LR
3,319,2,BP2_33,BP2,33,Lag2,P,4,J,7,5,0.7,0.5,1.8,HR
3,320,2,RP2_38,RP2,38,Lag2,B,2,H,7,5,0.62,0.5,1.72,NR
3,321,2,BP2_57,BP2,57,Lag2,N,6,M,7,5,0.33,0.5,1.43,HR
3,322,2,RP2_48,RP2,48,Lag2,F,7,B,2,5,0.63,0.5,1.73,NR
3,323,2,GP8_31,GP8,31,Lag8,E,6,R,3,11,0.42,1.1,2.12,LR
3,324,2,RP2_60,RP2,60,Lag2,G,4,K,3,5,0.48,0.5,1.58,NR
3,325,2,RP8_42,RP8,42,Lag8,K,7,L,2,11,0.35,1.1,2.05,NR
3,326,2,GP2_51,GP2,51,Lag2,M,2,E,6,5,0.53,0.5,1.63,LR
3,327,2,BP2_54,BP2,54,Lag2,U,7,L,2,5,0.48,0.5,1.58,HR
3,328,2,RP2_46,RP2,46,Lag2,H,7,N,4,5,0.6,0.5,1.7,NR
3,329,2,GP8_53,GP8,53,Lag8,J,7,R,6,11,0.58,1.1,2.28,LR
3,330,2,BP2_35,BP2,35,Lag2,R,3,A,6,5,0.42,0.5,1.52,HR
3,331,2,RP8_47,RP8,47,Lag8,P,6,V,7,11,0.68,1.1,2.38,NR
3,332,2,RP8_33,RP8,33,Lag8,L,2,H,7,11,0.62,1.1,2.32,NR
3,333,2,RP8_46,RP8,46,Lag8,N,6,J,7,11,0.55,1.1,2.25,NR
3,334,2,GP2_49,GP2,49,Lag2,G,2,X,4,5,0.58,0.5,1.68,LR
3,335,2,RP2_39,RP2,39,Lag2,H,2,N,7,5,0.62,0.5,1.72,NR
3,336,2,RP2_56,RP2,56,Lag2,P,6,R,7,5,0.38,0.5,1.48,NR
3,337,2,BP8_40,BP8,40,Lag8,P,7,R,3,11,0.4,1.1,2.1,HR
3,338,2,RP2_33,RP2,33,Lag2,B,3,L,6,5,0.55,0.5,1.65,NR
3,339,2,RP2_37,RP2,37,Lag2,M,7,H,3,5,0.6,0.5,1.7,NR
3,340,2,BP8_36,BP8,36,Lag8,K,6,G,2,11,0.65,1.1,2.35,HR
3,341,2,GP8_35,GP8,35,Lag8,J,3,H,7,11,0.37,1.1,2.07,LR
3,342,2,GP2_45,GP2,45,Lag2,P,3,F,7,5,0.37,0.5,1.47,LR
3,343,2,BP8_49,BP8,49,Lag8,Y,3,A,2,11,0.43,1.1,2.13,HR
3,344,2,RP2_57,RP2,57,Lag2,G,2,H,7,5,0.68,0.5,1.78,NR
3,345,2,RP2_52,RP2,52,Lag2,A,6,H,3,5,0.55,0.5,1.65,NR
3,346,2,RP8_53,RP8,53,Lag8,V,3,M,4,11,0.7,1.1,2.4,NR
3,347,2,BP8_50,BP8,50,Lag8,A,6,W,7,11,0.3,1.1,2,HR
3,348,2,BP2_51,BP2,51,Lag2,C,6,J,7,5,0.47,0.5,1.57,HR
3,349,2,BP8_43,BP8,43,Lag8,W,7,P,4,11,0.58,1.1,2.28,HR
3,350,2,RP2_59,RP2,59,Lag2,A,4,Y,2,5,0.52,0.5,1.62,NR
3,351,2,GP2_53,GP2,53,Lag2,K,3,J,7,5,0.47,0.5,1.57,LR
3,352,2,RP8_37,RP8,37,Lag8,J,6,B,4,11,0.6,1.1,2.3,NR
3,353,2,BP8_39,BP8,39,Lag8,L,4,G,3,11,0.53,1.1,2.23,HR
3,354,2,BP2_60,BP2,60,Lag2,B,7,Y,3,5,0.35,0.5,1.45,HR
3,355,2,GP8_58,GP8,58,Lag8,G,2,C,7,11,0.58,1.1,2.28,LR
3,356,2,RP2_47,RP2,47,Lag2,V,4,B,6,5,0.57,0.5,1.67,NR
3,357,2,BP8_59,BP8,59,Lag8,R,6,G,2,11,0.45,1.1,2.15,HR
3,358,2,GP2_37,GP2,37,Lag2,K,2,Y,3,5,0.62,0.5,1.72,LR
3,359,2,GP2_52,GP2,52,Lag2,L,2,B,7,5,0.5,0.5,1.6,LR
3,360,2,RP8_59,RP8,59,Lag8,U,4,A,6,11,0.67,1.1,2.37,NR