trial_number,block,trial_type,SpTr,SpNum,T1,D1,T2,D2,Colour,Lag
1,1,RP8_6,RP8,6,L,6,V,3,red,Lag8
2,1,GP2_9,GP2,9,A,6,B,4,green,Lag2
3,1,GP8_3,GP8,3,N,6,A,3,green,Lag8
4,1,RP2_2,RP2,2,P,4,X,7,red,Lag2
5,1,BP2_4,BP2,4,Y,6,K,3,blue,Lag2
6,1,RP8_7,RP8,7,F,3,R,2,red,Lag8
7,1,RP8_5,RP8,5,B,7,V,2,red,Lag8
8,1,RP2_1,RP2,1,A,3,E,4,red,Lag2
9,1,RP2_8,RP2,8,M,7,H,4,red,Lag2
10,1,BP8_5,BP8,5,H,2,N,6,blue,Lag8
11,1,BP8_7,BP8,7,K,6,A,3,blue,Lag8
12,1,BP8_4,BP8,4,W,4,R,7,blue,Lag8
13,1,BP2_3,BP2,3,G,6,H,3,blue,Lag2
14,1,RP8_2,RP8,2,G,6,Y,2,red,Lag8
15,1,GP2_6,GP2,6,B,7,W,3,green,Lag2
16,1,GP2_2,GP2,2,H,2,X,4,green,Lag2
17,1,GP2_7,GP2,7,A,3,R,4,green,Lag2
18,1,BP8_10,BP8,10,B,6,M,2,blue,Lag8
19,1,RP8_9,RP8,9,A,3,G,7,red,Lag8
20,1,RP2_7,RP2,7,K,6,C,4,red,Lag2
21,1,BP8_2,BP8,2,M,6,L,4,blue,Lag8
22,1,RP2_10,RP2,10,F,7,K,4,red,Lag2
23,1,BP2_9,BP2,9,R,4,Y,6,blue,Lag2
24,1,BP2_10,BP2,10,K,3,M,4,blue,Lag2
25,1,BP2_5,BP2,5,L,6,B,4,blue,Lag2
26,1,BP8_9,BP8,9,W,3,A,7,blue,Lag8
27,1,RP8_4,RP8,4,E,2,J,6,red,Lag8
28,1,BP2_6,BP2,6,X,3,J,6,blue,Lag2
29,1,RP8_10,RP8,10,U,4,H,6,red,Lag8
30,1,RP2_6,RP2,6,U,3,N,2,red,Lag2
31,1,GP2_4,GP2,4,C,2,M,4,green,Lag2
32,1,BP2_8,BP2,8,R,4,K,7,blue,Lag2
33,1,GP8_2,GP8,2,V,6,U,7,green,Lag8
34,1,GP8_7,GP8,7,L,7,X,3,green,Lag8
35,1,RP2_4,RP2,4,F,4,L,3,red,Lag2
36,1,GP8_6,GP8,6,V,7,J,3,green,Lag8
37,1,RP2_5,RP2,5,P,7,X,4,red,Lag2
38,1,BP2_7,BP2,7,C,3,A,7,blue,Lag2
39,1,GP8_4,GP8,4,X,2,W,3,green,Lag8
40,1,RP8_1,RP8,1,M,3,L,6,red,Lag8
41,1,BP8_1,BP8,1,W,3,K,7,blue,Lag8
42,1,BP8_8,BP8,8,V,3,C,4,blue,Lag8
43,1,GP2_8,GP2,8,Y,3,H,7,green,Lag2
44,1,GP8_8,GP8,8,R,3,A,7,green,Lag8
45,1,GP2_1,GP2,1,X,3,N,2,green,Lag2
46,1,GP2_3,GP2,3,V,3,X,2,green,Lag2
47,1,GP8_10,GP8,10,M,6,Y,4,green,Lag8
48,1,BP8_3,BP8,3,G,4,F,6,blue,Lag8
49,1,BP8_6,BP8,6,U,7,K,3,blue,Lag8
50,1,BP2_1,BP2,1,N,3,Y,7,blue,Lag2
51,1,GP8_9,GP8,9,C,4,H,2,green,Lag8
52,1,RP2_3,RP2,3,X,7,L,2,red,Lag2
53,1,GP8_5,GP8,5,H,4,K,2,green,Lag8
54,1,RP2_9,RP2,9,K,2,U,7,red,Lag2
55,1,GP2_5,GP2,5,Y,4,R,2,green,Lag2
56,1,GP8_1,GP8,1,X,7,A,4,green,Lag8
57,1,BP2_2,BP2,2,L,4,E,7,blue,Lag2
58,1,RP8_3,RP8,3,C,3,M,6,red,Lag8
59,1,RP8_8,RP8,8,G,6,N,2,red,Lag8
60,1,GP2_10,GP2,10,X,6,U,4,green,Lag2
61,2,RP8_18,RP8,18,E,7,J,6,red,Lag8
62,2,RP2_14,RP2,14,P,3,F,6,red,Lag2
63,2,GP2_13,GP2,13,W,3,C,6,green,Lag2
64,2,BP8_12,BP8,12,P,7,H,2,blue,Lag8
65,2,BP2_11,BP2,11,C,2,U,6,blue,Lag2
66,2,BP2_14,BP2,14,C,3,P,7,blue,Lag2
67,2,BP8_18,BP8,18,A,3,U,4,blue,Lag8
68,2,RP8_20,RP8,20,N,4,L,7,red,Lag8
69,2,GP8_12,GP8,12,A,3,U,6,green,Lag8
70,2,RP8_15,RP8,15,P,4,F,3,red,Lag8
71,2,RP2_20,RP2,20,C,2,U,3,red,Lag2
72,2,RP8_13,RP8,13,F,7,J,6,red,Lag8
73,2,GP8_13,GP8,13,Y,2,R,4,green,Lag8
74,2,GP2_19,GP2,19,N,6,C,2,green,Lag2
75,2,BP8_17,BP8,17,P,2,E,4,blue,Lag8
76,2,GP2_11,GP2,11,A,3,X,7,green,Lag2
77,2,GP8_15,GP8,15,E,4,H,6,green,Lag8
78,2,BP8_15,BP8,15,J,2,M,4,blue,Lag8
79,2,RP2_15,RP2,15,P,7,X,6,red,Lag2
80,2,RP8_17,RP8,17,C,4,E,7,red,Lag8
81,2,RP8_11,RP8,11,B,6,P,4,red,Lag8
82,2,GP2_17,GP2,17,U,6,G,2,green,Lag2
83,2,BP2_15,BP2,15,F,7,W,2,blue,Lag2
84,2,RP8_19,RP8,19,U,7,V,3,red,Lag8
85,2,GP2_16,GP2,16,B,2,G,4,green,Lag2
86,2,GP8_17,GP8,17,U,3,H,4,green,Lag8
87,2,RP8_16,RP8,16,E,6,N,3,red,Lag8
88,2,GP2_15,GP2,15,V,7,L,2,green,Lag2
89,2,BP8_13,BP8,13,C,3,E,7,blue,Lag8
90,2,RP2_19,RP2,19,B,3,H,6,red,Lag2
91,2,BP8_19,BP8,19,U,7,C,2,blue,Lag8
92,2,RP8_12,RP8,12,X,6,A,2,red,Lag8
93,2,GP2_18,GP2,18,J,2,W,7,green,Lag2
94,2,RP2_18,RP2,18,B,6,K,4,red,Lag2
95,2,GP8_19,GP8,19,R,7,F,3,green,Lag8
96,2,GP2_20,GP2,20,L,4,X,3,green,Lag2
97,2,GP2_14,GP2,14,W,3,R,4,green,Lag2
98,2,BP8_14,BP8,14,H,7,R,6,blue,Lag8
99,2,BP2_19,BP2,19,F,6,M,4,blue,Lag2
100,2,BP8_20,BP8,20,F,2,Y,6,blue,Lag8
101,2,GP8_18,GP8,18,Y,6,A,7,green,Lag8
102,2,RP2_13,RP2,13,G,6,L,7,red,Lag2
103,2,BP8_11,BP8,11,G,3,V,4,blue,Lag8
104,2,GP8_11,GP8,11,V,7,E,2,green,Lag8
105,2,BP2_17,BP2,17,F,3,J,4,blue,Lag2
106,2,BP2_13,BP2,13,W,7,B,3,blue,Lag2
107,2,RP2_16,RP2,16,L,7,M,6,red,Lag2
108,2,GP8_14,GP8,14,M,7,Y,6,green,Lag8
109,2,RP8_14,RP8,14,J,4,N,6,red,Lag8
110,2,GP8_20,GP8,20,E,2,R,6,green,Lag8
111,2,BP2_18,BP2,18,Y,4,F,7,blue,Lag2
112,2,GP8_16,GP8,16,U,4,V,3,green,Lag8
113,2,RP2_17,RP2,17,J,3,A,4,red,Lag2
114,2,RP2_12,RP2,12,C,4,U,7,red,Lag2
115,2,GP2_12,GP2,12,H,7,W,2,green,Lag2
116,2,BP2_16,BP2,16,R,4,J,7,blue,Lag2
117,2,BP2_12,BP2,12,L,3,K,6,blue,Lag2
118,2,RP2_11,RP2,11,F,7,W,4,red,Lag2
119,2,BP2_20,BP2,20,A,7,M,2,blue,Lag2
120,2,BP8_16,BP8,16,F,3,V,4,blue,Lag8