Group,Reward,SOA,T1,T2,D1,D2,T2Col,Block,TrialNum
5,1,6,C,V,7,4,green,4,1
5,2,6,P,H,9,4,red,4,2
5,1,6,H,U,7,6,green,4,3
5,3,36,P,F,3,6,blue ,4,4
5,3,6,K,P,4,7,blue ,4,5
5,3,6,W,N,3,9,blue ,4,6
5,3,36,X,E,7,2,blue ,4,7
5,2,36,L,E,9,6,red,4,8
5,2,36,R,A,3,2,red,4,9
5,2,36,K,F,4,2,red,4,10
5,1,6,C,A,2,9,green,4,11
5,1,6,B,A,7,9,green,4,12
5,1,36,K,M,9,4,green,4,13
5,3,6,V,X,7,3,blue ,4,14
5,3,36,E,G,6,7,blue ,4,15
5,2,6,A,E,2,3,red,4,16
5,2,6,A,N,6,3,red,4,17
5,3,36,N,M,4,7,blue ,4,18
5,1,36,R,L,6,7,green,4,19
5,3,6,M,H,6,7,blue ,4,20
5,3,36,E,H,9,4,blue ,4,21
5,1,6,M,G,4,9,green,4,22
5,2,6,K,N,4,3,red,4,23
5,3,6,P,J,9,7,blue ,4,24
5,1,6,F,C,7,2,green,4,25
5,3,36,P,N,2,3,blue ,4,26
5,1,6,W,K,7,2,green,4,27
5,3,36,A,P,9,4,blue ,4,28
5,1,36,G,M,3,4,green,4,29
5,3,36,R,V,3,9,blue ,4,30
5,3,6,W,J,9,3,blue ,4,31
5,2,6,C,Y,9,2,red,4,32
5,2,6,R,K,9,2,red,4,33
5,1,36,V,B,2,7,green,4,34
5,2,36,E,L,4,2,red,4,35
5,3,6,P,X,7,9,blue ,4,36
5,2,36,K,G,9,4,red,4,37
5,1,6,K,V,3,2,green,4,38
5,1,6,B,F,2,9,green,4,39
5,1,36,N,V,3,4,green,4,40
5,2,36,C,N,9,4,red,4,41
5,2,6,L,Y,6,7,red,4,42
5,3,6,B,V,3,6,blue ,4,43
5,2,6,U,H,9,7,red,4,44
5,2,36,V,B,4,9,red,4,45
5,2,6,L,K,3,9,red,4,46
5,3,36,W,J,3,2,blue ,4,47
5,1,36,G,L,2,3,green,4,48
5,3,36,C,J,7,4,blue ,4,49
5,2,6,L,F,9,7,red,4,50
5,1,36,B,F,7,3,green,4,51
5,2,36,B,F,4,6,red,4,52
5,2,6,H,P,7,4,red,4,53
5,1,36,N,L,3,4,green,4,54
5,1,6,K,W,6,4,green,4,55
5,1,36,R,M,3,4,green,4,56
5,1,36,R,C,9,4,green,4,57
5,2,6,K,X,3,6,red,4,58
5,3,6,A,E,9,3,blue ,4,59
5,3,36,N,C,2,9,blue ,4,60
5,1,6,E,W,4,6,green,4,61
5,2,6,G,H,6,2,red,4,62
5,3,36,L,U,6,9,blue ,4,63
5,3,36,M,K,4,3,blue ,4,64
5,1,36,C,L,2,9,green,4,65
5,3,6,J,L,2,6,blue ,4,66
5,2,6,V,N,7,2,red,4,67
5,1,36,L,P,9,3,green,4,68
5,3,36,X,K,2,6,blue ,4,69
5,1,6,Y,B,3,4,green,4,70
5,1,36,W,P,3,9,green,4,71
5,2,36,L,N,4,7,red,4,72
5,1,6,C,R,2,7,green,4,73
5,1,36,A,J,7,9,green,4,74
5,1,6,K,G,2,7,green,4,75
5,3,6,X,N,6,3,blue ,4,76
5,3,36,E,X,9,2,blue ,4,77
5,2,6,F,A,2,6,red,4,78
5,1,6,V,W,3,9,green,4,79
5,2,36,B,X,9,7,red,4,80
5,2,6,F,K,9,2,red,4,81
5,1,36,J,K,4,7,green,4,82
5,2,6,B,X,7,9,red,4,83
5,3,6,V,Y,2,9,blue ,4,84
5,2,6,N,L,9,7,red,4,85
5,1,6,L,F,9,2,green,4,86
5,3,36,L,G,4,6,blue ,4,87
5,1,6,F,K,6,3,green,4,88
5,3,36,H,Y,6,9,blue ,4,89
5,1,36,C,B,6,3,green,4,90
5,1,36,K,E,7,9,green,4,91
5,2,36,G,F,2,6,red,4,92
5,1,36,V,M,6,7,green,4,93
5,2,6,B,C,3,9,red,4,94
5,3,6,E,X,9,3,blue ,4,95
5,2,36,B,E,6,3,red,4,96
5,1,6,E,P,2,4,green,4,97
5,1,36,X,J,6,3,green,4,98
5,1,6,X,R,2,9,green,4,99
5,1,6,C,U,7,6,green,4,100
5,2,6,X,R,3,7,red,4,101
5,1,36,G,L,3,2,green,4,102
5,1,36,G,X,4,9,green,4,103
5,2,36,C,B,9,3,red,4,104
5,3,6,K,V,6,2,blue ,4,105
5,1,36,H,J,4,6,green,4,106
5,3,6,G,P,6,3,blue ,4,107
5,1,6,A,N,9,7,green,4,108
5,3,6,M,J,9,3,blue ,4,109
5,2,36,J,X,2,7,red,4,110
5,3,36,R,V,6,2,blue ,4,111
5,3,6,H,Y,9,7,blue ,4,112
5,2,36,U,G,4,7,red,4,113
5,3,36,M,C,3,4,blue ,4,114
5,3,6,X,P,9,2,blue ,4,115
5,3,6,J,W,9,3,blue ,4,116
5,1,6,Y,J,7,9,green,4,117
5,2,36,W,G,2,7,red,4,118
5,2,6,P,Y,6,9,red,4,119
5,1,6,A,B,4,2,green,4,120
5,3,36,H,F,4,6,blue ,4,121
5,3,36,Y,R,6,2,blue ,4,122
5,2,6,W,E,2,4,red,4,123
5,1,36,H,R,4,7,green,4,124
5,1,36,R,P,6,2,green,4,125
5,2,6,L,B,3,6,red,4,126
5,2,36,U,E,6,4,red,4,127
5,3,6,M,F,2,3,blue ,4,128
5,2,36,L,A,3,2,red,4,129
5,2,36,G,F,6,4,red,4,130
5,2,6,B,J,2,7,red,4,131
5,2,36,N,F,6,3,red,4,132
5,1,6,G,X,3,7,green,4,133
5,1,6,G,E,9,7,green,4,134
5,3,6,A,G,2,3,blue ,4,135
5,2,36,F,E,7,4,red,4,136
5,3,6,J,X,3,7,blue ,4,137
5,1,6,R,F,9,6,green,4,138
5,2,6,M,C,3,6,red,4,139
5,1,36,G,L,4,9,green,4,140
5,2,36,L,W,7,9,red,4,141
5,1,36,Y,L,2,7,green,4,142
5,2,36,X,A,6,7,red,4,143
5,1,36,P,G,4,2,green,4,144
5,2,36,N,R,2,3,red,4,145
5,3,6,A,K,3,6,blue ,4,146
5,3,36,M,L,9,6,blue ,4,147
5,3,36,Y,H,4,2,blue ,4,148
5,1,6,P,A,4,6,green,4,149
5,2,6,A,G,4,2,red,4,150
5,1,36,P,L,3,7,green,4,151
5,3,6,A,B,4,3,blue ,4,152
5,3,6,E,K,2,6,blue ,4,153
5,2,36,P,R,4,6,red,4,154
5,2,36,P,C,9,4,red,4,155
5,1,36,G,R,3,2,green,4,156
5,3,6,H,V,2,6,blue ,4,157
5,2,36,V,P,3,9,red,4,158
5,2,36,C,U,6,9,red,4,159
5,3,36,K,G,9,2,blue ,4,160
5,2,6,U,V,6,7,red,4,161
5,2,6,U,C,4,6,red,4,162
5,3,36,H,A,4,7,blue ,4,163
5,2,6,A,R,7,9,red,4,164
5,3,36,B,E,7,4,blue ,4,165
5,1,6,F,V,2,7,green,4,166
5,1,6,G,F,9,7,green,4,167
5,3,6,M,C,9,7,blue ,4,168
5,1,36,G,W,6,3,green,4,169
5,2,36,K,M,3,4,red,4,170
5,3,36,E,V,4,9,blue ,4,171
5,3,6,B,M,2,9,blue ,4,172
5,2,6,B,C,6,9,red,4,173
5,3,36,E,L,6,7,blue ,4,174
5,3,6,U,H,3,9,blue ,4,175
5,3,36,V,J,6,2,blue ,4,176
5,1,6,P,L,7,6,green,4,177
5,3,6,H,J,9,3,blue ,4,178
5,3,36,G,Y,6,3,blue ,4,179
5,2,36,U,B,2,9,red,4,180
