Group,Reward,SOA,T1,T2,D1,D2,T2Col,Block,TrialNum
4,3,36,B,W,9,7,red,2,1
4,1,6,L,H,9,4,blue,2,2
4,1,6,B,Y,4,9,blue,2,3
4,2,36,J,G,7,2,green,2,4
4,2,6,B,K,2,4,green,2,5
4,2,6,U,C,3,7,green,2,6
4,3,36,Y,G,4,9,red,2,7
4,3,36,L,R,9,2,red,2,8
4,1,36,M,G,9,6,blue,2,9
4,1,6,H,G,3,2,blue,2,10
4,2,6,G,X,3,9,green,2,11
4,2,6,E,H,7,3,green,2,12
4,2,6,C,M,9,3,green,2,13
4,1,6,L,G,7,2,blue,2,14
4,3,36,V,E,2,6,red,2,15
4,1,6,J,C,6,3,blue,2,16
4,2,6,P,R,2,3,green,2,17
4,2,6,L,F,2,6,green,2,18
4,2,36,W,J,7,4,green,2,19
4,2,36,P,G,3,9,green,2,20
4,3,36,P,U,2,3,red,2,21
4,1,6,W,P,2,3,blue,2,22
4,3,36,J,F,6,3,red,2,23
4,3,6,L,V,3,2,red,2,24
4,2,36,R,G,9,4,green,2,25
4,3,6,N,M,4,2,red,2,26
4,2,6,H,M,4,3,green,2,27
4,3,6,K,N,4,7,red,2,28
4,3,36,P,G,6,7,red,2,29
4,3,36,H,L,2,9,red,2,30
4,2,6,X,A,2,6,green,2,31
4,3,6,C,Y,3,9,red,2,32
4,2,36,M,V,7,9,green,2,33
4,2,6,L,V,2,7,green,2,34
4,2,6,U,L,7,6,green,2,35
4,3,36,H,W,9,6,red,2,36
4,2,36,R,C,9,4,green,2,37
4,3,36,F,K,9,2,red,2,38
4,1,6,B,R,7,4,blue,2,39
4,3,36,N,W,7,6,red,2,40
4,1,36,F,B,7,4,blue,2,41
4,2,6,V,B,9,7,green,2,42
4,1,6,B,G,7,2,blue,2,43
4,2,36,G,K,9,3,green,2,44
4,3,6,M,P,9,3,red,2,45
4,3,6,X,N,3,7,red,2,46
4,2,6,F,W,3,4,green,2,47
4,1,36,B,K,6,9,blue,2,48
4,1,6,J,E,7,2,blue,2,49
4,3,6,V,L,9,7,red,2,50
4,1,36,F,C,2,6,blue,2,51
4,1,6,Y,C,7,9,blue,2,52
4,3,6,C,X,7,2,red,2,53
4,1,6,B,W,3,9,blue,2,54
4,1,6,Y,J,7,4,blue,2,55
4,2,6,B,J,6,9,green,2,56
4,2,36,E,F,9,4,green,2,57
4,3,6,C,Y,7,9,red,2,58
4,2,36,C,E,4,3,green,2,59
4,1,6,V,A,7,2,blue,2,60
4,1,6,F,G,3,6,blue,2,61
4,2,6,V,P,3,2,green,2,62
4,3,36,B,M,9,7,red,2,63
4,3,36,R,P,3,4,red,2,64
4,2,6,A,W,9,2,green,2,65
4,2,36,J,U,7,2,green,2,66
4,3,6,Y,J,2,6,red,2,67
4,3,6,F,H,3,4,red,2,68
4,3,6,N,K,4,9,red,2,69
4,3,36,L,X,4,6,red,2,70
4,3,36,G,B,4,9,red,2,71
4,3,6,P,Y,9,6,red,2,72
4,3,6,R,N,2,6,red,2,73
4,3,36,H,F,9,6,red,2,74
4,3,6,J,R,9,6,red,2,75
4,1,6,K,P,7,6,blue,2,76
4,2,36,R,C,3,6,green,2,77
4,1,36,B,C,3,6,blue,2,78
4,1,6,G,F,9,6,blue,2,79
4,3,6,F,N,2,9,red,2,80
4,1,6,X,G,3,9,blue,2,81
4,2,6,W,C,7,2,green,2,82
4,2,36,X,P,4,7,green,2,83
4,3,6,G,K,7,9,red,2,84
4,2,6,J,V,3,9,green,2,85
4,2,36,L,J,9,7,green,2,86
4,3,6,X,G,2,9,red,2,87
4,1,36,E,L,9,3,blue,2,88
4,3,6,L,M,4,2,red,2,89
4,3,36,A,B,4,7,red,2,90
4,1,36,V,L,7,9,blue,2,91
4,2,36,L,W,3,6,green,2,92
4,1,36,U,L,3,7,blue,2,93
4,3,36,K,H,4,2,red,2,94
4,3,6,C,N,2,6,red,2,95
4,3,36,F,M,4,7,red,2,96
4,1,6,V,C,7,6,blue,2,97
4,2,36,N,G,3,4,green,2,98
4,1,6,R,H,9,2,blue,2,99
4,1,6,H,N,7,9,blue,2,100
4,2,36,U,V,7,6,green,2,101
4,1,36,V,C,7,9,blue,2,102
4,1,6,E,H,7,9,blue,2,103
4,3,6,L,J,6,9,red,2,104
4,1,6,F,C,3,4,blue,2,105
4,1,6,N,L,2,7,blue,2,106
4,1,36,R,X,7,3,blue,2,107
4,2,6,V,A,9,7,green,2,108
4,2,6,R,C,4,2,green,2,109
4,3,36,H,M,3,2,red,2,110
4,1,36,V,L,6,4,blue,2,111
4,1,6,P,E,4,2,blue,2,112
4,2,36,M,B,6,3,green,2,113
4,1,6,V,P,9,3,blue,2,114
4,2,36,F,U,7,3,green,2,115
4,1,36,R,W,4,7,blue,2,116
4,2,36,U,A,7,3,green,2,117
4,1,36,A,K,9,7,blue,2,118
4,2,36,W,B,4,2,green,2,119
4,1,36,J,E,2,7,blue,2,120
4,3,36,B,V,4,9,red,2,121
4,1,6,P,W,7,2,blue,2,122
4,2,36,L,R,9,4,green,2,123
4,2,6,E,X,9,6,green,2,124
4,2,36,X,N,7,9,green,2,125
4,1,36,C,U,6,9,blue,2,126
4,2,36,W,P,4,6,green,2,127
4,2,36,B,G,7,3,green,2,128
4,1,36,Y,A,3,7,blue,2,129
4,1,36,K,C,9,2,blue,2,130
4,3,36,V,R,3,6,red,2,131
4,1,36,X,J,9,3,blue,2,132
4,1,36,U,X,6,2,blue,2,133
4,3,6,B,A,6,2,red,2,134
4,2,36,M,X,4,9,green,2,135
4,3,36,N,Y,6,4,red,2,136
4,2,6,G,P,4,9,green,2,137
4,3,6,A,V,4,6,red,2,138
4,3,6,Y,N,2,3,red,2,139
4,3,36,W,M,9,2,red,2,140
4,3,36,C,L,7,2,red,2,141
4,1,36,P,U,3,2,blue,2,142
4,2,6,F,A,6,7,green,2,143
4,3,36,N,H,2,7,red,2,144
4,3,36,G,X,9,7,red,2,145
4,3,6,H,P,6,7,red,2,146
4,1,36,A,W,3,4,blue,2,147
4,2,36,A,E,3,4,green,2,148
4,2,6,G,A,6,7,green,2,149
4,1,36,W,R,2,6,blue,2,150
4,2,6,U,L,9,2,green,2,151
4,3,36,E,R,7,9,red,2,152
4,2,36,V,A,9,3,green,2,153
4,1,6,C,V,7,3,blue,2,154
4,1,36,M,Y,6,4,blue,2,155
4,2,6,U,X,2,6,green,2,156
4,1,36,H,K,3,4,blue,2,157
4,3,36,V,F,4,2,red,2,158
4,2,36,H,J,9,4,green,2,159
4,1,6,P,F,2,3,blue,2,160
4,2,6,K,Y,3,7,green,2,161
4,3,6,J,G,2,7,red,2,162
4,1,36,P,K,3,4,blue,2,163
4,2,6,U,W,2,4,green,2,164
4,1,36,Y,L,9,6,blue,2,165
4,3,6,N,V,9,4,red,2,166
4,2,36,F,J,4,7,green,2,167
4,2,6,B,U,4,2,green,2,168
4,2,6,G,F,2,6,green,2,169
4,1,36,H,G,4,2,blue,2,170
4,1,6,A,H,9,6,blue,2,171
4,3,36,E,V,6,2,red,2,172
4,1,36,L,V,6,9,blue,2,173
4,1,36,U,K,7,9,blue,2,174
4,3,6,J,F,9,3,red,2,175
4,3,6,X,R,4,9,red,2,176
4,1,6,A,F,9,4,blue,2,177
4,3,6,P,Y,7,3,red,2,178
4,1,36,G,K,7,9,blue,2,179
4,2,36,Y,F,7,4,green,2,180
