Rec_Session_Id,Trial_Nr,Trial_Id,Block_Name,Block_Nr,Task_Name,Task_Nr,ACC,ACC_Total_Prac,Age,BlkTrial_Nr,Condition_Id,Consent,Contact,copy_of_factor1_tg1_task2,Email,factor1_tg1_task2,Fdbck_Slow,Feedback,MatricNo,Name,PAYNOW,Recontact,RESP,RESP_Frame,Reward,RT_FromFramePress,Sex,SlowResp,Targ,TargCol,TargPos,Testing_BreakCount,Testing_Progress,TotalMoney,TotalPoints,TotalPoints_prac,Trial_Nr_prac,Trng_BreakCount,Trng_Progress
602071,1,1,block_End,5,task_Demog_End,1,"","",28,"",1,"","","","","","","","","","","","","","","",Male,"","","","","","","","","","","",""
602071,1,1,block_TrngInstructions,1,task_Trng_Instructions,1,"","","","",1,"","","","","","","","","","","","","","","","","","","","","","","","","","","",""
602071,1,1,block_Trng,3,task_Trng_End,3,"","","","",1,"","","","","","","","","","","","","","","","","","","","","","",3.68,1082,"","","",""
602071,1,1,block_Practice,2,task_Trng_Prac,2,0,0,"","",1,"","","","","",Slow!,"","","","","",K,PreISI2,Disallowed,270,"",1,J,blue,12,"","","",0,0,"","",""
602071,2,2,block_Practice,2,task_Trng_Prac,2,0,0,"","",1,"","","","","","","","","","","",J,Stim11,Disallowed,71,"",1,K,red,8,"","","",0,0,"","",""
602071,3,3,block_Practice,2,task_Trng_Prac,2,0,0,"","",1,"","","","","","","","","","","",K,Stim12,Disallowed,56,"",1,J,green,9,"","","",0,0,"","",""
602071,4,4,block_Practice,2,task_Trng_Prac,2,0,0,"","",1,"","","","","","","","","","","",K,Stim15,Disallowed,78,"",1,J,blue,13,"","","",0,0,"","",""
602071,5,5,block_Practice,2,task_Trng_Prac,2,0,0,"","",1,"","","","","","","","","","","",J,Stim12,Disallowed,59,"",1,K,red,10,"","","",0,0,"","",""
602071,6,6,block_Practice,2,task_Trng_Prac,2,0,0,"","",1,"","","","","","","","","","","",J,Stim15,Disallowed,77,"",1,K,green,11,"","","",0,0,"","",""
602071,1,1,block_Testing,4,task_Testing_Instructions,1,"","","","",1,"","","","","","","","","","","","","","","","","","","","","","","","","","","",""
602071,1,1,block_Testing,4,task_Testing,2,1,"","",1,1,"","",Block1,"","","","","","","","",K,Stim16,HR,11,"",0,K,green,13,0,0.56,"",1082,"","","",""
602071,2,2,block_Testing,4,task_Testing,2,1,"","",2,1,"","",Block1,"","","","","","","","",K,Stim12,LR,42,"",0,K,red,9,0,1.11,"",1082,"","","",""
602071,3,3,block_Testing,4,task_Testing,2,1,"","",3,1,"","",Block1,"","","","","","","","",K,Stim13,HR,103,"",0,K,green,11,0,1.67,"",1082,"","","",""
602071,4,4,block_Testing,4,task_Testing,2,0,"","",4,1,"","",Block1,"","","","","","","","",K,Stim12,NR,1,"",0,J,blue,9,0,2.22,"",1082,"","","",""
602071,5,5,block_Testing,4,task_Testing,2,0,"","",5,1,"","",Block1,"","","","","","","","",K,Stim14,HR,114,"",0,J,green,12,0,2.78,"",1082,"","","",""
602071,6,6,block_Testing,4,task_Testing,2,0,"","",6,1,"","",Block1,"","","","","","","","",J,Stim14,NR,119,"",0,K,blue,12,0,3.33,"",1082,"","","",""
602071,7,7,block_Testing,4,task_Testing,2,1,"","",7,1,"","",Block1,"","","","","","","","",J,Stim14,NR,84,"",0,J,blue,11,0,3.89,"",1082,"","","",""
602071,8,8,block_Testing,4,task_Testing,2,1,"","",8,1,"","",Block1,"","","","","","","","",K,Stim13,LR,40,"",0,K,red,11,0,4.44,"",1082,"","","",""
602071,9,9,block_Testing,4,task_Testing,2,1,"","",9,1,"","",Block1,"","","","","","","","",K,Stim11,NR,8,"",0,K,blue,8,0,5,"",1082,"","","",""
602071,10,10,block_Testing,4,task_Testing,2,1,"","",10,1,"","",Block1,"","","","","","","","",J,PreISI1,NR,64,"",0,J,blue,13,0,5.56,"",1082,"","","",""
602071,11,11,block_Testing,4,task_Testing,2,1,"","",11,1,"","",Block1,"","","","","","","","",J,Stim11,LR,40,"",0,J,red,8,0,6.11,"",1082,"","","",""
602071,12,12,block_Testing,4,task_Testing,2,1,"","",12,1,"","",Block1,"","","","","","","","",J,Stim16,LR,2,"",0,J,red,12,0,6.67,"",1082,"","","",""
602071,13,13,block_Testing,4,task_Testing,2,1,"","",13,1,"","",Block1,"","","","","","","","",K,Stim13,NR,69,"",0,K,blue,10,0,7.22,"",1082,"","","",""
602071,14,14,block_Testing,4,task_Testing,2,1,"","",14,1,"","",Block1,"","","","","","","","",K,Stim12,HR,45,"",0,K,green,9,0,7.78,"",1082,"","","",""
602071,15,15,block_Testing,4,task_Testing,2,1,"","",15,1,"","",Block1,"","","","","","","","",K,Stim13,LR,111,"",0,K,red,13,0,8.33,"",1082,"","","",""
602071,16,16,block_Testing,4,task_Testing,2,1,"","",16,1,"","",Block1,"","","","","","","","",J,Stim14,LR,72,"",0,J,red,10,0,8.89,"",1082,"","","",""
602071,17,17,block_Testing,4,task_Testing,2,0,"","",17,1,"","",Block1,"","","","","","","","",K,Stim12,HR,110,"",0,J,green,10,0,9.44,"",1082,"","","",""
602071,18,18,block_Testing,4,task_Testing,2,1,"","",18,1,"","",Block1,"","","","","","","","",J,Stim11,HR,19,"",0,J,green,8,0,10,"",1082,"","","",""
602071,19,19,block_Testing,4,task_Testing,2,1,"","",1,2,"","",Block2,"","","","","","","","",K,Stim13,HR,106,"",0,K,green,11,0,10.56,"",1082,"","","",""
602071,20,20,block_Testing,4,task_Testing,2,1,"","",2,2,"","",Block2,"","","","","","","","",J,Stim11,HR,67,"",0,J,green,8,0,11.11,"",1082,"","","",""
602071,21,21,block_Testing,4,task_Testing,2,1,"","",3,2,"","",Block2,"","","","","","","","",K,Stim15,NR,48,"",0,K,blue,12,0,11.67,"",1082,"","","",""
602071,22,22,block_Testing,4,task_Testing,2,1,"","",4,2,"","",Block2,"","","","","","","","",J,Stim15,LR,16,"",0,J,red,12,0,12.22,"",1082,"","","",""
602071,23,23,block_Testing,4,task_Testing,2,1,"","",5,2,"","",Block2,"","","","","","","","",K,Stim12,LR,32,"",0,K,red,9,0,12.78,"",1082,"","","",""
602071,24,24,block_Testing,4,task_Testing,2,1,"","",6,2,"","",Block2,"","","","","","","","",J,Stim11,LR,71,"",0,J,red,8,0,13.33,"",1082,"","","",""
602071,25,25,block_Testing,4,task_Testing,2,1,"","",7,2,"","",Block2,"","","","","","","","",J,Stim13,NR,45,"",0,J,blue,9,0,13.89,"",1082,"","","",""
602071,26,26,block_Testing,4,task_Testing,2,1,"","",8,2,"","",Block2,"","","","","","","","",K,Stim16,LR,65,"",0,K,red,13,0,14.44,"",1082,"","","",""
602071,27,27,block_Testing,4,task_Testing,2,1,"","",9,2,"","",Block2,"","","","","","","","",K,Stim12,HR,79,"",0,K,green,9,0,15,"",1082,"","","",""
602071,28,28,block_Testing,4,task_Testing,2,1,"","",10,2,"","",Block2,"","","","","","","","",J,PreISI1,NR,14,"",0,J,blue,13,0,15.56,"",1082,"","","",""
602071,29,29,block_Testing,4,task_Testing,2,1,"","",11,2,"","",Block2,"","","","","","","","",J,Stim13,LR,47,"",0,J,red,10,0,16.11,"",1082,"","","",""
602071,30,30,block_Testing,4,task_Testing,2,1,"","",12,2,"","",Block2,"","","","","","","","",J,PreISI1,HR,161,"",0,J,green,12,0,16.67,"",1082,"","","",""
602071,31,31,block_Testing,4,task_Testing,2,1,"","",13,2,"","",Block2,"","","","","","","","",K,Stim13,NR,92,"",0,K,blue,10,0,17.22,"",1082,"","","",""
602071,32,32,block_Testing,4,task_Testing,2,1,"","",14,2,"","",Block2,"","","","","","","","",J,Stim13,HR,14,"",0,J,green,10,0,17.78,"",1082,"","","",""
602071,33,33,block_Testing,4,task_Testing,2,1,"","",15,2,"","",Block2,"","","","","","","","",K,Stim16,HR,37,"",0,K,green,13,0,18.33,"",1082,"","","",""
602071,34,34,block_Testing,4,task_Testing,2,1,"","",16,2,"","",Block2,"","","","","","","","",J,Stim14,NR,35,"",0,J,blue,11,0,18.89,"",1082,"","","",""
602071,35,35,block_Testing,4,task_Testing,2,1,"","",17,2,"","",Block2,"","","","","","","","",K,Stim14,LR,42,"",0,K,red,11,0,19.44,"",1082,"","","",""
602071,36,36,block_Testing,4,task_Testing,2,1,"","",18,2,"","",Block2,"","","","","","","","",K,Stim12,NR,14,"",0,K,blue,8,0,20,"",1082,"","","",""
602071,37,37,block_Testing,4,task_Testing,2,1,"","",1,3,"","",Block3,"","","","","","","","",K,Stim15,NR,119,"",0,K,blue,12,0,20.56,"",1082,"","","",""
602071,38,38,block_Testing,4,task_Testing,2,0,"","",2,3,"","",Block3,"","","","","","","","",K,Stim14,NR,50,"",0,J,blue,11,0,21.11,"",1082,"","","",""
602071,39,39,block_Testing,4,task_Testing,2,0,"","",3,3,"","",Block3,"","","","","","","","",K,Stim15,HR,20,"",0,J,green,12,0,21.67,"",1082,"","","",""
602071,40,40,block_Testing,4,task_Testing,2,1,"","",4,3,"","",Block3,"","","","","","","","",K,Stim13,NR,98,"",0,K,blue,10,0,22.22,"",1082,"","","",""
602071,41,41,block_Testing,4,task_Testing,2,1,"","",5,3,"","",Block3,"","","","","","","","",K,Stim12,HR,95,"",0,K,green,9,0,22.78,"",1082,"","","",""
602071,42,42,block_Testing,4,task_Testing,2,0,"","",6,3,"","",Block3,"","","","","","","","",J,Stim12,LR,61,"",0,K,red,9,0,23.33,"",1082,"","","",""
602071,43,43,block_Testing,4,task_Testing,2,1,"","",7,3,"","",Block3,"","","","","","","","",K,Stim13,HR,119,"",0,K,green,11,0,23.89,"",1082,"","","",""
602071,44,44,block_Testing,4,task_Testing,2,1,"","",8,3,"","",Block3,"","","","","","","","",K,Stim10,NR,118,"",0,K,blue,8,0,24.44,"",1082,"","","",""
602071,45,45,block_Testing,4,task_Testing,2,1,"","",9,3,"","",Block3,"","","","","","","","",K,Stim14,LR,29,"",0,K,red,11,0,25,"",1082,"","","",""
602071,46,46,block_Testing,4,task_Testing,2,1,"","",10,3,"","",Block3,"","","","","","","","",J,Stim13,HR,24,"",0,J,green,10,0,25.56,"",1082,"","","",""
602071,47,47,block_Testing,4,task_Testing,2,1,"","",11,3,"","",Block3,"","","","","","","","",J,Stim15,LR,93,"",0,J,red,12,0,26.11,"",1082,"","","",""
602071,48,48,block_Testing,4,task_Testing,2,1,"","",12,3,"","",Block3,"","","","","","","","",J,Stim13,LR,88,"",0,J,red,10,0,26.67,"",1082,"","","",""
602071,49,49,block_Testing,4,task_Testing,2,1,"","",13,3,"","",Block3,"","","","","","","","",K,Stim16,HR,17,"",0,K,green,13,0,27.22,"",1082,"","","",""
602071,50,50,block_Testing,4,task_Testing,2,1,"","",14,3,"","",Block3,"","","","","","","","",J,Stim11,HR,27,"",0,J,green,8,0,27.78,"",1082,"","","",""
602071,51,51,block_Testing,4,task_Testing,2,1,"","",15,3,"","",Block3,"","","","","","","","",J,PreISI1,NR,73,"",0,J,blue,13,0,28.33,"",1082,"","","",""
602071,52,52,block_Testing,4,task_Testing,2,0,"","",16,3,"","",Block3,"","","","","","","","",J,Stim16,LR,43,"",0,K,red,13,0,28.89,"",1082,"","","",""
602071,53,53,block_Testing,4,task_Testing,2,1,"","",17,3,"","",Block3,"","","","","","","","",J,Stim12,LR,82,"",0,J,red,8,0,29.44,"",1082,"","","",""
602071,54,54,block_Testing,4,task_Testing,2,1,"","",18,3,"","",Block3,"","","","","","","","",J,Stim13,NR,68,"",0,J,blue,9,1,30,"",1082,"","","",""
602071,55,55,block_Testing,4,task_Testing,2,1,"","",1,4,"","",Block4,"","","","","","","","",J,Stim13,LR,67,"",0,J,red,10,1,30.56,"",1082,"","","",""
602071,56,56,block_Testing,4,task_Testing,2,1,"","",2,4,"","",Block4,"","","","","","","","",K,Stim11,LR,103,"",0,K,red,9,1,31.11,"",1082,"","","",""
602071,57,57,block_Testing,4,task_Testing,2,1,"","",3,4,"","",Block4,"","","","","","","","",K,Stim13,NR,80,"",0,K,blue,10,1,31.67,"",1082,"","","",""
602071,58,58,block_Testing,4,task_Testing,2,1,"","",4,4,"","",Block4,"","","","","","","","",J,Stim16,NR,72,"",0,J,blue,13,1,32.22,"",1082,"","","",""
602071,59,59,block_Testing,4,task_Testing,2,1,"","",5,4,"","",Block4,"","","","","","","","",K,Stim16,LR,62,"",0,K,red,13,1,32.78,"",1082,"","","",""
602071,60,60,block_Testing,4,task_Testing,2,1,"","",6,4,"","",Block4,"","","","","","","","",J,Stim11,LR,96,"",0,J,red,8,1,33.33,"",1082,"","","",""
602071,61,61,block_Testing,4,task_Testing,2,1,"","",7,4,"","",Block4,"","","","","","","","",J,Stim15,LR,42,"",0,J,red,12,1,33.89,"",1082,"","","",""
602071,62,62,block_Testing,4,task_Testing,2,1,"","",8,4,"","",Block4,"","","","","","","","",K,Stim11,NR,13,"",0,K,blue,8,1,34.44,"",1082,"","","",""
602071,63,63,block_Testing,4,task_Testing,2,0,"","",9,4,"","",Block4,"","","","","","","","",J,Stim14,LR,33,"",0,K,red,11,1,35,"",1082,"","","",""
602071,64,64,block_Testing,4,task_Testing,2,1,"","",10,4,"","",Block4,"","","","","","","","",K,Stim12,HR,16,"",0,K,green,9,1,35.56,"",1082,"","","",""
602071,65,65,block_Testing,4,task_Testing,2,1,"","",11,4,"","",Block4,"","","","","","","","",K,Stim14,HR,21,"",0,K,green,11,1,36.11,"",1082,"","","",""
602071,66,66,block_Testing,4,task_Testing,2,1,"","",12,4,"","",Block4,"","","","","","","","",J,Stim12,HR,27,"",0,J,green,8,1,36.67,"",1082,"","","",""
602071,67,67,block_Testing,4,task_Testing,2,1,"","",13,4,"","",Block4,"","","","","","","","",J,Stim15,HR,105,"",0,J,green,12,1,37.22,"",1082,"","","",""
602071,68,68,block_Testing,4,task_Testing,2,1,"","",14,4,"","",Block4,"","","","","","","","",K,Stim15,NR,13,"",0,K,blue,12,1,37.78,"",1082,"","","",""
602071,69,69,block_Testing,4,task_Testing,2,1,"","",15,4,"","",Block4,"","","","","","","","",J,Stim13,HR,90,"",0,J,green,10,1,38.33,"",1082,"","","",""
602071,70,70,block_Testing,4,task_Testing,2,1,"","",16,4,"","",Block4,"","","","","","","","",J,Stim13,NR,73,"",0,J,blue,9,1,38.89,"",1082,"","","",""
602071,71,71,block_Testing,4,task_Testing,2,1,"","",17,4,"","",Block4,"","","","","","","","",J,Stim14,NR,82,"",0,J,blue,11,1,39.44,"",1082,"","","",""
602071,72,72,block_Testing,4,task_Testing,2,1,"","",18,4,"","",Block4,"","","","","","","","",K,Stim16,HR,22,"",0,K,green,13,1,40,"",1082,"","","",""
602071,73,73,block_Testing,4,task_Testing,2,0,"","",1,5,"","",Block5,"","","","","","","","",J,Stim14,HR,14,"",0,K,green,11,1,40.56,"",1082,"","","",""
602071,74,74,block_Testing,4,task_Testing,2,1,"","",2,5,"","",Block5,"","","","","","","","",K,Stim15,NR,58,"",0,K,blue,12,1,41.11,"",1082,"","","",""
602071,75,75,block_Testing,4,task_Testing,2,1,"","",3,5,"","",Block5,"","","","","","","","",J,Stim13,NR,74,"",0,J,blue,9,1,41.67,"",1082,"","","",""
602071,76,76,block_Testing,4,task_Testing,2,1,"","",4,5,"","",Block5,"","","","","","","","",K,Stim14,LR,86,"",0,K,red,11,1,42.22,"",1082,"","","",""
602071,77,77,block_Testing,4,task_Testing,2,1,"","",5,5,"","",Block5,"","","","","","","","",J,Stim13,LR,56,"",0,J,red,10,1,42.78,"",1082,"","","",""
602071,78,78,block_Testing,4,task_Testing,2,0,"","",6,5,"","",Block5,"","","","","","","","",K,Stim13,NR,71,"",0,J,blue,11,1,43.33,"",1082,"","","",""
602071,79,79,block_Testing,4,task_Testing,2,1,"","",7,5,"","",Block5,"","","","","","","","",K,Stim13,LR,103,"",0,K,red,9,1,43.89,"",1082,"","","",""
602071,80,80,block_Testing,4,task_Testing,2,1,"","",8,5,"","",Block5,"","","","","","","","",J,PreISI1,LR,64,"",0,J,red,8,1,44.44,"",1082,"","","",""
602071,81,81,block_Testing,4,task_Testing,2,0,"","",9,5,"","",Block5,"","","","","","","","",K,Stim15,NR,88,"",0,J,blue,13,1,45,"",1082,"","","",""
602071,82,82,block_Testing,4,task_Testing,2,1,"","",10,5,"","",Block5,"","","","","","","","",J,Stim15,HR,17,"",0,J,green,12,1,45.56,"",1082,"","","",""
602071,83,83,block_Testing,4,task_Testing,2,0,"","",11,5,"","",Block5,"","","","","","","","",J,Stim12,HR,17,"",0,K,green,9,1,46.11,"",1082,"","","",""
602071,84,84,block_Testing,4,task_Testing,2,0,"","",12,5,"","",Block5,"","","","","","","","",K,Stim14,LR,55,"",0,J,red,12,1,46.67,"",1082,"","","",""
602071,85,85,block_Testing,4,task_Testing,2,0,"","",13,5,"","",Block5,"","","","","","","","",J,Stim16,HR,15,"",0,K,green,13,1,47.22,"",1082,"","","",""
602071,86,86,block_Testing,4,task_Testing,2,1,"","",14,5,"","",Block5,"","","","","","","","",K,Stim12,NR,68,"",0,K,blue,8,1,47.78,"",1082,"","","",""
602071,87,87,block_Testing,4,task_Testing,2,1,"","",15,5,"","",Block5,"","","","","","","","",K,Stim16,LR,104,"",0,K,red,13,1,48.33,"",1082,"","","",""
602071,88,88,block_Testing,4,task_Testing,2,1,"","",16,5,"","",Block5,"","","","","","","","",J,Stim13,HR,114,"",0,J,green,8,1,48.89,"",1082,"","","",""
602071,89,89,block_Testing,4,task_Testing,2,0,"","",17,5,"","",Block5,"","","","","","","","",K,Stim13,HR,15,"",0,J,green,10,1,49.44,"",1082,"","","",""
602071,90,90,block_Testing,4,task_Testing,2,1,"","",18,5,"","",Block5,"","","","","","","","",K,Stim14,NR,13,"",0,K,blue,10,1,50,"",1082,"","","",""
602071,91,91,block_Testing,4,task_Testing,2,1,"","",1,6,"","",Block6,"","","","","","","","",K,Stim13,NR,20,"",0,K,blue,10,1,50.56,"",1082,"","","",""
602071,92,92,block_Testing,4,task_Testing,2,0,"","",2,6,"","",Block6,"","","","","","","","",J,Stim12,HR,37,"",0,K,green,9,1,51.11,"",1082,"","","",""
602071,93,93,block_Testing,4,task_Testing,2,1,"","",3,6,"","",Block6,"","","","","","","","",K,Stim15,LR,90,"",0,K,red,13,1,51.67,"",1082,"","","",""
602071,94,94,block_Testing,4,task_Testing,2,1,"","",4,6,"","",Block6,"","","","","","","","",J,Stim13,NR,2,"",0,J,blue,11,1,52.22,"",1082,"","","",""
602071,95,95,block_Testing,4,task_Testing,2,1,"","",5,6,"","",Block6,"","","","","","","","",J,Stim14,LR,112,"",0,J,red,12,1,52.78,"",1082,"","","",""
602071,96,96,block_Testing,4,task_Testing,2,1,"","",6,6,"","",Block6,"","","","","","","","",J,Stim13,HR,23,"",0,J,green,10,1,53.33,"",1082,"","","",""
602071,97,97,block_Testing,4,task_Testing,2,1,"","",7,6,"","",Block6,"","","","","","","","",J,Stim16,NR,42,"",0,J,blue,13,1,53.89,"",1082,"","","",""
602071,98,98,block_Testing,4,task_Testing,2,0,"","",8,6,"","",Block6,"","","","","","","","",J,Stim13,LR,90,"",0,K,red,11,1,54.44,"",1082,"","","",""
602071,99,99,block_Testing,4,task_Testing,2,1,"","",9,6,"","",Block6,"","","","","","","","",J,Stim13,NR,5,"",0,J,blue,9,1,55,"",1082,"","","",""
602071,100,100,block_Testing,4,task_Testing,2,1,"","",10,6,"","",Block6,"","","","","","","","",K,Stim12,NR,115,"",0,K,blue,8,1,55.56,"",1082,"","","",""
602071,101,101,block_Testing,4,task_Testing,2,0,"","",11,6,"","",Block6,"","","","","","","","",J,Stim13,HR,100,"",0,K,green,11,1,56.11,"",1082,"","","",""
602071,102,102,block_Testing,4,task_Testing,2,1,"","",12,6,"","",Block6,"","","","","","","","",J,Stim11,LR,76,"",0,J,red,8,1,56.67,"",1082,"","","",""
602071,103,103,block_Testing,4,task_Testing,2,1,"","",13,6,"","",Block6,"","","","","","","","",K,Stim11,LR,116,"",0,K,red,9,1,57.22,"",1082,"","","",""
602071,104,104,block_Testing,4,task_Testing,2,0,"","",14,6,"","",Block6,"","","","","","","","",J,Stim14,NR,84,"",0,K,blue,12,1,57.78,"",1082,"","","",""
602071,105,105,block_Testing,4,task_Testing,2,1,"","",15,6,"","",Block6,"","","","","","","","",J,Stim14,HR,84,"",0,J,green,8,1,58.33,"",1082,"","","",""
602071,106,106,block_Testing,4,task_Testing,2,1,"","",16,6,"","",Block6,"","","","","","","","",J,PreISI1,HR,252,"",0,J,green,12,1,58.89,"",1082,"","","",""
602071,107,107,block_Testing,4,task_Testing,2,0,"","",17,6,"","",Block6,"","","","","","","","",J,Stim16,HR,29,"",0,K,green,13,1,59.44,"",1082,"","","",""
602071,108,108,block_Testing,4,task_Testing,2,1,"","",18,6,"","",Block6,"","","","","","","","",J,Stim13,LR,57,"",0,J,red,10,2,60,"",1082,"","","",""
602071,109,109,block_Testing,4,task_Testing,2,1,"","",1,7,"","",Block7,"","","","","","","","",K,Stim12,NR,30,"",0,K,blue,8,2,60.56,"",1082,"","","",""
602071,110,110,block_Testing,4,task_Testing,2,0,"","",2,7,"","",Block7,"","","","","","","","",J,Stim14,LR,11,"",0,K,red,11,2,61.11,"",1082,"","","",""
602071,111,111,block_Testing,4,task_Testing,2,1,"","",3,7,"","",Block7,"","","","","","","","",K,Stim13,NR,11,"",0,K,blue,10,2,61.67,"",1082,"","","",""
602071,112,112,block_Testing,4,task_Testing,2,0,"","",4,7,"","",Block7,"","","","","","","","",K,Stim13,NR,14,"",0,J,blue,9,2,62.22,"",1082,"","","",""
602071,113,113,block_Testing,4,task_Testing,2,1,"","",5,7,"","",Block7,"","","","","","","","",J,Stim16,NR,102,"",0,J,blue,13,2,62.78,"",1082,"","","",""
602071,114,114,block_Testing,4,task_Testing,2,1,"","",6,7,"","",Block7,"","","","","","","","",K,Stim15,LR,70,"",0,K,red,13,2,63.33,"",1082,"","","",""
602071,115,115,block_Testing,4,task_Testing,2,1,"","",7,7,"","",Block7,"","","","","","","","",K,Stim13,HR,53,"",0,K,green,9,2,63.89,"",1082,"","","",""
602071,116,116,block_Testing,4,task_Testing,2,1,"","",8,7,"","",Block7,"","","","","","","","",J,Stim15,HR,118,"",0,J,green,12,2,64.44,"",1082,"","","",""
602071,117,117,block_Testing,4,task_Testing,2,0,"","",9,7,"","",Block7,"","","","","","","","",K,Stim15,LR,17,"",0,J,red,12,2,65,"",1082,"","","",""
602071,118,118,block_Testing,4,task_Testing,2,0,"","",10,7,"","",Block7,"","","","","","","","",J,Stim14,NR,114,"",0,K,blue,12,2,65.56,"",1082,"","","",""
602071,119,119,block_Testing,4,task_Testing,2,1,"","",11,7,"","",Block7,"","","","","","","","",K,Stim15,HR,105,"",0,K,green,13,2,66.11,"",1082,"","","",""
602071,120,120,block_Testing,4,task_Testing,2,0,"","",12,7,"","",Block7,"","","","","","","","",K,Stim14,HR,74,"",0,J,green,10,2,66.67,"",1082,"","","",""
602071,121,121,block_Testing,4,task_Testing,2,1,"","",13,7,"","",Block7,"","","","","","","","",K,Stim14,HR,52,"",0,K,green,11,2,67.22,"",1082,"","","",""
602071,122,122,block_Testing,4,task_Testing,2,1,"","",14,7,"","",Block7,"","","","","","","","",J,Stim13,LR,44,"",0,J,red,10,2,67.78,"",1082,"","","",""
602071,123,123,block_Testing,4,task_Testing,2,1,"","",15,7,"","",Block7,"","","","","","","","",J,Stim15,LR,44,"",0,J,red,8,2,68.33,"",1082,"","","",""
602071,124,124,block_Testing,4,task_Testing,2,1,"","",16,7,"","",Block7,"","","","","","","","",J,Stim15,NR,8,"",0,J,blue,11,2,68.89,"",1082,"","","",""
602071,125,125,block_Testing,4,task_Testing,2,1,"","",17,7,"","",Block7,"","","","","","","","",K,Stim12,LR,77,"",0,K,red,9,2,69.44,"",1082,"","","",""
602071,126,126,block_Testing,4,task_Testing,2,1,"","",18,7,"","",Block7,"","","","","","","","",J,Stim11,HR,61,"",0,J,green,8,2,70,"",1082,"","","",""
602071,127,127,block_Testing,4,task_Testing,2,1,"","",1,8,"","",Block8,"","","","","","","","",K,Stim15,NR,107,"",0,K,blue,12,2,70.56,"",1082,"","","",""
602071,128,128,block_Testing,4,task_Testing,2,1,"","",2,8,"","",Block8,"","","","","","","","",J,Stim13,NR,51,"",0,J,blue,9,2,71.11,"",1082,"","","",""
602071,129,129,block_Testing,4,task_Testing,2,1,"","",3,8,"","",Block8,"","","","","","","","",J,Stim13,HR,47,"",0,J,green,10,2,71.67,"",1082,"","","",""
602071,130,130,block_Testing,4,task_Testing,2,1,"","",4,8,"","",Block8,"","","","","","","","",K,Stim15,HR,106,"",0,K,green,13,2,72.22,"",1082,"","","",""
602071,131,131,block_Testing,4,task_Testing,2,1,"","",5,8,"","",Block8,"","","","","","","","",K,Stim13,NR,16,"",0,K,blue,10,2,72.78,"",1082,"","","",""
602071,132,132,block_Testing,4,task_Testing,2,0,"","",6,8,"","",Block8,"","","","","","","","",K,Stim12,LR,120,"",0,J,red,10,2,73.33,"",1082,"","","",""
602071,133,133,block_Testing,4,task_Testing,2,1,"","",7,8,"","",Block8,"","","","","","","","",K,Stim12,NR,4,"",0,K,blue,8,2,73.89,"",1082,"","","",""
602071,134,134,block_Testing,4,task_Testing,2,1,"","",8,8,"","",Block8,"","","","","","","","",K,Stim12,HR,7,"",0,K,green,9,2,74.44,"",1082,"","","",""
602071,135,135,block_Testing,4,task_Testing,2,1,"","",9,8,"","",Block8,"","","","","","","","",K,Stim13,LR,79,"",0,K,red,11,2,75,"",1082,"","","",""
602071,136,136,block_Testing,4,task_Testing,2,1,"","",10,8,"","",Block8,"","","","","","","","",K,Stim13,LR,8,"",0,K,red,9,2,75.56,"",1082,"","","",""
602071,137,137,block_Testing,4,task_Testing,2,1,"","",11,8,"","",Block8,"","","","","","","","",J,Stim11,LR,106,"",0,J,red,8,2,76.11,"",1082,"","","",""
602071,138,138,block_Testing,4,task_Testing,2,1,"","",12,8,"","",Block8,"","","","","","","","",K,Stim15,LR,63,"",0,K,red,13,2,76.67,"",1082,"","","",""
602071,139,139,block_Testing,4,task_Testing,2,1,"","",13,8,"","",Block8,"","","","","","","","",J,PreISI1,NR,80,"",0,J,blue,13,2,77.22,"",1082,"","","",""
602071,140,140,block_Testing,4,task_Testing,2,1,"","",14,8,"","",Block8,"","","","","","","","",K,Stim14,HR,17,"",0,K,green,11,2,77.78,"",1082,"","","",""
602071,141,141,block_Testing,4,task_Testing,2,1,"","",15,8,"","",Block8,"","","","","","","","",J,Stim15,LR,89,"",0,J,red,12,2,78.33,"",1082,"","","",""
602071,142,142,block_Testing,4,task_Testing,2,1,"","",16,8,"","",Block8,"","","","","","","","",J,Stim15,HR,118,"",0,J,green,12,2,78.89,"",1082,"","","",""
602071,143,143,block_Testing,4,task_Testing,2,1,"","",17,8,"","",Block8,"","","","","","","","",J,Stim14,NR,98,"",0,J,blue,11,2,79.44,"",1082,"","","",""
602071,144,144,block_Testing,4,task_Testing,2,0,"","",18,8,"","",Block8,"","","","","","","","",K,Stim10,HR,92,"",0,J,green,8,2,80,"",1082,"","","",""
602071,145,145,block_Testing,4,task_Testing,2,0,"","",1,9,"","",Block9,"","","","","","","","",J,Stim14,NR,110,"",0,K,blue,12,2,80.56,"",1082,"","","",""
602071,146,146,block_Testing,4,task_Testing,2,1,"","",2,9,"","",Block9,"","","","","","","","",J,Stim14,NR,19,"",0,J,blue,11,2,81.11,"",1082,"","","",""
602071,147,147,block_Testing,4,task_Testing,2,1,"","",3,9,"","",Block9,"","","","","","","","",K,Stim11,LR,111,"",0,K,red,9,2,81.67,"",1082,"","","",""
602071,148,148,block_Testing,4,task_Testing,2,1,"","",4,9,"","",Block9,"","","","","","","","",J,Stim16,HR,13,"",0,J,green,12,2,82.22,"",1082,"","","",""
602071,149,149,block_Testing,4,task_Testing,2,1,"","",5,9,"","",Block9,"","","","","","","","",J,Stim12,NR,45,"",0,J,blue,9,2,82.78,"",1082,"","","",""
602071,150,150,block_Testing,4,task_Testing,2,1,"","",6,9,"","",Block9,"","","","","","","","",K,Stim16,LR,49,"",0,K,red,13,2,83.33,"",1082,"","","",""
602071,151,151,block_Testing,4,task_Testing,2,1,"","",7,9,"","",Block9,"","","","","","","","",K,Stim11,NR,98,"",0,K,blue,8,2,83.89,"",1082,"","","",""
602071,152,152,block_Testing,4,task_Testing,2,0,"","",8,9,"","",Block9,"","","","","","","","",K,Stim11,LR,21,"",0,J,red,8,2,84.44,"",1082,"","","",""
602071,153,153,block_Testing,4,task_Testing,2,0,"","",9,9,"","",Block9,"","","","","","","","",K,Stim12,LR,87,"",0,J,red,10,2,85,"",1082,"","","",""
602071,154,154,block_Testing,4,task_Testing,2,1,"","",10,9,"","",Block9,"","","","","","","","",K,Stim16,HR,90,"",0,K,green,13,2,85.56,"",1082,"","","",""
602071,155,155,block_Testing,4,task_Testing,2,1,"","",11,9,"","",Block9,"","","","","","","","",K,Stim14,LR,28,"",0,K,red,11,2,86.11,"",1082,"","","",""
602071,156,156,block_Testing,4,task_Testing,2,0,"","",12,9,"","",Block9,"","","","","","","","",J,Stim12,HR,3,"",0,K,green,9,2,86.67,"",1082,"","","",""
602071,157,157,block_Testing,4,task_Testing,2,1,"","",13,9,"","",Block9,"","","","","","","","",J,Stim13,HR,103,"",0,J,green,10,2,87.22,"",1082,"","","",""
602071,158,158,block_Testing,4,task_Testing,2,1,"","",14,9,"","",Block9,"","","","","","","","",J,Stim15,LR,108,"",0,J,red,12,2,87.78,"",1082,"","","",""
602071,159,159,block_Testing,4,task_Testing,2,1,"","",15,9,"","",Block9,"","","","","","","","",J,Stim16,NR,104,"",0,J,blue,13,2,88.33,"",1082,"","","",""
602071,160,160,block_Testing,4,task_Testing,2,0,"","",16,9,"","",Block9,"","","","","","","","",K,Stim10,HR,80,"",0,J,green,8,2,88.89,"",1082,"","","",""
602071,161,161,block_Testing,4,task_Testing,2,1,"","",17,9,"","",Block9,"","","","","","","","",K,Stim13,NR,98,"",0,K,blue,10,2,89.44,"",1082,"","","",""
602071,162,162,block_Testing,4,task_Testing,2,0,"","",18,9,"","",Block9,"","","","","","","","",J,Stim14,HR,61,"",0,K,green,11,2,90,"",1082,"","","",""
602071,163,163,block_Testing,4,task_Testing,2,1,"","",1,10,"","",Block10,"","","","","","","","",K,Stim12,LR,88,"",0,K,red,9,2,90.56,"",1082,"","","",""
602071,164,164,block_Testing,4,task_Testing,2,1,"","",2,10,"","",Block10,"","","","","","","","",J,Stim11,LR,52,"",0,J,red,8,2,91.11,"",1082,"","","",""
602071,165,165,block_Testing,4,task_Testing,2,0,"","",3,10,"","",Block10,"","","","","","","","",K,Stim13,HR,39,"",0,J,green,10,2,91.67,"",1082,"","","",""
602071,166,166,block_Testing,4,task_Testing,2,0,"","",4,10,"","",Block10,"","","","","","","","",J,Stim14,HR,13,"",0,K,green,11,2,92.22,"",1082,"","","",""
602071,167,167,block_Testing,4,task_Testing,2,1,"","",5,10,"","",Block10,"","","","","","","","",K,Stim12,NR,75,"",0,K,blue,10,2,92.78,"",1082,"","","",""
602071,168,168,block_Testing,4,task_Testing,2,1,"","",6,10,"","",Block10,"","","","","","","","",J,Stim13,LR,40,"",0,J,red,10,2,93.33,"",1082,"","","",""
602071,169,169,block_Testing,4,task_Testing,2,0,"","",7,10,"","",Block10,"","","","","","","","",J,Stim14,NR,65,"",0,K,blue,12,2,93.89,"",1082,"","","",""
602071,170,170,block_Testing,4,task_Testing,2,1,"","",8,10,"","",Block10,"","","","","","","","",K,Stim11,NR,19,"",0,K,blue,8,2,94.44,"",1082,"","","",""
602071,171,171,block_Testing,4,task_Testing,2,1,"","",9,10,"","",Block10,"","","","","","","","",K,Stim14,LR,69,"",0,K,red,11,2,95,"",1082,"","","",""
602071,172,172,block_Testing,4,task_Testing,2,1,"","",10,10,"","",Block10,"","","","","","","","",K,Stim15,LR,86,"",0,K,red,13,2,95.56,"",1082,"","","",""
602071,173,173,block_Testing,4,task_Testing,2,1,"","",11,10,"","",Block10,"","","","","","","","",J,Stim14,NR,114,"",0,J,blue,11,2,96.11,"",1082,"","","",""
602071,174,174,block_Testing,4,task_Testing,2,1,"","",12,10,"","",Block10,"","","","","","","","",J,Stim15,HR,22,"",0,J,green,12,2,96.67,"",1082,"","","",""
602071,175,175,block_Testing,4,task_Testing,2,1,"","",13,10,"","",Block10,"","","","","","","","",J,Stim15,LR,11,"",0,J,red,12,2,97.22,"",1082,"","","",""
602071,176,176,block_Testing,4,task_Testing,2,1,"","",14,10,"","",Block10,"","","","","","","","",J,Stim10,HR,97,"",0,J,green,8,2,97.78,"",1082,"","","",""
602071,177,177,block_Testing,4,task_Testing,2,1,"","",15,10,"","",Block10,"","",Slow!,"","","","","",J,PreISI2,NR,882,"",1,J,blue,13,2,98.33,"",1082,"","","",""
602071,178,178,block_Testing,4,task_Testing,2,1,"","",16,10,"","",Block10,"","","","","","","","",K,Stim14,HR,72,"",0,K,green,9,2,98.89,"",1082,"","","",""
602071,179,179,block_Testing,4,task_Testing,2,1,"","",17,10,"","",Block10,"","","","","","","","",K,Stim16,HR,12,"",0,K,green,13,2,99.44,"",1082,"","","",""
602071,180,180,block_Testing,4,task_Testing,2,1,"","",18,10,"","",Block10,"","","","","","","","",J,Stim12,NR,85,"",0,J,blue,9,2,100,"",1082,"","","",""
602071,1,1,block_Practice,2,task_GetReady,1,"","","","",1,"","","","","","","","","","","","","","","","","","","","","","","","","","","",""
602071,1,1,block_Practice,2,task_GetReady,1,"","","","",1,"","","","","","","","","","","","","","","","","","","","","","","","","","","",""
602071,1,1,block_Practice,2,task_Trng_Prac,2,1,1,"","",1,"","","","","","","","","","","",K,Stim15,Disallowed,14,"",1,K,red,10,"","","",0,0,"","",""
602071,2,2,block_Practice,2,task_Trng_Prac,2,1,2,"","",1,"","","","","","","","","","","",J,PreISI1,Disallowed,11,"",1,J,blue,13,"","","",0,0,"","",""
602071,3,3,block_Practice,2,task_Trng_Prac,2,1,3,"","",1,"","","","","","","","","","","",J,Stim12,Disallowed,113,"",1,J,green,9,"","","",0,0,"","",""
602071,4,4,block_Practice,2,task_Trng_Prac,2,1,4,"","",1,"","","","","","","","","","","",K,Stim11,Disallowed,44,"",1,K,red,8,"","","",0,0,"","",""
602071,5,5,block_Practice,2,task_Trng_Prac,2,0,4,"","",1,"","","","","","","","","","","",K,Stim14,Disallowed,64,"",1,J,blue,12,"","","",0,0,"","",""
602071,6,6,block_Practice,2,task_Trng_Prac,2,1,5,"","",1,"","","","","","","","","","","",K,Stim14,Disallowed,111,"",1,K,green,11,"","","",0,0,"","",""
602071,1,1,block_Trng,3,task_GetReady,1,"","","","",1,"","","","","","","","","","","","","","","","","","","","","","","","","","","",""
602071,1,1,block_Trng,3,task_Trng,2,1,"","",1,1,"","","","",Block1,"","","","","","",K,Stim11,NR,47,"",0,K,blue,8,"","",0,0,"","",0,0.28
602071,2,2,block_Trng,3,task_Trng,2,1,"","",2,1,"","","","",Block1,"","","","","","",K,Stim12,HR,18,"",0,K,green,9,"","",0,10,"","",0,0.56
602071,3,3,block_Trng,3,task_Trng,2,1,"","",3,1,"","","","",Block1,"","","","","","",J,Stim12,NR,78,"",0,J,blue,9,"","",0,10,"","",0,0.83
602071,4,4,block_Trng,3,task_Trng,2,0,"","",4,1,"","","","",Block1,"","","","","","",J,Stim14,LR,62,"",0,K,red,11,"","",0,10,"","",0,1.11
602071,5,5,block_Trng,3,task_Trng,2,1,"","",5,1,"","","","",Block1,"","","","","","",J,Stim16,NR,91,"",0,J,blue,11,"","",0,10,"","",0,1.39
602071,6,6,block_Trng,3,task_Trng,2,0,"","",6,1,"","","","",Block1,"","","","","","",J,Stim11,LR,107,"",0,K,red,9,"","",0,10,"","",0,1.67
602071,7,7,block_Trng,3,task_Trng,2,0,"","",7,1,"","","","",Block1,"","","","","","",J,Stim13,NR,54,"",0,K,blue,10,"","",0,10,"","",0,1.94
602071,8,8,block_Trng,3,task_Trng,2,1,"","",8,1,"","","","",Block1,"","","","","","",K,Stim14,HR,35,"",0,K,green,11,"","",0,20,"","",0,2.22
602071,9,9,block_Trng,3,task_Trng,2,1,"","",9,1,"","","","",Block1,"","","","","","",J,Stim13,LR,59,"",0,J,red,10,"","",0,22,"","",0,2.5
602071,10,10,block_Trng,3,task_Trng,2,1,"","",10,1,"","","","",Block1,"","","","","","",J,Stim15,HR,103,"",0,J,green,12,"","",0,32,"","",0,2.78
602071,11,11,block_Trng,3,task_Trng,2,1,"","",11,1,"","","","",Block1,"","","","","","",K,Stim16,LR,52,"",0,K,red,13,"","",0,34,"","",0,3.06
602071,12,12,block_Trng,3,task_Trng,2,1,"","",12,1,"","","","",Block1,"","","","","","",J,Stim15,NR,94,"",0,J,blue,13,"","",0,34,"","",0,3.33
602071,13,13,block_Trng,3,task_Trng,2,1,"","",13,1,"","","","",Block1,"","","","","","",J,Stim16,LR,17,"",0,J,red,12,"","",0,36,"","",0,3.61
602071,14,14,block_Trng,3,task_Trng,2,1,"","",14,1,"","","","",Block1,"","","","","","",K,Stim16,HR,43,"",0,K,green,13,"","",0,46,"","",0,3.89
602071,15,15,block_Trng,3,task_Trng,2,1,"","",15,1,"","","","",Block1,"","","","","","",J,Stim13,HR,53,"",0,J,green,10,"","",0,56,"","",0,4.17
602071,16,16,block_Trng,3,task_Trng,2,0,"","",16,1,"","","","",Block1,"","","","","","",K,Stim12,LR,44,"",0,J,red,8,"","",0,56,"","",0,4.44
602071,17,17,block_Trng,3,task_Trng,2,1,"","",17,1,"","","","",Block1,"","","","","","",J,Stim11,HR,76,"",0,J,green,8,"","",0,66,"","",0,4.72
602071,18,18,block_Trng,3,task_Trng,2,0,"","",18,1,"","","","",Block1,"","","","","","",J,Stim16,NR,85,"",0,K,blue,12,"","",0,66,"","",0,5
602071,19,19,block_Trng,3,task_Trng,2,1,"","",1,2,"","","","",Block2,"","","","","","",J,Stim12,HR,16,"",0,J,green,8,"","",0,76,"","",0,5.28
602071,20,20,block_Trng,3,task_Trng,2,1,"","",2,2,"","","","",Block2,"","","","","","",K,Stim13,HR,13,"",0,K,green,9,"","",0,86,"","",0,5.56
602071,21,21,block_Trng,3,task_Trng,2,1,"","",3,2,"","","","",Block2,"","","","","","",J,Stim13,HR,19,"",0,J,green,10,"","",0,96,"","",0,5.83
602071,22,22,block_Trng,3,task_Trng,2,1,"","",4,2,"","","","",Block2,"","","","","","",K,Stim11,LR,85,"",0,K,red,9,"","",0,98,"","",0,6.11
602071,23,23,block_Trng,3,task_Trng,2,1,"","",5,2,"","","","",Block2,"","","","","","",J,Stim14,HR,98,"",0,J,green,12,"","",0,108,"","",0,6.39
602071,24,24,block_Trng,3,task_Trng,2,0,"","",6,2,"","","","",Block2,"","","","","","",J,Stim15,LR,120,"",0,K,red,13,"","",0,108,"","",0,6.67
602071,25,25,block_Trng,3,task_Trng,2,0,"","",7,2,"","","","",Block2,"","","","","","",J,Stim15,HR,112,"",0,K,green,13,"","",0,108,"","",0,6.94
602071,26,26,block_Trng,3,task_Trng,2,1,"","",8,2,"","","","",Block2,"","","","","","",J,Stim15,NR,77,"",0,J,blue,11,"","",0,108,"","",0,7.22
602071,27,27,block_Trng,3,task_Trng,2,1,"","",9,2,"","","","",Block2,"","","","","","",J,Stim13,LR,71,"",0,J,red,10,"","",0,110,"","",0,7.5
602071,28,28,block_Trng,3,task_Trng,2,1,"","",10,2,"","","","",Block2,"","","","","","",J,Stim11,LR,54,"",0,J,red,8,"","",0,112,"","",0,7.78
602071,29,29,block_Trng,3,task_Trng,2,1,"","",11,2,"","","","",Block2,"","","","","","",J,Stim12,NR,14,"",0,J,blue,9,"","",0,112,"","",0,8.06
602071,30,30,block_Trng,3,task_Trng,2,1,"","",12,2,"","","","",Block2,"","","","","","",K,Stim12,NR,117,"",0,K,blue,10,"","",0,112,"","",0,8.33
602071,31,31,block_Trng,3,task_Trng,2,1,"","",13,2,"","","","",Block2,"","","","","","",K,Stim11,NR,75,"",0,K,blue,8,"","",0,112,"","",0,8.61
602071,32,32,block_Trng,3,task_Trng,2,1,"","",14,2,"","","","",Block2,"","","","","","",J,Stim16,NR,101,"",0,J,blue,13,"","",0,112,"","",0,8.89
602071,33,33,block_Trng,3,task_Trng,2,1,"","",15,2,"","","","",Block2,"","","","","","",K,Stim14,NR,112,"",0,K,blue,12,"","",0,112,"","",0,9.17
602071,34,34,block_Trng,3,task_Trng,2,1,"","",16,2,"","","","",Block2,"","","","","","",K,Stim14,LR,16,"",0,K,red,11,"","",0,114,"","",0,9.44
602071,35,35,block_Trng,3,task_Trng,2,1,"","",17,2,"","","","",Block2,"","","","","","",K,Stim15,HR,12,"",0,K,green,11,"","",0,124,"","",0,9.72
602071,36,36,block_Trng,3,task_Trng,2,1,"","",18,2,"","","","",Block2,"","","","","","",J,Stim15,LR,37,"",0,J,red,12,"","",0,126,"","",0,10
602071,37,37,block_Trng,3,task_Trng,2,1,"","",1,3,"","","","",Block3,"","","","","","",K,Stim11,HR,93,"",0,K,green,9,"","",0,136,"","",0,10.28
602071,38,38,block_Trng,3,task_Trng,2,1,"","",2,3,"","","","",Block3,"","","","","","",K,Stim10,NR,104,"",0,K,blue,8,"","",0,136,"","",0,10.56
602071,39,39,block_Trng,3,task_Trng,2,0,"","",3,3,"","","","",Block3,"","","","","","",K,Stim14,LR,23,"",0,J,red,10,"","",0,136,"","",0,10.83
602071,40,40,block_Trng,3,task_Trng,2,1,"","",4,3,"","","","",Block3,"","","","","","",K,Stim14,HR,83,"",0,K,green,11,"","",0,146,"","",0,11.11
602071,41,41,block_Trng,3,task_Trng,2,1,"","",5,3,"","","","",Block3,"","","","","","",J,Stim15,LR,16,"",0,J,red,12,"","",0,148,"","",0,11.39
602071,42,42,block_Trng,3,task_Trng,2,1,"","",6,3,"","","","",Block3,"","","","","","",J,Stim16,NR,85,"",0,J,blue,13,"","",0,148,"","",0,11.67
602071,43,43,block_Trng,3,task_Trng,2,1,"","",7,3,"","","","",Block3,"","","","","","",J,Stim14,HR,2,"",0,J,green,10,"","",0,158,"","",0,11.94
602071,44,44,block_Trng,3,task_Trng,2,1,"","",8,3,"","","","",Block3,"","","","","","",J,Stim11,HR,88,"",0,J,green,8,"","",0,168,"","",0,12.22
602071,45,45,block_Trng,3,task_Trng,2,1,"","",9,3,"","","","",Block3,"","","","","","",K,Stim15,LR,106,"",0,K,red,13,"","",0,170,"","",0,12.5
602071,46,46,block_Trng,3,task_Trng,2,1,"","",10,3,"","","","",Block3,"","","","","","",J,Stim15,HR,71,"",0,J,green,12,"","",0,180,"","",0,12.78
602071,47,47,block_Trng,3,task_Trng,2,1,"","",11,3,"","","","",Block3,"","","","","","",K,Stim12,NR,117,"",0,K,blue,10,"","",0,180,"","",0,13.06
602071,48,48,block_Trng,3,task_Trng,2,1,"","",12,3,"","","","",Block3,"","","","","","",K,Stim16,HR,76,"",0,K,green,13,"","",0,190,"","",0,13.33
602071,49,49,block_Trng,3,task_Trng,2,1,"","",13,3,"","","","",Block3,"","","","","","",K,Stim15,NR,64,"",0,K,blue,12,"","",0,190,"","",0,13.61
602071,50,50,block_Trng,3,task_Trng,2,1,"","",14,3,"","","","",Block3,"","","","","","",K,Stim13,LR,106,"",0,K,red,11,"","",0,192,"","",0,13.89
602071,51,51,block_Trng,3,task_Trng,2,1,"","",15,3,"","","","",Block3,"","","","","","",J,Stim16,NR,8,"",0,J,blue,11,"","",0,192,"","",0,14.17
602071,52,52,block_Trng,3,task_Trng,2,0,"","",16,3,"","","","",Block3,"","","","","","",K,Stim12,NR,47,"",0,J,blue,9,"","",0,192,"","",0,14.44
602071,53,53,block_Trng,3,task_Trng,2,0,"","",17,3,"","","","",Block3,"","","","","","",J,Stim13,LR,116,"",0,K,red,9,"","",0,192,"","",0,14.72
602071,54,54,block_Trng,3,task_Trng,2,1,"","",18,3,"","","","",Block3,"","","","","","",J,Stim10,LR,115,"",0,J,red,8,"","",0,194,"","",0,15
602071,55,55,block_Trng,3,task_Trng,2,1,"","",1,4,"","","","",Block4,"","","","","","",K,Stim13,NR,21,"",0,K,blue,10,"","",0,194,"","",0,15.28
602071,56,56,block_Trng,3,task_Trng,2,1,"","",2,4,"","","","",Block4,"","","","","","",J,Stim16,NR,22,"",0,J,blue,13,"","",0,194,"","",0,15.56
602071,57,57,block_Trng,3,task_Trng,2,1,"","",3,4,"","","","",Block4,"","","","","","",K,Stim14,LR,68,"",0,K,red,11,"","",0,196,"","",0,15.83
602071,58,58,block_Trng,3,task_Trng,2,1,"","",4,4,"","","","",Block4,"","","","","","",J,Stim13,NR,100,"",0,J,blue,11,"","",0,196,"","",0,16.11
602071,59,59,block_Trng,3,task_Trng,2,1,"","",5,4,"","","","",Block4,"","","","","","",K,Stim11,LR,66,"",0,K,red,9,"","",0,198,"","",0,16.39
602071,60,60,block_Trng,3,task_Trng,2,0,"","",6,4,"","","","",Block4,"","","","","","",J,Stim16,LR,16,"",0,K,red,13,"","",0,198,"","",0,16.67
602071,61,61,block_Trng,3,task_Trng,2,1,"","",7,4,"","","","",Block4,"","","","","","",K,Stim11,HR,113,"",0,K,green,9,"","",0,208,"","",0,16.94
602071,62,62,block_Trng,3,task_Trng,2,1,"","",8,4,"","","","",Block4,"","","","","","",K,Stim14,NR,82,"",0,K,blue,12,"","",0,208,"","",0,17.22
602071,63,63,block_Trng,3,task_Trng,2,1,"","",9,4,"","","","",Block4,"","","","","","",J,Stim14,NR,1,"",0,J,blue,9,"","",0,208,"","",0,17.5
602071,64,64,block_Trng,3,task_Trng,2,1,"","",10,4,"","","","",Block4,"","","","","","",K,Stim11,NR,3,"",0,K,blue,8,"","",0,208,"","",0,17.78
602071,65,65,block_Trng,3,task_Trng,2,1,"","",11,4,"","","","",Block4,"","","","","","",K,Stim12,HR,7,"",0,K,green,11,"","",0,218,"","",0,18.06
602071,66,66,block_Trng,3,task_Trng,2,1,"","",12,4,"","","","",Block4,"","","","","","",J,Stim14,LR,69,"",0,J,red,12,"","",0,220,"","",0,18.33
602071,67,67,block_Trng,3,task_Trng,2,1,"","",13,4,"","","","",Block4,"","","","","","",K,Stim16,HR,3,"",0,K,green,13,"","",0,230,"","",0,18.61
602071,68,68,block_Trng,3,task_Trng,2,1,"","",14,4,"","","","",Block4,"","","","","","",J,Stim12,HR,96,"",0,J,green,8,"","",0,240,"","",0,18.89
602071,69,69,block_Trng,3,task_Trng,2,0,"","",15,4,"","","","",Block4,"","","","","","",K,Stim15,HR,14,"",0,J,green,12,"","",0,240,"","",0,19.17
602071,70,70,block_Trng,3,task_Trng,2,1,"","",16,4,"","","","",Block4,"","","","","","",J,Stim11,LR,90,"",0,J,red,8,"","",0,242,"","",0,19.44
602071,71,71,block_Trng,3,task_Trng,2,1,"","",17,4,"","","","",Block4,"","","","","","",J,Stim13,HR,12,"",0,J,green,10,"","",0,252,"","",0,19.72
602071,72,72,block_Trng,3,task_Trng,2,1,"","",18,4,"","","","",Block4,"","","","","","",J,Stim13,LR,16,"",0,J,red,10,"","",0.86,254,"","",1,20
602071,73,73,block_Trng,3,task_Trng,2,1,"","",1,5,"","","","",Block5,"","","","","","",J,Stim15,HR,60,"",0,J,green,12,"","",0.86,264,"","",1,20.28
602071,74,74,block_Trng,3,task_Trng,2,1,"","",2,5,"","","","",Block5,"","","","","","",K,Stim16,HR,12,"",0,K,green,13,"","",0.86,274,"","",1,20.56
602071,75,75,block_Trng,3,task_Trng,2,0,"","",3,5,"","","","",Block5,"","","","","","",J,Stim12,HR,13,"",0,K,green,9,"","",0.86,274,"","",1,20.83
602071,76,76,block_Trng,3,task_Trng,2,1,"","",4,5,"","","","",Block5,"","","","","","",K,Stim12,LR,19,"",0,K,red,9,"","",0.86,276,"","",1,21.11
602071,77,77,block_Trng,3,task_Trng,2,1,"","",5,5,"","","","",Block5,"","","","","","",J,Stim11,HR,120,"",0,J,green,8,"","",0.86,286,"","",1,21.39
602071,78,78,block_Trng,3,task_Trng,2,1,"","",6,5,"","","","",Block5,"","","","","","",J,Stim11,LR,23,"",0,J,red,8,"","",0.86,288,"","",1,21.67
602071,79,79,block_Trng,3,task_Trng,2,0,"","",7,5,"","","","",Block5,"","","","","","",K,Stim11,NR,80,"",0,J,blue,9,"","",0.86,288,"","",1,21.94
602071,80,80,block_Trng,3,task_Trng,2,1,"","",8,5,"","","","",Block5,"","","","","","",J,Stim12,LR,70,"",0,J,red,10,"","",0.86,290,"","",1,22.22
602071,81,81,block_Trng,3,task_Trng,2,1,"","",9,5,"","","","",Block5,"","","","","","",K,Stim14,NR,105,"",0,K,blue,12,"","",0.86,290,"","",1,22.5
602071,82,82,block_Trng,3,task_Trng,2,1,"","",10,5,"","","","",Block5,"","","","","","",J,Stim14,NR,87,"",0,J,blue,11,"","",0.86,290,"","",1,22.78
602071,83,83,block_Trng,3,task_Trng,2,1,"","",11,5,"","","","",Block5,"","","","","","",J,Stim14,LR,98,"",0,J,red,12,"","",0.86,292,"","",1,23.06
602071,84,84,block_Trng,3,task_Trng,2,0,"","",12,5,"","","","",Block5,"","","","","","",K,PreISI1,NR,52,"",0,J,blue,13,"","",0.86,292,"","",1,23.33
602071,85,85,block_Trng,3,task_Trng,2,1,"","",13,5,"","","","",Block5,"","","","","","",J,Stim13,HR,14,"",0,J,green,10,"","",0.86,302,"","",1,23.61
602071,86,86,block_Trng,3,task_Trng,2,1,"","",14,5,"","","","",Block5,"","","","","","",K,Stim16,LR,94,"",0,K,red,13,"","",0.86,304,"","",1,23.89
602071,87,87,block_Trng,3,task_Trng,2,1,"","",15,5,"","","","",Block5,"","","","","","",K,Stim14,HR,17,"",0,K,green,11,"","",0.86,314,"","",1,24.17
602071,88,88,block_Trng,3,task_Trng,2,0,"","",16,5,"","","","",Block5,"","","","","","",J,Stim12,NR,90,"",0,K,blue,10,"","",0.86,314,"","",1,24.44
602071,89,89,block_Trng,3,task_Trng,2,1,"","",17,5,"","","","",Block5,"","","","","","",K,Stim14,LR,2,"",0,K,red,11,"","",0.86,316,"","",1,24.72
602071,90,90,block_Trng,3,task_Trng,2,1,"","",18,5,"","","","",Block5,"","","","","","",K,Stim11,NR,19,"",0,K,blue,8,"","",0.86,316,"","",1,25
602071,91,91,block_Trng,3,task_Trng,2,1,"","",1,6,"","","","",Block6,"","","","","","",K,Stim16,HR,18,"",0,K,green,13,"","",0.86,326,"","",1,25.28
602071,92,92,block_Trng,3,task_Trng,2,1,"","",2,6,"","","","",Block6,"","","","","","",K,Stim12,NR,89,"",0,K,blue,10,"","",0.86,326,"","",1,25.56
602071,93,93,block_Trng,3,task_Trng,2,1,"","",3,6,"","","","",Block6,"","","","","","",K,Stim10,NR,118,"",0,K,blue,8,"","",0.86,326,"","",1,25.83
602071,94,94,block_Trng,3,task_Trng,2,1,"","",4,6,"","","","",Block6,"","","","","","",J,Stim11,NR,120,"",0,J,blue,9,"","",0.86,326,"","",1,26.11
602071,95,95,block_Trng,3,task_Trng,2,0,"","",5,6,"","","","",Block6,"","","","","","",K,Stim12,NR,12,"",0,J,blue,11,"","",0.86,326,"","",1,26.39
602071,96,96,block_Trng,3,task_Trng,2,1,"","",6,6,"","","","",Block6,"","","","","","",K,Stim16,LR,8,"",0,K,red,13,"","",0.86,328,"","",1,26.67
602071,97,97,block_Trng,3,task_Trng,2,1,"","",7,6,"","","","",Block6,"","","","","","",J,Stim15,NR,119,"",0,J,blue,13,"","",0.86,328,"","",1,26.94
602071,98,98,block_Trng,3,task_Trng,2,1,"","",8,6,"","","","",Block6,"","","","","","",K,Stim14,LR,41,"",0,K,red,11,"","",0.86,330,"","",1,27.22
602071,99,99,block_Trng,3,task_Trng,2,1,"","",9,6,"","","","",Block6,"","","","","","",J,Stim12,HR,17,"",0,J,green,8,"","",0.86,340,"","",1,27.5
602071,100,100,block_Trng,3,task_Trng,2,1,"","",10,6,"","","","",Block6,"","","","","","",J,Stim13,LR,97,"",0,J,red,10,"","",0.86,342,"","",1,27.78
602071,101,101,block_Trng,3,task_Trng,2,1,"","",11,6,"","","","",Block6,"","","","","","",J,Stim11,LR,80,"",0,J,red,8,"","",0.86,344,"","",1,28.06
602071,102,102,block_Trng,3,task_Trng,2,1,"","",12,6,"","","","",Block6,"","","","","","",J,Stim15,HR,49,"",0,J,green,12,"","",0.86,354,"","",1,28.33
602071,103,103,block_Trng,3,task_Trng,2,1,"","",13,6,"","","","",Block6,"","","","","","",J,Stim15,LR,83,"",0,J,red,12,"","",0.86,356,"","",1,28.61
602071,104,104,block_Trng,3,task_Trng,2,1,"","",14,6,"","","","",Block6,"","","","","","",K,Stim16,NR,2,"",0,K,blue,12,"","",0.86,356,"","",1,28.89
602071,105,105,block_Trng,3,task_Trng,2,1,"","",15,6,"","","","",Block6,"","","","","","",K,Stim14,HR,103,"",0,K,green,11,"","",0.86,366,"","",1,29.17
602071,106,106,block_Trng,3,task_Trng,2,1,"","",16,6,"","","","",Block6,"","","","","","",K,Stim14,LR,25,"",0,K,red,9,"","",0.86,368,"","",1,29.44
602071,107,107,block_Trng,3,task_Trng,2,1,"","",17,6,"","","","",Block6,"","","","","","",J,Stim13,HR,72,"",0,J,green,10,"","",0.86,378,"","",1,29.72
602071,108,108,block_Trng,3,task_Trng,2,1,"","",18,6,"","","","",Block6,"","","","","","",K,Stim11,HR,58,"",0,K,green,9,"","",0.86,388,"","",1,30
602071,109,109,block_Trng,3,task_Trng,2,0,"","",1,7,"","","","",Block7,"","","","","","",J,Stim16,HR,69,"",0,K,green,13,"","",0.86,388,"","",1,30.28
602071,110,110,block_Trng,3,task_Trng,2,0,"","",2,7,"","","","",Block7,"","","","","","",K,Stim13,HR,31,"",0,J,green,10,"","",0.86,388,"","",1,30.56
602071,111,111,block_Trng,3,task_Trng,2,0,"","",3,7,"","","","",Block7,"","","","","","",J,Stim15,LR,115,"",0,K,red,13,"","",0.86,388,"","",1,30.83
602071,112,112,block_Trng,3,task_Trng,2,1,"","",4,7,"","","","",Block7,"","","","","","",K,Stim12,NR,119,"",0,K,blue,10,"","",0.86,388,"","",1,31.11
602071,113,113,block_Trng,3,task_Trng,2,1,"","",5,7,"","","","",Block7,"","","","","","",J,Stim11,HR,72,"",0,J,green,8,"","",0.86,398,"","",1,31.39
602071,114,114,block_Trng,3,task_Trng,2,1,"","",6,7,"","","","",Block7,"","","","","","",K,Stim13,LR,85,"",0,K,red,11,"","",0.86,400,"","",1,31.67
602071,115,115,block_Trng,3,task_Trng,2,0,"","",7,7,"","","","",Block7,"","","","","","",J,Stim13,HR,26,"",0,K,green,11,"","",0.86,400,"","",1,31.94
602071,116,116,block_Trng,3,task_Trng,2,0,"","",8,7,"","","","",Block7,"","","","","","",K,Stim15,HR,4,"",0,J,green,12,"","",0.86,400,"","",1,32.22
602071,117,117,block_Trng,3,task_Trng,2,0,"","",9,7,"","","","",Block7,"","","","","","",K,Stim12,LR,87,"",0,J,red,8,"","",0.86,400,"","",1,32.5
602071,118,118,block_Trng,3,task_Trng,2,1,"","",10,7,"","","","",Block7,"","","","","","",J,Stim16,NR,22,"",0,J,blue,13,"","",0.86,400,"","",1,32.78
602071,119,119,block_Trng,3,task_Trng,2,1,"","",11,7,"","","","",Block7,"","","","","","",K,Stim10,NR,117,"",0,K,blue,8,"","",0.86,400,"","",1,33.06
602071,120,120,block_Trng,3,task_Trng,2,1,"","",12,7,"","","","",Block7,"","","","","","",J,Stim12,NR,113,"",0,J,blue,9,"","",0.86,400,"","",1,33.33
602071,121,121,block_Trng,3,task_Trng,2,1,"","",13,7,"","","","",Block7,"","","","","","",J,Stim16,LR,20,"",0,J,red,12,"","",0.86,402,"","",1,33.61
602071,122,122,block_Trng,3,task_Trng,2,1,"","",14,7,"","","","",Block7,"","","","","","",K,Stim12,LR,52,"",0,K,red,9,"","",0.86,404,"","",1,33.89
602071,123,123,block_Trng,3,task_Trng,2,1,"","",15,7,"","","","",Block7,"","","","","","",K,Stim15,NR,23,"",0,K,blue,12,"","",0.86,404,"","",1,34.17
602071,124,124,block_Trng,3,task_Trng,2,1,"","",16,7,"","","","",Block7,"","","","","","",J,Stim14,NR,23,"",0,J,blue,11,"","",0.86,404,"","",1,34.44
602071,125,125,block_Trng,3,task_Trng,2,1,"","",17,7,"","","","",Block7,"","","","","","",K,Stim12,HR,31,"",0,K,green,9,"","",0.86,414,"","",1,34.72
602071,126,126,block_Trng,3,task_Trng,2,1,"","",18,7,"","","","",Block7,"","","","","","",J,Stim13,LR,115,"",0,J,red,10,"","",0.86,416,"","",1,35
602071,127,127,block_Trng,3,task_Trng,2,1,"","",1,8,"","","","",Block8,"","","","","","",K,Stim12,NR,108,"",0,K,blue,10,"","",0.86,416,"","",1,35.28
602071,128,128,block_Trng,3,task_Trng,2,1,"","",2,8,"","","","",Block8,"","","","","","",J,Stim14,LR,7,"",0,J,red,10,"","",0.86,418,"","",1,35.56
602071,129,129,block_Trng,3,task_Trng,2,0,"","",3,8,"","","","",Block8,"","","","","","",K,Stim15,HR,33,"",0,J,green,12,"","",0.86,418,"","",1,35.83
602071,130,130,block_Trng,3,task_Trng,2,1,"","",4,8,"","","","",Block8,"","","","","","",J,Stim12,LR,54,"",0,J,red,8,"","",0.86,420,"","",1,36.11
602071,131,131,block_Trng,3,task_Trng,2,1,"","",5,8,"","","","",Block8,"","","","","","",J,Stim14,NR,29,"",0,J,blue,11,"","",0.86,420,"","",1,36.39
602071,132,132,block_Trng,3,task_Trng,2,1,"","",6,8,"","","","",Block8,"","","","","","",K,Stim12,HR,53,"",0,K,green,9,"","",0.86,430,"","",1,36.67
602071,133,133,block_Trng,3,task_Trng,2,1,"","",7,8,"","","","",Block8,"","","","","","",K,Stim15,NR,82,"",0,K,blue,12,"","",0.86,430,"","",1,36.94
602071,134,134,block_Trng,3,task_Trng,2,1,"","",8,8,"","","","",Block8,"","","","","","",J,Stim16,LR,54,"",0,J,red,12,"","",0.86,432,"","",1,37.22
602071,135,135,block_Trng,3,task_Trng,2,1,"","",9,8,"","","","",Block8,"","","","","","",J,PreISI1,NR,8,"",0,J,blue,13,"","",0.86,432,"","",1,37.5
602071,136,136,block_Trng,3,task_Trng,2,1,"","",10,8,"","","","",Block8,"","","","","","",K,Stim15,HR,18,"",0,K,green,11,"","",0.86,442,"","",1,37.78
602071,137,137,block_Trng,3,task_Trng,2,1,"","",11,8,"","","","",Block8,"","","","","","",J,Stim11,HR,66,"",0,J,green,8,"","",0.86,452,"","",1,38.06
602071,138,138,block_Trng,3,task_Trng,2,1,"","",12,8,"","","","",Block8,"","","","","","",K,Stim11,NR,23,"",0,K,blue,8,"","",0.86,452,"","",1,38.33
602071,139,139,block_Trng,3,task_Trng,2,1,"","",13,8,"","","","",Block8,"","","","","","",J,Stim12,NR,50,"",0,J,blue,9,"","",0.86,452,"","",1,38.61
602071,140,140,block_Trng,3,task_Trng,2,1,"","",14,8,"","","","",Block8,"","","","","","",K,Stim13,LR,101,"",0,K,red,11,"","",0.86,454,"","",1,38.89
602071,141,141,block_Trng,3,task_Trng,2,0,"","",15,8,"","","","",Block8,"","","","","","",J,Stim15,LR,60,"",0,K,red,13,"","",0.86,454,"","",1,39.17
602071,142,142,block_Trng,3,task_Trng,2,1,"","",16,8,"","","","",Block8,"","","","","","",K,Stim12,LR,38,"",0,K,red,9,"","",0.86,456,"","",1,39.44
602071,143,143,block_Trng,3,task_Trng,2,1,"","",17,8,"","","","",Block8,"","","","","","",J,Stim13,HR,16,"",0,J,green,10,"","",0.86,466,"","",1,39.72
602071,144,144,block_Trng,3,task_Trng,2,1,"","",18,8,"","","","",Block8,"","","","","","",K,Stim16,HR,9,"",0,K,green,13,"","",1.62,476,"","",2,40
602071,145,145,block_Trng,3,task_Trng,2,1,"","",1,9,"","","","",Block9,"","","","","","",K,Stim12,HR,59,"",0,K,green,9,"","",1.62,486,"","",2,40.28
602071,146,146,block_Trng,3,task_Trng,2,1,"","",2,9,"","","","",Block9,"","","","","","",J,Stim13,NR,103,"",0,J,blue,11,"","",1.62,486,"","",2,40.56
602071,147,147,block_Trng,3,task_Trng,2,1,"","",3,9,"","","","",Block9,"","","","","","",K,Stim14,NR,119,"",0,K,blue,12,"","",1.62,486,"","",2,40.83
602071,148,148,block_Trng,3,task_Trng,2,0,"","",4,9,"","","","",Block9,"","","","","","",K,Stim10,HR,119,"",0,J,green,8,"","",1.62,486,"","",2,41.11
602071,149,149,block_Trng,3,task_Trng,2,1,"","",5,9,"","","","",Block9,"","","","","","",J,Stim15,LR,82,"",0,J,red,12,"","",1.62,488,"","",2,41.39
602071,150,150,block_Trng,3,task_Trng,2,1,"","",6,9,"","","","",Block9,"","","","","","",J,Stim12,NR,44,"",0,J,blue,9,"","",1.62,488,"","",2,41.67
602071,151,151,block_Trng,3,task_Trng,2,1,"","",7,9,"","","","",Block9,"","","","","","",J,Stim13,LR,86,"",0,J,red,10,"","",1.62,490,"","",2,41.94
602071,152,152,block_Trng,3,task_Trng,2,1,"","",8,9,"","","","",Block9,"","","","","","",J,Stim11,LR,51,"",0,J,red,8,"","",1.62,492,"","",2,42.22
602071,153,153,block_Trng,3,task_Trng,2,0,"","",9,9,"","","","",Block9,"","","","","","",K,Stim12,HR,83,"",0,J,green,10,"","",1.62,492,"","",2,42.5
602071,154,154,block_Trng,3,task_Trng,2,1,"","",10,9,"","","","",Block9,"","","","","","",K,Stim16,HR,19,"",0,K,green,13,"","",1.62,502,"","",2,42.78
602071,155,155,block_Trng,3,task_Trng,2,0,"","",11,9,"","","","",Block9,"","","","","","",K,Stim14,HR,104,"",0,J,green,12,"","",1.62,502,"","",2,43.06
602071,156,156,block_Trng,3,task_Trng,2,0,"","",12,9,"","","","",Block9,"","","","","","",J,Stim13,HR,57,"",0,K,green,11,"","",1.62,502,"","",2,43.33
602071,157,157,block_Trng,3,task_Trng,2,1,"","",13,9,"","","","",Block9,"","","","","","",K,Stim12,LR,95,"",0,K,red,9,"","",1.62,504,"","",2,43.61
602071,158,158,block_Trng,3,task_Trng,2,0,"","",14,9,"","","","",Block9,"","","","","","",J,Stim14,LR,2,"",0,K,red,11,"","",1.62,504,"","",2,43.89
602071,159,159,block_Trng,3,task_Trng,2,1,"","",15,9,"","","","",Block9,"","","","","","",K,Stim10,NR,117,"",0,K,blue,8,"","",1.62,504,"","",2,44.17
602071,160,160,block_Trng,3,task_Trng,2,1,"","",16,9,"","","","",Block9,Slow!,"","","","","",J,ISI,NR,880,"",1,J,blue,13,"","",1.62,504,"","",2,44.44
602071,161,161,block_Trng,3,task_Trng,2,1,"","",17,9,"","","","",Block9,"","","","","","",K,Stim13,NR,42,"",0,K,blue,10,"","",1.62,504,"","",2,44.72
602071,162,162,block_Trng,3,task_Trng,2,0,"","",18,9,"","","","",Block9,"","","","","","",J,Stim15,LR,105,"",0,K,red,13,"","",1.62,504,"","",2,45
602071,163,163,block_Trng,3,task_Trng,2,1,"","",1,10,"","","","",Block10,"","","","","","",J,Stim13,LR,16,"",0,J,red,8,"","",1.62,506,"","",2,45.28
602071,164,164,block_Trng,3,task_Trng,2,1,"","",2,10,"","","","",Block10,"","","","","","",K,Stim16,LR,23,"",0,K,red,13,"","",1.62,508,"","",2,45.56
602071,165,165,block_Trng,3,task_Trng,2,1,"","",3,10,"","","","",Block10,"","","","","","",J,Stim15,NR,117,"",0,J,blue,13,"","",1.62,508,"","",2,45.83
602071,166,166,block_Trng,3,task_Trng,2,1,"","",4,10,"","","","",Block10,"","","","","","",K,Stim15,NR,82,"",0,K,blue,12,"","",1.62,508,"","",2,46.11
602071,167,167,block_Trng,3,task_Trng,2,1,"","",5,10,"","","","",Block10,"","","","","","",K,Stim14,HR,22,"",0,K,green,11,"","",1.62,518,"","",2,46.39
602071,168,168,block_Trng,3,task_Trng,2,1,"","",6,10,"","","","",Block10,"","","","","","",J,Stim12,HR,27,"",0,J,green,8,"","",1.62,528,"","",2,46.67
602071,169,169,block_Trng,3,task_Trng,2,0,"","",7,10,"","","","",Block10,"","","","","","",J,Stim12,NR,88,"",0,K,blue,10,"","",1.62,528,"","",2,46.94
602071,170,170,block_Trng,3,task_Trng,2,1,"","",8,10,"","","","",Block10,"","","","","","",J,Stim15,HR,98,"",0,J,green,12,"","",1.62,538,"","",2,47.22
602071,171,171,block_Trng,3,task_Trng,2,1,"","",9,10,"","","","",Block10,"","","","","","",K,Stim12,LR,105,"",0,K,red,9,"","",1.62,540,"","",2,47.5
602071,172,172,block_Trng,3,task_Trng,2,1,"","",10,10,"","","","",Block10,"","","","","","",K,Stim14,LR,120,"",0,K,red,11,"","",1.62,542,"","",2,47.78
602071,173,173,block_Trng,3,task_Trng,2,1,"","",11,10,"","","","",Block10,"","","","","","",K,Stim12,HR,1,"",0,K,green,9,"","",1.62,552,"","",2,48.06
602071,174,174,block_Trng,3,task_Trng,2,1,"","",12,10,"","","","",Block10,"","","","","","",K,Stim16,HR,20,"",0,K,green,13,"","",1.62,562,"","",2,48.33
602071,175,175,block_Trng,3,task_Trng,2,1,"","",13,10,"","","","",Block10,"","","","","","",J,Stim13,LR,40,"",0,J,red,10,"","",1.62,564,"","",2,48.61
602071,176,176,block_Trng,3,task_Trng,2,1,"","",14,10,"","","","",Block10,"","","","","","",K,Stim12,NR,33,"",0,K,blue,8,"","",1.62,564,"","",2,48.89
602071,177,177,block_Trng,3,task_Trng,2,1,"","",15,10,"","","","",Block10,"","","","","","",J,Stim13,HR,8,"",0,J,green,10,"","",1.62,574,"","",2,49.17
602071,178,178,block_Trng,3,task_Trng,2,1,"","",16,10,"","","","",Block10,"","","","","","",J,Stim13,NR,29,"",0,J,blue,9,"","",1.62,574,"","",2,49.44
602071,179,179,block_Trng,3,task_Trng,2,1,"","",17,10,"","","","",Block10,"","","","","","",J,Stim14,LR,113,"",0,J,red,12,"","",1.62,576,"","",2,49.72
602071,180,180,block_Trng,3,task_Trng,2,0,"","",18,10,"","","","",Block10,"","","","","","",K,Stim13,NR,100,"",0,J,blue,11,"","",1.62,576,"","",2,50
602071,181,181,block_Trng,3,task_Trng,2,1,"","",1,11,"","","","",Block11,"","","","","","",K,Stim12,NR,107,"",0,K,blue,10,"","",1.62,576,"","",2,50.28
602071,182,182,block_Trng,3,task_Trng,2,1,"","",2,11,"","","","",Block11,"","","","","","",J,Stim12,NR,19,"",0,J,blue,9,"","",1.62,576,"","",2,50.56
602071,183,183,block_Trng,3,task_Trng,2,1,"","",3,11,"","","","",Block11,"","","","","","",J,Stim13,LR,37,"",0,J,red,10,"","",1.62,578,"","",2,50.83
602071,184,184,block_Trng,3,task_Trng,2,1,"","",4,11,"","","","",Block11,"","","","","","",J,Stim16,HR,93,"",0,J,green,12,"","",1.62,588,"","",2,51.11
602071,185,185,block_Trng,3,task_Trng,2,1,"","",5,11,"","","","",Block11,"","","","","","",J,Stim16,LR,4,"",0,J,red,12,"","",1.62,590,"","",2,51.39
602071,186,186,block_Trng,3,task_Trng,2,1,"","",6,11,"","","","",Block11,"","","","","","",J,Stim10,HR,110,"",0,J,green,8,"","",1.62,600,"","",2,51.67
602071,187,187,block_Trng,3,task_Trng,2,0,"","",7,11,"","","","",Block11,"","","","","","",J,Stim16,HR,26,"",0,K,green,13,"","",1.62,600,"","",2,51.94
602071,188,188,block_Trng,3,task_Trng,2,1,"","",8,11,"","","","",Block11,"","","","","","",J,Stim14,HR,57,"",0,J,green,10,"","",1.62,610,"","",2,52.22
602071,189,189,block_Trng,3,task_Trng,2,0,"","",9,11,"","","","",Block11,"","","","","","",J,Stim14,NR,104,"",0,K,blue,12,"","",1.62,610,"","",2,52.5
602071,190,190,block_Trng,3,task_Trng,2,1,"","",10,11,"","","","",Block11,"","","","","","",K,Stim13,HR,100,"",0,K,green,11,"","",1.62,620,"","",2,52.78
602071,191,191,block_Trng,3,task_Trng,2,1,"","",11,11,"","","","",Block11,"","","","","","",J,Stim11,LR,69,"",0,J,red,8,"","",1.62,622,"","",2,53.06
602071,192,192,block_Trng,3,task_Trng,2,0,"","",12,11,"","","","",Block11,"","","","","","",J,Stim15,LR,65,"",0,K,red,13,"","",1.62,622,"","",2,53.33
602071,193,193,block_Trng,3,task_Trng,2,1,"","",13,11,"","","","",Block11,"","","","","","",J,Stim16,NR,108,"",0,J,blue,13,"","",1.62,622,"","",2,53.61
602071,194,194,block_Trng,3,task_Trng,2,0,"","",14,11,"","","","",Block11,"","","","","","",K,Stim13,NR,101,"",0,J,blue,11,"","",1.62,622,"","",2,53.89
602071,195,195,block_Trng,3,task_Trng,2,1,"","",15,11,"","","","",Block11,"","","","","","",K,Stim14,LR,65,"",0,K,red,11,"","",1.62,624,"","",2,54.17
602071,196,196,block_Trng,3,task_Trng,2,1,"","",16,11,"","","","",Block11,"","","","","","",K,Stim12,NR,19,"",0,K,blue,8,"","",1.62,624,"","",2,54.44
602071,197,197,block_Trng,3,task_Trng,2,1,"","",17,11,"","","","",Block11,"","","","","","",K,Stim12,LR,59,"",0,K,red,9,"","",1.62,626,"","",2,54.72
602071,198,198,block_Trng,3,task_Trng,2,1,"","",18,11,"","","","",Block11,"","","","","","",K,Stim12,HR,70,"",0,K,green,9,"","",1.62,636,"","",2,55
602071,199,199,block_Trng,3,task_Trng,2,1,"","",1,12,"","","","",Block12,"","","","","","",J,Stim15,LR,77,"",0,J,red,12,"","",1.62,638,"","",2,55.28
602071,200,200,block_Trng,3,task_Trng,2,0,"","",2,12,"","","","",Block12,"","","","","","",J,Stim14,HR,8,"",0,K,green,11,"","",1.62,638,"","",2,55.56
602071,201,201,block_Trng,3,task_Trng,2,1,"","",3,12,"","","","",Block12,"","","","","","",K,Stim12,HR,4,"",0,K,green,9,"","",1.62,648,"","",2,55.83
602071,202,202,block_Trng,3,task_Trng,2,1,"","",4,12,"","","","",Block12,"","","","","","",J,Stim15,NR,81,"",0,J,blue,11,"","",1.62,648,"","",2,56.11
602071,203,203,block_Trng,3,task_Trng,2,1,"","",5,12,"","","","",Block12,"","","","","","",J,Stim14,HR,10,"",0,J,green,10,"","",1.62,658,"","",2,56.39
602071,204,204,block_Trng,3,task_Trng,2,1,"","",6,12,"","","","",Block12,"","","","","","",K,Stim16,HR,36,"",0,K,green,13,"","",1.62,668,"","",2,56.67
602071,205,205,block_Trng,3,task_Trng,2,1,"","",7,12,"","","","",Block12,"","","","","","",K,Stim13,LR,44,"",0,K,red,9,"","",1.62,670,"","",2,56.94
602071,206,206,block_Trng,3,task_Trng,2,1,"","",8,12,"","","","",Block12,"","","","","","",J,Stim11,HR,95,"",0,J,green,8,"","",1.62,680,"","",2,57.22
602071,207,207,block_Trng,3,task_Trng,2,1,"","",9,12,"","","","",Block12,"","","","","","",J,Stim12,LR,3,"",0,J,red,8,"","",1.62,682,"","",2,57.5
602071,208,208,block_Trng,3,task_Trng,2,1,"","",10,12,"","","","",Block12,"","","","","","",K,Stim15,LR,67,"",0,K,red,13,"","",1.62,684,"","",2,57.78
602071,209,209,block_Trng,3,task_Trng,2,1,"","",11,12,"","","","",Block12,"","","","","","",J,Stim13,NR,11,"",0,J,blue,9,"","",1.62,684,"","",2,58.06
602071,210,210,block_Trng,3,task_Trng,2,1,"","",12,12,"","","","",Block12,"","","","","","",K,Stim14,NR,95,"",0,K,blue,12,"","",1.62,684,"","",2,58.33
602071,211,211,block_Trng,3,task_Trng,2,0,"","",13,12,"","","","",Block12,"","","","","","",J,Stim13,NR,39,"",0,K,blue,10,"","",1.62,684,"","",2,58.61
602071,212,212,block_Trng,3,task_Trng,2,1,"","",14,12,"","","","",Block12,"","","","","","",J,Stim16,NR,118,"",0,J,blue,13,"","",1.62,684,"","",2,58.89
602071,213,213,block_Trng,3,task_Trng,2,1,"","",15,12,"","","","",Block12,"","","","","","",K,Stim11,NR,17,"",0,K,blue,8,"","",1.62,684,"","",2,59.17
602071,214,214,block_Trng,3,task_Trng,2,1,"","",16,12,"","","","",Block12,"","","","","","",K,Stim14,LR,12,"",0,K,red,11,"","",1.62,686,"","",2,59.44
602071,215,215,block_Trng,3,task_Trng,2,1,"","",17,12,"","","","",Block12,"","","","","","",J,Stim15,HR,18,"",0,J,green,12,"","",1.62,696,"","",2,59.72
602071,216,216,block_Trng,3,task_Trng,2,1,"","",18,12,"","","","",Block12,"","","","","","",J,Stim13,LR,117,"",0,J,red,10,"","",2.37,698,"","",3,60
602071,217,217,block_Trng,3,task_Trng,2,0,"","",1,13,"","","","",Block13,"","","","","","",J,Stim12,HR,12,"",0,K,green,9,"","",2.37,698,"","",3,60.28
602071,218,218,block_Trng,3,task_Trng,2,1,"","",2,13,"","","","",Block13,"","","","","","",K,Stim15,LR,56,"",0,K,red,13,"","",2.37,700,"","",3,60.56
602071,219,219,block_Trng,3,task_Trng,2,1,"","",3,13,"","","","",Block13,"","","","","","",K,Stim15,NR,107,"",0,K,blue,12,"","",2.37,700,"","",3,60.83
602071,220,220,block_Trng,3,task_Trng,2,1,"","",4,13,"","","","",Block13,"","","","","","",K,Stim11,LR,86,"",0,K,red,9,"","",2.37,702,"","",3,61.11
602071,221,221,block_Trng,3,task_Trng,2,1,"","",5,13,"","","","",Block13,"","","","","","",K,Stim14,LR,13,"",0,K,red,11,"","",2.37,704,"","",3,61.39
602071,222,222,block_Trng,3,task_Trng,2,0,"","",6,13,"","","","",Block13,"","","","","","",K,Stim16,NR,6,"",0,J,blue,13,"","",2.37,704,"","",3,61.67
602071,223,223,block_Trng,3,task_Trng,2,1,"","",7,13,"","","","",Block13,"","","","","","",K,Stim14,NR,11,"",0,K,blue,10,"","",2.37,704,"","",3,61.94
602071,224,224,block_Trng,3,task_Trng,2,0,"","",8,13,"","","","",Block13,"","","","","","",J,Stim10,NR,105,"",0,K,blue,8,"","",2.37,704,"","",3,62.22
602071,225,225,block_Trng,3,task_Trng,2,1,"","",9,13,"","","","",Block13,"","","","","","",J,Stim15,NR,77,"",0,J,blue,11,"","",2.37,704,"","",3,62.5
602071,226,226,block_Trng,3,task_Trng,2,1,"","",10,13,"","","","",Block13,"","","","","","",J,Stim14,NR,44,"",0,J,blue,9,"","",2.37,704,"","",3,62.78
602071,227,227,block_Trng,3,task_Trng,2,1,"","",11,13,"","","","",Block13,"","","","","","",K,Stim15,HR,94,"",0,K,green,13,"","",2.37,714,"","",3,63.06
602071,228,228,block_Trng,3,task_Trng,2,1,"","",12,13,"","","","",Block13,"","","","","","",J,Stim13,LR,68,"",0,J,red,10,"","",2.37,716,"","",3,63.33
602071,229,229,block_Trng,3,task_Trng,2,0,"","",13,13,"","","","",Block13,"","","","","","",K,Stim15,HR,73,"",0,J,green,12,"","",2.37,716,"","",3,63.61
602071,230,230,block_Trng,3,task_Trng,2,1,"","",14,13,"","","","",Block13,"","","","","","",J,Stim13,HR,18,"",0,J,green,10,"","",2.37,726,"","",3,63.89
602071,231,231,block_Trng,3,task_Trng,2,1,"","",15,13,"","","","",Block13,"","","","","","",K,Stim15,HR,86,"",0,K,green,11,"","",2.37,736,"","",3,64.17
602071,232,232,block_Trng,3,task_Trng,2,1,"","",16,13,"","","","",Block13,"","","","","","",J,Stim15,LR,15,"",0,J,red,12,"","",2.37,738,"","",3,64.44
602071,233,233,block_Trng,3,task_Trng,2,1,"","",17,13,"","","","",Block13,"","","","","","",J,Stim11,LR,107,"",0,J,red,8,"","",2.37,740,"","",3,64.72
602071,234,234,block_Trng,3,task_Trng,2,0,"","",18,13,"","","","",Block13,"","","","","","",K,Stim13,HR,14,"",0,J,green,8,"","",2.37,740,"","",3,65
602071,235,235,block_Trng,3,task_Trng,2,0,"","",1,14,"","","","",Block14,"","","","","","",J,Stim16,LR,47,"",0,K,red,13,"","",2.37,740,"","",3,65.28
602071,236,236,block_Trng,3,task_Trng,2,1,"","",2,14,"","","","",Block14,"","","","","","",J,Stim15,LR,47,"",0,J,red,12,"","",2.37,742,"","",3,65.56
602071,237,237,block_Trng,3,task_Trng,2,1,"","",3,14,"","","","",Block14,"","","","","","",K,Stim12,NR,31,"",0,K,blue,8,"","",2.37,742,"","",3,65.83
602071,238,238,block_Trng,3,task_Trng,2,1,"","",4,14,"","","","",Block14,"","","","","","",J,Stim12,HR,22,"",0,J,green,8,"","",2.37,752,"","",3,66.11
602071,239,239,block_Trng,3,task_Trng,2,0,"","",5,14,"","","","",Block14,"","","","","","",J,Stim15,HR,105,"",0,K,green,13,"","",2.37,752,"","",3,66.39
602071,240,240,block_Trng,3,task_Trng,2,1,"","",6,14,"","","","",Block14,"","","","","","",K,Stim12,LR,20,"",0,K,red,9,"","",2.37,754,"","",3,66.67
602071,241,241,block_Trng,3,task_Trng,2,0,"","",7,14,"","","","",Block14,"","","","","","",K,Stim11,NR,68,"",0,J,blue,9,"","",2.37,754,"","",3,66.94
602071,242,242,block_Trng,3,task_Trng,2,1,"","",8,14,"","","","",Block14,"","","","","","",K,Stim15,NR,38,"",0,K,blue,12,"","",2.37,754,"","",3,67.22
602071,243,243,block_Trng,3,task_Trng,2,0,"","",9,14,"","","","",Block14,"","","","","","",J,Stim14,HR,1,"",0,K,green,11,"","",2.37,754,"","",3,67.5
602071,244,244,block_Trng,3,task_Trng,2,1,"","",10,14,"","","","",Block14,"","","","","","",J,Stim13,LR,14,"",0,J,red,10,"","",2.37,756,"","",3,67.78
602071,245,245,block_Trng,3,task_Trng,2,1,"","",11,14,"","","","",Block14,"","","","","","",K,Stim14,LR,22,"",0,K,red,11,"","",2.37,758,"","",3,68.06
602071,246,246,block_Trng,3,task_Trng,2,1,"","",12,14,"","","","",Block14,"","","","","","",J,Stim14,HR,103,"",0,J,green,12,"","",2.37,768,"","",3,68.33
602071,247,247,block_Trng,3,task_Trng,2,0,"","",13,14,"","","","",Block14,"","","","","","",J,Stim12,HR,40,"",0,K,green,9,"","",2.37,768,"","",3,68.61
602071,248,248,block_Trng,3,task_Trng,2,1,"","",14,14,"","","","",Block14,"","","","","","",J,Stim14,NR,71,"",0,J,blue,11,"","",2.37,768,"","",3,68.89
602071,249,249,block_Trng,3,task_Trng,2,1,"","",15,14,"","","","",Block14,"","","","","","",J,Stim11,LR,97,"",0,J,red,8,"","",2.37,770,"","",3,69.17
602071,250,250,block_Trng,3,task_Trng,2,1,"","",16,14,"","","","",Block14,"","","","","","",J,Stim13,HR,90,"",0,J,green,10,"","",2.37,780,"","",3,69.44
602071,251,251,block_Trng,3,task_Trng,2,1,"","",17,14,"","","","",Block14,"","","","","","",K,Stim12,NR,84,"",0,K,blue,10,"","",2.37,780,"","",3,69.72
602071,252,252,block_Trng,3,task_Trng,2,1,"","",18,14,"","","","",Block14,"","","","","","",J,PreISI1,NR,29,"",0,J,blue,13,"","",2.37,780,"","",3,70
602071,253,253,block_Trng,3,task_Trng,2,1,"","",1,15,"","","","",Block15,"","","","","","",K,Stim15,NR,10,"",0,K,blue,12,"","",2.37,780,"","",3,70.28
602071,254,254,block_Trng,3,task_Trng,2,1,"","",2,15,"","","","",Block15,"","","","","","",J,Stim15,HR,58,"",0,J,green,12,"","",2.37,790,"","",3,70.56
602071,255,255,block_Trng,3,task_Trng,2,1,"","",3,15,"","","","",Block15,"","","","","","",K,Stim11,NR,18,"",0,K,blue,8,"","",2.37,790,"","",3,70.83
602071,256,256,block_Trng,3,task_Trng,2,1,"","",4,15,"","","","",Block15,"","","","","","",K,Stim16,LR,39,"",0,K,red,13,"","",2.37,792,"","",3,71.11
602071,257,257,block_Trng,3,task_Trng,2,1,"","",5,15,"","","","",Block15,"","","","","","",J,Stim13,HR,5,"",0,J,green,10,"","",2.37,802,"","",3,71.39
602071,258,258,block_Trng,3,task_Trng,2,1,"","",6,15,"","","","",Block15,"","","","","","",K,Stim15,HR,40,"",0,K,green,13,"","",2.37,812,"","",3,71.67
602071,259,259,block_Trng,3,task_Trng,2,0,"","",7,15,"","","","",Block15,"","","","","","",K,Stim16,NR,4,"",0,J,blue,13,"","",2.37,812,"","",3,71.94
602071,260,260,block_Trng,3,task_Trng,2,1,"","",8,15,"","","","",Block15,"","","","","","",K,Stim14,HR,112,"",0,K,green,11,"","",2.37,822,"","",3,72.22
602071,261,261,block_Trng,3,task_Trng,2,0,"","",9,15,"","","","",Block15,"","","","","","",J,Stim14,LR,16,"",0,K,red,11,"","",2.37,822,"","",3,72.5
602071,262,262,block_Trng,3,task_Trng,2,1,"","",10,15,"","","","",Block15,"","","","","","",J,Stim13,NR,14,"",0,J,blue,9,"","",2.37,822,"","",3,72.78
602071,263,263,block_Trng,3,task_Trng,2,0,"","",11,15,"","","","",Block15,"","","","","","",K,Stim13,NR,87,"",0,J,blue,11,"","",2.37,822,"","",3,73.06
602071,264,264,block_Trng,3,task_Trng,2,1,"","",12,15,"","","","",Block15,"","","","","","",K,Stim12,HR,21,"",0,K,green,9,"","",2.37,832,"","",3,73.33
602071,265,265,block_Trng,3,task_Trng,2,0,"","",13,15,"","","","",Block15,"","","","","","",K,Stim12,LR,73,"",0,J,red,10,"","",2.37,832,"","",3,73.61
602071,266,266,block_Trng,3,task_Trng,2,0,"","",14,15,"","","","",Block15,"","","","","","",K,Stim11,LR,61,"",0,J,red,8,"","",2.37,832,"","",3,73.89
602071,267,267,block_Trng,3,task_Trng,2,1,"","",15,15,"","","","",Block15,"","","","","","",K,Stim12,LR,96,"",0,K,red,9,"","",2.37,834,"","",3,74.17
602071,268,268,block_Trng,3,task_Trng,2,1,"","",16,15,"","","","",Block15,"","","","","","",J,Stim10,HR,96,"",0,J,green,8,"","",2.37,844,"","",3,74.44
602071,269,269,block_Trng,3,task_Trng,2,1,"","",17,15,"","","","",Block15,"","","","","","",J,Stim15,LR,53,"",0,J,red,12,"","",2.37,846,"","",3,74.72
602071,270,270,block_Trng,3,task_Trng,2,1,"","",18,15,"","","","",Block15,"","","","","","",K,Stim13,NR,24,"",0,K,blue,10,"","",2.37,846,"","",3,75
602071,271,271,block_Trng,3,task_Trng,2,0,"","",1,16,"","","","",Block16',"","","","","","",J,Stim14,HR,6,"",0,K,green,11,"","",2.37,846,"","",3,75.28
602071,272,272,block_Trng,3,task_Trng,2,1,"","",2,16,"","","","",Block16',"","","","","","",J,Stim11,LR,50,"",0,J,red,8,"","",2.37,848,"","",3,75.56
602071,273,273,block_Trng,3,task_Trng,2,1,"","",3,16,"","","","",Block16',"","","","","","",J,Stim14,LR,23,"",0,J,red,10,"","",2.37,850,"","",3,75.83
602071,274,274,block_Trng,3,task_Trng,2,0,"","",4,16,"","","","",Block16',"","","","","","",K,Stim13,HR,19,"",0,J,green,10,"","",2.37,850,"","",3,76.11
602071,275,275,block_Trng,3,task_Trng,2,1,"","",5,16,"","","","",Block16',"","","","","","",J,Stim15,LR,19,"",0,J,red,12,"","",2.37,852,"","",3,76.39
602071,276,276,block_Trng,3,task_Trng,2,1,"","",6,16,"","","","",Block16',"","","","","","",K,Stim11,NR,44,"",0,K,blue,8,"","",2.37,852,"","",3,76.67
602071,277,277,block_Trng,3,task_Trng,2,1,"","",7,16,"","","","",Block16',"","","","","","",J,Stim15,NR,114,"",0,J,blue,13,"","",2.37,852,"","",3,76.94
602071,278,278,block_Trng,3,task_Trng,2,1,"","",8,16,"","","","",Block16',"","","","","","",K,Stim11,HR,112,"",0,K,green,9,"","",2.37,862,"","",3,77.22
602071,279,279,block_Trng,3,task_Trng,2,0,"","",9,16,"","","","",Block16',"","","","","","",K,Stim11,HR,15,"",0,J,green,8,"","",2.37,862,"","",3,77.5
602071,280,280,block_Trng,3,task_Trng,2,1,"","",10,16,"","","","",Block16',"","","","","","",K,Stim12,NR,111,"",0,K,blue,10,"","",2.37,862,"","",3,77.78
602071,281,281,block_Trng,3,task_Trng,2,1,"","",11,16,"","","","",Block16',"","","","","","",J,Stim14,HR,99,"",0,J,green,12,"","",2.37,872,"","",3,78.06
602071,282,282,block_Trng,3,task_Trng,2,1,"","",12,16,"","","","",Block16',"","","","","","",K,Stim14,NR,82,"",0,K,blue,12,"","",2.37,872,"","",3,78.33
602071,283,283,block_Trng,3,task_Trng,2,0,"","",13,16,"","","","",Block16',"","","","","","",J,Stim16,HR,30,"",0,K,green,13,"","",2.37,872,"","",3,78.61
602071,284,284,block_Trng,3,task_Trng,2,1,"","",14,16,"","","","",Block16',"","","","","","",K,Stim12,LR,115,"",0,K,red,9,"","",2.37,874,"","",3,78.89
602071,285,285,block_Trng,3,task_Trng,2,1,"","",15,16,"","","","",Block16',"","","","","","",K,Stim16,LR,30,"",0,K,red,13,"","",2.37,876,"","",3,79.17
602071,286,286,block_Trng,3,task_Trng,2,1,"","",16,16,"","","","",Block16',"","","","","","",J,Stim13,NR,23,"",0,J,blue,9,"","",2.37,876,"","",3,79.44
602071,287,287,block_Trng,3,task_Trng,2,1,"","",17,16,"","","","",Block16',"","","","","","",J,Stim14,NR,87,"",0,J,blue,11,"","",2.37,876,"","",3,79.72
602071,288,288,block_Trng,3,task_Trng,2,1,"","",18,16,"","","","",Block16',"","","","","","",K,Stim14,LR,25,"",0,K,red,11,"","",2.99,878,"","",4,80
602071,289,289,block_Trng,3,task_Trng,2,1,"","",1,17,"","","","",Block17,"","","","","","",J,Stim12,HR,77,"",0,J,green,8,"","",2.99,888,"","",4,80.28
602071,290,290,block_Trng,3,task_Trng,2,1,"","",2,17,"","","","",Block17,"","","","","","",J,Stim15,NR,13,"",0,J,blue,11,"","",2.99,888,"","",4,80.56
602071,291,291,block_Trng,3,task_Trng,2,1,"","",3,17,"","","","",Block17,"","","","","","",K,Stim12,LR,52,"",0,K,red,9,"","",2.99,890,"","",4,80.83
602071,292,292,block_Trng,3,task_Trng,2,1,"","",4,17,"","","","",Block17,"","","","","","",K,Stim13,HR,16,"",0,K,green,9,"","",2.99,900,"","",4,81.11
602071,293,293,block_Trng,3,task_Trng,2,0,"","",5,17,"","","","",Block17,"","","","","","",J,Stim15,NR,13,"",0,K,blue,12,"","",2.99,900,"","",4,81.39
602071,294,294,block_Trng,3,task_Trng,2,0,"","",6,17,"","","","",Block17,"","","","","","",K,Stim14,HR,59,"",0,J,green,12,"","",2.99,900,"","",4,81.67
602071,295,295,block_Trng,3,task_Trng,2,1,"","",7,17,"","","","",Block17,"","","","","","",K,Stim13,HR,103,"",0,K,green,11,"","",2.99,910,"","",4,81.94
602071,296,296,block_Trng,3,task_Trng,2,1,"","",8,17,"","","","",Block17,"","","","","","",K,Stim16,HR,15,"",0,K,green,13,"","",2.99,920,"","",4,82.22
602071,297,297,block_Trng,3,task_Trng,2,1,"","",9,17,"","","","",Block17,"","","","","","",J,Stim13,LR,98,"",0,J,red,8,"","",2.99,922,"","",4,82.5
602071,298,298,block_Trng,3,task_Trng,2,0,"","",10,17,"","","","",Block17,"","","","","","",J,Stim15,LR,104,"",0,K,red,13,"","",2.99,922,"","",4,82.78
602071,299,299,block_Trng,3,task_Trng,2,1,"","",11,17,"","","","",Block17,"","","","","","",K,Stim13,NR,19,"",0,K,blue,10,"","",2.99,922,"","",4,83.06
602071,300,300,block_Trng,3,task_Trng,2,1,"","",12,17,"","","","",Block17,"","","","","","",J,Stim15,NR,109,"",0,J,blue,13,"","",2.99,922,"","",4,83.33
602071,301,301,block_Trng,3,task_Trng,2,1,"","",13,17,"","","","",Block17,"","","","","","",J,Stim14,HR,13,"",0,J,green,10,"","",2.99,932,"","",4,83.61
602071,302,302,block_Trng,3,task_Trng,2,1,"","",14,17,"","","","",Block17,"","","","","","",J,Stim13,LR,111,"",0,J,red,10,"","",2.99,934,"","",4,83.89
602071,303,303,block_Trng,3,task_Trng,2,1,"","",15,17,"","","","",Block17,"","","","","","",K,Stim13,NR,79,"",0,K,blue,8,"","",2.99,934,"","",4,84.17
602071,304,304,block_Trng,3,task_Trng,2,1,"","",16,17,"","","","",Block17,"","","","","","",J,Stim12,NR,13,"",0,J,blue,9,"","",2.99,934,"","",4,84.44
602071,305,305,block_Trng,3,task_Trng,2,0,"","",17,17,"","","","",Block17,"","","","","","",K,Stim15,LR,101,"",0,J,red,12,"","",2.99,934,"","",4,84.72
602071,306,306,block_Trng,3,task_Trng,2,1,"","",18,17,"","","","",Block17,"","","","","","",K,Stim14,LR,95,"",0,K,red,11,"","",2.99,936,"","",4,85
602071,307,307,block_Trng,3,task_Trng,2,1,"","",1,18,"","","","",Block18,"","","","","","",J,Stim16,NR,68,"",0,J,blue,13,"","",2.99,936,"","",4,85.28
602071,308,308,block_Trng,3,task_Trng,2,1,"","",2,18,"","","","",Block18,"","","","","","",J,Stim11,LR,110,"",0,J,red,8,"","",2.99,938,"","",4,85.56
602071,309,309,block_Trng,3,task_Trng,2,1,"","",3,18,"","","","",Block18,"","","","","","",J,Stim13,NR,24,"",0,J,blue,9,"","",2.99,938,"","",4,85.83
602071,310,310,block_Trng,3,task_Trng,2,0,"","",4,18,"","","","",Block18,"","","","","","",J,Stim15,LR,57,"",0,K,red,13,"","",2.99,938,"","",4,86.11
602071,311,311,block_Trng,3,task_Trng,2,1,"","",5,18,"","","","",Block18,"","","","","","",K,Stim12,NR,104,"",0,K,blue,12,"","",2.99,938,"","",4,86.39
602071,312,312,block_Trng,3,task_Trng,2,1,"","",6,18,"","","","",Block18,"","","","","","",J,Stim13,HR,77,"",0,J,green,10,"","",2.99,948,"","",4,86.67
602071,313,313,block_Trng,3,task_Trng,2,1,"","",7,18,"","","","",Block18,"","","","","","",K,Stim15,HR,115,"",0,K,green,13,"","",2.99,958,"","",4,86.94
602071,314,314,block_Trng,3,task_Trng,2,1,"","",8,18,"","","","",Block18,"","","","","","",J,Stim12,HR,16,"",0,J,green,8,"","",2.99,968,"","",4,87.22
602071,315,315,block_Trng,3,task_Trng,2,1,"","",9,18,"","","","",Block18,"","","","","","",K,Stim13,HR,114,"",0,K,green,11,"","",2.99,978,"","",4,87.5
602071,316,316,block_Trng,3,task_Trng,2,1,"","",10,18,"","","","",Block18,"","","","","","",J,Stim13,LR,31,"",0,J,red,10,"","",2.99,980,"","",4,87.78
602071,317,317,block_Trng,3,task_Trng,2,0,"","",11,18,"","","","",Block18,"","","","","","",J,Stim13,NR,80,"",0,K,blue,10,"","",2.99,980,"","",4,88.06
602071,318,318,block_Trng,3,task_Trng,2,1,"","",12,18,"","","","",Block18,"","","","","","",K,Stim11,HR,114,"",0,K,green,9,"","",2.99,990,"","",4,88.33
602071,319,319,block_Trng,3,task_Trng,2,0,"","",13,18,"","","","",Block18,"","","","","","",J,Stim12,LR,59,"",0,K,red,9,"","",2.99,990,"","",4,88.61
602071,320,320,block_Trng,3,task_Trng,2,1,"","",14,18,"","","","",Block18,"","","","","","",K,Stim10,NR,91,"",0,K,blue,8,"","",2.99,990,"","",4,88.89
602071,321,321,block_Trng,3,task_Trng,2,1,"","",15,18,"","","","",Block18,"","","","","","",J,Stim15,HR,109,"",0,J,green,12,"","",2.99,1000,"","",4,89.17
602071,322,322,block_Trng,3,task_Trng,2,1,"","",16,18,"","","","",Block18,"","","","","","",J,Stim14,NR,68,"",0,J,blue,11,"","",2.99,1000,"","",4,89.44
602071,323,323,block_Trng,3,task_Trng,2,1,"","",17,18,"","","","",Block18,"","","","","","",J,Stim15,LR,87,"",0,J,red,12,"","",2.99,1002,"","",4,89.72
602071,324,324,block_Trng,3,task_Trng,2,0,"","",18,18,"","","","",Block18,"","","","","","",J,Stim14,LR,91,"",0,K,red,11,"","",2.99,1002,"","",4,90
602071,325,325,block_Trng,3,task_Trng,2,1,"","",1,19,"","","","",Block19,"","","","","","",J,Stim13,LR,71,"",0,J,red,10,"","",2.99,1004,"","",4,90.28
602071,326,326,block_Trng,3,task_Trng,2,0,"","",2,19,"","","","",Block19,"","","","","","",K,Stim13,HR,20,"",0,J,green,10,"","",2.99,1004,"","",4,90.56
602071,327,327,block_Trng,3,task_Trng,2,0,"","",3,19,"","","","",Block19,"","","","","","",K,Stim11,HR,52,"",0,J,green,8,"","",2.99,1004,"","",4,90.83
602071,328,328,block_Trng,3,task_Trng,2,1,"","",4,19,"","","","",Block19,"","","","","","",J,Stim15,LR,114,"",0,J,red,12,"","",2.99,1006,"","",4,91.11
602071,329,329,block_Trng,3,task_Trng,2,1,"","",5,19,"","","","",Block19,"","","","","","",J,Stim13,NR,40,"",0,J,blue,9,"","",2.99,1006,"","",4,91.39
602071,330,330,block_Trng,3,task_Trng,2,1,"","",6,19,"","","","",Block19,"","","","","","",K,Stim13,HR,104,"",0,K,green,11,"","",2.99,1016,"","",4,91.67
602071,331,331,block_Trng,3,task_Trng,2,1,"","",7,19,"","","","",Block19,"","","","","","",J,Stim14,NR,115,"",0,J,blue,11,"","",2.99,1016,"","",4,91.94
602071,332,332,block_Trng,3,task_Trng,2,1,"","",8,19,"","","","",Block19,"","","","","","",J,Stim12,LR,12,"",0,J,red,8,"","",2.99,1018,"","",4,92.22
602071,333,333,block_Trng,3,task_Trng,2,1,"","",9,19,"","","","",Block19,"","","","","","",J,Stim16,NR,2,"",0,J,blue,13,"","",2.99,1018,"","",4,92.5
602071,334,334,block_Trng,3,task_Trng,2,0,"","",10,19,"","","","",Block19,"","","","","","",J,Stim12,HR,6,"",0,K,green,9,"","",2.99,1018,"","",4,92.78
602071,335,335,block_Trng,3,task_Trng,2,1,"","",11,19,"","","","",Block19,"","","","","","",K,Stim16,LR,77,"",0,K,red,13,"","",2.99,1020,"","",4,93.06
602071,336,336,block_Trng,3,task_Trng,2,0,"","",12,19,"","","","",Block19,"","","","","","",K,Stim15,HR,106,"",0,J,green,12,"","",2.99,1020,"","",4,93.33
602071,337,337,block_Trng,3,task_Trng,2,1,"","",13,19,"","","","",Block19,"","","","","","",K,Stim13,NR,104,"",0,K,blue,10,"","",2.99,1020,"","",4,93.61
602071,338,338,block_Trng,3,task_Trng,2,0,"","",14,19,"","","","",Block19,"","","","","","",J,Stim11,LR,80,"",0,K,red,9,"","",2.99,1020,"","",4,93.89
602071,339,339,block_Trng,3,task_Trng,2,1,"","",15,19,"","","","",Block19,"","","","","","",K,Stim14,LR,14,"",0,K,red,11,"","",2.99,1022,"","",4,94.17
602071,340,340,block_Trng,3,task_Trng,2,1,"","",16,19,"","","","",Block19,"","","","","","",K,Stim16,NR,69,"",0,K,blue,8,"","",2.99,1022,"","",4,94.44
602071,341,341,block_Trng,3,task_Trng,2,0,"","",17,19,"","","","",Block19,"","","","","","",J,Stim15,HR,114,"",0,K,green,13,"","",2.99,1022,"","",4,94.72
602071,342,342,block_Trng,3,task_Trng,2,1,"","",18,19,"","","","",Block19,"","","","","","",K,Stim15,NR,61,"",0,K,blue,12,"","",2.99,1022,"","",4,95
602071,343,343,block_Trng,3,task_Trng,2,1,"","",1,20,"","","","",Block20,"","","","","","",K,Stim11,NR,119,"",0,K,blue,8,"","",2.99,1022,"","",4,95.28
602071,344,344,block_Trng,3,task_Trng,2,1,"","",2,20,"","","","",Block20,"","","","","","",K,Stim16,LR,13,"",0,K,red,13,"","",2.99,1024,"","",4,95.56
602071,345,345,block_Trng,3,task_Trng,2,1,"","",3,20,"","","","",Block20,"","","","","","",K,Stim12,LR,12,"",0,K,red,9,"","",2.99,1026,"","",4,95.83
602071,346,346,block_Trng,3,task_Trng,2,0,"","",4,20,"","","","",Block20,"","","","","","",K,Stim12,NR,22,"",0,J,blue,9,"","",2.99,1026,"","",4,96.11
602071,347,347,block_Trng,3,task_Trng,2,1,"","",5,20,"","","","",Block20,"","","","","","",J,Stim13,LR,72,"",0,J,red,8,"","",2.99,1028,"","",4,96.39
602071,348,348,block_Trng,3,task_Trng,2,1,"","",6,20,"","","","",Block20,"","","","","","",K,Stim11,HR,116,"",0,K,green,9,"","",2.99,1038,"","",4,96.67
602071,349,349,block_Trng,3,task_Trng,2,1,"","",7,20,"","","","",Block20,"","","","","","",K,Stim16,HR,32,"",0,K,green,13,"","",2.99,1048,"","",4,96.94
602071,350,350,block_Trng,3,task_Trng,2,1,"","",8,20,"","","","",Block20,"","","","","","",J,Stim12,HR,7,"",0,J,green,8,"","",2.99,1058,"","",4,97.22
602071,351,351,block_Trng,3,task_Trng,2,0,"","",9,20,"","","","",Block20,"","","","","","",J,Stim14,LR,73,"",0,K,red,11,"","",2.99,1058,"","",4,97.5
602071,352,352,block_Trng,3,task_Trng,2,1,"","",10,20,"","","","",Block20,"","","","","","",K,Stim13,HR,119,"",0,K,green,11,"","",2.99,1068,"","",4,97.78
602071,353,353,block_Trng,3,task_Trng,2,1,"","",11,20,"","","","",Block20,"","","","","","",J,PreISI1,NR,19,"",0,J,blue,13,"","",2.99,1068,"","",4,98.06
602071,354,354,block_Trng,3,task_Trng,2,1,"","",12,20,"","","","",Block20,"","","","","","",J,Stim14,LR,17,"",0,J,red,10,"","",2.99,1070,"","",4,98.33
602071,355,355,block_Trng,3,task_Trng,2,1,"","",13,20,"","","","",Block20,"","","","","","",K,Stim14,NR,86,"",0,K,blue,12,"","",2.99,1070,"","",4,98.61
602071,356,356,block_Trng,3,task_Trng,2,1,"","",14,20,"","","","",Block20,"","","","","","",K,Stim13,NR,108,"",0,K,blue,10,"","",2.99,1070,"","",4,98.89
602071,357,357,block_Trng,3,task_Trng,2,1,"","",15,20,"","","","",Block20,"","","","","","",J,Stim16,LR,35,"",0,J,red,12,"","",2.99,1072,"","",4,99.17
602071,358,358,block_Trng,3,task_Trng,2,0,"","",16,20,"","","","",Block20,"","","","","","",K,Stim15,HR,67,"",0,J,green,12,"","",2.99,1072,"","",4,99.44
602071,359,359,block_Trng,3,task_Trng,2,1,"","",17,20,"","","","",Block20,"","","","","","",J,Stim16,NR,15,"",0,J,blue,11,"","",2.99,1072,"","",4,99.72
602071,360,360,block_Trng,3,task_Trng,2,1,"","",18,20,"","","","",Block20,"","","","","","",J,Stim13,HR,30,"",0,J,green,10,"","",2.99,1082,"","",4,100
