Rec_Session_Id,Trial_Nr,Trial_Id,Block_Name,Block_Nr,Task_Name,Task_Nr,ACC,ACC_Total_Prac,Age,BlkTrial_Nr,Condition_Id,Consent,Contact,copy_of_factor1_tg1_task2,Email,factor1_tg1_task2,Fdbck_Slow,Feedback,MatricNo,Name,PAYNOW,Recontact,RESP,RESP_Frame,Reward,RT_FromFramePress,Sex,SlowResp,Targ,TargCol,TargPos,Testing_BreakCount,Testing_Progress,TotalMoney,TotalPoints,TotalPoints_prac,Trial_Nr_prac,Trng_BreakCount,Trng_Progress
583824,1,1,block_TrngInstructions,1,task_Consent,1,"","","","",1,Yes,"","","","","","","","","","","","","","","","","","","","","","","","","","",""
583824,1,1,block_TrngInstructions,1,task_Trng_Instructions,2,"","","","",1,"","","","","","","","","","","","","","","","","","","","","","","","","","","",""
583824,1,1,block_Practice,2,task_GetReady,1,"","","","",1,"","","","","","","","","","","","","","","","","","","","","","","","","","","",""
583824,1,1,block_Practice,2,task_Trng_Prac,2,1,1,"","",1,"","","","","","","","","","","",J,Stim15,Disallowed,11,"",0,J,green,9,"","","",0,0,"","",""
583824,2,2,block_Practice,2,task_Trng_Prac,2,0,1,"","",1,"","","","","","","","","","","",J,Stim16,Disallowed,71,"",0,K,red,10,"","","",0,0,"","",""
583824,3,3,block_Practice,2,task_Trng_Prac,2,1,2,"","",1,"","","","","","","","","","","",K,PreISI1,Disallowed,34,"",0,K,green,11,"","","",0,0,"","",""
583824,4,4,block_Practice,2,task_Trng_Prac,2,0,2,"","",1,"","","","","","","","","","","",K,PreISI1,Disallowed,116,"",0,J,blue,12,"","","",0,0,"","",""
583824,5,5,block_Practice,2,task_Trng_Prac,2,1,3,"","",1,"","","","","","","","","","","",J,PreISI1,Disallowed,218,"",0,J,blue,13,"","","",0,0,"","",""
583824,6,6,block_Practice,2,task_Trng_Prac,2,1,0,"","",1,"","","","","",Slow!,"","","","","",K,ISI,Disallowed,164,"",1,K,red,8,"","","",0,0,"","",""
583824,1,1,block_Practice,2,task_GetReady,1,"","","","",1,"","","","","","","","","","","","","","","","","","","","","","","","","","","",""
583824,1,1,block_Practice,2,task_Trng_Prac,2,1,1,"","",1,"","","","","","","","","","","",J,Stim14,Disallowed,100,"",1,J,green,9,"","","",0,0,"","",""
583824,2,2,block_Practice,2,task_Trng_Prac,2,1,2,"","",1,"","","","","","","","","","","",K,Stim16,Disallowed,34,"",1,K,red,10,"","","",0,0,"","",""
583824,3,3,block_Practice,2,task_Trng_Prac,2,1,3,"","",1,"","","","","","","","","","","",J,PreISI1,Disallowed,140,"",1,J,blue,12,"","","",0,0,"","",""
583824,4,4,block_Practice,2,task_Trng_Prac,2,1,4,"","",1,"","","","","","","","","","","",K,Stim13,Disallowed,99,"",1,K,red,8,"","","",0,0,"","",""
583824,5,5,block_Practice,2,task_Trng_Prac,2,1,5,"","",1,"","","","","","","","","","","",K,PreISI1,Disallowed,10,"",1,K,green,11,"","","",0,0,"","",""
583824,6,6,block_Practice,2,task_Trng_Prac,2,1,6,"","",1,"","","","","","","","","","","",J,PreISI1,Disallowed,228,"",1,J,blue,13,"","","",0,0,"","",""
583824,1,1,block_Trng,3,task_GetReady,1,"","","","",1,"","","","","","","","","","","","","","","","","","","","","","","","","","","",""
583824,1,1,block_Trng,3,task_Trng,2,0,"","",1,1,"","","","",Block1,"","","","","","",K,PreISI1,LR,219,"",0,J,green,12,"","",0,0,"","",0,0.28
583824,2,2,block_Trng,3,task_Trng,2,1,"","",2,1,"","","","",Block1,"","","","","","",J,Stim13,NR,96,"",0,J,red,8,"","",0,0,"","",0,0.56
583824,3,3,block_Trng,3,task_Trng,2,0,"","",3,1,"","","","",Block1,"","","","","","",J,Stim15,HR,13,"",0,K,blue,8,"","",0,0,"","",0,0.83
583824,4,4,block_Trng,3,task_Trng,2,1,"","",4,1,"","","","",Block1,"","","","","","",J,Stim15,HR,3,"",0,J,blue,9,"","",0,10,"","",0,1.11
583824,5,5,block_Trng,3,task_Trng,2,0,"","",5,1,"","","","",Block1,Slow!,"","","","","","","",NR,0,"",1,J,red,12,"","",0,10,"","",0,1.39
583824,6,6,block_Trng,3,task_Trng,2,1,"","",6,1,"","","","",Block1,"","","","","","",J,Stim15,LR,98,"",0,J,green,10,"","",0,12,"","",0,1.67
583824,7,7,block_Trng,3,task_Trng,2,1,"","",7,1,"","","","",Block1,"","","","","","",K,PreISI1,NR,129,"",0,K,red,11,"","",0,12,"","",0,1.94
583824,8,8,block_Trng,3,task_Trng,2,0,"","",8,1,"","","","",Block1,"","","","","","",J,PreISI1,HR,130,"",0,K,blue,12,"","",0,12,"","",0,2.22
583824,9,9,block_Trng,3,task_Trng,2,1,"","",9,1,"","","","",Block1,"","","","","","",K,PreISI1,NR,225,"",0,K,red,9,"","",0,12,"","",0,2.5
583824,10,10,block_Trng,3,task_Trng,2,1,"","",10,1,"","","","",Block1,"","","","","","",J,PreISI1,HR,189,"",0,J,blue,13,"","",0,22,"","",0,2.78
583824,11,11,block_Trng,3,task_Trng,2,0,"","",11,1,"","","","",Block1,"","","","","","",J,PreISI1,HR,527,"",0,K,blue,10,"","",0,22,"","",0,3.06
583824,12,12,block_Trng,3,task_Trng,2,0,"","",12,1,"","","","",Block1,"","","","","","",K,Stim16,HR,75,"",0,J,blue,11,"","",0,22,"","",0,3.33
583824,13,13,block_Trng,3,task_Trng,2,0,"","",13,1,"","","","",Block1,"","","","","","",J,Stim15,LR,118,"",0,K,green,9,"","",0,22,"","",0,3.61
583824,14,14,block_Trng,3,task_Trng,2,1,"","",14,1,"","","","",Block1,"","","","","","",J,Stim15,NR,85,"",0,J,red,10,"","",0,22,"","",0,3.89
583824,15,15,block_Trng,3,task_Trng,2,0,"","",15,1,"","","","",Block1,"","","","","","",J,PreISI1,LR,109,"",0,K,green,11,"","",0,22,"","",0,4.17
583824,16,16,block_Trng,3,task_Trng,2,0,"","",16,1,"","","","",Block1,"","","","","","",J,PreISI1,NR,268,"",0,K,red,13,"","",0,22,"","",0,4.44
583824,17,17,block_Trng,3,task_Trng,2,1,"","",17,1,"","","","",Block1,"","","","","","",K,PreISI1,LR,267,"",0,K,green,13,"","",0,24,"","",0,4.72
583824,18,18,block_Trng,3,task_Trng,2,1,"","",18,1,"","","","",Block1,"","","","","","",J,PreISI1,LR,291,"",0,J,green,8,"","",0,26,"","",0,5
583824,19,19,block_Trng,3,task_Trng,2,1,"","",1,2,"","","","",Block2,Slow!,"","","","","",J,PreISI2,LR,68,"",1,J,green,10,"","",0,26,"","",0,5.28
583824,20,20,block_Trng,3,task_Trng,2,1,"","",2,2,"","","","",Block2,"","","","","","",J,PreISI1,HR,365,"",0,J,blue,13,"","",0,36,"","",0,5.56
583824,21,21,block_Trng,3,task_Trng,2,1,"","",3,2,"","","","",Block2,Slow!,"","","","","",J,PreISI2,LR,720,"",1,J,green,8,"","",0,36,"","",0,5.83
583824,22,22,block_Trng,3,task_Trng,2,0,"","",4,2,"","","","",Block2,"","","","","","",J,PreISI1,HR,76,"",0,K,blue,12,"","",0,36,"","",0,6.11
583824,23,23,block_Trng,3,task_Trng,2,1,"","",5,2,"","","","",Block2,"","","","","","",J,Stim15,HR,25,"",0,J,blue,9,"","",0,46,"","",0,6.39
583824,24,24,block_Trng,3,task_Trng,2,1,"","",6,2,"","","","",Block2,"","","","","","",J,Stim16,LR,78,"",0,J,green,12,"","",0,48,"","",0,6.67
583824,25,25,block_Trng,3,task_Trng,2,0,"","",7,2,"","","","",Block2,"","","","","","",J,Stim10,NR,1,"",0,K,red,9,"","",0,48,"","",0,6.94
583824,26,26,block_Trng,3,task_Trng,2,0,"","",8,2,"","","","",Block2,"","","","","","",J,Stim13,HR,36,"",0,K,blue,8,"","",0,48,"","",0,7.22
583824,27,27,block_Trng,3,task_Trng,2,1,"","",9,2,"","","","",Block2,"","","","","","",J,PreISI1,NR,135,"",0,J,red,12,"","",0,48,"","",0,7.5
583824,28,28,block_Trng,3,task_Trng,2,0,"","",10,2,"","","","",Block2,"","","","","","",K,Stim13,NR,81,"",0,J,red,8,"","",0,48,"","",0,7.78
583824,29,29,block_Trng,3,task_Trng,2,1,"","",11,2,"","","","",Block2,"","","","","","",K,Stim14,HR,55,"",0,K,blue,10,"","",0,58,"","",0,8.06
583824,30,30,block_Trng,3,task_Trng,2,0,"","",12,2,"","","","",Block2,Slow!,"","","","","","","",HR,0,"",1,J,blue,11,"","",0,58,"","",0,8.33
583824,31,31,block_Trng,3,task_Trng,2,1,"","",13,2,"","","","",Block2,"","","","","","",J,Stim15,NR,111,"",0,J,red,10,"","",0,58,"","",0,8.61
583824,32,32,block_Trng,3,task_Trng,2,0,"","",14,2,"","","","",Block2,"","","","","","",J,PreISI1,LR,186,"",0,K,green,13,"","",0,58,"","",0,8.89
583824,33,33,block_Trng,3,task_Trng,2,0,"","",15,2,"","","","",Block2,"","","","","","",J,Stim16,LR,68,"",0,K,green,11,"","",0,58,"","",0,9.17
583824,34,34,block_Trng,3,task_Trng,2,0,"","",16,2,"","","","",Block2,"","","","","","",J,Stim9,LR,107,"",0,K,green,9,"","",0,58,"","",0,9.44
583824,35,35,block_Trng,3,task_Trng,2,0,"","",17,2,"","","","",Block2,"","","","","","",J,PreISI1,NR,8,"",0,K,red,11,"","",0,58,"","",0,9.72
583824,36,36,block_Trng,3,task_Trng,2,1,"","",18,2,"","","","",Block2,"","","","","","",K,Stim13,NR,73,"",0,K,red,13,"","",0,58,"","",0,10
583824,37,37,block_Trng,3,task_Trng,2,0,"","",1,3,"","","","",Block3,Slow!,"","","","","","","",LR,0,"",1,K,green,9,"","",0,58,"","",0,10.28
583824,38,38,block_Trng,3,task_Trng,2,0,"","",2,3,"","","","",Block3,"","","","","","",J,Stim15,NR,90,"",0,K,red,9,"","",0,58,"","",0,10.56
583824,39,39,block_Trng,3,task_Trng,2,1,"","",3,3,"","","","",Block3,"","","","","","",K,Stim16,LR,117,"",0,K,green,11,"","",0,60,"","",0,10.83
583824,40,40,block_Trng,3,task_Trng,2,1,"","",4,3,"","","","",Block3,"","","","","","",J,Stim16,LR,73,"",0,J,green,10,"","",0,62,"","",0,11.11
583824,41,41,block_Trng,3,task_Trng,2,1,"","",5,3,"","","","",Block3,"","","","","","",J,Stim14,NR,32,"",0,J,red,8,"","",0,62,"","",0,11.39
583824,42,42,block_Trng,3,task_Trng,2,1,"","",6,3,"","","","",Block3,"","","","","","",J,PreISI1,HR,29,"",0,J,blue,11,"","",0,72,"","",0,11.67
583824,43,43,block_Trng,3,task_Trng,2,1,"","",7,3,"","","","",Block3,"","","","","","",J,PreISI1,HR,214,"",0,J,blue,13,"","",0,82,"","",0,11.94
583824,44,44,block_Trng,3,task_Trng,2,1,"","",8,3,"","","","",Block3,"","","","","","",J,PreISI1,NR,74,"",0,J,red,12,"","",0,82,"","",0,12.22
583824,45,45,block_Trng,3,task_Trng,2,0,"","",9,3,"","","","",Block3,"","","","","","",J,PreISI1,HR,99,"",0,K,blue,12,"","",0,82,"","",0,12.5
583824,46,46,block_Trng,3,task_Trng,2,1,"","",10,3,"","","","",Block3,"","","","","","",K,Stim15,HR,72,"",0,K,blue,10,"","",0,92,"","",0,12.78
583824,47,47,block_Trng,3,task_Trng,2,0,"","",11,3,"","","","",Block3,"","","","","","",K,Stim13,LR,82,"",0,J,green,8,"","",0,92,"","",0,13.06
583824,48,48,block_Trng,3,task_Trng,2,1,"","",12,3,"","","","",Block3,"","","","","","",J,Stim14,HR,72,"",0,J,blue,9,"","",0,102,"","",0,13.33
583824,49,49,block_Trng,3,task_Trng,2,0,"","",13,3,"","","","",Block3,"","","","","","",J,PreISI1,LR,216,"",0,K,green,13,"","",0,102,"","",0,13.61
583824,50,50,block_Trng,3,task_Trng,2,0,"","",14,3,"","","","",Block3,"","","","","","",J,Stim9,HR,117,"",0,K,blue,8,"","",0,102,"","",0,13.89
583824,51,51,block_Trng,3,task_Trng,2,0,"","",15,3,"","","","",Block3,"","","","","","",J,Stim16,NR,84,"",0,K,red,11,"","",0,102,"","",0,14.17
583824,52,52,block_Trng,3,task_Trng,2,1,"","",16,3,"","","","",Block3,"","","","","","",J,PreISI1,LR,95,"",0,J,green,12,"","",0,104,"","",0,14.44
583824,53,53,block_Trng,3,task_Trng,2,0,"","",17,3,"","","","",Block3,"","","","","","",J,PreISI1,NR,257,"",0,K,red,13,"","",0,104,"","",0,14.72
583824,54,54,block_Trng,3,task_Trng,2,0,"","",18,3,"","","","",Block3,"","","","","","",K,Stim15,NR,89,"",0,J,red,10,"","",0,104,"","",0,15
583824,55,55,block_Trng,3,task_Trng,2,1,"","",1,4,"","","","",Block4,"","","","","","",J,Stim15,NR,81,"",0,J,red,10,"","",0,104,"","",0,15.28
583824,56,56,block_Trng,3,task_Trng,2,1,"","",2,4,"","","","",Block4,"","","","","","",K,Stim14,LR,84,"",0,K,green,13,"","",0,106,"","",0,15.56
583824,57,57,block_Trng,3,task_Trng,2,1,"","",3,4,"","","","",Block4,"","","","","","",J,Stim15,LR,106,"",0,J,green,10,"","",0,108,"","",0,15.83
583824,58,58,block_Trng,3,task_Trng,2,1,"","",4,4,"","","","",Block4,"","","","","","",J,Stim14,NR,4,"",0,J,red,8,"","",0,108,"","",0,16.11
583824,59,59,block_Trng,3,task_Trng,2,0,"","",5,4,"","","","",Block4,"","","","","","",K,PreISI1,NR,83,"",0,J,red,12,"","",0,108,"","",0,16.39
583824,60,60,block_Trng,3,task_Trng,2,1,"","",6,4,"","","","",Block4,"","","","","","",J,PreISI1,LR,7,"",0,J,green,12,"","",0,110,"","",0,16.67
583824,61,61,block_Trng,3,task_Trng,2,0,"","",7,4,"","","","",Block4,"","","","","","",J,PreISI1,HR,156,"",0,K,blue,12,"","",0,110,"","",0,16.94
583824,62,62,block_Trng,3,task_Trng,2,0,"","",8,4,"","","","",Block4,Slow!,"","","","","",J,PreISI2,NR,1393,"",1,K,red,9,"","",0,110,"","",0,17.22
583824,63,63,block_Trng,3,task_Trng,2,1,"","",9,4,"","","","",Block4,"","","","","","",J,Stim13,LR,83,"",0,J,green,8,"","",0,112,"","",0,17.5
583824,64,64,block_Trng,3,task_Trng,2,0,"","",10,4,"","","","",Block4,"","","","","","",J,Stim14,LR,8,"",0,K,green,9,"","",0,112,"","",0,17.78
583824,65,65,block_Trng,3,task_Trng,2,1,"","",11,4,"","","","",Block4,"","","","","","",J,Stim16,HR,5,"",0,J,blue,9,"","",0,122,"","",0,18.06
583824,66,66,block_Trng,3,task_Trng,2,0,"","",12,4,"","","","",Block4,"","","","","","",J,PreISI1,LR,10,"",0,K,green,11,"","",0,122,"","",0,18.33
583824,67,67,block_Trng,3,task_Trng,2,0,"","",13,4,"","","","",Block4,"","","","","","",J,PreISI1,NR,51,"",0,K,red,11,"","",0,122,"","",0,18.61
583824,68,68,block_Trng,3,task_Trng,2,0,"","",14,4,"","","","",Block4,"","","","","","",J,PreISI1,NR,327,"",0,K,red,13,"","",0,122,"","",0,18.89
583824,69,69,block_Trng,3,task_Trng,2,1,"","",15,4,"","","","",Block4,"","","","","","",K,Stim15,HR,93,"",0,K,blue,10,"","",0,132,"","",0,19.17
583824,70,70,block_Trng,3,task_Trng,2,1,"","",16,4,"","","","",Block4,"","","","","","",J,Stim16,HR,103,"",0,J,blue,11,"","",0,142,"","",0,19.44
583824,71,71,block_Trng,3,task_Trng,2,0,"","",17,4,"","","","",Block4,"","","","","","",J,Stim16,HR,32,"",0,K,blue,8,"","",0,142,"","",0,19.72
583824,72,72,block_Trng,3,task_Trng,2,1,"","",18,4,"","","","",Block4,"","","","","","",J,PreISI1,HR,324,"",0,J,blue,13,"","",0.52,152,"","",1,20
583824,73,73,block_Trng,3,task_Trng,2,1,"","",1,5,"","","","",Block5,"","","","","","",J,Stim14,HR,65,"",0,J,blue,9,"","",0.52,162,"","",1,20.28
583824,74,74,block_Trng,3,task_Trng,2,1,"","",2,5,"","","","",Block5,"","","","","","",J,PreISI1,NR,318,"",0,J,red,12,"","",0.52,162,"","",1,20.56
583824,75,75,block_Trng,3,task_Trng,2,1,"","",3,5,"","","","",Block5,"","","","","","",J,PreISI1,LR,15,"",0,J,green,10,"","",0.52,164,"","",1,20.83
583824,76,76,block_Trng,3,task_Trng,2,1,"","",4,5,"","","","",Block5,"","","","","","",J,PreISI1,LR,72,"",0,J,green,12,"","",0.52,166,"","",1,21.11
583824,77,77,block_Trng,3,task_Trng,2,0,"","",5,5,"","","","",Block5,"","","","","","",K,PreISI1,HR,165,"",0,J,blue,13,"","",0.52,166,"","",1,21.39
583824,78,78,block_Trng,3,task_Trng,2,0,"","",6,5,"","","","",Block5,"","","","","","",J,Stim16,HR,41,"",0,K,blue,10,"","",0.52,166,"","",1,21.67
583824,79,79,block_Trng,3,task_Trng,2,0,"","",7,5,"","","","",Block5,"","","","","","",J,Stim14,HR,84,"",0,K,blue,12,"","",0.52,166,"","",1,21.94
583824,80,80,block_Trng,3,task_Trng,2,1,"","",8,5,"","","","",Block5,"","","","","","",J,Stim14,LR,72,"",0,J,green,8,"","",0.52,168,"","",1,22.22
583824,81,81,block_Trng,3,task_Trng,2,1,"","",9,5,"","","","",Block5,"","","","","","",J,PreISI1,NR,65,"",0,J,red,10,"","",0.52,168,"","",1,22.5
583824,82,82,block_Trng,3,task_Trng,2,0,"","",10,5,"","","","",Block5,"","","","","","",J,PreISI1,NR,184,"",0,K,red,13,"","",0.52,168,"","",1,22.78
583824,83,83,block_Trng,3,task_Trng,2,1,"","",11,5,"","","","",Block5,"","","","","","",K,PreISI1,NR,4,"",0,K,red,11,"","",0.52,168,"","",1,23.06
583824,84,84,block_Trng,3,task_Trng,2,0,"","",12,5,"","","","",Block5,"","","","","","",J,Stim14,NR,17,"",0,K,red,9,"","",0.52,168,"","",1,23.33
583824,85,85,block_Trng,3,task_Trng,2,0,"","",13,5,"","","","",Block5,"","","","","","",K,Stim15,NR,43,"",0,J,red,8,"","",0.52,168,"","",1,23.61
583824,86,86,block_Trng,3,task_Trng,2,0,"","",14,5,"","","","",Block5,"","","","","","",J,PreISI1,LR,250,"",0,K,green,13,"","",0.52,168,"","",1,23.89
583824,87,87,block_Trng,3,task_Trng,2,1,"","",15,5,"","","","",Block5,Slow!,"","","","","",K,PreISI2,LR,1118,"",1,K,green,9,"","",0.52,168,"","",1,24.17
583824,88,88,block_Trng,3,task_Trng,2,0,"","",16,5,"","","","",Block5,"","","","","","",J,PreISI1,LR,10,"",0,K,green,11,"","",0.52,168,"","",1,24.44
583824,89,89,block_Trng,3,task_Trng,2,1,"","",17,5,"","","","",Block5,"","","","","","",K,Stim11,HR,83,"",0,K,blue,8,"","",0.52,178,"","",1,24.72
583824,90,90,block_Trng,3,task_Trng,2,1,"","",18,5,"","","","",Block5,"","","","","","",J,Stim13,HR,44,"",0,J,blue,11,"","",0.52,188,"","",1,25
583824,91,91,block_Trng,3,task_Trng,2,0,"","",1,6,"","","","",Block6,"","","","","","",K,Stim16,HR,96,"",0,J,blue,11,"","",0.52,188,"","",1,25.28
583824,92,92,block_Trng,3,task_Trng,2,1,"","",2,6,"","","","",Block6,"","","","","","",J,PreISI1,NR,297,"",0,J,red,12,"","",0.52,188,"","",1,25.56
583824,93,93,block_Trng,3,task_Trng,2,1,"","",3,6,"","","","",Block6,Slow!,"","","","","",K,PreISI2,NR,104,"",1,K,red,13,"","",0.52,188,"","",1,25.83
583824,94,94,block_Trng,3,task_Trng,2,0,"","",4,6,"","","","",Block6,"","","","","","",J,PreISI1,LR,498,"",0,K,green,13,"","",0.52,188,"","",1,26.11
583824,95,95,block_Trng,3,task_Trng,2,1,"","",5,6,"","","","",Block6,"","","","","","",J,Stim14,LR,31,"",0,J,green,8,"","",0.52,190,"","",1,26.39
583824,96,96,block_Trng,3,task_Trng,2,0,"","",6,6,"","","","",Block6,"","","","","","",J,Stim13,HR,99,"",0,K,blue,8,"","",0.52,190,"","",1,26.67
583824,97,97,block_Trng,3,task_Trng,2,1,"","",7,6,"","","","",Block6,"","","","","","",K,PreISI1,HR,357,"",0,K,blue,12,"","",0.52,200,"","",1,26.94
583824,98,98,block_Trng,3,task_Trng,2,1,"","",8,6,"","","","",Block6,"","","","","","",J,Stim15,HR,9,"",0,J,blue,9,"","",0.52,210,"","",1,27.22
583824,99,99,block_Trng,3,task_Trng,2,0,"","",9,6,"","","","",Block6,"","","","","","",J,Stim16,LR,69,"",0,K,green,9,"","",0.52,210,"","",1,27.5
583824,100,100,block_Trng,3,task_Trng,2,0,"","",10,6,"","","","",Block6,"","","","","","",J,Stim14,HR,18,"",0,K,blue,10,"","",0.52,210,"","",1,27.78
583824,101,101,block_Trng,3,task_Trng,2,1,"","",11,6,"","","","",Block6,"","","","","","",J,PreISI1,LR,36,"",0,J,green,12,"","",0.52,212,"","",1,28.06
583824,102,102,block_Trng,3,task_Trng,2,0,"","",12,6,"","","","",Block6,"","","","","","",J,Stim16,NR,9,"",0,K,red,9,"","",0.52,212,"","",1,28.33
583824,103,103,block_Trng,3,task_Trng,2,1,"","",13,6,"","","","",Block6,"","","","","","",K,PreISI1,LR,273,"",0,K,green,11,"","",0.52,214,"","",1,28.61
583824,104,104,block_Trng,3,task_Trng,2,1,"","",14,6,"","","","",Block6,Slow!,"","","","","",J,PreISI2,HR,622,"",1,J,blue,13,"","",0.52,214,"","",1,28.89
583824,105,105,block_Trng,3,task_Trng,2,1,"","",15,6,"","","","",Block6,"","","","","","",J,Stim15,LR,34,"",0,J,green,10,"","",0.52,216,"","",1,29.17
583824,106,106,block_Trng,3,task_Trng,2,1,"","",16,6,"","","","",Block6,"","","","","","",K,Stim16,NR,105,"",0,K,red,11,"","",0.52,216,"","",1,29.44
583824,107,107,block_Trng,3,task_Trng,2,1,"","",17,6,"","","","",Block6,"","","","","","",J,PreISI1,NR,115,"",0,J,red,10,"","",0.52,216,"","",1,29.72
583824,108,108,block_Trng,3,task_Trng,2,1,"","",18,6,"","","","",Block6,Slow!,"","","","","",J,PreISI2,NR,767,"",1,J,red,8,"","",0.52,216,"","",1,30
583824,109,109,block_Trng,3,task_Trng,2,1,"","",1,7,"","","","",Block7,"","","","","","",K,Stim14,NR,64,"",0,K,red,9,"","",0.52,216,"","",1,30.28
583824,110,110,block_Trng,3,task_Trng,2,0,"","",2,7,"","","","",Block7,"","","","","","",J,Stim14,HR,5,"",0,K,blue,8,"","",0.52,216,"","",1,30.56
583824,111,111,block_Trng,3,task_Trng,2,0,"","",3,7,"","","","",Block7,"","","","","","",K,PreISI1,NR,251,"",0,J,red,12,"","",0.52,216,"","",1,30.83
583824,112,112,block_Trng,3,task_Trng,2,1,"","",4,7,"","","","",Block7,Slow!,"","","","","",J,ISI,HR,694,"",1,J,blue,9,"","",0.52,216,"","",1,31.11
583824,113,113,block_Trng,3,task_Trng,2,1,"","",5,7,"","","","",Block7,"","","","","","",J,Stim10,NR,37,"",0,J,red,10,"","",0.52,216,"","",1,31.39
583824,114,114,block_Trng,3,task_Trng,2,0,"","",6,7,"","","","",Block7,"","","","","","",J,Stim15,LR,29,"",0,K,green,9,"","",0.52,216,"","",1,31.67
583824,115,115,block_Trng,3,task_Trng,2,1,"","",7,7,"","","","",Block7,"","","","","","",J,PreISI1,LR,164,"",0,J,green,12,"","",0.52,218,"","",1,31.94
583824,116,116,block_Trng,3,task_Trng,2,1,"","",8,7,"","","","",Block7,"","","","","","",K,PreISI1,HR,207,"",0,K,blue,12,"","",0.52,228,"","",1,32.22
583824,117,117,block_Trng,3,task_Trng,2,0,"","",9,7,"","","","",Block7,"","","","","","",J,Stim15,HR,89,"",0,K,blue,10,"","",0.52,228,"","",1,32.5
583824,118,118,block_Trng,3,task_Trng,2,0,"","",10,7,"","","","",Block7,Slow!,"","","","","","","",NR,0,"",1,K,red,11,"","",0.52,228,"","",1,32.78
583824,119,119,block_Trng,3,task_Trng,2,1,"","",11,7,"","","","",Block7,"","","","","","",J,Stim14,LR,27,"",0,J,green,8,"","",0.52,230,"","",1,33.06
583824,120,120,block_Trng,3,task_Trng,2,0,"","",12,7,"","","","",Block7,"","","","","","",J,PreISI1,LR,281,"",0,K,green,13,"","",0.52,230,"","",1,33.33
583824,121,121,block_Trng,3,task_Trng,2,1,"","",13,7,"","","","",Block7,"","","","","","",K,PreISI1,NR,451,"",0,K,red,13,"","",0.52,230,"","",1,33.61
583824,122,122,block_Trng,3,task_Trng,2,1,"","",14,7,"","","","",Block7,"","","","","","",J,PreISI1,HR,121,"",0,J,blue,11,"","",0.52,240,"","",1,33.89
583824,123,123,block_Trng,3,task_Trng,2,1,"","",15,7,"","","","",Block7,"","","","","","",J,PreISI1,HR,270,"",0,J,blue,13,"","",0.52,250,"","",1,34.17
583824,124,124,block_Trng,3,task_Trng,2,0,"","",16,7,"","","","",Block7,"","","","","","",J,Stim16,LR,107,"",0,K,green,11,"","",0.52,250,"","",1,34.44
583824,125,125,block_Trng,3,task_Trng,2,0,"","",17,7,"","","","",Block7,"","","","","","",K,Stim16,LR,116,"",0,J,green,10,"","",0.52,250,"","",1,34.72
583824,126,126,block_Trng,3,task_Trng,2,1,"","",18,7,"","","","",Block7,"","","","","","",J,Stim14,NR,36,"",0,J,red,8,"","",0.52,250,"","",1,35
583824,127,127,block_Trng,3,task_Trng,2,0,"","",1,8,"","","","",Block8,"","","","","","",K,PreISI1,HR,2,"",0,J,blue,11,"","",0.52,250,"","",1,35.28
583824,128,128,block_Trng,3,task_Trng,2,1,"","",2,8,"","","","",Block8,"","","","","","",J,Stim14,HR,71,"",0,J,blue,9,"","",0.52,260,"","",1,35.56
583824,129,129,block_Trng,3,task_Trng,2,1,"","",3,8,"","","","",Block8,"","","","","","",J,Stim14,NR,20,"",0,J,red,8,"","",0.52,260,"","",1,35.83
583824,130,130,block_Trng,3,task_Trng,2,0,"","",4,8,"","","","",Block8,"","","","","","",K,Stim15,LR,75,"",0,J,green,10,"","",0.52,260,"","",1,36.11
583824,131,131,block_Trng,3,task_Trng,2,0,"","",5,8,"","","","",Block8,"","","","","","",J,Stim16,NR,51,"",0,K,red,11,"","",0.52,260,"","",1,36.39
583824,132,132,block_Trng,3,task_Trng,2,0,"","",6,8,"","","","",Block8,"","","","","","",K,Stim14,LR,53,"",0,J,green,12,"","",0.52,260,"","",1,36.67
583824,133,133,block_Trng,3,task_Trng,2,0,"","",7,8,"","","","",Block8,"","","","","","",J,Stim14,HR,37,"",0,K,blue,8,"","",0.52,260,"","",1,36.94
583824,134,134,block_Trng,3,task_Trng,2,1,"","",8,8,"","","","",Block8,"","","","","","",K,Stim16,LR,106,"",0,K,green,11,"","",0.52,262,"","",1,37.22
583824,135,135,block_Trng,3,task_Trng,2,1,"","",9,8,"","","","",Block8,"","","","","","",K,Stim16,HR,3,"",0,K,blue,10,"","",0.52,272,"","",1,37.5
583824,136,136,block_Trng,3,task_Trng,2,0,"","",10,8,"","","","",Block8,"","","","","","",J,Stim16,NR,84,"",0,K,red,13,"","",0.52,272,"","",1,37.78
583824,137,137,block_Trng,3,task_Trng,2,1,"","",11,8,"","","","",Block8,"","","","","","",K,Stim14,LR,100,"",0,K,green,9,"","",0.52,274,"","",1,38.06
583824,138,138,block_Trng,3,task_Trng,2,1,"","",12,8,"","","","",Block8,"","","","","","",J,PreISI1,HR,389,"",0,J,blue,13,"","",0.52,284,"","",1,38.33
583824,139,139,block_Trng,3,task_Trng,2,0,"","",13,8,"","","","",Block8,Slow!,"","","","","",K,PreISI2,NR,562,"",1,J,red,12,"","",0.52,284,"","",1,38.61
583824,140,140,block_Trng,3,task_Trng,2,1,"","",14,8,"","","","",Block8,"","","","","","",J,Stim16,NR,31,"",0,J,red,10,"","",0.52,284,"","",1,38.89
583824,141,141,block_Trng,3,task_Trng,2,0,"","",15,8,"","","","",Block8,"","","","","","",J,PreISI1,LR,134,"",0,K,green,13,"","",0.52,284,"","",1,39.17
583824,142,142,block_Trng,3,task_Trng,2,0,"","",16,8,"","","","",Block8,"","","","","","",J,Stim13,NR,115,"",0,K,red,9,"","",0.52,284,"","",1,39.44
583824,143,143,block_Trng,3,task_Trng,2,0,"","",17,8,"","","","",Block8,"","","","","","",J,Stim16,HR,73,"",0,K,blue,12,"","",0.52,284,"","",1,39.72
583824,144,144,block_Trng,3,task_Trng,2,0,"","",18,8,"","","","",Block8,"","","","","","",K,Stim14,LR,71,"",0,J,green,8,"","",0.97,284,"","",2,40
583824,145,145,block_Trng,3,task_Trng,2,1,"","",1,9,"","","","",Block9,"","","","","","",J,PreISI1,HR,184,"",0,J,blue,13,"","",0.97,294,"","",2,40.28
583824,146,146,block_Trng,3,task_Trng,2,1,"","",2,9,"","","","",Block9,"","","","","","",J,Stim14,NR,0,"",0,J,red,8,"","",0.97,294,"","",2,40.56
583824,147,147,block_Trng,3,task_Trng,2,0,"","",3,9,"","","","",Block9,"","","","","","",J,Stim16,LR,72,"",0,K,green,11,"","",0.97,294,"","",2,40.83
583824,148,148,block_Trng,3,task_Trng,2,1,"","",4,9,"","","","",Block9,"","","","","","",K,PreISI1,HR,86,"",0,K,blue,12,"","",0.97,304,"","",2,41.11
583824,149,149,block_Trng,3,task_Trng,2,1,"","",5,9,"","","","",Block9,"","","","","","",J,Stim14,HR,100,"",0,J,blue,9,"","",0.97,314,"","",2,41.39
583824,150,150,block_Trng,3,task_Trng,2,1,"","",6,9,"","","","",Block9,"","","","","","",J,Stim11,LR,65,"",0,J,green,8,"","",0.97,316,"","",2,41.67
583824,151,151,block_Trng,3,task_Trng,2,1,"","",7,9,"","","","",Block9,"","","","","","",J,PreISI1,NR,167,"",0,J,red,12,"","",0.97,316,"","",2,41.94
583824,152,152,block_Trng,3,task_Trng,2,0,"","",8,9,"","","","",Block9,"","","","","","",J,Stim13,HR,38,"",0,K,blue,8,"","",0.97,316,"","",2,42.22
583824,153,153,block_Trng,3,task_Trng,2,1,"","",9,9,"","","","",Block9,"","","","","","",K,PreISI1,HR,85,"",0,K,blue,10,"","",0.97,326,"","",2,42.5
583824,154,154,block_Trng,3,task_Trng,2,0,"","",10,9,"","","","",Block9,"","","","","","",J,PreISI1,LR,361,"",0,K,green,9,"","",0.97,326,"","",2,42.78
583824,155,155,block_Trng,3,task_Trng,2,1,"","",11,9,"","","","",Block9,"","","","","","",K,PreISI1,NR,105,"",0,K,red,9,"","",0.97,326,"","",2,43.06
583824,156,156,block_Trng,3,task_Trng,2,0,"","",12,9,"","","","",Block9,"","","","","","",J,Stim12,NR,32,"",0,K,red,11,"","",0.97,326,"","",2,43.33
583824,157,157,block_Trng,3,task_Trng,2,0,"","",13,9,"","","","",Block9,"","","","","","",K,Stim15,NR,86,"",0,J,red,10,"","",0.97,326,"","",2,43.61
583824,158,158,block_Trng,3,task_Trng,2,1,"","",14,9,"","","","",Block9,"","","","","","",J,Stim16,HR,59,"",0,J,blue,11,"","",0.97,336,"","",2,43.89
583824,159,159,block_Trng,3,task_Trng,2,0,"","",15,9,"","","","",Block9,"","","","","","",K,Stim13,LR,3,"",0,J,green,12,"","",0.97,336,"","",2,44.17
583824,160,160,block_Trng,3,task_Trng,2,1,"","",16,9,"","","","",Block9,"","","","","","",K,PreISI1,NR,173,"",0,K,red,13,"","",0.97,336,"","",2,44.44
583824,161,161,block_Trng,3,task_Trng,2,1,"","",17,9,"","","","",Block9,"","","","","","",K,PreISI1,LR,425,"",0,K,green,13,"","",0.97,338,"","",2,44.72
583824,162,162,block_Trng,3,task_Trng,2,1,"","",18,9,"","","","",Block9,"","","","","","",J,Stim15,LR,78,"",0,J,green,10,"","",0.97,340,"","",2,45
583824,163,163,block_Trng,3,task_Trng,2,0,"","",1,10,"","","","",Block10,Slow!,"","","","","",K,PreISI2,HR,541,"",1,J,blue,9,"","",0.97,340,"","",2,45.28
583824,164,164,block_Trng,3,task_Trng,2,0,"","",2,10,"","","","",Block10,"","","","","","",K,Stim14,LR,33,"",0,J,green,8,"","",0.97,340,"","",2,45.56
583824,165,165,block_Trng,3,task_Trng,2,0,"","",3,10,"","","","",Block10,"","","","","","",J,Stim14,NR,55,"",0,K,red,9,"","",0.97,340,"","",2,45.83
583824,166,166,block_Trng,3,task_Trng,2,0,"","",4,10,"","","","",Block10,"","","","","","",K,PreISI1,LR,497,"",0,J,green,12,"","",0.97,340,"","",2,46.11
583824,167,167,block_Trng,3,task_Trng,2,0,"","",5,10,"","","","",Block10,"","","","","","",J,PreISI1,NR,83,"",0,K,red,11,"","",0.97,340,"","",2,46.39
583824,168,168,block_Trng,3,task_Trng,2,0,"","",6,10,"","","","",Block10,"","","","","","",J,Stim13,LR,8,"",0,K,green,9,"","",0.97,340,"","",2,46.67
583824,169,169,block_Trng,3,task_Trng,2,1,"","",7,10,"","","","",Block10,"","","","","","",J,PreISI1,HR,196,"",0,J,blue,13,"","",0.97,350,"","",2,46.94
583824,170,170,block_Trng,3,task_Trng,2,0,"","",8,10,"","","","",Block10,Slow!,"","","","","","","",NR,0,"",1,K,red,13,"","",0.97,350,"","",2,47.22
583824,171,171,block_Trng,3,task_Trng,2,0,"","",9,10,"","","","",Block10,"","","","","","",J,PreISI1,LR,231,"",0,K,green,13,"","",0.97,350,"","",2,47.5
583824,172,172,block_Trng,3,task_Trng,2,0,"","",10,10,"","","","",Block10,Slow!,"","","","","",K,ISI,HR,420,"",1,J,blue,11,"","",0.97,350,"","",2,47.78
583824,173,173,block_Trng,3,task_Trng,2,0,"","",11,10,"","","","",Block10,"","","","","","",J,Stim15,HR,39,"",0,K,blue,10,"","",0.97,350,"","",2,48.06
583824,174,174,block_Trng,3,task_Trng,2,1,"","",12,10,"","","","",Block10,"","","","","","",K,PreISI1,LR,15,"",0,K,green,11,"","",0.97,352,"","",2,48.33
583824,175,175,block_Trng,3,task_Trng,2,0,"","",13,10,"","","","",Block10,"","","","","","",J,PreISI1,HR,56,"",0,K,blue,12,"","",0.97,352,"","",2,48.61
583824,176,176,block_Trng,3,task_Trng,2,0,"","",14,10,"","","","",Block10,"","","","","","",K,PreISI1,NR,95,"",0,J,red,8,"","",0.97,352,"","",2,48.89
583824,177,177,block_Trng,3,task_Trng,2,1,"","",15,10,"","","","",Block10,"","","","","","",J,PreISI1,NR,163,"",0,J,red,12,"","",0.97,352,"","",2,49.17
583824,178,178,block_Trng,3,task_Trng,2,1,"","",16,10,"","","","",Block10,"","","","","","",J,Stim16,NR,83,"",0,J,red,10,"","",0.97,352,"","",2,49.44
583824,179,179,block_Trng,3,task_Trng,2,0,"","",17,10,"","","","",Block10,"","","","","","",J,Stim15,HR,95,"",0,K,blue,8,"","",0.97,352,"","",2,49.72
583824,180,180,block_Trng,3,task_Trng,2,1,"","",18,10,"","","","",Block10,"","","","","","",J,PreISI1,LR,137,"",0,J,green,10,"","",0.97,354,"","",2,50
583824,181,181,block_Trng,3,task_Trng,2,0,"","",1,11,"","","","",Block11,"","","","","","",K,Stim14,HR,72,"",0,J,blue,9,"","",0.97,354,"","",2,50.28
583824,182,182,block_Trng,3,task_Trng,2,0,"","",2,11,"","","","",Block11,"","","","","","",J,Stim13,HR,87,"",0,K,blue,8,"","",0.97,354,"","",2,50.56
583824,183,183,block_Trng,3,task_Trng,2,0,"","",3,11,"","","","",Block11,"","","","","","",J,Stim15,LR,51,"",0,K,green,9,"","",0.97,354,"","",2,50.83
583824,184,184,block_Trng,3,task_Trng,2,1,"","",4,11,"","","","",Block11,"","","","","","",J,PreISI1,LR,42,"",0,J,green,12,"","",0.97,356,"","",2,51.11
583824,185,185,block_Trng,3,task_Trng,2,1,"","",5,11,"","","","",Block11,"","","","","","",K,Stim16,LR,66,"",0,K,green,11,"","",0.97,358,"","",2,51.39
583824,186,186,block_Trng,3,task_Trng,2,1,"","",6,11,"","","","",Block11,"","","","","","",J,Stim14,LR,3,"",0,J,green,8,"","",0.97,360,"","",2,51.67
583824,187,187,block_Trng,3,task_Trng,2,1,"","",7,11,"","","","",Block11,"","","","","","",J,Stim16,HR,74,"",0,J,blue,11,"","",0.97,370,"","",2,51.94
583824,188,188,block_Trng,3,task_Trng,2,0,"","",8,11,"","","","",Block11,"","","","","","",J,Stim16,NR,23,"",0,K,red,9,"","",0.97,370,"","",2,52.22
583824,189,189,block_Trng,3,task_Trng,2,1,"","",9,11,"","","","",Block11,"","","","","","",J,Stim15,NR,69,"",0,J,red,8,"","",0.97,370,"","",2,52.5
583824,190,190,block_Trng,3,task_Trng,2,1,"","",10,11,"","","","",Block11,"","","","","","",J,Stim15,NR,22,"",0,J,red,10,"","",0.97,370,"","",2,52.78
583824,191,191,block_Trng,3,task_Trng,2,1,"","",11,11,"","","","",Block11,"","","","","","",K,Stim16,NR,57,"",0,K,red,13,"","",0.97,370,"","",2,53.06
583824,192,192,block_Trng,3,task_Trng,2,0,"","",12,11,"","","","",Block11,"","","","","","",J,Stim14,HR,52,"",0,K,blue,12,"","",0.97,370,"","",2,53.33
583824,193,193,block_Trng,3,task_Trng,2,1,"","",13,11,"","","","",Block11,"","","","","","",K,PreISI1,LR,259,"",0,K,green,13,"","",0.97,372,"","",2,53.61
583824,194,194,block_Trng,3,task_Trng,2,0,"","",14,11,"","","","",Block11,Slow!,"","","","","","","",HR,0,"",1,K,blue,10,"","",0.97,372,"","",2,53.89
583824,195,195,block_Trng,3,task_Trng,2,0,"","",15,11,"","","","",Block11,"","","","","","",K,Stim16,LR,108,"",0,J,green,10,"","",0.97,372,"","",2,54.17
583824,196,196,block_Trng,3,task_Trng,2,0,"","",16,11,"","","","",Block11,"","","","","","",J,PreISI1,NR,58,"",0,K,red,11,"","",0.97,372,"","",2,54.44
583824,197,197,block_Trng,3,task_Trng,2,1,"","",17,11,"","","","",Block11,"","","","","","",J,PreISI1,NR,56,"",0,J,red,12,"","",0.97,372,"","",2,54.72
583824,198,198,block_Trng,3,task_Trng,2,0,"","",18,11,"","","","",Block11,Slow!,"","","","","","","",HR,0,"",1,J,blue,13,"","",0.97,372,"","",2,55
583824,199,199,block_Trng,3,task_Trng,2,1,"","",1,12,"","","","",Block12,"","","","","","",J,Stim14,LR,48,"",0,J,green,8,"","",0.97,374,"","",2,55.28
583824,200,200,block_Trng,3,task_Trng,2,0,"","",2,12,"","","","",Block12,Slow!,"","","","","",J,PreISI2,NR,820,"",1,K,red,11,"","",0.97,374,"","",2,55.56
583824,201,201,block_Trng,3,task_Trng,2,1,"","",3,12,"","","","",Block12,"","","","","","",J,PreISI1,HR,323,"",0,J,blue,13,"","",0.97,384,"","",2,55.83
583824,202,202,block_Trng,3,task_Trng,2,1,"","",4,12,"","","","",Block12,"","","","","","",K,Stim15,NR,62,"",0,K,red,9,"","",0.97,384,"","",2,56.11
583824,203,203,block_Trng,3,task_Trng,2,1,"","",5,12,"","","","",Block12,"","","","","","",J,Stim13,NR,99,"",0,J,red,12,"","",0.97,384,"","",2,56.39
583824,204,204,block_Trng,3,task_Trng,2,1,"","",6,12,"","","","",Block12,"","","","","","",J,Stim16,NR,1,"",0,J,red,10,"","",0.97,384,"","",2,56.67
583824,205,205,block_Trng,3,task_Trng,2,0,"","",7,12,"","","","",Block12,"","","","","","",K,PreISI1,LR,163,"",0,J,green,12,"","",0.97,384,"","",2,56.94
583824,206,206,block_Trng,3,task_Trng,2,0,"","",8,12,"","","","",Block12,"","","","","","",J,Stim14,HR,5,"",0,K,blue,8,"","",0.97,384,"","",2,57.22
583824,207,207,block_Trng,3,task_Trng,2,1,"","",9,12,"","","","",Block12,"","","","","","",K,Stim15,LR,79,"",0,K,green,9,"","",0.97,386,"","",2,57.5
583824,208,208,block_Trng,3,task_Trng,2,0,"","",10,12,"","","","",Block12,"","","","","","",J,PreISI1,LR,264,"",0,K,green,13,"","",0.97,386,"","",2,57.78
583824,209,209,block_Trng,3,task_Trng,2,1,"","",11,12,"","","","",Block12,"","","","","","",K,PreISI1,HR,17,"",0,K,blue,12,"","",0.97,396,"","",2,58.06
583824,210,210,block_Trng,3,task_Trng,2,1,"","",12,12,"","","","",Block12,"","","","","","",K,PreISI1,LR,146,"",0,K,green,11,"","",0.97,398,"","",2,58.33
583824,211,211,block_Trng,3,task_Trng,2,0,"","",13,12,"","","","",Block12,"","","","","","",J,Stim14,NR,33,"",0,K,red,13,"","",0.97,398,"","",2,58.61
583824,212,212,block_Trng,3,task_Trng,2,1,"","",14,12,"","","","",Block12,Slow!,"","","","","",J,PreISI2,NR,826,"",1,J,red,8,"","",0.97,398,"","",2,58.89
583824,213,213,block_Trng,3,task_Trng,2,0,"","",15,12,"","","","",Block12,"","","","","","",J,Stim15,HR,81,"",0,K,blue,10,"","",0.97,398,"","",2,59.17
583824,214,214,block_Trng,3,task_Trng,2,0,"","",16,12,"","","","",Block12,"","","","","","",K,Stim16,HR,65,"",0,J,blue,11,"","",0.97,398,"","",2,59.44
583824,215,215,block_Trng,3,task_Trng,2,1,"","",17,12,"","","","",Block12,"","","","","","",J,Stim14,HR,16,"",0,J,blue,9,"","",0.97,408,"","",2,59.72
583824,216,216,block_Trng,3,task_Trng,2,1,"","",18,12,"","","","",Block12,"","","","","","",J,Stim16,LR,32,"",0,J,green,10,"","",1.39,410,"","",3,60
583824,217,217,block_Trng,3,task_Trng,2,0,"","",1,13,"","","","",Block13,"","","","","","",J,Stim13,HR,84,"",0,K,blue,12,"","",1.39,410,"","",3,60.28
583824,218,218,block_Trng,3,task_Trng,2,1,"","",2,13,"","","","",Block13,"","","","","","",J,PreISI1,LR,69,"",0,J,green,12,"","",1.39,412,"","",3,60.56
583824,219,219,block_Trng,3,task_Trng,2,0,"","",3,13,"","","","",Block13,"","","","","","",K,PreISI1,HR,278,"",0,J,blue,13,"","",1.39,412,"","",3,60.83
583824,220,220,block_Trng,3,task_Trng,2,1,"","",4,13,"","","","",Block13,"","","","","","",J,Stim16,NR,38,"",0,J,red,10,"","",1.39,412,"","",3,61.11
583824,221,221,block_Trng,3,task_Trng,2,0,"","",5,13,"","","","",Block13,"","","","","","",K,PreISI1,NR,183,"",0,J,red,12,"","",1.39,412,"","",3,61.39
583824,222,222,block_Trng,3,task_Trng,2,0,"","",6,13,"","","","",Block13,"","","","","","",J,PreISI1,NR,88,"",0,K,red,11,"","",1.39,412,"","",3,61.67
583824,223,223,block_Trng,3,task_Trng,2,1,"","",7,13,"","","","",Block13,Slow!,"","","","","",K,PreISI2,LR,217,"",1,K,green,11,"","",1.39,412,"","",3,61.94
583824,224,224,block_Trng,3,task_Trng,2,0,"","",8,13,"","","","",Block13,"","","","","","",J,PreISI1,LR,209,"",0,K,green,13,"","",1.39,412,"","",3,62.22
583824,225,225,block_Trng,3,task_Trng,2,0,"","",9,13,"","","","",Block13,"","","","","","",K,Stim14,NR,27,"",0,J,red,8,"","",1.39,412,"","",3,62.5
583824,226,226,block_Trng,3,task_Trng,2,1,"","",10,13,"","","","",Block13,"","","","","","",J,Stim14,HR,52,"",0,J,blue,9,"","",1.39,422,"","",3,62.78
583824,227,227,block_Trng,3,task_Trng,2,0,"","",11,13,"","","","",Block13,"","","","","","",J,Stim15,HR,73,"",0,K,blue,10,"","",1.39,422,"","",3,63.06
583824,228,228,block_Trng,3,task_Trng,2,1,"","",12,13,"","","","",Block13,"","","","","","",J,Stim15,LR,26,"",0,J,green,10,"","",1.39,424,"","",3,63.33
583824,229,229,block_Trng,3,task_Trng,2,0,"","",13,13,"","","","",Block13,"","","","","","",J,Stim14,NR,96,"",0,K,red,9,"","",1.39,424,"","",3,63.61
583824,230,230,block_Trng,3,task_Trng,2,0,"","",14,13,"","","","",Block13,"","","","","","",J,Stim14,LR,79,"",0,K,green,9,"","",1.39,424,"","",3,63.89
583824,231,231,block_Trng,3,task_Trng,2,0,"","",15,13,"","","","",Block13,"","","","","","",J,Stim14,HR,3,"",0,K,blue,8,"","",1.39,424,"","",3,64.17
583824,232,232,block_Trng,3,task_Trng,2,1,"","",16,13,"","","","",Block13,"","","","","","",J,Stim15,LR,46,"",0,J,green,8,"","",1.39,426,"","",3,64.44
583824,233,233,block_Trng,3,task_Trng,2,0,"","",17,13,"","","","",Block13,Slow!,"","","","","",J,PreISI2,NR,67,"",1,K,red,13,"","",1.39,426,"","",3,64.72
583824,234,234,block_Trng,3,task_Trng,2,1,"","",18,13,"","","","",Block13,"","","","","","",J,PreISI1,HR,274,"",0,J,blue,11,"","",1.39,436,"","",3,65
583824,235,235,block_Trng,3,task_Trng,2,1,"","",1,14,"","","","",Block14,"","","","","","",K,PreISI1,LR,288,"",0,K,green,13,"","",1.39,438,"","",3,65.28
583824,236,236,block_Trng,3,task_Trng,2,0,"","",2,14,"","","","",Block14,"","","","","","",K,Stim14,NR,9,"",0,J,red,12,"","",1.39,438,"","",3,65.56
583824,237,237,block_Trng,3,task_Trng,2,0,"","",3,14,"","","","",Block14,"","","","","","",J,Stim16,NR,101,"",0,K,red,11,"","",1.39,438,"","",3,65.83
583824,238,238,block_Trng,3,task_Trng,2,1,"","",4,14,"","","","",Block14,"","","","","","",J,Stim15,HR,32,"",0,J,blue,13,"","",1.39,448,"","",3,66.11
583824,239,239,block_Trng,3,task_Trng,2,1,"","",5,14,"","","","",Block14,Slow!,"","","","","",K,PreISI2,HR,224,"",1,K,blue,8,"","",1.39,448,"","",3,66.39
583824,240,240,block_Trng,3,task_Trng,2,1,"","",6,14,"","","","",Block14,"","","","","","",J,Stim13,LR,94,"",0,J,green,8,"","",1.39,450,"","",3,66.67
583824,241,241,block_Trng,3,task_Trng,2,1,"","",7,14,"","","","",Block14,"","","","","","",J,Stim16,NR,5,"",0,J,red,10,"","",1.39,450,"","",3,66.94
583824,242,242,block_Trng,3,task_Trng,2,0,"","",8,14,"","","","",Block14,"","","","","","",J,Stim14,LR,26,"",0,K,green,9,"","",1.39,450,"","",3,67.22
583824,243,243,block_Trng,3,task_Trng,2,1,"","",9,14,"","","","",Block14,"","","","","","",K,Stim13,NR,6,"",0,K,red,9,"","",1.39,450,"","",3,67.5
583824,244,244,block_Trng,3,task_Trng,2,1,"","",10,14,"","","","",Block14,"","","","","","",J,Stim16,HR,103,"",0,J,blue,11,"","",1.39,460,"","",3,67.78
583824,245,245,block_Trng,3,task_Trng,2,1,"","",11,14,"","","","",Block14,"","","","","","",J,PreISI1,LR,333,"",0,J,green,10,"","",1.39,462,"","",3,68.06
583824,246,246,block_Trng,3,task_Trng,2,1,"","",12,14,"","","","",Block14,"","","","","","",J,PreISI1,LR,149,"",0,J,green,12,"","",1.39,464,"","",3,68.33
583824,247,247,block_Trng,3,task_Trng,2,1,"","",13,14,"","","","",Block14,"","","","","","",J,PreISI1,NR,248,"",0,J,red,8,"","",1.39,464,"","",3,68.61
583824,248,248,block_Trng,3,task_Trng,2,1,"","",14,14,"","","","",Block14,"","","","","","",K,Stim15,HR,78,"",0,K,blue,10,"","",1.39,474,"","",3,68.89
583824,249,249,block_Trng,3,task_Trng,2,0,"","",15,14,"","","","",Block14,"","","","","","",J,PreISI1,HR,67,"",0,K,blue,12,"","",1.39,474,"","",3,69.17
583824,250,250,block_Trng,3,task_Trng,2,1,"","",16,14,"","","","",Block14,"","","","","","",J,Stim14,HR,27,"",0,J,blue,9,"","",1.39,484,"","",3,69.44
583824,251,251,block_Trng,3,task_Trng,2,0,"","",17,14,"","","","",Block14,"","","","","","",J,Stim16,LR,74,"",0,K,green,11,"","",1.39,484,"","",3,69.72
583824,252,252,block_Trng,3,task_Trng,2,1,"","",18,14,"","","","",Block14,"","","","","","",K,PreISI1,NR,250,"",0,K,red,13,"","",1.39,484,"","",3,70
583824,253,253,block_Trng,3,task_Trng,2,0,"","",1,15,"","","","",Block15,"","","","","","",K,Stim11,LR,1,"",0,J,green,10,"","",1.39,484,"","",3,70.28
583824,254,254,block_Trng,3,task_Trng,2,0,"","",2,15,"","","","",Block15,"","","","","","",J,Stim14,LR,37,"",0,K,green,9,"","",1.39,484,"","",3,70.56
583824,255,255,block_Trng,3,task_Trng,2,1,"","",3,15,"","","","",Block15,"","","","","","",K,Stim16,LR,67,"",0,K,green,11,"","",1.39,486,"","",3,70.83
583824,256,256,block_Trng,3,task_Trng,2,0,"","",4,15,"","","","",Block15,"","","","","","",J,Stim14,HR,93,"",0,K,blue,8,"","",1.39,486,"","",3,71.11
583824,257,257,block_Trng,3,task_Trng,2,1,"","",5,15,"","","","",Block15,"","","","","","",K,Stim14,LR,42,"",0,K,green,13,"","",1.39,488,"","",3,71.39
583824,258,258,block_Trng,3,task_Trng,2,1,"","",6,15,"","","","",Block15,"","","","","","",K,PreISI1,HR,347,"",0,K,blue,12,"","",1.39,498,"","",3,71.67
583824,259,259,block_Trng,3,task_Trng,2,1,"","",7,15,"","","","",Block15,"","","","","","",J,Stim14,LR,3,"",0,J,green,12,"","",1.39,500,"","",3,71.94
583824,260,260,block_Trng,3,task_Trng,2,1,"","",8,15,"","","","",Block15,"","","","","","",J,Stim13,HR,16,"",0,J,blue,9,"","",1.39,510,"","",3,72.22
583824,261,261,block_Trng,3,task_Trng,2,0,"","",9,15,"","","","",Block15,Slow!,"","","","","","","",NR,0,"",1,J,red,8,"","",1.39,510,"","",3,72.5
583824,262,262,block_Trng,3,task_Trng,2,1,"","",10,15,"","","","",Block15,"","","","","","",J,Stim16,HR,112,"",0,J,blue,13,"","",1.39,520,"","",3,72.78
583824,263,263,block_Trng,3,task_Trng,2,1,"","",11,15,"","","","",Block15,"","","","","","",J,PreISI1,NR,133,"",0,J,red,12,"","",1.39,520,"","",3,73.06
583824,264,264,block_Trng,3,task_Trng,2,0,"","",12,15,"","","","",Block15,"","","","","","",J,Stim13,NR,30,"",0,K,red,13,"","",1.39,520,"","",3,73.33
583824,265,265,block_Trng,3,task_Trng,2,1,"","",13,15,"","","","",Block15,"","","","","","",J,Stim13,LR,97,"",0,J,green,8,"","",1.39,522,"","",3,73.61
583824,266,266,block_Trng,3,task_Trng,2,1,"","",14,15,"","","","",Block15,"","","","","","",K,Stim15,HR,74,"",0,K,blue,10,"","",1.39,532,"","",3,73.89
583824,267,267,block_Trng,3,task_Trng,2,1,"","",15,15,"","","","",Block15,"","","","","","",J,Stim16,NR,63,"",0,J,red,10,"","",1.39,532,"","",3,74.17
583824,268,268,block_Trng,3,task_Trng,2,0,"","",16,15,"","","","",Block15,"","","","","","",K,Stim15,HR,78,"",0,J,blue,11,"","",1.39,532,"","",3,74.44
583824,269,269,block_Trng,3,task_Trng,2,0,"","",17,15,"","","","",Block15,"","","","","","",J,Stim16,NR,68,"",0,K,red,11,"","",1.39,532,"","",3,74.72
583824,270,270,block_Trng,3,task_Trng,2,1,"","",18,15,"","","","",Block15,"","","","","","",K,Stim14,NR,12,"",0,K,red,9,"","",1.39,532,"","",3,75
583824,271,271,block_Trng,3,task_Trng,2,0,"","",1,16,"","","","",Block16',"","","","","","",J,Stim13,NR,74,"",0,K,red,9,"","",1.39,532,"","",3,75.28
583824,272,272,block_Trng,3,task_Trng,2,0,"","",2,16,"","","","",Block16',"","","","","","",K,Stim15,NR,69,"",0,J,red,10,"","",1.39,532,"","",3,75.56
583824,273,273,block_Trng,3,task_Trng,2,1,"","",3,16,"","","","",Block16',"","","","","","",J,Stim15,HR,20,"",0,J,blue,9,"","",1.39,542,"","",3,75.83
583824,274,274,block_Trng,3,task_Trng,2,0,"","",4,16,"","","","",Block16',"","","","","","",J,PreISI1,LR,5,"",0,K,green,11,"","",1.39,542,"","",3,76.11
583824,275,275,block_Trng,3,task_Trng,2,1,"","",5,16,"","","","",Block16',"","","","","","",J,PreISI1,LR,120,"",0,J,green,12,"","",1.39,544,"","",3,76.39
583824,276,276,block_Trng,3,task_Trng,2,0,"","",6,16,"","","","",Block16',"","","","","","",J,PreISI1,HR,39,"",0,K,blue,12,"","",1.39,544,"","",3,76.67
583824,277,277,block_Trng,3,task_Trng,2,1,"","",7,16,"","","","",Block16',"","","","","","",J,Stim13,HR,58,"",0,J,blue,13,"","",1.39,554,"","",3,76.94
583824,278,278,block_Trng,3,task_Trng,2,1,"","",8,16,"","","","",Block16',"","","","","","",K,Stim14,HR,32,"",0,K,blue,8,"","",1.39,564,"","",3,77.22
583824,279,279,block_Trng,3,task_Trng,2,1,"","",9,16,"","","","",Block16',"","","","","","",J,PreISI1,NR,73,"",0,J,red,12,"","",1.39,564,"","",3,77.5
583824,280,280,block_Trng,3,task_Trng,2,1,"","",10,16,"","","","",Block16',"","","","","","",J,Stim14,NR,36,"",0,J,red,8,"","",1.39,564,"","",3,77.78
583824,281,281,block_Trng,3,task_Trng,2,0,"","",11,16,"","","","",Block16',"","","","","","",K,Stim12,LR,39,"",0,J,green,10,"","",1.39,564,"","",3,78.06
583824,282,282,block_Trng,3,task_Trng,2,0,"","",12,16,"","","","",Block16',"","","","","","",J,Stim13,LR,58,"",0,K,green,13,"","",1.39,564,"","",3,78.33
583824,283,283,block_Trng,3,task_Trng,2,1,"","",13,16,"","","","",Block16',"","","","","","",K,Stim15,NR,71,"",0,K,red,11,"","",1.39,564,"","",3,78.61
583824,284,284,block_Trng,3,task_Trng,2,0,"","",14,16,"","","","",Block16',"","","","","","",J,PreISI1,LR,235,"",0,K,green,9,"","",1.39,564,"","",3,78.89
583824,285,285,block_Trng,3,task_Trng,2,0,"","",15,16,"","","","",Block16',Slow!,"","","","","",J,PreISI2,NR,1125,"",1,K,red,13,"","",1.39,564,"","",3,79.17
583824,286,286,block_Trng,3,task_Trng,2,0,"","",16,16,"","","","",Block16',"","","","","","",K,Stim15,LR,92,"",0,J,green,8,"","",1.39,564,"","",3,79.44
583824,287,287,block_Trng,3,task_Trng,2,0,"","",17,16,"","","","",Block16',"","","","","","",J,Stim14,HR,3,"",0,K,blue,10,"","",1.39,564,"","",3,79.72
583824,288,288,block_Trng,3,task_Trng,2,0,"","",18,16,"","","","",Block16',Slow!,"","","","","",K,PreISI2,HR,1324,"",1,J,blue,11,"","",1.92,564,"","",4,80
583824,289,289,block_Trng,3,task_Trng,2,0,"","",1,17,"","","","",Block17,"","","","","","",K,Stim15,NR,86,"",0,J,red,8,"","",1.92,564,"","",4,80.28
583824,290,290,block_Trng,3,task_Trng,2,1,"","",2,17,"","","","",Block17,"","","","","","",J,PreISI1,HR,197,"",0,J,blue,13,"","",1.92,574,"","",4,80.56
583824,291,291,block_Trng,3,task_Trng,2,1,"","",3,17,"","","","",Block17,"","","","","","",K,Stim15,NR,99,"",0,K,red,11,"","",1.92,574,"","",4,80.83
583824,292,292,block_Trng,3,task_Trng,2,0,"","",4,17,"","","","",Block17,"","","","","","",K,Stim15,NR,98,"",0,J,red,10,"","",1.92,574,"","",4,81.11
583824,293,293,block_Trng,3,task_Trng,2,0,"","",5,17,"","","","",Block17,"","","","","","",J,Stim13,NR,73,"",0,K,red,9,"","",1.92,574,"","",4,81.39
583824,294,294,block_Trng,3,task_Trng,2,1,"","",6,17,"","","","",Block17,"","","","","","",K,Stim13,HR,28,"",0,K,blue,10,"","",1.92,584,"","",4,81.67
583824,295,295,block_Trng,3,task_Trng,2,0,"","",7,17,"","","","",Block17,"","","","","","",J,PreISI1,NR,50,"",0,K,red,13,"","",1.92,584,"","",4,81.94
583824,296,296,block_Trng,3,task_Trng,2,0,"","",8,17,"","","","",Block17,"","","","","","",K,Stim13,HR,95,"",0,J,blue,11,"","",1.92,584,"","",4,82.22
583824,297,297,block_Trng,3,task_Trng,2,1,"","",9,17,"","","","",Block17,"","","","","","",K,Stim14,HR,19,"",0,K,blue,8,"","",1.92,594,"","",4,82.5
583824,298,298,block_Trng,3,task_Trng,2,0,"","",10,17,"","","","",Block17,"","","","","","",J,Stim16,LR,79,"",0,K,green,11,"","",1.92,594,"","",4,82.78
583824,299,299,block_Trng,3,task_Trng,2,1,"","",11,17,"","","","",Block17,"","","","","","",K,PreISI1,LR,188,"",0,K,green,13,"","",1.92,596,"","",4,83.06
583824,300,300,block_Trng,3,task_Trng,2,1,"","",12,17,"","","","",Block17,"","","","","","",J,Stim15,LR,109,"",0,J,green,10,"","",1.92,598,"","",4,83.33
583824,301,301,block_Trng,3,task_Trng,2,0,"","",13,17,"","","","",Block17,"","","","","","",K,PreISI1,LR,94,"",0,J,green,12,"","",1.92,598,"","",4,83.61
583824,302,302,block_Trng,3,task_Trng,2,1,"","",14,17,"","","","",Block17,"","","","","","",J,Stim14,LR,96,"",0,J,green,8,"","",1.92,600,"","",4,83.89
583824,303,303,block_Trng,3,task_Trng,2,1,"","",15,17,"","","","",Block17,"","","","","","",J,Stim16,NR,94,"",0,J,red,12,"","",1.92,600,"","",4,84.17
583824,304,304,block_Trng,3,task_Trng,2,0,"","",16,17,"","","","",Block17,Slow!,"","","","","",J,PreISI2,LR,519,"",1,K,green,9,"","",1.92,600,"","",4,84.44
583824,305,305,block_Trng,3,task_Trng,2,0,"","",17,17,"","","","",Block17,"","","","","","",J,Stim14,HR,15,"",0,K,blue,12,"","",1.92,600,"","",4,84.72
583824,306,306,block_Trng,3,task_Trng,2,0,"","",18,17,"","","","",Block17,"","","","","","",K,Stim15,HR,84,"",0,J,blue,9,"","",1.92,600,"","",4,85
583824,307,307,block_Trng,3,task_Trng,2,1,"","",1,18,"","","","",Block18,"","","","","","",J,Stim15,NR,76,"",0,J,red,12,"","",1.92,600,"","",4,85.28
583824,308,308,block_Trng,3,task_Trng,2,0,"","",2,18,"","","","",Block18,"","","","","","",K,Stim13,LR,113,"",0,J,green,10,"","",1.92,600,"","",4,85.56
583824,309,309,block_Trng,3,task_Trng,2,1,"","",3,18,"","","","",Block18,"","","","","","",J,Stim14,NR,39,"",0,J,red,8,"","",1.92,600,"","",4,85.83
583824,310,310,block_Trng,3,task_Trng,2,0,"","",4,18,"","","","",Block18,"","","","","","",J,Stim13,HR,72,"",0,K,blue,8,"","",1.92,600,"","",4,86.11
583824,311,311,block_Trng,3,task_Trng,2,1,"","",5,18,"","","","",Block18,"","","","","","",J,Stim15,HR,32,"",0,J,blue,13,"","",1.92,610,"","",4,86.39
583824,312,312,block_Trng,3,task_Trng,2,1,"","",6,18,"","","","",Block18,"","","","","","",K,Stim14,NR,96,"",0,K,red,13,"","",1.92,610,"","",4,86.67
583824,313,313,block_Trng,3,task_Trng,2,0,"","",7,18,"","","","",Block18,"","","","","","",K,Stim12,LR,86,"",0,J,green,12,"","",1.92,610,"","",4,86.94
583824,314,314,block_Trng,3,task_Trng,2,0,"","",8,18,"","","","",Block18,"","","","","","",K,Stim16,NR,7,"",0,J,red,10,"","",1.92,610,"","",4,87.22
583824,315,315,block_Trng,3,task_Trng,2,1,"","",9,18,"","","","",Block18,"","","","","","",J,Stim13,HR,107,"",0,J,blue,11,"","",1.92,620,"","",4,87.5
583824,316,316,block_Trng,3,task_Trng,2,1,"","",10,18,"","","","",Block18,"","","","","","",K,Stim16,NR,116,"",0,K,red,11,"","",1.92,620,"","",4,87.78
583824,317,317,block_Trng,3,task_Trng,2,1,"","",11,18,"","","","",Block18,"","","","","","",J,Stim15,HR,7,"",0,J,blue,9,"","",1.92,630,"","",4,88.06
583824,318,318,block_Trng,3,task_Trng,2,0,"","",12,18,"","","","",Block18,"","","","","","",J,Stim15,LR,52,"",0,K,green,9,"","",1.92,630,"","",4,88.33
583824,319,319,block_Trng,3,task_Trng,2,1,"","",13,18,"","","","",Block18,"","","","","","",K,Stim15,HR,85,"",0,K,blue,10,"","",1.92,640,"","",4,88.61
583824,320,320,block_Trng,3,task_Trng,2,1,"","",14,18,"","","","",Block18,"","","","","","",K,PreISI1,LR,411,"",0,K,green,13,"","",1.92,642,"","",4,88.89
583824,321,321,block_Trng,3,task_Trng,2,0,"","",15,18,"","","","",Block18,Slow!,"","","","","","","",LR,0,"",1,K,green,11,"","",1.92,642,"","",4,89.17
583824,322,322,block_Trng,3,task_Trng,2,0,"","",16,18,"","","","",Block18,"","","","","","",J,Stim9,NR,10,"",0,K,red,9,"","",1.92,642,"","",4,89.44
583824,323,323,block_Trng,3,task_Trng,2,1,"","",17,18,"","","","",Block18,"","","","","","",K,PreISI1,HR,208,"",0,K,blue,12,"","",1.92,652,"","",4,89.72
583824,324,324,block_Trng,3,task_Trng,2,1,"","",18,18,"","","","",Block18,"","","","","","",J,Stim15,LR,37,"",0,J,green,8,"","",1.92,654,"","",4,90
583824,325,325,block_Trng,3,task_Trng,2,0,"","",1,19,"","","","",Block19,"","","","","","",K,Stim10,HR,79,"",0,J,blue,9,"","",1.92,654,"","",4,90.28
583824,326,326,block_Trng,3,task_Trng,2,0,"","",2,19,"","","","",Block19,Slow!,"","","","","",J,PreISI2,HR,90,"",1,K,blue,12,"","",1.92,654,"","",4,90.56
583824,327,327,block_Trng,3,task_Trng,2,1,"","",3,19,"","","","",Block19,"","","","","","",J,Stim14,NR,33,"",0,J,red,10,"","",1.92,654,"","",4,90.83
583824,328,328,block_Trng,3,task_Trng,2,1,"","",4,19,"","","","",Block19,"","","","","","",K,Stim13,HR,110,"",0,K,blue,8,"","",1.92,664,"","",4,91.11
583824,329,329,block_Trng,3,task_Trng,2,1,"","",5,19,"","","","",Block19,"","","","","","",K,PreISI1,NR,212,"",0,K,red,13,"","",1.92,664,"","",4,91.39
583824,330,330,block_Trng,3,task_Trng,2,1,"","",6,19,"","","","",Block19,"","","","","","",J,PreISI1,NR,500,"",0,J,red,8,"","",1.92,664,"","",4,91.67
583824,331,331,block_Trng,3,task_Trng,2,1,"","",7,19,"","","","",Block19,"","","","","","",K,PreISI1,NR,62,"",0,K,red,11,"","",1.92,664,"","",4,91.94
583824,332,332,block_Trng,3,task_Trng,2,0,"","",8,19,"","","","",Block19,"","","","","","",K,Stim12,LR,49,"",0,J,green,10,"","",1.92,664,"","",4,92.22
583824,333,333,block_Trng,3,task_Trng,2,0,"","",9,19,"","","","",Block19,Slow!,"","","","","",J,ISI,LR,274,"",1,K,green,9,"","",1.92,664,"","",4,92.5
583824,334,334,block_Trng,3,task_Trng,2,0,"","",10,19,"","","","",Block19,Slow!,"","","","","",K,PreISI2,NR,1282,"",2,J,red,12,"","",1.92,664,"","",4,92.78
583824,335,335,block_Trng,3,task_Trng,2,0,"","",11,19,"","","","",Block19,"","","","","","",K,PreISI1,HR,52,"",0,J,blue,11,"","",1.92,664,"","",4,93.06
583824,336,336,block_Trng,3,task_Trng,2,0,"","",12,19,"","","","",Block19,"","","","","","",K,PreISI1,LR,141,"",0,J,green,12,"","",1.92,664,"","",4,93.33
583824,337,337,block_Trng,3,task_Trng,2,0,"","",13,19,"","","","",Block19,"","","","","","",J,Stim16,LR,96,"",0,K,green,11,"","",1.92,664,"","",4,93.61
583824,338,338,block_Trng,3,task_Trng,2,0,"","",14,19,"","","","",Block19,"","","","","","",K,PreISI1,HR,234,"",0,J,blue,13,"","",1.92,664,"","",4,93.89
583824,339,339,block_Trng,3,task_Trng,2,0,"","",15,19,"","","","",Block19,"","","","","","",J,Stim14,NR,115,"",0,K,red,9,"","",1.92,664,"","",4,94.17
583824,340,340,block_Trng,3,task_Trng,2,1,"","",16,19,"","","","",Block19,"","","","","","",K,PreISI1,HR,186,"",0,K,blue,10,"","",1.92,674,"","",4,94.44
583824,341,341,block_Trng,3,task_Trng,2,0,"","",17,19,"","","","",Block19,"","","","","","",J,PreISI1,LR,308,"",0,K,green,13,"","",1.92,674,"","",4,94.72
583824,342,342,block_Trng,3,task_Trng,2,1,"","",18,19,"","","","",Block19,"","","","","","",J,Stim14,LR,78,"",0,J,green,8,"","",1.92,676,"","",4,95
583824,343,343,block_Trng,3,task_Trng,2,1,"","",1,20,"","","","",Block20,"","","","","","",K,PreISI1,HR,229,"",0,K,blue,10,"","",1.92,686,"","",4,95.28
583824,344,344,block_Trng,3,task_Trng,2,1,"","",2,20,"","","","",Block20,"","","","","","",J,PreISI1,NR,3,"",0,J,red,10,"","",1.92,686,"","",4,95.56
583824,345,345,block_Trng,3,task_Trng,2,1,"","",3,20,"","","","",Block20,"","","","","","",J,PreISI1,NR,235,"",0,J,red,8,"","",1.92,686,"","",4,95.83
583824,346,346,block_Trng,3,task_Trng,2,1,"","",4,20,"","","","",Block20,Slow!,"","","","","",J,PreISI2,LR,45,"",1,J,green,12,"","",1.92,686,"","",4,96.11
583824,347,347,block_Trng,3,task_Trng,2,1,"","",5,20,"","","","",Block20,"","","","","","",J,Stim13,LR,77,"",0,J,green,8,"","",1.92,688,"","",4,96.39
583824,348,348,block_Trng,3,task_Trng,2,1,"","",6,20,"","","","",Block20,"","","","","","",K,PreISI1,NR,44,"",0,K,red,11,"","",1.92,688,"","",4,96.67
583824,349,349,block_Trng,3,task_Trng,2,0,"","",7,20,"","","","",Block20,"","","","","","",J,PreISI1,LR,497,"",0,K,green,13,"","",1.92,688,"","",4,96.94
583824,350,350,block_Trng,3,task_Trng,2,0,"","",8,20,"","","","",Block20,"","","","","","",K,Stim15,LR,106,"",0,J,green,10,"","",1.92,688,"","",4,97.22
583824,351,351,block_Trng,3,task_Trng,2,1,"","",9,20,"","","","",Block20,"","","","","","",J,PreISI1,NR,101,"",0,J,red,12,"","",1.92,688,"","",4,97.5
583824,352,352,block_Trng,3,task_Trng,2,0,"","",10,20,"","","","",Block20,"","","","","","",J,Stim15,NR,71,"",0,K,red,9,"","",1.92,688,"","",4,97.78
583824,353,353,block_Trng,3,task_Trng,2,1,"","",11,20,"","","","",Block20,"","","","","","",K,Stim16,HR,38,"",0,K,blue,8,"","",1.92,698,"","",4,98.06
583824,354,354,block_Trng,3,task_Trng,2,1,"","",12,20,"","","","",Block20,"","","","","","",K,PreISI1,HR,393,"",0,K,blue,12,"","",1.92,708,"","",4,98.33
583824,355,355,block_Trng,3,task_Trng,2,1,"","",13,20,"","","","",Block20,"","","","","","",J,Stim15,HR,38,"",0,J,blue,9,"","",1.92,718,"","",4,98.61
583824,356,356,block_Trng,3,task_Trng,2,1,"","",14,20,"","","","",Block20,"","","","","","",K,PreISI1,LR,228,"",0,K,green,9,"","",1.92,720,"","",4,98.89
583824,357,357,block_Trng,3,task_Trng,2,0,"","",15,20,"","","","",Block20,Slow!,"","","","","",J,PreISI2,NR,172,"",1,K,red,13,"","",1.92,720,"","",4,99.17
583824,358,358,block_Trng,3,task_Trng,2,1,"","",16,20,"","","","",Block20,"","","","","","",K,PreISI1,LR,292,"",0,K,green,11,"","",1.92,722,"","",4,99.44
583824,359,359,block_Trng,3,task_Trng,2,1,"","",17,20,"","","","",Block20,"","","","","","",J,PreISI1,HR,318,"",0,J,blue,13,"","",1.92,732,"","",4,99.72
583824,360,360,block_Trng,3,task_Trng,2,1,"","",18,20,"","","","",Block20,"","","","","","",J,PreISI1,HR,348,"",0,J,blue,11,"","",1.92,742,"","",4,100
583824,1,1,block_Testing,4,task_Testing_Instructions,1,"","","","",1,"","","","","","","","","","","","","","","","","","","","","","","","","","","",""
583824,1,1,block_Testing,4,task_Testing,2,0,"","",1,1,"","",Block1,"","","","","","","","",J,PreISI1,NR,83,"",0,K,red,11,0,0.56,"",742,"","","",""
583824,2,2,block_Testing,4,task_Testing,2,1,"","",2,1,"","",Block1,"","","","","","","","",K,Stim16,HR,105,"",0,K,blue,10,0,1.11,"",742,"","","",""
583824,3,3,block_Testing,4,task_Testing,2,1,"","",3,1,"","",Block1,"","","","","","","","",J,PreISI1,NR,501,"",0,J,red,10,0,1.67,"",742,"","","",""
583824,4,4,block_Testing,4,task_Testing,2,0,"","",4,1,"","",Block1,"","","","","","","","",J,Stim14,HR,12,"",0,K,blue,8,0,2.22,"",742,"","","",""
583824,5,5,block_Testing,4,task_Testing,2,1,"","",5,1,"","",Block1,"","","","","","","","",K,PreISI1,NR,514,"",0,K,red,13,0,2.78,"",742,"","","",""
583824,6,6,block_Testing,4,task_Testing,2,1,"","",6,1,"","",Block1,"","","","","","","","",J,PreISI1,HR,407,"",0,J,blue,13,0,3.33,"",742,"","","",""
583824,7,7,block_Testing,4,task_Testing,2,1,"","",7,1,"","",Block1,"","","","","","","","",K,PreISI1,LR,363,"",0,K,green,11,0,3.89,"",742,"","","",""
583824,8,8,block_Testing,4,task_Testing,2,1,"","",8,1,"","",Block1,"","","","","","","","",J,PreISI1,NR,208,"",0,J,red,12,0,4.44,"",742,"","","",""
583824,9,9,block_Testing,4,task_Testing,2,1,"","",9,1,"","",Block1,"","","","","","","","",J,Stim15,NR,93,"",0,J,red,8,0,5,"",742,"","","",""
583824,10,10,block_Testing,4,task_Testing,2,1,"","",10,1,"","",Block1,"","","","","","","","",J,PreISI1,LR,3,"",0,J,green,10,0,5.56,"",742,"","","",""
583824,11,11,block_Testing,4,task_Testing,2,0,"","",11,1,"","",Block1,"","","","","","","","",J,PreISI1,HR,230,"",0,K,blue,12,0,6.11,"",742,"","","",""
583824,12,12,block_Testing,4,task_Testing,2,1,"","",12,1,"","",Block1,"","","","","","","","",J,Stim15,LR,62,"",0,J,green,8,0,6.67,"",742,"","","",""
583824,13,13,block_Testing,4,task_Testing,2,1,"","",13,1,"","",Block1,"","",Slow!,"","","","","",K,PreISI2,LR,324,"",1,K,green,13,0,7.22,"",742,"","","",""
583824,14,14,block_Testing,4,task_Testing,2,1,"","",14,1,"","",Block1,"","","","","","","","",J,PreISI1,HR,144,"",0,J,blue,11,0,7.78,"",742,"","","",""
583824,15,15,block_Testing,4,task_Testing,2,1,"","",15,1,"","",Block1,"","","","","","","","",J,Stim14,HR,112,"",0,J,blue,9,0,8.33,"",742,"","","",""
583824,16,16,block_Testing,4,task_Testing,2,1,"","",16,1,"","",Block1,"","","","","","","","",J,PreISI1,LR,453,"",0,J,green,12,0,8.89,"",742,"","","",""
583824,17,17,block_Testing,4,task_Testing,2,0,"","",17,1,"","",Block1,"","","","","","","","",J,Stim16,LR,70,"",0,K,green,9,0,9.44,"",742,"","","",""
583824,18,18,block_Testing,4,task_Testing,2,1,"","",18,1,"","",Block1,"","","","","","","","",K,Stim15,NR,5,"",0,K,red,9,0,10,"",742,"","","",""
583824,19,19,block_Testing,4,task_Testing,2,0,"","",1,2,"","",Block2,"","","","","","","","",K,Stim14,LR,103,"",0,J,green,12,0,10.56,"",742,"","","",""
583824,20,20,block_Testing,4,task_Testing,2,0,"","",2,2,"","",Block2,"","","","","","","","",J,Stim16,NR,62,"",0,K,red,9,0,11.11,"",742,"","","",""
583824,21,21,block_Testing,4,task_Testing,2,1,"","",3,2,"","",Block2,"","","","","","","","",J,PreISI1,HR,358,"",0,J,blue,13,0,11.67,"",742,"","","",""
583824,22,22,block_Testing,4,task_Testing,2,0,"","",4,2,"","",Block2,"","",Slow!,"","","","","",K,PreISI2,NR,529,"",1,J,red,12,0,12.22,"",742,"","","",""
583824,23,23,block_Testing,4,task_Testing,2,1,"","",5,2,"","",Block2,"","","","","","","","",J,Stim14,HR,109,"",0,J,blue,9,0,12.78,"",742,"","","",""
583824,24,24,block_Testing,4,task_Testing,2,1,"","",6,2,"","",Block2,"","","","","","","","",J,PreISI1,NR,36,"",0,J,red,10,0,13.33,"",742,"","","",""
583824,25,25,block_Testing,4,task_Testing,2,1,"","",7,2,"","",Block2,"","","","","","","","",K,PreISI1,NR,247,"",0,K,red,11,0,13.89,"",742,"","","",""
583824,26,26,block_Testing,4,task_Testing,2,1,"","",8,2,"","",Block2,"","",Slow!,"","","","","",K,PreISI2,LR,776,"",1,K,green,13,0,14.44,"",742,"","","",""
583824,27,27,block_Testing,4,task_Testing,2,1,"","",9,2,"","",Block2,"","","","","","","","",K,PreISI1,HR,348,"",0,K,blue,12,0,15,"",742,"","","",""
583824,28,28,block_Testing,4,task_Testing,2,1,"","",10,2,"","",Block2,"","","","","","","","",K,Stim16,HR,73,"",0,K,blue,8,0,15.56,"",742,"","","",""
583824,29,29,block_Testing,4,task_Testing,2,1,"","",11,2,"","",Block2,"","","","","","","","",K,PreISI1,LR,124,"",0,K,green,9,0,16.11,"",742,"","","",""
583824,30,30,block_Testing,4,task_Testing,2,1,"","",12,2,"","",Block2,"","","","","","","","",J,Stim16,LR,51,"",0,J,green,8,0,16.67,"",742,"","","",""
583824,31,31,block_Testing,4,task_Testing,2,1,"","",13,2,"","",Block2,"","","","","","","","",K,PreISI1,HR,45,"",0,K,blue,10,0,17.22,"",742,"","","",""
583824,32,32,block_Testing,4,task_Testing,2,1,"","",14,2,"","",Block2,"","","","","","","","",J,PreISI1,LR,32,"",0,J,green,10,0,17.78,"",742,"","","",""
583824,33,33,block_Testing,4,task_Testing,2,1,"","",15,2,"","",Block2,"","","","","","","","",K,PreISI1,NR,413,"",0,K,red,13,0,18.33,"",742,"","","",""
583824,34,34,block_Testing,4,task_Testing,2,1,"","",16,2,"","",Block2,"","",Slow!,"","","","","",J,PreISI2,HR,1295,"",1,J,blue,11,0,18.89,"",742,"","","",""
583824,35,35,block_Testing,4,task_Testing,2,1,"","",17,2,"","",Block2,"","","","","","","","",J,Stim14,NR,75,"",0,J,red,8,0,19.44,"",742,"","","",""
583824,36,36,block_Testing,4,task_Testing,2,1,"","",18,2,"","",Block2,"","",Slow!,"","","","","",K,PreISI2,LR,65,"",1,K,green,11,0,20,"",742,"","","",""
583824,37,37,block_Testing,4,task_Testing,2,1,"","",1,3,"","",Block3,"","","","","","","","",J,Stim15,NR,62,"",0,J,red,10,0,20.56,"",742,"","","",""
583824,38,38,block_Testing,4,task_Testing,2,1,"","",2,3,"","",Block3,"","","","","","","","",J,PreISI1,HR,123,"",0,J,blue,11,0,21.11,"",742,"","","",""
583824,39,39,block_Testing,4,task_Testing,2,0,"","",3,3,"","",Block3,"","","","","","","","",J,Stim16,HR,116,"",0,K,blue,10,0,21.67,"",742,"","","",""
583824,40,40,block_Testing,4,task_Testing,2,1,"","",4,3,"","",Block3,"","","","","","","","",J,PreISI1,HR,329,"",0,J,blue,13,0,22.22,"",742,"","","",""
583824,41,41,block_Testing,4,task_Testing,2,1,"","",5,3,"","",Block3,"","","","","","","","",K,PreISI1,LR,374,"",0,K,green,11,0,22.78,"",742,"","","",""
583824,42,42,block_Testing,4,task_Testing,2,1,"","",6,3,"","",Block3,"","",Slow!,"","","","","",J,PreISI2,NR,14,"",1,J,red,12,0,23.33,"",742,"","","",""
583824,43,43,block_Testing,4,task_Testing,2,1,"","",7,3,"","",Block3,"","","","","","","","",J,PreISI1,LR,265,"",0,J,green,10,0,23.89,"",742,"","","",""
583824,44,44,block_Testing,4,task_Testing,2,1,"","",8,3,"","",Block3,"","","","","","","","",K,Stim16,LR,55,"",0,K,green,9,0,24.44,"",742,"","","",""
583824,45,45,block_Testing,4,task_Testing,2,0,"","",9,3,"","",Block3,"","",Slow!,"","","","","",K,PreISI2,HR,140,"",1,J,blue,9,0,25,"",742,"","","",""
583824,46,46,block_Testing,4,task_Testing,2,1,"","",10,3,"","",Block3,"","","","","","","","",K,PreISI1,NR,259,"",0,K,red,11,0,25.56,"",742,"","","",""
583824,47,47,block_Testing,4,task_Testing,2,1,"","",11,3,"","",Block3,"","",Slow!,"","","","","",K,PreISI2,HR,198,"",1,K,blue,12,0,26.11,"",742,"","","",""
583824,48,48,block_Testing,4,task_Testing,2,1,"","",12,3,"","",Block3,"","","","","","","","",K,PreISI1,NR,199,"",0,K,red,9,0,26.67,"",742,"","","",""
583824,49,49,block_Testing,4,task_Testing,2,1,"","",13,3,"","",Block3,"","",Slow!,"","","","","",K,PreISI2,LR,122,"",1,K,green,13,0,27.22,"",742,"","","",""
583824,50,50,block_Testing,4,task_Testing,2,0,"","",14,3,"","",Block3,"","",Slow!,"","","","","","","",LR,0,"",2,J,green,12,0,27.78,"",742,"","","",""
583824,51,51,block_Testing,4,task_Testing,2,0,"","",15,3,"","",Block3,"","",Slow!,"","","","","",J,PreISI2,NR,365,"",3,K,red,13,0,28.33,"",742,"","","",""
583824,52,52,block_Testing,4,task_Testing,2,0,"","",16,3,"","",Block3,"","","","","","","","",J,Stim15,HR,32,"",0,K,blue,8,0,28.89,"",742,"","","",""
583824,53,53,block_Testing,4,task_Testing,2,1,"","",17,3,"","",Block3,"","","","","","","","",J,PreISI1,NR,159,"",0,J,red,8,0,29.44,"",742,"","","",""
583824,54,54,block_Testing,4,task_Testing,2,1,"","",18,3,"","",Block3,"","","","","","","","",J,Stim15,LR,55,"",0,J,green,8,1,30,"",742,"","","",""
583824,55,55,block_Testing,4,task_Testing,2,0,"","",1,4,"","",Block4,"","","","","","","","",K,Stim14,LR,68,"",0,J,green,8,1,30.56,"",742,"","","",""
583824,56,56,block_Testing,4,task_Testing,2,1,"","",2,4,"","",Block4,"","","","","","","","",K,PreISI1,HR,221,"",0,K,blue,10,1,31.11,"",742,"","","",""
583824,57,57,block_Testing,4,task_Testing,2,1,"","",3,4,"","",Block4,"","","","","","","","",J,Stim16,LR,64,"",0,J,green,10,1,31.67,"",742,"","","",""
583824,58,58,block_Testing,4,task_Testing,2,0,"","",4,4,"","",Block4,"","","","","","","","",K,Stim16,HR,109,"",0,J,blue,9,1,32.22,"",742,"","","",""
583824,59,59,block_Testing,4,task_Testing,2,0,"","",5,4,"","",Block4,"","",Slow!,"","","","","","","",NR,0,"",1,J,red,10,1,32.78,"",742,"","","",""
583824,60,60,block_Testing,4,task_Testing,2,1,"","",6,4,"","",Block4,"","","","","","","","",K,PreISI1,LR,263,"",0,K,green,9,1,33.33,"",742,"","","",""
583824,61,61,block_Testing,4,task_Testing,2,1,"","",7,4,"","",Block4,"","","","","","","","",K,PreISI1,LR,338,"",0,K,green,11,1,33.89,"",742,"","","",""
583824,62,62,block_Testing,4,task_Testing,2,1,"","",8,4,"","",Block4,"","",Slow!,"","","","","",K,PreISI2,NR,256,"",1,K,red,9,1,34.44,"",742,"","","",""
583824,63,63,block_Testing,4,task_Testing,2,0,"","",9,4,"","",Block4,"","",Slow!,"","","","","","","",NR,0,"",2,J,red,12,1,35,"",742,"","","",""
583824,64,64,block_Testing,4,task_Testing,2,0,"","",10,4,"","",Block4,"","",Slow!,"","","","","",J,PreISI2,HR,1274,"",3,K,blue,8,1,35.56,"",742,"","","",""
583824,65,65,block_Testing,4,task_Testing,2,0,"","",11,4,"","",Block4,"","","","","","","","",J,PreISI1,LR,384,"",0,K,green,13,1,36.11,"",742,"","","",""
583824,66,66,block_Testing,4,task_Testing,2,1,"","",12,4,"","",Block4,"","",Slow!,"","","","","",J,PreISI2,LR,277,"",1,J,green,12,1,36.67,"",742,"","","",""
583824,67,67,block_Testing,4,task_Testing,2,1,"","",13,4,"","",Block4,"","","","","","","","",J,Stim12,HR,5,"",0,J,blue,11,1,37.22,"",742,"","","",""
583824,68,68,block_Testing,4,task_Testing,2,1,"","",14,4,"","",Block4,"","","","","","","","",K,Stim12,NR,88,"",0,K,red,11,1,37.78,"",742,"","","",""
583824,69,69,block_Testing,4,task_Testing,2,0,"","",15,4,"","",Block4,"","","","","","","","",K,Stim13,HR,106,"",0,J,blue,13,1,38.33,"",742,"","","",""
583824,70,70,block_Testing,4,task_Testing,2,1,"","",16,4,"","",Block4,"","","","","","","","",K,PreISI1,HR,114,"",0,K,blue,12,1,38.89,"",742,"","","",""
583824,71,71,block_Testing,4,task_Testing,2,0,"","",17,4,"","",Block4,"","","","","","","","",J,PreISI1,NR,51,"",0,K,red,13,1,39.44,"",742,"","","",""
583824,72,72,block_Testing,4,task_Testing,2,1,"","",18,4,"","",Block4,"","","","","","","","",J,Stim10,NR,89,"",0,J,red,8,1,40,"",742,"","","",""
583824,73,73,block_Testing,4,task_Testing,2,0,"","",1,5,"","",Block5,"","",Slow!,"","","","","","","",NR,0,"",1,J,red,8,1,40.56,"",742,"","","",""
583824,74,74,block_Testing,4,task_Testing,2,1,"","",2,5,"","",Block5,"","",Slow!,"","","","","",J,PreISI2,HR,259,"",2,J,blue,11,1,41.11,"",742,"","","",""
583824,75,75,block_Testing,4,task_Testing,2,0,"","",3,5,"","",Block5,"","","","","","","","",J,Stim16,NR,102,"",0,K,red,11,1,41.67,"",742,"","","",""
583824,76,76,block_Testing,4,task_Testing,2,1,"","",4,5,"","",Block5,"","",Slow!,"","","","","",J,PreISI2,HR,1025,"",1,J,blue,9,1,42.22,"",742,"","","",""
583824,77,77,block_Testing,4,task_Testing,2,1,"","",5,5,"","",Block5,"","",Slow!,"","","","","",J,PreISI2,HR,415,"",2,J,blue,13,1,42.78,"",742,"","","",""
583824,78,78,block_Testing,4,task_Testing,2,1,"","",6,5,"","",Block5,"","","","","","","","",J,PreISI1,NR,9,"",0,J,red,10,1,43.33,"",742,"","","",""
583824,79,79,block_Testing,4,task_Testing,2,1,"","",7,5,"","",Block5,"","",Slow!,"","","","","",K,PreISI2,HR,1430,"",1,K,blue,8,1,43.89,"",742,"","","",""
583824,80,80,block_Testing,4,task_Testing,2,0,"","",8,5,"","",Block5,"","","","","","","","",J,PreISI1,LR,252,"",0,K,green,13,1,44.44,"",742,"","","",""
583824,81,81,block_Testing,4,task_Testing,2,0,"","",9,5,"","",Block5,"","","","","","","","",J,PreISI1,HR,240,"",0,K,blue,12,1,45,"",742,"","","",""
583824,82,82,block_Testing,4,task_Testing,2,1,"","",10,5,"","",Block5,"","",Slow!,"","","","","",K,PreISI2,NR,51,"",1,K,red,13,1,45.56,"",742,"","","",""
583824,83,83,block_Testing,4,task_Testing,2,1,"","",11,5,"","",Block5,"","","","","","","","",J,PreISI1,LR,309,"",0,J,green,10,1,46.11,"",742,"","","",""
583824,84,84,block_Testing,4,task_Testing,2,1,"","",12,5,"","",Block5,"","","","","","","","",K,PreISI1,LR,30,"",0,K,green,11,1,46.67,"",742,"","","",""
583824,85,85,block_Testing,4,task_Testing,2,1,"","",13,5,"","",Block5,"","","","","","","","",J,PreISI1,LR,133,"",0,J,green,12,1,47.22,"",742,"","","",""
583824,86,86,block_Testing,4,task_Testing,2,1,"","",14,5,"","",Block5,"","","","","","","","",K,PreISI1,NR,327,"",0,K,red,9,1,47.78,"",742,"","","",""
583824,87,87,block_Testing,4,task_Testing,2,0,"","",15,5,"","",Block5,"","",Slow!,"","","","","",J,ISI,HR,976,"",1,K,blue,10,1,48.33,"",742,"","","",""
583824,88,88,block_Testing,4,task_Testing,2,1,"","",16,5,"","",Block5,"","","","","","","","",J,Stim9,LR,103,"",0,J,green,8,1,48.89,"",742,"","","",""
583824,89,89,block_Testing,4,task_Testing,2,1,"","",17,5,"","",Block5,"","",Slow!,"","","","","",J,PreISI2,NR,1196,"",1,J,red,12,1,49.44,"",742,"","","",""
583824,90,90,block_Testing,4,task_Testing,2,0,"","",18,5,"","",Block5,"","",Slow!,"","","","","",J,PreISI2,LR,1345,"",2,K,green,9,1,50,"",742,"","","",""
583824,91,91,block_Testing,4,task_Testing,2,0,"","",1,6,"","",Block6,"","","","","","","","",J,PreISI1,NR,188,"",0,K,red,11,1,50.56,"",742,"","","",""
583824,92,92,block_Testing,4,task_Testing,2,0,"","",2,6,"","",Block6,"","",Slow!,"","","","","",K,ISI,HR,900,"",1,J,blue,9,1,51.11,"",742,"","","",""
583824,93,93,block_Testing,4,task_Testing,2,1,"","",3,6,"","",Block6,"","","","","","","","",K,Stim16,HR,39,"",0,K,blue,12,1,51.67,"",742,"","","",""
583824,94,94,block_Testing,4,task_Testing,2,1,"","",4,6,"","",Block6,"","","","","","","","",J,Stim14,NR,62,"",0,J,red,12,1,52.22,"",742,"","","",""
583824,95,95,block_Testing,4,task_Testing,2,1,"","",5,6,"","",Block6,"","",Slow!,"","","","","",K,PreISI2,LR,463,"",1,K,green,13,1,52.78,"",742,"","","",""
583824,96,96,block_Testing,4,task_Testing,2,1,"","",6,6,"","",Block6,"","",Slow!,"","","","","",J,ISI,LR,450,"",2,J,green,10,1,53.33,"",742,"","","",""
583824,97,97,block_Testing,4,task_Testing,2,0,"","",7,6,"","",Block6,"","","","","","","","",J,PreISI1,NR,182,"",0,K,red,13,1,53.89,"",742,"","","",""
583824,98,98,block_Testing,4,task_Testing,2,1,"","",8,6,"","",Block6,"","",Slow!,"","","","","",J,ISI,HR,383,"",1,J,blue,11,1,54.44,"",742,"","","",""
583824,99,99,block_Testing,4,task_Testing,2,1,"","",9,6,"","",Block6,"","","","","","","","",K,PreISI1,NR,488,"",0,K,red,9,1,55,"",742,"","","",""
583824,100,100,block_Testing,4,task_Testing,2,0,"","",10,6,"","",Block6,"","",Slow!,"","","","","",K,PreISI2,HR,582,"",1,J,blue,13,1,55.56,"",742,"","","",""
583824,101,101,block_Testing,4,task_Testing,2,0,"","",11,6,"","",Block6,"","",Slow!,"","","","","",J,PreISI2,HR,1050,"",2,K,blue,8,1,56.11,"",742,"","","",""
583824,102,102,block_Testing,4,task_Testing,2,0,"","",12,6,"","",Block6,"","",Slow!,"","","","","","","",LR,0,"",3,K,green,11,1,56.67,"",742,"","","",""
583824,103,103,block_Testing,4,task_Testing,2,1,"","",13,6,"","",Block6,"","","","","","","","",J,Stim14,LR,2,"",0,J,green,8,1,57.22,"",742,"","","",""
583824,104,104,block_Testing,4,task_Testing,2,1,"","",14,6,"","",Block6,"","","","","","","","",J,PreISI1,LR,262,"",0,J,green,12,1,57.78,"",742,"","","",""
583824,105,105,block_Testing,4,task_Testing,2,1,"","",15,6,"","",Block6,"","","","","","","","",J,Stim16,NR,23,"",0,J,red,8,1,58.33,"",742,"","","",""
583824,106,106,block_Testing,4,task_Testing,2,1,"","",16,6,"","",Block6,"","","","","","","","",K,PreISI1,HR,379,"",0,K,blue,10,1,58.89,"",742,"","","",""
583824,107,107,block_Testing,4,task_Testing,2,0,"","",17,6,"","",Block6,"","","","","","","","",J,Stim14,LR,101,"",0,K,green,9,1,59.44,"",742,"","","",""
583824,108,108,block_Testing,4,task_Testing,2,1,"","",18,6,"","",Block6,"","","","","","","","",J,PreISI1,NR,135,"",0,J,red,10,2,60,"",742,"","","",""
583824,109,109,block_Testing,4,task_Testing,2,1,"","",1,7,"","",Block7,"","","","","","","","",J,Stim14,NR,90,"",0,J,red,12,2,60.56,"",742,"","","",""
583824,110,110,block_Testing,4,task_Testing,2,0,"","",2,7,"","",Block7,"","","","","","","","",J,PreISI1,HR,79,"",0,K,blue,10,2,61.11,"",742,"","","",""
583824,111,111,block_Testing,4,task_Testing,2,0,"","",3,7,"","",Block7,"","",Slow!,"","","","","",J,ISI,NR,317,"",1,K,red,9,2,61.67,"",742,"","","",""
583824,112,112,block_Testing,4,task_Testing,2,0,"","",4,7,"","",Block7,"","","","","","","","",J,PreISI1,LR,27,"",0,K,green,11,2,62.22,"",742,"","","",""
583824,113,113,block_Testing,4,task_Testing,2,1,"","",5,7,"","",Block7,"","",Slow!,"","","","","",J,PreISI2,HR,22,"",1,J,blue,13,2,62.78,"",742,"","","",""
583824,114,114,block_Testing,4,task_Testing,2,1,"","",6,7,"","",Block7,"","","","","","","","",J,PreISI1,LR,376,"",0,J,green,12,2,63.33,"",742,"","","",""
583824,115,115,block_Testing,4,task_Testing,2,1,"","",7,7,"","",Block7,"","","","","","","","",J,PreISI1,LR,348,"",0,J,green,10,2,63.89,"",742,"","","",""
583824,116,116,block_Testing,4,task_Testing,2,0,"","",8,7,"","",Block7,"","","","","","","","",J,PreISI1,NR,308,"",0,K,red,13,2,64.44,"",742,"","","",""
583824,117,117,block_Testing,4,task_Testing,2,1,"","",9,7,"","",Block7,"","","","","","","","",J,Stim16,LR,5,"",0,J,green,8,2,65,"",742,"","","",""
583824,118,118,block_Testing,4,task_Testing,2,1,"","",10,7,"","",Block7,"","","","","","","","",J,PreISI1,NR,62,"",0,J,red,8,2,65.56,"",742,"","","",""
583824,119,119,block_Testing,4,task_Testing,2,1,"","",11,7,"","",Block7,"","","","","","","","",J,Stim15,NR,44,"",0,J,red,10,2,66.11,"",742,"","","",""
583824,120,120,block_Testing,4,task_Testing,2,0,"","",12,7,"","",Block7,"","",Slow!,"","","","","",J,PreISI2,HR,617,"",1,K,blue,8,2,66.67,"",742,"","","",""
583824,121,121,block_Testing,4,task_Testing,2,0,"","",13,7,"","",Block7,"","","","","","","","",J,PreISI1,HR,163,"",0,K,blue,12,2,67.22,"",742,"","","",""
583824,122,122,block_Testing,4,task_Testing,2,1,"","",14,7,"","",Block7,"","","","","","","","",K,Stim16,NR,56,"",0,K,red,11,2,67.78,"",742,"","","",""
583824,123,123,block_Testing,4,task_Testing,2,1,"","",15,7,"","",Block7,"","","","","","","","",K,PreISI1,LR,311,"",0,K,green,9,2,68.33,"",742,"","","",""
583824,124,124,block_Testing,4,task_Testing,2,0,"","",16,7,"","",Block7,"","",Slow!,"","","","","","","",LR,0,"",1,K,green,13,2,68.89,"",742,"","","",""
583824,125,125,block_Testing,4,task_Testing,2,0,"","",17,7,"","",Block7,"","",Slow!,"","","","","",K,PreISI2,HR,1435,"",2,J,blue,9,2,69.44,"",742,"","","",""
583824,126,126,block_Testing,4,task_Testing,2,1,"","",18,7,"","",Block7,"","","","","","","","",J,PreISI1,HR,187,"",0,J,blue,11,2,70,"",742,"","","",""
583824,127,127,block_Testing,4,task_Testing,2,1,"","",1,8,"","",Block8,"","",Slow!,"","","","","",K,PreISI2,NR,867,"",1,K,red,13,2,70.56,"",742,"","","",""
583824,128,128,block_Testing,4,task_Testing,2,0,"","",2,8,"","",Block8,"","",Slow!,"","","","","","","",LR,0,"",2,K,green,13,2,71.11,"",742,"","","",""
583824,129,129,block_Testing,4,task_Testing,2,1,"","",3,8,"","",Block8,"","","","","","","","",J,PreISI1,LR,60,"",0,J,green,12,2,71.67,"",742,"","","",""
583824,130,130,block_Testing,4,task_Testing,2,0,"","",4,8,"","",Block8,"","",Slow!,"","","","","","","",NR,0,"",1,K,red,9,2,72.22,"",742,"","","",""
583824,131,131,block_Testing,4,task_Testing,2,0,"","",5,8,"","",Block8,"","","","","","","","",K,PreISI1,HR,261,"",0,J,blue,13,2,72.78,"",742,"","","",""
583824,132,132,block_Testing,4,task_Testing,2,1,"","",6,8,"","",Block8,"","","","","","","","",J,PreISI1,HR,26,"",0,J,blue,11,2,73.33,"",742,"","","",""
583824,133,133,block_Testing,4,task_Testing,2,1,"","",7,8,"","",Block8,"","","","","","","","",K,PreISI1,LR,433,"",0,K,green,11,2,73.89,"",742,"","","",""
583824,134,134,block_Testing,4,task_Testing,2,0,"","",8,8,"","",Block8,"","","","","","","","",J,PreISI1,HR,395,"",0,K,blue,10,2,74.44,"",742,"","","",""
583824,135,135,block_Testing,4,task_Testing,2,1,"","",9,8,"","",Block8,"","","","","","","","",K,PreISI1,LR,233,"",0,K,green,9,2,75,"",742,"","","",""
583824,136,136,block_Testing,4,task_Testing,2,0,"","",10,8,"","",Block8,"","",Slow!,"","","","","",K,ISI,NR,265,"",1,J,red,12,2,75.56,"",742,"","","",""
583824,137,137,block_Testing,4,task_Testing,2,0,"","",11,8,"","",Block8,"","","","","","","","",K,Stim15,HR,30,"",0,J,blue,9,2,76.11,"",742,"","","",""
583824,138,138,block_Testing,4,task_Testing,2,1,"","",12,8,"","",Block8,"","","","","","","","",J,PreISI1,LR,120,"",0,J,green,10,2,76.67,"",742,"","","",""
583824,139,139,block_Testing,4,task_Testing,2,0,"","",13,8,"","",Block8,"","","","","","","","",K,PreISI1,NR,82,"",0,J,red,8,2,77.22,"",742,"","","",""
583824,140,140,block_Testing,4,task_Testing,2,0,"","",14,8,"","",Block8,"","",Slow!,"","","","","","","",NR,0,"",1,J,red,10,2,77.78,"",742,"","","",""
583824,141,141,block_Testing,4,task_Testing,2,1,"","",15,8,"","",Block8,"","","","","","","","",J,Stim14,LR,1,"",0,J,green,8,2,78.33,"",742,"","","",""
583824,142,142,block_Testing,4,task_Testing,2,1,"","",16,8,"","",Block8,"","","","","","","","",K,PreISI1,HR,385,"",0,K,blue,8,2,78.89,"",742,"","","",""
583824,143,143,block_Testing,4,task_Testing,2,1,"","",17,8,"","",Block8,"","",Slow!,"","","","","",K,PreISI2,NR,571,"",1,K,red,11,2,79.44,"",742,"","","",""
583824,144,144,block_Testing,4,task_Testing,2,0,"","",18,8,"","",Block8,"","",Slow!,"","","","","","","",HR,0,"",2,K,blue,12,2,80,"",742,"","","",""
583824,145,145,block_Testing,4,task_Testing,2,1,"","",1,9,"","",Block9,"","","","","","","","",K,Stim15,HR,59,"",0,K,blue,10,2,80.56,"",742,"","","",""
583824,146,146,block_Testing,4,task_Testing,2,0,"","",2,9,"","",Block9,"","",Slow!,"","","","","",J,PreISI2,LR,307,"",1,K,green,11,2,81.11,"",742,"","","",""
583824,147,147,block_Testing,4,task_Testing,2,1,"","",3,9,"","",Block9,"","",Slow!,"","","","","",K,PreISI2,NR,212,"",2,K,red,11,2,81.67,"",742,"","","",""
583824,148,148,block_Testing,4,task_Testing,2,1,"","",4,9,"","",Block9,"","",Slow!,"","","","","",K,PreISI2,NR,825,"",3,K,red,13,2,82.22,"",742,"","","",""
583824,149,149,block_Testing,4,task_Testing,2,0,"","",5,9,"","",Block9,"","",Slow!,"","","","","","","",NR,0,"",4,J,red,12,2,82.78,"",742,"","","",""
583824,150,150,block_Testing,4,task_Testing,2,1,"","",6,9,"","",Block9,"","",Slow!,"","","","","",K,PreISI2,HR,152,"",5,K,blue,12,2,83.33,"",742,"","","",""
583824,151,151,block_Testing,4,task_Testing,2,0,"","",7,9,"","",Block9,"","","","","","","","",J,Stim15,HR,89,"",0,K,blue,8,2,83.89,"",742,"","","",""
583824,152,152,block_Testing,4,task_Testing,2,1,"","",8,9,"","",Block9,"","","","","","","","",J,PreISI1,LR,233,"",0,J,green,10,2,84.44,"",742,"","","",""
583824,153,153,block_Testing,4,task_Testing,2,1,"","",9,9,"","",Block9,"","","","","","","","",J,Stim16,NR,89,"",0,J,red,8,2,85,"",742,"","","",""
583824,154,154,block_Testing,4,task_Testing,2,1,"","",10,9,"","",Block9,"","","","","","","","",K,PreISI1,NR,127,"",0,K,red,9,2,85.56,"",742,"","","",""
583824,155,155,block_Testing,4,task_Testing,2,1,"","",11,9,"","",Block9,"","","","","","","","",J,PreISI1,HR,363,"",0,J,blue,11,2,86.11,"",742,"","","",""
583824,156,156,block_Testing,4,task_Testing,2,0,"","",12,9,"","",Block9,"","","","","","","","",J,PreISI1,LR,281,"",0,K,green,9,2,86.67,"",742,"","","",""
583824,157,157,block_Testing,4,task_Testing,2,1,"","",13,9,"","",Block9,"","",Slow!,"","","","","",J,ISI,LR,16,"",1,J,green,12,2,87.22,"",742,"","","",""
583824,158,158,block_Testing,4,task_Testing,2,1,"","",14,9,"","",Block9,"","","","","","","","",J,PreISI1,HR,464,"",0,J,blue,13,2,87.78,"",742,"","","",""
583824,159,159,block_Testing,4,task_Testing,2,1,"","",15,9,"","",Block9,"","","","","","","","",J,Stim15,LR,97,"",0,J,green,8,2,88.33,"",742,"","","",""
583824,160,160,block_Testing,4,task_Testing,2,1,"","",16,9,"","",Block9,"","",Slow!,"","","","","",J,ISI,NR,166,"",1,J,red,10,2,88.89,"",742,"","","",""
583824,161,161,block_Testing,4,task_Testing,2,1,"","",17,9,"","",Block9,"","",Slow!,"","","","","",K,PreISI2,LR,372,"",2,K,green,13,2,89.44,"",742,"","","",""
583824,162,162,block_Testing,4,task_Testing,2,1,"","",18,9,"","",Block9,"","","","","","","","",J,PreISI1,HR,96,"",0,J,blue,9,2,90,"",742,"","","",""
583824,163,163,block_Testing,4,task_Testing,2,0,"","",1,10,"","",Block10,"","","","","","","","",J,Stim15,HR,105,"",0,K,blue,10,2,90.56,"",742,"","","",""
583824,164,164,block_Testing,4,task_Testing,2,1,"","",2,10,"","",Block10,"","","","","","","","",J,Stim16,HR,73,"",0,J,blue,9,2,91.11,"",742,"","","",""
583824,165,165,block_Testing,4,task_Testing,2,1,"","",3,10,"","",Block10,"","","","","","","","",J,PreISI1,HR,516,"",0,J,blue,13,2,91.67,"",742,"","","",""
583824,166,166,block_Testing,4,task_Testing,2,0,"","",4,10,"","",Block10,"","",Slow!,"","","","","",J,PreISI2,LR,153,"",1,K,green,11,2,92.22,"",742,"","","",""
583824,167,167,block_Testing,4,task_Testing,2,0,"","",5,10,"","",Block10,"","",Slow!,"","","","","",J,PreISI2,NR,260,"",2,K,red,11,2,92.78,"",742,"","","",""
583824,168,168,block_Testing,4,task_Testing,2,0,"","",6,10,"","",Block10,"","",Slow!,"","","","","",J,PreISI2,NR,1055,"",3,K,red,9,2,93.33,"",742,"","","",""
583824,169,169,block_Testing,4,task_Testing,2,0,"","",7,10,"","",Block10,"","",Slow!,"","","","","",K,PreISI2,LR,874,"",4,J,green,10,2,93.89,"",742,"","","",""
583824,170,170,block_Testing,4,task_Testing,2,0,"","",8,10,"","",Block10,"","","","","","","","",J,PreISI1,HR,214,"",0,K,blue,12,2,94.44,"",742,"","","",""
583824,171,171,block_Testing,4,task_Testing,2,1,"","",9,10,"","",Block10,"","","","","","","","",J,PreISI1,LR,117,"",0,J,green,12,2,95,"",742,"","","",""
583824,172,172,block_Testing,4,task_Testing,2,1,"","",10,10,"","",Block10,"","","","","","","","",J,PreISI1,LR,99,"",0,J,green,8,2,95.56,"",742,"","","",""
583824,173,173,block_Testing,4,task_Testing,2,0,"","",11,10,"","",Block10,"","","","","","","","",J,PreISI1,NR,319,"",0,K,red,13,2,96.11,"",742,"","","",""
583824,174,174,block_Testing,4,task_Testing,2,1,"","",12,10,"","",Block10,"","","","","","","","",K,PreISI1,LR,240,"",0,K,green,13,2,96.67,"",742,"","","",""
583824,175,175,block_Testing,4,task_Testing,2,1,"","",13,10,"","",Block10,"","","","","","","","",K,Stim15,HR,43,"",0,K,blue,8,2,97.22,"",742,"","","",""
583824,176,176,block_Testing,4,task_Testing,2,1,"","",14,10,"","",Block10,"","","","","","","","",J,PreISI1,HR,234,"",0,J,blue,11,2,97.78,"",742,"","","",""
583824,177,177,block_Testing,4,task_Testing,2,1,"","",15,10,"","",Block10,"","","","","","","","",J,PreISI1,NR,124,"",0,J,red,8,2,98.33,"",742,"","","",""
583824,178,178,block_Testing,4,task_Testing,2,0,"","",16,10,"","",Block10,"","",Slow!,"","","","","",K,PreISI2,NR,635,"",1,J,red,12,2,98.89,"",742,"","","",""
583824,179,179,block_Testing,4,task_Testing,2,0,"","",17,10,"","",Block10,"","",Slow!,"","","","","","","",NR,0,"",2,J,red,10,2,99.44,"",742,"","","",""
583824,180,180,block_Testing,4,task_Testing,2,1,"","",18,10,"","",Block10,"","","","","","","","",K,PreISI1,LR,90,"",0,K,green,9,2,100,"",742,"","","",""
583824,1,1,block_Trng,3,task_Trng_End,3,"","","","",1,"","","","","","","","","","","","","","","","","","","","","","",2.52,742,"","","",""
583824,1,1,block_End,5,task_Demog_End,1,"","",40,"",1,"","","",NONE,"","",NONE,"","","","","","","","",Male,"","","","","","","","","","","",""
