Rec_Session_Id,Trial_Nr,Trial_Id,Block_Name,Block_Nr,Task_Name,Task_Nr,ACC,ACC_Total_Prac,Age,BlkTrial_Nr,Condition_Id,Consent,Contact,copy_of_factor1_tg1_task2,Email,factor1_tg1_task2,Fdbck_Slow,Feedback,MatricNo,Name,PAYNOW,Recontact,RESP,RESP_Frame,Reward,RT_FromFramePress,Sex,SlowResp,Targ,TargCol,TargPos,Testing_BreakCount,Testing_Progress,TotalMoney,TotalPoints,TotalPoints_prac,Trial_Nr_prac,Trng_BreakCount,Trng_Progress
581921,1,1,block_TrngInstructions,1,task_Trng_Instructions,2,"","","","",1,"","","","","","","","","","","","","","","","","","","","","","","","","","","",""
581921,1,1,block_TrngInstructions,1,task_Consent,1,"","","","",1,Yes,"","","","","","","","","","","","","","","","","","","","","","","","","","",""
581921,1,1,block_Practice,2,task_GetReady,1,"","","","",1,"","","","","","","","","","","","","","","","","","","","","","","","","","","",""
581921,1,1,block_Practice,2,task_Trng_Prac,2,1,1,"","",1,"","","","","","","","","","","",J,Stim12,Disallowed,23,"",0,J,green,9,"","","",0,0,"","",""
581921,2,2,block_Practice,2,task_Trng_Prac,2,0,0,"","",1,"","","","","",Slow!,"","","","","",K,PreISI2,Disallowed,348,"",1,J,blue,12,"","","",0,0,"","",""
581921,3,3,block_Practice,2,task_Trng_Prac,2,0,0,"","",1,"","","","","","","","","","","",J,Stim13,Disallowed,79,"",1,K,red,10,"","","",0,0,"","",""
581921,4,4,block_Practice,2,task_Trng_Prac,2,1,1,"","",1,"","","","","","","","","","","",J,PreISI1,Disallowed,5,"",1,J,blue,13,"","","",0,0,"","",""
581921,5,5,block_Practice,2,task_Trng_Prac,2,1,2,"","",1,"","","","","","","","","","","",K,Stim14,Disallowed,18,"",1,K,green,11,"","","",0,0,"","",""
581921,6,6,block_Practice,2,task_Trng_Prac,2,1,0,"","",1,"","","","","","","","","","","",K,Stim11,Disallowed,75,"",1,K,red,8,"","","",0,0,"","",""
581921,1,1,block_Trng,3,task_GetReady,1,"","","","",1,"","","","","","","","","","","","","","","","","","","","","","","","","","","",""
581921,1,1,block_Trng,3,task_Trng,2,1,"","",1,1,"","","","",Block1,"","","","","","",J,Stim13,NR,74,"",0,J,red,10,"","",0,0,"","",0,0.28
581921,2,2,block_Trng,3,task_Trng,2,1,"","",2,1,"","","","",Block1,"","","","","","",J,Stim11,LR,100,"",0,J,green,8,"","",0,2,"","",0,0.56
581921,3,3,block_Trng,3,task_Trng,2,1,"","",3,1,"","","","",Block1,"","","","","","",K,Stim12,HR,7,"",0,K,blue,8,"","",0,12,"","",0,0.83
581921,4,4,block_Trng,3,task_Trng,2,1,"","",4,1,"","","","",Block1,"","","","","","",K,Stim12,LR,80,"",0,K,green,9,"","",0,14,"","",0,1.11
581921,5,5,block_Trng,3,task_Trng,2,1,"","",5,1,"","","","",Block1,"","","","","","",J,Stim11,NR,9,"",0,J,red,8,"","",0,14,"","",0,1.39
581921,6,6,block_Trng,3,task_Trng,2,1,"","",6,1,"","","","",Block1,"","","","","","",K,Stim14,LR,64,"",0,K,green,11,"","",0,16,"","",0,1.67
581921,7,7,block_Trng,3,task_Trng,2,1,"","",7,1,"","","","",Block1,"","","","","","",J,Stim14,LR,6,"",0,J,green,10,"","",0,18,"","",0,1.94
581921,8,8,block_Trng,3,task_Trng,2,1,"","",8,1,"","","","",Block1,"","","","","","",J,Stim16,HR,61,"",0,J,blue,13,"","",0,28,"","",0,2.22
581921,9,9,block_Trng,3,task_Trng,2,1,"","",9,1,"","","","",Block1,"","","","","","",J,Stim15,LR,77,"",0,J,green,12,"","",0,30,"","",0,2.5
581921,10,10,block_Trng,3,task_Trng,2,1,"","",10,1,"","","","",Block1,"","","","","","",K,Stim13,NR,89,"",0,K,red,11,"","",0,30,"","",0,2.78
581921,11,11,block_Trng,3,task_Trng,2,1,"","",11,1,"","","","",Block1,"","","","","","",K,Stim11,NR,92,"",0,K,red,9,"","",0,30,"","",0,3.06
581921,12,12,block_Trng,3,task_Trng,2,1,"","",12,1,"","","","",Block1,"","","","","","",K,PreISI1,LR,8,"",0,K,green,13,"","",0,32,"","",0,3.33
581921,13,13,block_Trng,3,task_Trng,2,1,"","",13,1,"","","","",Block1,"","","","","","",J,Stim14,NR,79,"",0,J,red,12,"","",0,32,"","",0,3.61
581921,14,14,block_Trng,3,task_Trng,2,1,"","",14,1,"","","","",Block1,"","","","","","",J,Stim12,HR,80,"",0,J,blue,9,"","",0,42,"","",0,3.89
581921,15,15,block_Trng,3,task_Trng,2,1,"","",15,1,"","","","",Block1,"","","","","","",K,Stim13,HR,18,"",0,K,blue,10,"","",0,52,"","",0,4.17
581921,16,16,block_Trng,3,task_Trng,2,1,"","",16,1,"","","","",Block1,"","","","","","",J,Stim13,HR,62,"",0,J,blue,11,"","",0,62,"","",0,4.44
581921,17,17,block_Trng,3,task_Trng,2,1,"","",17,1,"","","","",Block1,"","","","","","",K,Stim15,NR,118,"",0,K,red,13,"","",0,62,"","",0,4.72
581921,18,18,block_Trng,3,task_Trng,2,1,"","",18,1,"","","","",Block1,"","","","","","",K,Stim15,HR,78,"",0,K,blue,12,"","",0,72,"","",0,5
581921,19,19,block_Trng,3,task_Trng,2,1,"","",1,2,"","","","",Block2,"","","","","","",J,Stim15,LR,11,"",0,J,green,12,"","",0,74,"","",0,5.28
581921,20,20,block_Trng,3,task_Trng,2,1,"","",2,2,"","","","",Block2,"","","","","","",J,Stim12,NR,42,"",0,J,red,8,"","",0,74,"","",0,5.56
581921,21,21,block_Trng,3,task_Trng,2,1,"","",3,2,"","","","",Block2,"","","","","","",J,PreISI1,HR,7,"",0,J,blue,13,"","",0,84,"","",0,5.83
581921,22,22,block_Trng,3,task_Trng,2,1,"","",4,2,"","","","",Block2,"","","","","","",J,Stim11,LR,108,"",0,J,green,8,"","",0,86,"","",0,6.11
581921,23,23,block_Trng,3,task_Trng,2,1,"","",5,2,"","","","",Block2,"","","","","","",J,Stim13,HR,15,"",0,J,blue,9,"","",0,96,"","",0,6.39
581921,24,24,block_Trng,3,task_Trng,2,1,"","",6,2,"","","","",Block2,"","","","","","",K,Stim12,NR,52,"",0,K,red,9,"","",0,96,"","",0,6.67
581921,25,25,block_Trng,3,task_Trng,2,1,"","",7,2,"","","","",Block2,"","","","","","",K,Stim16,NR,115,"",0,K,red,13,"","",0,96,"","",0,6.94
581921,26,26,block_Trng,3,task_Trng,2,0,"","",8,2,"","","","",Block2,"","","","","","",J,Stim13,LR,50,"",0,K,green,9,"","",0,96,"","",0,7.22
581921,27,27,block_Trng,3,task_Trng,2,1,"","",9,2,"","","","",Block2,"","","","","","",J,Stim13,LR,72,"",0,J,green,10,"","",0,98,"","",0,7.5
581921,28,28,block_Trng,3,task_Trng,2,1,"","",10,2,"","","","",Block2,"","","","","","",J,Stim15,HR,9,"",0,J,blue,11,"","",0,108,"","",0,7.78
581921,29,29,block_Trng,3,task_Trng,2,0,"","",11,2,"","","","",Block2,"","","","","","",J,Stim12,HR,40,"",0,K,blue,8,"","",0,108,"","",0,8.06
581921,30,30,block_Trng,3,task_Trng,2,1,"","",12,2,"","","","",Block2,"","","","","","",K,Stim14,NR,63,"",0,K,red,11,"","",0,108,"","",0,8.33
581921,31,31,block_Trng,3,task_Trng,2,1,"","",13,2,"","","","",Block2,"","","","","","",K,Stim15,LR,105,"",0,K,green,13,"","",0,110,"","",0,8.61
581921,32,32,block_Trng,3,task_Trng,2,1,"","",14,2,"","","","",Block2,"","","","","","",K,Stim15,HR,103,"",0,K,blue,12,"","",0,120,"","",0,8.89
581921,33,33,block_Trng,3,task_Trng,2,1,"","",15,2,"","","","",Block2,"","","","","","",K,Stim12,HR,101,"",0,K,blue,10,"","",0,130,"","",0,9.17
581921,34,34,block_Trng,3,task_Trng,2,1,"","",16,2,"","","","",Block2,"","","","","","",K,Stim14,LR,87,"",0,K,green,11,"","",0,132,"","",0,9.44
581921,35,35,block_Trng,3,task_Trng,2,1,"","",17,2,"","","","",Block2,"","","","","","",J,Stim14,NR,28,"",0,J,red,10,"","",0,132,"","",0,9.72
581921,36,36,block_Trng,3,task_Trng,2,1,"","",18,2,"","","","",Block2,"","","","","","",J,PreISI1,NR,12,"",0,J,red,12,"","",0,132,"","",0,10
581921,37,37,block_Trng,3,task_Trng,2,1,"","",1,3,"","","","",Block3,"","","","","","",J,Stim13,HR,8,"",0,J,blue,9,"","",0,142,"","",0,10.28
581921,38,38,block_Trng,3,task_Trng,2,1,"","",2,3,"","","","",Block3,"","","","","","",J,Stim16,NR,33,"",0,J,red,12,"","",0,142,"","",0,10.56
581921,39,39,block_Trng,3,task_Trng,2,1,"","",3,3,"","","","",Block3,"","","","","","",J,PreISI1,HR,297,"",0,J,blue,13,"","",0,152,"","",0,10.83
581921,40,40,block_Trng,3,task_Trng,2,1,"","",4,3,"","","","",Block3,"","","","","","",J,Stim15,HR,16,"",0,J,blue,11,"","",0,162,"","",0,11.11
581921,41,41,block_Trng,3,task_Trng,2,1,"","",5,3,"","","","",Block3,"","","","","","",K,Stim13,NR,103,"",0,K,red,11,"","",0,162,"","",0,11.39
581921,42,42,block_Trng,3,task_Trng,2,1,"","",6,3,"","","","",Block3,"","","","","","",J,Stim15,LR,67,"",0,J,green,12,"","",0,164,"","",0,11.67
581921,43,43,block_Trng,3,task_Trng,2,1,"","",7,3,"","","","",Block3,"","","","","","",K,Stim15,LR,99,"",0,K,green,13,"","",0,166,"","",0,11.94
581921,44,44,block_Trng,3,task_Trng,2,0,"","",8,3,"","","","",Block3,"","","","","","",K,Stim13,LR,76,"",0,J,green,8,"","",0,166,"","",0,12.22
581921,45,45,block_Trng,3,task_Trng,2,1,"","",9,3,"","","","",Block3,"","","","","","",K,Stim14,HR,35,"",0,K,blue,10,"","",0,176,"","",0,12.5
581921,46,46,block_Trng,3,task_Trng,2,1,"","",10,3,"","","","",Block3,"","","","","","",J,Stim15,NR,13,"",0,J,red,10,"","",0,176,"","",0,12.78
581921,47,47,block_Trng,3,task_Trng,2,1,"","",11,3,"","","","",Block3,"","","","","","",K,Stim13,LR,107,"",0,K,green,11,"","",0,178,"","",0,13.06
581921,48,48,block_Trng,3,task_Trng,2,1,"","",12,3,"","","","",Block3,"","","","","","",K,Stim12,HR,55,"",0,K,blue,8,"","",0,188,"","",0,13.33
581921,49,49,block_Trng,3,task_Trng,2,1,"","",13,3,"","","","",Block3,"","","","","","",J,Stim11,NR,81,"",0,J,red,8,"","",0,188,"","",0,13.61
581921,50,50,block_Trng,3,task_Trng,2,1,"","",14,3,"","","","",Block3,"","","","","","",K,Stim13,NR,2,"",0,K,red,13,"","",0,188,"","",0,13.89
581921,51,51,block_Trng,3,task_Trng,2,1,"","",15,3,"","","","",Block3,"","","","","","",K,Stim13,NR,53,"",0,K,red,9,"","",0,188,"","",0,14.17
581921,52,52,block_Trng,3,task_Trng,2,1,"","",16,3,"","","","",Block3,"","","","","","",J,Stim12,LR,91,"",0,J,green,10,"","",0,190,"","",0,14.44
581921,53,53,block_Trng,3,task_Trng,2,1,"","",17,3,"","","","",Block3,"","","","","","",K,Stim12,LR,30,"",0,K,green,9,"","",0,192,"","",0,14.72
581921,54,54,block_Trng,3,task_Trng,2,1,"","",18,3,"","","","",Block3,"","","","","","",K,Stim15,HR,57,"",0,K,blue,12,"","",0,202,"","",0,15
581921,55,55,block_Trng,3,task_Trng,2,1,"","",1,4,"","","","",Block4,"","","","","","",J,Stim14,HR,11,"",0,J,blue,11,"","",0,212,"","",0,15.28
581921,56,56,block_Trng,3,task_Trng,2,1,"","",2,4,"","","","",Block4,"","","","","","",K,Stim13,NR,111,"",0,K,red,11,"","",0,212,"","",0,15.56
581921,57,57,block_Trng,3,task_Trng,2,1,"","",3,4,"","","","",Block4,"","","","","","",K,Stim12,LR,61,"",0,K,green,9,"","",0,214,"","",0,15.83
581921,58,58,block_Trng,3,task_Trng,2,1,"","",4,4,"","","","",Block4,"","","","","","",J,Stim15,LR,10,"",0,J,green,12,"","",0,216,"","",0,16.11
581921,59,59,block_Trng,3,task_Trng,2,1,"","",5,4,"","","","",Block4,"","","","","","",J,Stim15,NR,56,"",0,J,red,12,"","",0,216,"","",0,16.39
581921,60,60,block_Trng,3,task_Trng,2,1,"","",6,4,"","","","",Block4,"","","","","","",J,Stim12,NR,56,"",0,J,red,8,"","",0,216,"","",0,16.67
581921,61,61,block_Trng,3,task_Trng,2,1,"","",7,4,"","","","",Block4,"","","","","","",K,Stim11,HR,54,"",0,K,blue,8,"","",0,226,"","",0,16.94
581921,62,62,block_Trng,3,task_Trng,2,1,"","",8,4,"","","","",Block4,"","","","","","",K,Stim16,LR,15,"",0,K,green,13,"","",0,228,"","",0,17.22
581921,63,63,block_Trng,3,task_Trng,2,1,"","",9,4,"","","","",Block4,"","","","","","",J,Stim12,LR,61,"",0,J,green,8,"","",0,230,"","",0,17.5
581921,64,64,block_Trng,3,task_Trng,2,1,"","",10,4,"","","","",Block4,"","","","","","",K,Stim13,HR,6,"",0,K,blue,10,"","",0,240,"","",0,17.78
581921,65,65,block_Trng,3,task_Trng,2,1,"","",11,4,"","","","",Block4,"","","","","","",J,Stim13,NR,64,"",0,J,red,10,"","",0,240,"","",0,18.06
581921,66,66,block_Trng,3,task_Trng,2,1,"","",12,4,"","","","",Block4,"","","","","","",K,Stim16,NR,10,"",0,K,red,13,"","",0,240,"","",0,18.33
581921,67,67,block_Trng,3,task_Trng,2,1,"","",13,4,"","","","",Block4,"","","","","","",K,Stim16,HR,2,"",0,K,blue,12,"","",0,250,"","",0,18.61
581921,68,68,block_Trng,3,task_Trng,2,1,"","",14,4,"","","","",Block4,"","","","","","",K,Stim14,NR,103,"",0,K,red,9,"","",0,250,"","",0,18.89
581921,69,69,block_Trng,3,task_Trng,2,1,"","",15,4,"","","","",Block4,"","","","","","",J,Stim13,HR,52,"",0,J,blue,9,"","",0,260,"","",0,19.17
581921,70,70,block_Trng,3,task_Trng,2,1,"","",16,4,"","","","",Block4,"","","","","","",J,Stim14,LR,42,"",0,J,green,10,"","",0,262,"","",0,19.44
581921,71,71,block_Trng,3,task_Trng,2,1,"","",17,4,"","","","",Block4,"","","","","","",K,Stim13,LR,91,"",0,K,green,11,"","",0,264,"","",0,19.72
581921,72,72,block_Trng,3,task_Trng,2,1,"","",18,4,"","","","",Block4,"","","","","","",J,Stim16,HR,33,"",0,J,blue,13,"","",0.93,274,"","",1,20
581921,73,73,block_Trng,3,task_Trng,2,1,"","",1,5,"","","","",Block5,"","","","","","",K,Stim16,NR,5,"",0,K,red,13,"","",0.93,274,"","",1,20.28
581921,74,74,block_Trng,3,task_Trng,2,1,"","",2,5,"","","","",Block5,"","","","","","",K,Stim14,NR,69,"",0,K,red,9,"","",0.93,274,"","",1,20.56
581921,75,75,block_Trng,3,task_Trng,2,1,"","",3,5,"","","","",Block5,"","","","","","",J,Stim11,HR,110,"",0,J,blue,9,"","",0.93,284,"","",1,20.83
581921,76,76,block_Trng,3,task_Trng,2,1,"","",4,5,"","","","",Block5,"","","","","","",K,Stim13,HR,67,"",0,K,blue,10,"","",0.93,294,"","",1,21.11
581921,77,77,block_Trng,3,task_Trng,2,1,"","",5,5,"","","","",Block5,"","","","","","",J,Stim11,LR,115,"",0,J,green,8,"","",0.93,296,"","",1,21.39
581921,78,78,block_Trng,3,task_Trng,2,1,"","",6,5,"","","","",Block5,"","","","","","",K,Stim11,HR,76,"",0,K,blue,8,"","",0.93,306,"","",1,21.67
581921,79,79,block_Trng,3,task_Trng,2,1,"","",7,5,"","","","",Block5,"","","","","","",K,Stim16,LR,88,"",0,K,green,13,"","",0.93,308,"","",1,21.94
581921,80,80,block_Trng,3,task_Trng,2,1,"","",8,5,"","","","",Block5,"","","","","","",J,Stim16,NR,59,"",0,J,red,12,"","",0.93,308,"","",1,22.22
581921,81,81,block_Trng,3,task_Trng,2,1,"","",9,5,"","","","",Block5,"","","","","","",K,Stim13,LR,112,"",0,K,green,11,"","",0.93,310,"","",1,22.5
581921,82,82,block_Trng,3,task_Trng,2,1,"","",10,5,"","","","",Block5,"","","","","","",J,Stim16,HR,11,"",0,J,blue,13,"","",0.93,320,"","",1,22.78
581921,83,83,block_Trng,3,task_Trng,2,1,"","",11,5,"","","","",Block5,"","","","","","",J,Stim12,NR,61,"",0,J,red,8,"","",0.93,320,"","",1,23.06
581921,84,84,block_Trng,3,task_Trng,2,1,"","",12,5,"","","","",Block5,"","","","","","",K,Stim14,HR,112,"",0,K,blue,12,"","",0.93,330,"","",1,23.33
581921,85,85,block_Trng,3,task_Trng,2,1,"","",13,5,"","","","",Block5,"","","","","","",J,Stim14,NR,5,"",0,J,red,10,"","",0.93,330,"","",1,23.61
581921,86,86,block_Trng,3,task_Trng,2,1,"","",14,5,"","","","",Block5,"","","","","","",K,Stim13,LR,35,"",0,K,green,9,"","",0.93,332,"","",1,23.89
581921,87,87,block_Trng,3,task_Trng,2,1,"","",15,5,"","","","",Block5,"","","","","","",J,Stim13,LR,61,"",0,J,green,10,"","",0.93,334,"","",1,24.17
581921,88,88,block_Trng,3,task_Trng,2,1,"","",16,5,"","","","",Block5,"","","","","","",J,Stim14,LR,103,"",0,J,green,12,"","",0.93,336,"","",1,24.44
581921,89,89,block_Trng,3,task_Trng,2,1,"","",17,5,"","","","",Block5,"","","","","","",K,Stim13,NR,99,"",0,K,red,11,"","",0.93,336,"","",1,24.72
581921,90,90,block_Trng,3,task_Trng,2,1,"","",18,5,"","","","",Block5,"","","","","","",J,Stim14,HR,75,"",0,J,blue,11,"","",0.93,346,"","",1,25
581921,91,91,block_Trng,3,task_Trng,2,1,"","",1,6,"","","","",Block6,"","","","","","",K,Stim12,LR,60,"",0,K,green,9,"","",0.93,348,"","",1,25.28
581921,92,92,block_Trng,3,task_Trng,2,1,"","",2,6,"","","","",Block6,"","","","","","",K,Stim11,HR,58,"",0,K,blue,8,"","",0.93,358,"","",1,25.56
581921,93,93,block_Trng,3,task_Trng,2,1,"","",3,6,"","","","",Block6,"","","","","","",K,Stim16,HR,54,"",0,K,blue,12,"","",0.93,368,"","",1,25.83
581921,94,94,block_Trng,3,task_Trng,2,1,"","",4,6,"","","","",Block6,"","","","","","",J,Stim14,HR,20,"",0,J,blue,11,"","",0.93,378,"","",1,26.11
581921,95,95,block_Trng,3,task_Trng,2,1,"","",5,6,"","","","",Block6,"","","","","","",J,Stim14,LR,88,"",0,J,green,10,"","",0.93,380,"","",1,26.39
581921,96,96,block_Trng,3,task_Trng,2,1,"","",6,6,"","","","",Block6,"","","","","","",K,Stim16,LR,68,"",0,K,green,13,"","",0.93,382,"","",1,26.67
581921,97,97,block_Trng,3,task_Trng,2,1,"","",7,6,"","","","",Block6,"","","","","","",J,Stim13,NR,29,"",0,J,red,8,"","",0.93,382,"","",1,26.94
581921,98,98,block_Trng,3,task_Trng,2,1,"","",8,6,"","","","",Block6,"","","","","","",J,Stim15,NR,42,"",0,J,red,12,"","",0.93,382,"","",1,27.22
581921,99,99,block_Trng,3,task_Trng,2,1,"","",9,6,"","","","",Block6,"","","","","","",K,Stim15,NR,117,"",0,K,red,13,"","",0.93,382,"","",1,27.5
581921,100,100,block_Trng,3,task_Trng,2,1,"","",10,6,"","","","",Block6,"","","","","","",K,Stim12,NR,73,"",0,K,red,11,"","",0.93,382,"","",1,27.78
581921,101,101,block_Trng,3,task_Trng,2,1,"","",11,6,"","","","",Block6,"","","","","","",J,Stim13,HR,14,"",0,J,blue,9,"","",0.93,392,"","",1,28.06
581921,102,102,block_Trng,3,task_Trng,2,1,"","",12,6,"","","","",Block6,"","","","","","",K,Stim12,NR,61,"",0,K,red,9,"","",0.93,392,"","",1,28.33
581921,103,103,block_Trng,3,task_Trng,2,1,"","",13,6,"","","","",Block6,"","","","","","",J,Stim11,LR,111,"",0,J,green,8,"","",0.93,394,"","",1,28.61
581921,104,104,block_Trng,3,task_Trng,2,1,"","",14,6,"","","","",Block6,"","","","","","",K,Stim14,LR,8,"",0,K,green,11,"","",0.93,396,"","",1,28.89
581921,105,105,block_Trng,3,task_Trng,2,1,"","",15,6,"","","","",Block6,"","","","","","",J,Stim13,NR,60,"",0,J,red,10,"","",0.93,396,"","",1,29.17
581921,106,106,block_Trng,3,task_Trng,2,1,"","",16,6,"","","","",Block6,"","","","","","",J,Stim16,HR,34,"",0,J,blue,13,"","",0.93,406,"","",1,29.44
581921,107,107,block_Trng,3,task_Trng,2,1,"","",17,6,"","","","",Block6,"","","","","","",K,Stim13,HR,33,"",0,K,blue,10,"","",0.93,416,"","",1,29.72
581921,108,108,block_Trng,3,task_Trng,2,1,"","",18,6,"","","","",Block6,"","","","","","",J,Stim15,LR,50,"",0,J,green,12,"","",0.93,418,"","",1,30
581921,109,109,block_Trng,3,task_Trng,2,1,"","",1,7,"","","","",Block7,"","","","","","",J,Stim13,LR,9,"",0,J,green,8,"","",0.93,420,"","",1,30.28
581921,110,110,block_Trng,3,task_Trng,2,1,"","",2,7,"","","","",Block7,"","","","","","",J,Stim15,NR,116,"",0,J,red,12,"","",0.93,420,"","",1,30.56
581921,111,111,block_Trng,3,task_Trng,2,1,"","",3,7,"","","","",Block7,"","","","","","",K,PreISI1,LR,41,"",0,K,green,13,"","",0.93,422,"","",1,30.83
581921,112,112,block_Trng,3,task_Trng,2,1,"","",4,7,"","","","",Block7,"","","","","","",J,Stim13,NR,38,"",0,J,red,10,"","",0.93,422,"","",1,31.11
581921,113,113,block_Trng,3,task_Trng,2,1,"","",5,7,"","","","",Block7,"","","","","","",K,Stim13,NR,91,"",0,K,red,11,"","",0.93,422,"","",1,31.39
581921,114,114,block_Trng,3,task_Trng,2,1,"","",6,7,"","","","",Block7,"","","","","","",K,Stim15,HR,6,"",0,K,blue,12,"","",0.93,432,"","",1,31.67
581921,115,115,block_Trng,3,task_Trng,2,1,"","",7,7,"","","","",Block7,"","","","","","",J,Stim16,HR,3,"",0,J,blue,13,"","",0.93,442,"","",1,31.94
581921,116,116,block_Trng,3,task_Trng,2,1,"","",8,7,"","","","",Block7,"","","","","","",J,Stim14,HR,118,"",0,J,blue,11,"","",0.93,452,"","",1,32.22
581921,117,117,block_Trng,3,task_Trng,2,1,"","",9,7,"","","","",Block7,"","","","","","",J,Stim12,NR,77,"",0,J,red,8,"","",0.93,452,"","",1,32.5
581921,118,118,block_Trng,3,task_Trng,2,1,"","",10,7,"","","","",Block7,"","","","","","",K,Stim10,HR,108,"",0,K,blue,8,"","",0.93,462,"","",1,32.78
581921,119,119,block_Trng,3,task_Trng,2,1,"","",11,7,"","","","",Block7,"","","","","","",K,Stim12,NR,12,"",0,K,red,9,"","",0.93,462,"","",1,33.06
581921,120,120,block_Trng,3,task_Trng,2,1,"","",12,7,"","","","",Block7,"","","","","","",K,Stim12,HR,114,"",0,K,blue,10,"","",0.93,472,"","",1,33.33
581921,121,121,block_Trng,3,task_Trng,2,1,"","",13,7,"","","","",Block7,"","","","","","",K,Stim14,LR,12,"",0,K,green,11,"","",0.93,474,"","",1,33.61
581921,122,122,block_Trng,3,task_Trng,2,1,"","",14,7,"","","","",Block7,"","","","","","",J,Stim15,LR,0,"",0,J,green,10,"","",0.93,476,"","",1,33.89
581921,123,123,block_Trng,3,task_Trng,2,1,"","",15,7,"","","","",Block7,"","","","","","",K,Stim11,LR,111,"",0,K,green,9,"","",0.93,478,"","",1,34.17
581921,124,124,block_Trng,3,task_Trng,2,1,"","",16,7,"","","","",Block7,"","","","","","",J,PreISI1,LR,12,"",0,J,green,12,"","",0.93,480,"","",1,34.44
581921,125,125,block_Trng,3,task_Trng,2,1,"","",17,7,"","","","",Block7,"","","","","","",J,Stim14,HR,96,"",0,J,blue,9,"","",0.93,490,"","",1,34.72
581921,126,126,block_Trng,3,task_Trng,2,1,"","",18,7,"","","","",Block7,"","","","","","",K,Stim16,NR,0,"",0,K,red,13,"","",0.93,490,"","",1,35
581921,127,127,block_Trng,3,task_Trng,2,1,"","",1,8,"","","","",Block8,"","","","","","",J,PreISI1,HR,6,"",0,J,blue,13,"","",0.93,500,"","",1,35.28
581921,128,128,block_Trng,3,task_Trng,2,1,"","",2,8,"","","","",Block8,"","","","","","",K,Stim16,NR,10,"",0,K,red,13,"","",0.93,500,"","",1,35.56
581921,129,129,block_Trng,3,task_Trng,2,1,"","",3,8,"","","","",Block8,"","","","","","",K,Stim16,LR,54,"",0,K,green,13,"","",0.93,502,"","",1,35.83
581921,130,130,block_Trng,3,task_Trng,2,1,"","",4,8,"","","","",Block8,"","","","","","",K,Stim13,HR,71,"",0,K,blue,8,"","",0.93,512,"","",1,36.11
581921,131,131,block_Trng,3,task_Trng,2,1,"","",5,8,"","","","",Block8,"","","","","","",J,Stim14,NR,53,"",0,J,red,12,"","",0.93,512,"","",1,36.39
581921,132,132,block_Trng,3,task_Trng,2,0,"","",6,8,"","","","",Block8,"","","","","","",K,Stim14,HR,38,"",0,J,blue,11,"","",0.93,512,"","",1,36.67
581921,133,133,block_Trng,3,task_Trng,2,1,"","",7,8,"","","","",Block8,"","","","","","",K,Stim13,HR,109,"",0,K,blue,10,"","",0.93,522,"","",1,36.94
581921,134,134,block_Trng,3,task_Trng,2,0,"","",8,8,"","","","",Block8,"","","","","","",J,Stim13,NR,39,"",0,K,red,9,"","",0.93,522,"","",1,37.22
581921,135,135,block_Trng,3,task_Trng,2,1,"","",9,8,"","","","",Block8,"","","","","","",K,Stim14,NR,21,"",0,K,red,11,"","",0.93,522,"","",1,37.5
581921,136,136,block_Trng,3,task_Trng,2,1,"","",10,8,"","","","",Block8,"","","","","","",K,Stim14,LR,91,"",0,K,green,11,"","",0.93,524,"","",1,37.78
581921,137,137,block_Trng,3,task_Trng,2,1,"","",11,8,"","","","",Block8,"","","","","","",J,Stim13,LR,48,"",0,J,green,8,"","",0.93,526,"","",1,38.06
581921,138,138,block_Trng,3,task_Trng,2,1,"","",12,8,"","","","",Block8,"","","","","","",J,Stim14,NR,24,"",0,J,red,10,"","",0.93,526,"","",1,38.33
581921,139,139,block_Trng,3,task_Trng,2,1,"","",13,8,"","","","",Block8,"","","","","","",K,Stim11,LR,90,"",0,K,green,9,"","",0.93,528,"","",1,38.61
581921,140,140,block_Trng,3,task_Trng,2,0,"","",14,8,"","","","",Block8,"","","","","","",K,Stim13,NR,10,"",0,J,red,8,"","",0.93,528,"","",1,38.89
581921,141,141,block_Trng,3,task_Trng,2,1,"","",15,8,"","","","",Block8,"","","","","","",J,Stim13,LR,23,"",0,J,green,10,"","",0.93,530,"","",1,39.17
581921,142,142,block_Trng,3,task_Trng,2,1,"","",16,8,"","","","",Block8,"","","","","","",J,Stim15,LR,106,"",0,J,green,12,"","",0.93,532,"","",1,39.44
581921,143,143,block_Trng,3,task_Trng,2,1,"","",17,8,"","","","",Block8,"","","","","","",K,Stim16,HR,2,"",0,K,blue,12,"","",0.93,542,"","",1,39.72
581921,144,144,block_Trng,3,task_Trng,2,1,"","",18,8,"","","","",Block8,"","","","","","",J,Stim14,HR,14,"",0,J,blue,9,"","",1.88,552,"","",2,40
581921,145,145,block_Trng,3,task_Trng,2,1,"","",1,9,"","","","",Block9,"","","","","","",J,Stim14,HR,106,"",0,J,blue,11,"","",1.88,562,"","",2,40.28
581921,146,146,block_Trng,3,task_Trng,2,1,"","",2,9,"","","","",Block9,"","","","","","",J,Stim12,LR,18,"",0,J,green,8,"","",1.88,564,"","",2,40.56
581921,147,147,block_Trng,3,task_Trng,2,1,"","",3,9,"","","","",Block9,"","","","","","",J,Stim12,HR,62,"",0,J,blue,9,"","",1.88,574,"","",2,40.83
581921,148,148,block_Trng,3,task_Trng,2,1,"","",4,9,"","","","",Block9,"","","","","","",J,Stim14,NR,17,"",0,J,red,10,"","",1.88,574,"","",2,41.11
581921,149,149,block_Trng,3,task_Trng,2,1,"","",5,9,"","","","",Block9,"","","","","","",K,Stim13,HR,83,"",0,K,blue,10,"","",1.88,584,"","",2,41.39
581921,150,150,block_Trng,3,task_Trng,2,1,"","",6,9,"","","","",Block9,"","","","","","",K,Stim16,LR,78,"",0,K,green,13,"","",1.88,586,"","",2,41.67
581921,151,151,block_Trng,3,task_Trng,2,1,"","",7,9,"","","","",Block9,"","","","","","",J,Stim13,LR,70,"",0,J,green,10,"","",1.88,588,"","",2,41.94
581921,152,152,block_Trng,3,task_Trng,2,1,"","",8,9,"","","","",Block9,"","","","","","",K,Stim12,NR,6,"",0,K,red,9,"","",1.88,588,"","",2,42.22
581921,153,153,block_Trng,3,task_Trng,2,1,"","",9,9,"","","","",Block9,"","","","","","",K,Stim15,HR,40,"",0,K,blue,12,"","",1.88,598,"","",2,42.5
581921,154,154,block_Trng,3,task_Trng,2,1,"","",10,9,"","","","",Block9,"","","","","","",K,Stim14,NR,56,"",0,K,red,11,"","",1.88,598,"","",2,42.78
581921,155,155,block_Trng,3,task_Trng,2,1,"","",11,9,"","","","",Block9,"","","","","","",K,Stim12,HR,16,"",0,K,blue,8,"","",1.88,608,"","",2,43.06
581921,156,156,block_Trng,3,task_Trng,2,1,"","",12,9,"","","","",Block9,"","","","","","",J,Stim16,HR,116,"",0,J,blue,13,"","",1.88,618,"","",2,43.33
581921,157,157,block_Trng,3,task_Trng,2,1,"","",13,9,"","","","",Block9,"","","","","","",K,Stim13,LR,98,"",0,K,green,9,"","",1.88,620,"","",2,43.61
581921,158,158,block_Trng,3,task_Trng,2,0,"","",14,9,"","","","",Block9,"","","","","","",K,Stim16,LR,42,"",0,J,green,12,"","",1.88,620,"","",2,43.89
581921,159,159,block_Trng,3,task_Trng,2,1,"","",15,9,"","","","",Block9,"","","","","","",J,Stim15,NR,53,"",0,J,red,12,"","",1.88,620,"","",2,44.17
581921,160,160,block_Trng,3,task_Trng,2,1,"","",16,9,"","","","",Block9,"","","","","","",K,Stim14,LR,49,"",0,K,green,11,"","",1.88,622,"","",2,44.44
581921,161,161,block_Trng,3,task_Trng,2,1,"","",17,9,"","","","",Block9,"","","","","","",K,Stim16,NR,116,"",0,K,red,13,"","",1.88,622,"","",2,44.72
581921,162,162,block_Trng,3,task_Trng,2,1,"","",18,9,"","","","",Block9,"","","","","","",J,Stim13,NR,7,"",0,J,red,8,"","",1.88,622,"","",2,45
581921,163,163,block_Trng,3,task_Trng,2,1,"","",1,10,"","","","",Block10,"","","","","","",K,Stim12,NR,61,"",0,K,red,9,"","",1.88,622,"","",2,45.28
581921,164,164,block_Trng,3,task_Trng,2,1,"","",2,10,"","","","",Block10,"","","","","","",J,Stim11,NR,8,"",0,J,red,8,"","",1.88,622,"","",2,45.56
581921,165,165,block_Trng,3,task_Trng,2,1,"","",3,10,"","","","",Block10,"","","","","","",K,Stim15,HR,105,"",0,K,blue,12,"","",1.88,632,"","",2,45.83
581921,166,166,block_Trng,3,task_Trng,2,1,"","",4,10,"","","","",Block10,"","","","","","",K,Stim14,LR,8,"",0,K,green,9,"","",1.88,634,"","",2,46.11
581921,167,167,block_Trng,3,task_Trng,2,1,"","",5,10,"","","","",Block10,"","","","","","",K,Stim14,NR,114,"",0,K,red,11,"","",1.88,634,"","",2,46.39
581921,168,168,block_Trng,3,task_Trng,2,1,"","",6,10,"","","","",Block10,"","","","","","",J,Stim16,NR,5,"",0,J,red,12,"","",1.88,634,"","",2,46.67
581921,169,169,block_Trng,3,task_Trng,2,1,"","",7,10,"","","","",Block10,"","","","","","",K,Stim13,HR,39,"",0,K,blue,10,"","",1.88,644,"","",2,46.94
581921,170,170,block_Trng,3,task_Trng,2,1,"","",8,10,"","","","",Block10,"","","","","","",K,Stim11,HR,44,"",0,K,blue,8,"","",1.88,654,"","",2,47.22
581921,171,171,block_Trng,3,task_Trng,2,1,"","",9,10,"","","","",Block10,"","","","","","",J,Stim15,HR,19,"",0,J,blue,11,"","",1.88,664,"","",2,47.5
581921,172,172,block_Trng,3,task_Trng,2,1,"","",10,10,"","","","",Block10,"","","","","","",K,Stim16,NR,49,"",0,K,red,13,"","",1.88,664,"","",2,47.78
581921,173,173,block_Trng,3,task_Trng,2,1,"","",11,10,"","","","",Block10,"","","","","","",J,Stim12,LR,27,"",0,J,green,8,"","",1.88,666,"","",2,48.06
581921,174,174,block_Trng,3,task_Trng,2,1,"","",12,10,"","","","",Block10,"","","","","","",J,Stim13,LR,118,"",0,J,green,10,"","",1.88,668,"","",2,48.33
581921,175,175,block_Trng,3,task_Trng,2,1,"","",13,10,"","","","",Block10,"","","","","","",K,Stim15,LR,48,"",0,K,green,11,"","",1.88,670,"","",2,48.61
581921,176,176,block_Trng,3,task_Trng,2,1,"","",14,10,"","","","",Block10,"","","","","","",J,Stim13,NR,114,"",0,J,red,10,"","",1.88,670,"","",2,48.89
581921,177,177,block_Trng,3,task_Trng,2,1,"","",15,10,"","","","",Block10,"","","","","","",K,Stim16,LR,76,"",0,K,green,13,"","",1.88,672,"","",2,49.17
581921,178,178,block_Trng,3,task_Trng,2,1,"","",16,10,"","","","",Block10,"","","","","","",J,Stim16,HR,22,"",0,J,blue,13,"","",1.88,682,"","",2,49.44
581921,179,179,block_Trng,3,task_Trng,2,1,"","",17,10,"","","","",Block10,"","","","","","",J,Stim16,LR,1,"",0,J,green,12,"","",1.88,684,"","",2,49.72
581921,180,180,block_Trng,3,task_Trng,2,1,"","",18,10,"","","","",Block10,"","","","","","",J,Stim15,HR,49,"",0,J,blue,9,"","",1.88,694,"","",2,50
581921,181,181,block_Trng,3,task_Trng,2,1,"","",1,11,"","","","",Block11,"","","","","","",J,Stim14,LR,58,"",0,J,green,10,"","",1.88,696,"","",2,50.28
581921,182,182,block_Trng,3,task_Trng,2,1,"","",2,11,"","","","",Block11,"","","","","","",J,Stim16,HR,112,"",0,J,blue,13,"","",1.88,706,"","",2,50.56
581921,183,183,block_Trng,3,task_Trng,2,1,"","",3,11,"","","","",Block11,"","","","","","",K,PreISI1,NR,3,"",0,K,red,13,"","",1.88,706,"","",2,50.83
581921,184,184,block_Trng,3,task_Trng,2,1,"","",4,11,"","","","",Block11,"","","","","","",K,Stim13,NR,33,"",0,K,red,9,"","",1.88,706,"","",2,51.11
581921,185,185,block_Trng,3,task_Trng,2,1,"","",5,11,"","","","",Block11,"","","","","","",K,Stim12,LR,16,"",0,K,green,9,"","",1.88,708,"","",2,51.39
581921,186,186,block_Trng,3,task_Trng,2,1,"","",6,11,"","","","",Block11,"","","","","","",K,Stim13,HR,7,"",0,K,blue,8,"","",1.88,718,"","",2,51.67
581921,187,187,block_Trng,3,task_Trng,2,1,"","",7,11,"","","","",Block11,"","","","","","",J,Stim12,HR,110,"",0,J,blue,9,"","",1.88,728,"","",2,51.94
581921,188,188,block_Trng,3,task_Trng,2,1,"","",8,11,"","","","",Block11,"","","","","","",J,Stim12,LR,90,"",0,J,green,8,"","",1.88,730,"","",2,52.22
581921,189,189,block_Trng,3,task_Trng,2,1,"","",9,11,"","","","",Block11,"","","","","","",J,PreISI1,LR,70,"",0,J,green,12,"","",1.88,732,"","",2,52.5
581921,190,190,block_Trng,3,task_Trng,2,1,"","",10,11,"","","","",Block11,"","","","","","",K,Stim13,HR,0,"",0,K,blue,10,"","",1.88,742,"","",2,52.78
581921,191,191,block_Trng,3,task_Trng,2,1,"","",11,11,"","","","",Block11,"","","","","","",J,Stim12,NR,68,"",0,J,red,8,"","",1.88,742,"","",2,53.06
581921,192,192,block_Trng,3,task_Trng,2,1,"","",12,11,"","","","",Block11,"","","","","","",K,Stim16,LR,12,"",0,K,green,13,"","",1.88,744,"","",2,53.33
581921,193,193,block_Trng,3,task_Trng,2,1,"","",13,11,"","","","",Block11,"","","","","","",K,Stim14,NR,46,"",0,K,red,11,"","",1.88,744,"","",2,53.61
581921,194,194,block_Trng,3,task_Trng,2,0,"","",14,11,"","","","",Block11,"","","","","","",K,Stim13,NR,98,"",0,J,red,10,"","",1.88,744,"","",2,53.89
581921,195,195,block_Trng,3,task_Trng,2,1,"","",15,11,"","","","",Block11,"","","","","","",K,Stim15,HR,7,"",0,K,blue,12,"","",1.88,754,"","",2,54.17
581921,196,196,block_Trng,3,task_Trng,2,1,"","",16,11,"","","","",Block11,"","","","","","",K,Stim15,LR,11,"",0,K,green,11,"","",1.88,756,"","",2,54.44
581921,197,197,block_Trng,3,task_Trng,2,1,"","",17,11,"","","","",Block11,"","","","","","",J,Stim16,NR,58,"",0,J,red,12,"","",1.88,756,"","",2,54.72
581921,198,198,block_Trng,3,task_Trng,2,1,"","",18,11,"","","","",Block11,"","","","","","",J,Stim14,HR,54,"",0,J,blue,11,"","",1.88,766,"","",2,55
581921,199,199,block_Trng,3,task_Trng,2,1,"","",1,12,"","","","",Block12,"","","","","","",K,Stim14,LR,8,"",0,K,green,11,"","",1.88,768,"","",2,55.28
581921,200,200,block_Trng,3,task_Trng,2,1,"","",2,12,"","","","",Block12,"","","","","","",K,Stim16,LR,25,"",0,K,green,13,"","",1.88,770,"","",2,55.56
581921,201,201,block_Trng,3,task_Trng,2,1,"","",3,12,"","","","",Block12,"","","","","","",J,Stim12,NR,28,"",0,J,red,8,"","",1.88,770,"","",2,55.83
581921,202,202,block_Trng,3,task_Trng,2,1,"","",4,12,"","","","",Block12,"","","","","","",J,PreISI1,HR,79,"",0,J,blue,13,"","",1.88,780,"","",2,56.11
581921,203,203,block_Trng,3,task_Trng,2,1,"","",5,12,"","","","",Block12,"","","","","","",J,Stim13,NR,114,"",0,J,red,10,"","",1.88,780,"","",2,56.39
581921,204,204,block_Trng,3,task_Trng,2,1,"","",6,12,"","","","",Block12,"","","","","","",K,Stim16,NR,8,"",0,K,red,13,"","",1.88,780,"","",2,56.67
581921,205,205,block_Trng,3,task_Trng,2,1,"","",7,12,"","","","",Block12,"","","","","","",K,Stim15,HR,27,"",0,K,blue,12,"","",1.88,790,"","",2,56.94
581921,206,206,block_Trng,3,task_Trng,2,1,"","",8,12,"","","","",Block12,"","","","","","",J,Stim15,NR,74,"",0,J,red,12,"","",1.88,790,"","",2,57.22
581921,207,207,block_Trng,3,task_Trng,2,1,"","",9,12,"","","","",Block12,"","","","","","",K,Stim12,NR,74,"",0,K,red,9,"","",1.88,790,"","",2,57.5
581921,208,208,block_Trng,3,task_Trng,2,1,"","",10,12,"","","","",Block12,"","","","","","",J,Stim15,LR,96,"",0,J,green,12,"","",1.88,792,"","",2,57.78
581921,209,209,block_Trng,3,task_Trng,2,1,"","",11,12,"","","","",Block12,"","","","","","",J,Stim12,LR,35,"",0,J,green,8,"","",1.88,794,"","",2,58.06
581921,210,210,block_Trng,3,task_Trng,2,1,"","",12,12,"","","","",Block12,"","","","","","",K,Stim12,HR,78,"",0,K,blue,10,"","",1.88,804,"","",2,58.33
581921,211,211,block_Trng,3,task_Trng,2,1,"","",13,12,"","","","",Block12,"","","","","","",K,Stim12,HR,60,"",0,K,blue,8,"","",1.88,814,"","",2,58.61
581921,212,212,block_Trng,3,task_Trng,2,1,"","",14,12,"","","","",Block12,"","","","","","",K,Stim12,LR,58,"",0,K,green,9,"","",1.88,816,"","",2,58.89
581921,213,213,block_Trng,3,task_Trng,2,1,"","",15,12,"","","","",Block12,"","","","","","",J,Stim16,HR,28,"",0,J,blue,11,"","",1.88,826,"","",2,59.17
581921,214,214,block_Trng,3,task_Trng,2,1,"","",16,12,"","","","",Block12,"","","","","","",J,Stim11,HR,113,"",0,J,blue,9,"","",1.88,836,"","",2,59.44
581921,215,215,block_Trng,3,task_Trng,2,1,"","",17,12,"","","","",Block12,"","","","","","",K,Stim13,NR,104,"",0,K,red,11,"","",1.88,836,"","",2,59.72
581921,216,216,block_Trng,3,task_Trng,2,1,"","",18,12,"","","","",Block12,"","","","","","",J,Stim14,LR,28,"",0,J,green,10,"","",2.85,838,"","",3,60
581921,217,217,block_Trng,3,task_Trng,2,1,"","",1,13,"","","","",Block13,"","","","","","",K,Stim16,LR,40,"",0,K,green,13,"","",2.85,840,"","",3,60.28
581921,218,218,block_Trng,3,task_Trng,2,1,"","",2,13,"","","","",Block13,"","","","","","",J,Stim13,NR,111,"",0,J,red,10,"","",2.85,840,"","",3,60.56
581921,219,219,block_Trng,3,task_Trng,2,1,"","",3,13,"","","","",Block13,"","","","","","",J,Stim16,HR,105,"",0,J,blue,13,"","",2.85,850,"","",3,60.83
581921,220,220,block_Trng,3,task_Trng,2,1,"","",4,13,"","","","",Block13,"","","","","","",K,Stim12,HR,100,"",0,K,blue,10,"","",2.85,860,"","",3,61.11
581921,221,221,block_Trng,3,task_Trng,2,1,"","",5,13,"","","","",Block13,"","","","","","",J,Stim14,LR,12,"",0,J,green,8,"","",2.85,862,"","",3,61.39
581921,222,222,block_Trng,3,task_Trng,2,1,"","",6,13,"","","","",Block13,"","","","","","",J,Stim13,HR,26,"",0,J,blue,9,"","",2.85,872,"","",3,61.67
581921,223,223,block_Trng,3,task_Trng,2,1,"","",7,13,"","","","",Block13,"","","","","","",J,Stim14,LR,118,"",0,J,green,12,"","",2.85,874,"","",3,61.94
581921,224,224,block_Trng,3,task_Trng,2,1,"","",8,13,"","","","",Block13,"","","","","","",J,Stim14,LR,29,"",0,J,green,10,"","",2.85,876,"","",3,62.22
581921,225,225,block_Trng,3,task_Trng,2,1,"","",9,13,"","","","",Block13,"","","","","","",K,Stim14,LR,48,"",0,K,green,11,"","",2.85,878,"","",3,62.5
581921,226,226,block_Trng,3,task_Trng,2,1,"","",10,13,"","","","",Block13,"","","","","","",J,Stim11,NR,109,"",0,J,red,8,"","",2.85,878,"","",3,62.78
581921,227,227,block_Trng,3,task_Trng,2,1,"","",11,13,"","","","",Block13,"","","","","","",K,PreISI1,NR,147,"",0,K,red,13,"","",2.85,878,"","",3,63.06
581921,228,228,block_Trng,3,task_Trng,2,1,"","",12,13,"","","","",Block13,"","","","","","",K,Stim16,HR,95,"",0,K,blue,12,"","",2.85,888,"","",3,63.33
581921,229,229,block_Trng,3,task_Trng,2,1,"","",13,13,"","","","",Block13,"","","","","","",K,Stim15,NR,91,"",0,K,red,11,"","",2.85,888,"","",3,63.61
581921,230,230,block_Trng,3,task_Trng,2,1,"","",14,13,"","","","",Block13,"","","","","","",K,Stim14,NR,0,"",0,K,red,9,"","",2.85,888,"","",3,63.89
581921,231,231,block_Trng,3,task_Trng,2,1,"","",15,13,"","","","",Block13,"","","","","","",J,Stim14,HR,64,"",0,J,blue,11,"","",2.85,898,"","",3,64.17
581921,232,232,block_Trng,3,task_Trng,2,1,"","",16,13,"","","","",Block13,"","","","","","",J,Stim15,NR,102,"",0,J,red,12,"","",2.85,898,"","",3,64.44
581921,233,233,block_Trng,3,task_Trng,2,1,"","",17,13,"","","","",Block13,"","","","","","",K,Stim13,LR,111,"",0,K,green,9,"","",2.85,900,"","",3,64.72
581921,234,234,block_Trng,3,task_Trng,2,1,"","",18,13,"","","","",Block13,"","","","","","",K,Stim15,HR,96,"",0,K,blue,8,"","",2.85,910,"","",3,65
581921,235,235,block_Trng,3,task_Trng,2,1,"","",1,14,"","","","",Block14,"","","","","","",K,Stim15,HR,7,"",0,K,blue,12,"","",2.85,920,"","",3,65.28
581921,236,236,block_Trng,3,task_Trng,2,1,"","",2,14,"","","","",Block14,"","","","","","",K,Stim16,NR,115,"",0,K,red,13,"","",2.85,920,"","",3,65.56
581921,237,237,block_Trng,3,task_Trng,2,1,"","",3,14,"","","","",Block14,"","","","","","",J,Stim14,HR,6,"",0,J,blue,11,"","",2.85,930,"","",3,65.83
581921,238,238,block_Trng,3,task_Trng,2,1,"","",4,14,"","","","",Block14,"","","","","","",K,Stim13,NR,93,"",0,K,red,11,"","",2.85,930,"","",3,66.11
581921,239,239,block_Trng,3,task_Trng,2,1,"","",5,14,"","","","",Block14,"","","","","","",K,Stim14,LR,25,"",0,K,green,11,"","",2.85,932,"","",3,66.39
581921,240,240,block_Trng,3,task_Trng,2,1,"","",6,14,"","","","",Block14,"","","","","","",J,Stim16,HR,76,"",0,J,blue,13,"","",2.85,942,"","",3,66.67
581921,241,241,block_Trng,3,task_Trng,2,1,"","",7,14,"","","","",Block14,"","","","","","",K,Stim13,HR,11,"",0,K,blue,10,"","",2.85,952,"","",3,66.94
581921,242,242,block_Trng,3,task_Trng,2,1,"","",8,14,"","","","",Block14,"","","","","","",J,Stim15,NR,78,"",0,J,red,12,"","",2.85,952,"","",3,67.22
581921,243,243,block_Trng,3,task_Trng,2,1,"","",9,14,"","","","",Block14,"","","","","","",K,Stim12,LR,50,"",0,K,green,9,"","",2.85,954,"","",3,67.5
581921,244,244,block_Trng,3,task_Trng,2,1,"","",10,14,"","","","",Block14,"","","","","","",K,Stim15,LR,79,"",0,K,green,13,"","",2.85,956,"","",3,67.78
581921,245,245,block_Trng,3,task_Trng,2,1,"","",11,14,"","","","",Block14,"","","","","","",J,Stim14,HR,46,"",0,J,blue,9,"","",2.85,966,"","",3,68.06
581921,246,246,block_Trng,3,task_Trng,2,1,"","",12,14,"","","","",Block14,"","","","","","",J,Stim11,NR,5,"",0,J,red,8,"","",2.85,966,"","",3,68.33
581921,247,247,block_Trng,3,task_Trng,2,1,"","",13,14,"","","","",Block14,"","","","","","",K,Stim11,NR,66,"",0,K,red,9,"","",2.85,966,"","",3,68.61
581921,248,248,block_Trng,3,task_Trng,2,1,"","",14,14,"","","","",Block14,"","","","","","",J,Stim16,LR,4,"",0,J,green,12,"","",2.85,968,"","",3,68.89
581921,249,249,block_Trng,3,task_Trng,2,1,"","",15,14,"","","","",Block14,"","","","","","",J,Stim14,LR,6,"",0,J,green,10,"","",2.85,970,"","",3,69.17
581921,250,250,block_Trng,3,task_Trng,2,1,"","",16,14,"","","","",Block14,"","","","","","",K,Stim11,HR,17,"",0,K,blue,8,"","",2.85,980,"","",3,69.44
581921,251,251,block_Trng,3,task_Trng,2,1,"","",17,14,"","","","",Block14,"","","","","","",J,Stim12,LR,51,"",0,J,green,8,"","",2.85,982,"","",3,69.72
581921,252,252,block_Trng,3,task_Trng,2,1,"","",18,14,"","","","",Block14,"","","","","","",J,Stim14,NR,14,"",0,J,red,10,"","",2.85,982,"","",3,70
581921,253,253,block_Trng,3,task_Trng,2,1,"","",1,15,"","","","",Block15,"","","","","","",J,Stim14,NR,7,"",0,J,red,10,"","",2.85,982,"","",3,70.28
581921,254,254,block_Trng,3,task_Trng,2,1,"","",2,15,"","","","",Block15,"","","","","","",J,PreISI1,NR,56,"",0,J,red,12,"","",2.85,982,"","",3,70.56
581921,255,255,block_Trng,3,task_Trng,2,1,"","",3,15,"","","","",Block15,"","","","","","",K,Stim11,HR,15,"",0,K,blue,8,"","",2.85,992,"","",3,70.83
581921,256,256,block_Trng,3,task_Trng,2,1,"","",4,15,"","","","",Block15,"","","","","","",K,Stim12,HR,90,"",0,K,blue,10,"","",2.85,1002,"","",3,71.11
581921,257,257,block_Trng,3,task_Trng,2,1,"","",5,15,"","","","",Block15,"","","","","","",K,Stim16,HR,15,"",0,K,blue,12,"","",2.85,1012,"","",3,71.39
581921,258,258,block_Trng,3,task_Trng,2,1,"","",6,15,"","","","",Block15,"","","","","","",K,Stim15,NR,6,"",0,K,red,11,"","",2.85,1012,"","",3,71.67
581921,259,259,block_Trng,3,task_Trng,2,1,"","",7,15,"","","","",Block15,"","","","","","",J,Stim15,LR,39,"",0,J,green,12,"","",2.85,1014,"","",3,71.94
581921,260,260,block_Trng,3,task_Trng,2,1,"","",8,15,"","","","",Block15,"","","","","","",J,Stim14,HR,38,"",0,J,blue,11,"","",2.85,1024,"","",3,72.22
581921,261,261,block_Trng,3,task_Trng,2,1,"","",9,15,"","","","",Block15,"","","","","","",J,Stim12,LR,112,"",0,J,green,10,"","",2.85,1026,"","",3,72.5
581921,262,262,block_Trng,3,task_Trng,2,1,"","",10,15,"","","","",Block15,"","","","","","",K,Stim16,LR,106,"",0,K,green,13,"","",2.85,1028,"","",3,72.78
581921,263,263,block_Trng,3,task_Trng,2,1,"","",11,15,"","","","",Block15,"","","","","","",J,Stim13,HR,88,"",0,J,blue,9,"","",2.85,1038,"","",3,73.06
581921,264,264,block_Trng,3,task_Trng,2,1,"","",12,15,"","","","",Block15,"","","","","","",J,Stim16,HR,108,"",0,J,blue,13,"","",2.85,1048,"","",3,73.33
581921,265,265,block_Trng,3,task_Trng,2,1,"","",13,15,"","","","",Block15,"","","","","","",K,Stim11,NR,113,"",0,K,red,9,"","",2.85,1048,"","",3,73.61
581921,266,266,block_Trng,3,task_Trng,2,1,"","",14,15,"","","","",Block15,"","","","","","",J,Stim12,NR,55,"",0,J,red,8,"","",2.85,1048,"","",3,73.89
581921,267,267,block_Trng,3,task_Trng,2,1,"","",15,15,"","","","",Block15,"","","","","","",J,Stim12,LR,5,"",0,J,green,8,"","",2.85,1050,"","",3,74.17
581921,268,268,block_Trng,3,task_Trng,2,1,"","",16,15,"","","","",Block15,"","","","","","",K,Stim12,LR,43,"",0,K,green,9,"","",2.85,1052,"","",3,74.44
581921,269,269,block_Trng,3,task_Trng,2,1,"","",17,15,"","","","",Block15,"","","","","","",K,Stim13,LR,111,"",0,K,green,11,"","",2.85,1054,"","",3,74.72
581921,270,270,block_Trng,3,task_Trng,2,0,"","",18,15,"","","","",Block15,"","","","","","",J,Stim15,NR,28,"",0,K,red,13,"","",2.85,1054,"","",3,75
581921,271,271,block_Trng,3,task_Trng,2,1,"","",1,16,"","","","",Block16',"","","","","","",K,Stim13,HR,1,"",0,K,blue,10,"","",2.85,1064,"","",3,75.28
581921,272,272,block_Trng,3,task_Trng,2,1,"","",2,16,"","","","",Block16',"","","","","","",K,Stim12,LR,15,"",0,K,green,9,"","",2.85,1066,"","",3,75.56
581921,273,273,block_Trng,3,task_Trng,2,1,"","",3,16,"","","","",Block16',"","","","","","",K,Stim12,HR,19,"",0,K,blue,8,"","",2.85,1076,"","",3,75.83
581921,274,274,block_Trng,3,task_Trng,2,1,"","",4,16,"","","","",Block16',"","","","","","",K,PreISI1,LR,10,"",0,K,green,13,"","",2.85,1078,"","",3,76.11
581921,275,275,block_Trng,3,task_Trng,2,1,"","",5,16,"","","","",Block16',"","","","","","",K,Stim13,NR,111,"",0,K,red,9,"","",2.85,1078,"","",3,76.39
581921,276,276,block_Trng,3,task_Trng,2,1,"","",6,16,"","","","",Block16',"","","","","","",J,Stim13,LR,88,"",0,J,green,10,"","",2.85,1080,"","",3,76.67
581921,277,277,block_Trng,3,task_Trng,2,1,"","",7,16,"","","","",Block16',"","","","","","",K,Stim13,LR,94,"",0,K,green,11,"","",2.85,1082,"","",3,76.94
581921,278,278,block_Trng,3,task_Trng,2,1,"","",8,16,"","","","",Block16',"","","","","","",K,Stim14,HR,88,"",0,K,blue,12,"","",2.85,1092,"","",3,77.22
581921,279,279,block_Trng,3,task_Trng,2,1,"","",9,16,"","","","",Block16',"","","","","","",K,Stim15,NR,93,"",0,K,red,11,"","",2.85,1092,"","",3,77.5
581921,280,280,block_Trng,3,task_Trng,2,1,"","",10,16,"","","","",Block16',"","","","","","",J,Stim15,HR,11,"",0,J,blue,11,"","",2.85,1102,"","",3,77.78
581921,281,281,block_Trng,3,task_Trng,2,1,"","",11,16,"","","","",Block16',"","","","","","",J,Stim15,NR,64,"",0,J,red,12,"","",2.85,1102,"","",3,78.06
581921,282,282,block_Trng,3,task_Trng,2,1,"","",12,16,"","","","",Block16',"","","","","","",J,Stim12,HR,6,"",0,J,blue,9,"","",2.85,1112,"","",3,78.33
581921,283,283,block_Trng,3,task_Trng,2,1,"","",13,16,"","","","",Block16',"","","","","","",J,Stim14,NR,5,"",0,J,red,10,"","",2.85,1112,"","",3,78.61
581921,284,284,block_Trng,3,task_Trng,2,1,"","",14,16,"","","","",Block16',"","","","","","",K,Stim16,NR,8,"",0,K,red,13,"","",2.85,1112,"","",3,78.89
581921,285,285,block_Trng,3,task_Trng,2,1,"","",15,16,"","","","",Block16',"","","","","","",J,Stim15,LR,55,"",0,J,green,8,"","",2.85,1114,"","",3,79.17
581921,286,286,block_Trng,3,task_Trng,2,1,"","",16,16,"","","","",Block16',"","","","","","",J,Stim15,LR,89,"",0,J,green,12,"","",2.85,1116,"","",3,79.44
581921,287,287,block_Trng,3,task_Trng,2,0,"","",17,16,"","","","",Block16',"","","","","","",K,PreISI1,HR,3,"",0,J,blue,13,"","",2.85,1116,"","",3,79.72
581921,288,288,block_Trng,3,task_Trng,2,1,"","",18,16,"","","","",Block16',"","","","","","",J,Stim12,NR,8,"",0,J,red,8,"","",3.79,1116,"","",4,80
581921,289,289,block_Trng,3,task_Trng,2,1,"","",1,17,"","","","",Block17,"","","","","","",J,Stim13,LR,56,"",0,J,green,10,"","",3.79,1118,"","",4,80.28
581921,290,290,block_Trng,3,task_Trng,2,1,"","",2,17,"","","","",Block17,"","","","","","",J,Stim15,HR,34,"",0,J,blue,11,"","",3.79,1128,"","",4,80.56
581921,291,291,block_Trng,3,task_Trng,2,1,"","",3,17,"","","","",Block17,"","","","","","",K,Stim15,NR,109,"",0,K,red,13,"","",3.79,1128,"","",4,80.83
581921,292,292,block_Trng,3,task_Trng,2,1,"","",4,17,"","","","",Block17,"","","","","","",J,Stim12,NR,31,"",0,J,red,8,"","",3.79,1128,"","",4,81.11
581921,293,293,block_Trng,3,task_Trng,2,1,"","",5,17,"","","","",Block17,"","","","","","",K,Stim12,LR,24,"",0,K,green,9,"","",3.79,1130,"","",4,81.39
581921,294,294,block_Trng,3,task_Trng,2,1,"","",6,17,"","","","",Block17,"","","","","","",J,PreISI1,HR,87,"",0,J,blue,13,"","",3.79,1140,"","",4,81.67
581921,295,295,block_Trng,3,task_Trng,2,1,"","",7,17,"","","","",Block17,"","","","","","",K,Stim15,LR,114,"",0,K,green,13,"","",3.79,1142,"","",4,81.94
581921,296,296,block_Trng,3,task_Trng,2,1,"","",8,17,"","","","",Block17,"","","","","","",J,Stim15,LR,8,"",0,J,green,12,"","",3.79,1144,"","",4,82.22
581921,297,297,block_Trng,3,task_Trng,2,1,"","",9,17,"","","","",Block17,"","","","","","",K,Stim16,HR,32,"",0,K,blue,12,"","",3.79,1154,"","",4,82.5
581921,298,298,block_Trng,3,task_Trng,2,1,"","",10,17,"","","","",Block17,"","","","","","",K,Stim13,HR,56,"",0,K,blue,10,"","",3.79,1164,"","",4,82.78
581921,299,299,block_Trng,3,task_Trng,2,1,"","",11,17,"","","","",Block17,"","","","","","",J,Stim12,NR,78,"",0,J,red,10,"","",3.79,1164,"","",4,83.06
581921,300,300,block_Trng,3,task_Trng,2,1,"","",12,17,"","","","",Block17,"","","","","","",J,Stim13,HR,55,"",0,J,blue,9,"","",3.79,1174,"","",4,83.33
581921,301,301,block_Trng,3,task_Trng,2,1,"","",13,17,"","","","",Block17,"","","","","","",J,Stim13,LR,8,"",0,J,green,8,"","",3.79,1176,"","",4,83.61
581921,302,302,block_Trng,3,task_Trng,2,1,"","",14,17,"","","","",Block17,"","","","","","",K,Stim14,NR,8,"",0,K,red,11,"","",3.79,1176,"","",4,83.89
581921,303,303,block_Trng,3,task_Trng,2,1,"","",15,17,"","","","",Block17,"","","","","","",K,Stim13,NR,29,"",0,K,red,9,"","",3.79,1176,"","",4,84.17
581921,304,304,block_Trng,3,task_Trng,2,1,"","",16,17,"","","","",Block17,"","","","","","",K,Stim11,HR,58,"",0,K,blue,8,"","",3.79,1186,"","",4,84.44
581921,305,305,block_Trng,3,task_Trng,2,1,"","",17,17,"","","","",Block17,"","","","","","",J,Stim15,NR,53,"",0,J,red,12,"","",3.79,1186,"","",4,84.72
581921,306,306,block_Trng,3,task_Trng,2,1,"","",18,17,"","","","",Block17,"","","","","","",K,Stim13,LR,77,"",0,K,green,11,"","",3.79,1188,"","",4,85
581921,307,307,block_Trng,3,task_Trng,2,1,"","",1,18,"","","","",Block18,"","","","","","",K,Stim16,LR,77,"",0,K,green,13,"","",3.79,1190,"","",4,85.28
581921,308,308,block_Trng,3,task_Trng,2,1,"","",2,18,"","","","",Block18,"","","","","","",J,Stim15,LR,87,"",0,J,green,12,"","",3.79,1192,"","",4,85.56
581921,309,309,block_Trng,3,task_Trng,2,1,"","",3,18,"","","","",Block18,"","","","","","",K,Stim14,LR,68,"",0,K,green,11,"","",3.79,1194,"","",4,85.83
581921,310,310,block_Trng,3,task_Trng,2,1,"","",4,18,"","","","",Block18,"","","","","","",J,Stim14,HR,19,"",0,J,blue,9,"","",3.79,1204,"","",4,86.11
581921,311,311,block_Trng,3,task_Trng,2,1,"","",5,18,"","","","",Block18,"","","","","","",K,Stim11,NR,114,"",0,K,red,9,"","",3.79,1204,"","",4,86.39
581921,312,312,block_Trng,3,task_Trng,2,1,"","",6,18,"","","","",Block18,"","","","","","",J,Stim15,NR,37,"",0,J,red,12,"","",3.79,1204,"","",4,86.67
581921,313,313,block_Trng,3,task_Trng,2,1,"","",7,18,"","","","",Block18,"","","","","","",K,Stim13,HR,37,"",0,K,blue,10,"","",3.79,1214,"","",4,86.94
581921,314,314,block_Trng,3,task_Trng,2,1,"","",8,18,"","","","",Block18,"","","","","","",K,Stim14,NR,35,"",0,K,red,11,"","",3.79,1214,"","",4,87.22
581921,315,315,block_Trng,3,task_Trng,2,1,"","",9,18,"","","","",Block18,"","","","","","",K,Stim15,NR,117,"",0,K,red,13,"","",3.79,1214,"","",4,87.5
581921,316,316,block_Trng,3,task_Trng,2,1,"","",10,18,"","","","",Block18,"","","","","","",J,Stim12,LR,51,"",0,J,green,8,"","",3.79,1216,"","",4,87.78
581921,317,317,block_Trng,3,task_Trng,2,1,"","",11,18,"","","","",Block18,"","","","","","",J,Stim14,HR,26,"",0,J,blue,11,"","",3.79,1226,"","",4,88.06
581921,318,318,block_Trng,3,task_Trng,2,1,"","",12,18,"","","","",Block18,"","","","","","",K,Stim12,HR,99,"",0,K,blue,8,"","",3.79,1236,"","",4,88.33
581921,319,319,block_Trng,3,task_Trng,2,1,"","",13,18,"","","","",Block18,"","","","","","",J,Stim11,NR,92,"",0,J,red,8,"","",3.79,1236,"","",4,88.61
581921,320,320,block_Trng,3,task_Trng,2,1,"","",14,18,"","","","",Block18,"","","","","","",J,Stim14,LR,11,"",0,J,green,10,"","",3.79,1238,"","",4,88.89
581921,321,321,block_Trng,3,task_Trng,2,1,"","",15,18,"","","","",Block18,"","","","","","",K,Stim13,LR,16,"",0,K,green,9,"","",3.79,1240,"","",4,89.17
581921,322,322,block_Trng,3,task_Trng,2,1,"","",16,18,"","","","",Block18,"","","","","","",K,Stim14,HR,109,"",0,K,blue,12,"","",3.79,1250,"","",4,89.44
581921,323,323,block_Trng,3,task_Trng,2,1,"","",17,18,"","","","",Block18,"","","","","","",J,Stim13,NR,9,"",0,J,red,10,"","",3.79,1250,"","",4,89.72
581921,324,324,block_Trng,3,task_Trng,2,1,"","",18,18,"","","","",Block18,"","","","","","",J,PreISI1,HR,39,"",0,J,blue,13,"","",3.79,1260,"","",4,90
581921,325,325,block_Trng,3,task_Trng,2,1,"","",1,19,"","","","",Block19,"","","","","","",K,Stim15,LR,67,"",0,K,green,13,"","",3.79,1262,"","",4,90.28
581921,326,326,block_Trng,3,task_Trng,2,1,"","",2,19,"","","","",Block19,"","","","","","",J,Stim15,NR,106,"",0,J,red,12,"","",3.79,1262,"","",4,90.56
581921,327,327,block_Trng,3,task_Trng,2,0,"","",3,19,"","","","",Block19,Slow!,"","","","","",J,PreISI2,HR,167,"",1,K,blue,8,"","",3.79,1262,"","",4,90.83
581921,328,328,block_Trng,3,task_Trng,2,1,"","",4,19,"","","","",Block19,"","","","","","",J,Stim13,HR,4,"",0,J,blue,9,"","",3.79,1272,"","",4,91.11
581921,329,329,block_Trng,3,task_Trng,2,1,"","",5,19,"","","","",Block19,"","","","","","",J,Stim12,LR,91,"",0,J,green,8,"","",3.79,1274,"","",4,91.39
581921,330,330,block_Trng,3,task_Trng,2,1,"","",6,19,"","","","",Block19,"","","","","","",J,Stim11,NR,54,"",0,J,red,8,"","",3.79,1274,"","",4,91.67
581921,331,331,block_Trng,3,task_Trng,2,1,"","",7,19,"","","","",Block19,"","","","","","",K,Stim15,HR,10,"",0,K,blue,12,"","",3.79,1284,"","",4,91.94
581921,332,332,block_Trng,3,task_Trng,2,1,"","",8,19,"","","","",Block19,"","","","","","",J,Stim14,LR,92,"",0,J,green,10,"","",3.79,1286,"","",4,92.22
581921,333,333,block_Trng,3,task_Trng,2,0,"","",9,19,"","","","",Block19,"","","","","","",K,Stim15,HR,30,"",0,J,blue,11,"","",3.79,1286,"","",4,92.5
581921,334,334,block_Trng,3,task_Trng,2,1,"","",10,19,"","","","",Block19,"","","","","","",J,Stim16,LR,6,"",0,J,green,12,"","",3.79,1288,"","",4,92.78
581921,335,335,block_Trng,3,task_Trng,2,1,"","",11,19,"","","","",Block19,"","","","","","",J,Stim16,HR,84,"",0,J,blue,13,"","",3.79,1298,"","",4,93.06
581921,336,336,block_Trng,3,task_Trng,2,1,"","",12,19,"","","","",Block19,"","","","","","",K,Stim14,LR,100,"",0,K,green,11,"","",3.79,1300,"","",4,93.33
581921,337,337,block_Trng,3,task_Trng,2,1,"","",13,19,"","","","",Block19,"","","","","","",K,Stim15,NR,91,"",0,K,red,13,"","",3.79,1300,"","",4,93.61
581921,338,338,block_Trng,3,task_Trng,2,1,"","",14,19,"","","","",Block19,"","","","","","",K,Stim13,LR,44,"",0,K,green,9,"","",3.79,1302,"","",4,93.89
581921,339,339,block_Trng,3,task_Trng,2,1,"","",15,19,"","","","",Block19,"","","","","","",K,Stim12,NR,97,"",0,K,red,9,"","",3.79,1302,"","",4,94.17
581921,340,340,block_Trng,3,task_Trng,2,1,"","",16,19,"","","","",Block19,"","","","","","",K,Stim13,HR,4,"",0,K,blue,10,"","",3.79,1312,"","",4,94.44
581921,341,341,block_Trng,3,task_Trng,2,1,"","",17,19,"","","","",Block19,"","","","","","",K,Stim14,NR,11,"",0,K,red,11,"","",3.79,1312,"","",4,94.72
581921,342,342,block_Trng,3,task_Trng,2,1,"","",18,19,"","","","",Block19,"","","","","","",J,Stim14,NR,79,"",0,J,red,10,"","",3.79,1312,"","",4,95
581921,343,343,block_Trng,3,task_Trng,2,1,"","",1,20,"","","","",Block20,"","","","","","",J,Stim14,HR,79,"",0,J,blue,9,"","",3.79,1322,"","",4,95.28
581921,344,344,block_Trng,3,task_Trng,2,1,"","",2,20,"","","","",Block20,"","","","","","",J,Stim13,NR,81,"",0,J,red,10,"","",3.79,1322,"","",4,95.56
581921,345,345,block_Trng,3,task_Trng,2,1,"","",3,20,"","","","",Block20,"","","","","","",J,Stim15,NR,11,"",0,J,red,12,"","",3.79,1322,"","",4,95.83
581921,346,346,block_Trng,3,task_Trng,2,1,"","",4,20,"","","","",Block20,"","","","","","",K,Stim12,LR,8,"",0,K,green,9,"","",3.79,1324,"","",4,96.11
581921,347,347,block_Trng,3,task_Trng,2,0,"","",5,20,"","","","",Block20,"","","","","","",K,Stim16,HR,106,"",0,J,blue,13,"","",3.79,1324,"","",4,96.39
581921,348,348,block_Trng,3,task_Trng,2,1,"","",6,20,"","","","",Block20,"","","","","","",K,Stim15,HR,109,"",0,K,blue,12,"","",3.79,1334,"","",4,96.67
581921,349,349,block_Trng,3,task_Trng,2,1,"","",7,20,"","","","",Block20,"","","","","","",K,Stim16,NR,6,"",0,K,red,13,"","",3.79,1334,"","",4,96.94
581921,350,350,block_Trng,3,task_Trng,2,1,"","",8,20,"","","","",Block20,"","","","","","",J,Stim15,LR,69,"",0,J,green,12,"","",3.79,1336,"","",4,97.22
581921,351,351,block_Trng,3,task_Trng,2,1,"","",9,20,"","","","",Block20,"","","","","","",K,Stim13,NR,108,"",0,K,red,11,"","",3.79,1336,"","",4,97.5
581921,352,352,block_Trng,3,task_Trng,2,1,"","",10,20,"","","","",Block20,"","","","","","",J,Stim14,LR,19,"",0,J,green,10,"","",3.79,1338,"","",4,97.78
581921,353,353,block_Trng,3,task_Trng,2,1,"","",11,20,"","","","",Block20,"","","","","","",K,Stim14,NR,9,"",0,K,red,9,"","",3.79,1338,"","",4,98.06
581921,354,354,block_Trng,3,task_Trng,2,1,"","",12,20,"","","","",Block20,"","","","","","",J,Stim11,NR,13,"",0,J,red,8,"","",3.79,1338,"","",4,98.33
581921,355,355,block_Trng,3,task_Trng,2,1,"","",13,20,"","","","",Block20,"","","","","","",K,Stim11,HR,55,"",0,K,blue,8,"","",3.79,1348,"","",4,98.61
581921,356,356,block_Trng,3,task_Trng,2,1,"","",14,20,"","","","",Block20,"","","","","","",K,Stim15,LR,70,"",0,K,green,11,"","",3.79,1350,"","",4,98.89
581921,357,357,block_Trng,3,task_Trng,2,1,"","",15,20,"","","","",Block20,"","","","","","",K,Stim13,HR,51,"",0,K,blue,10,"","",3.79,1360,"","",4,99.17
581921,358,358,block_Trng,3,task_Trng,2,1,"","",16,20,"","","","",Block20,"","","","","","",J,Stim14,HR,1,"",0,J,blue,11,"","",3.79,1370,"","",4,99.44
581921,359,359,block_Trng,3,task_Trng,2,1,"","",17,20,"","","","",Block20,"","","","","","",K,Stim16,LR,61,"",0,K,green,13,"","",3.79,1372,"","",4,99.72
581921,360,360,block_Trng,3,task_Trng,2,1,"","",18,20,"","","","",Block20,"","","","","","",J,Stim11,LR,22,"",0,J,green,8,"","",3.79,1374,"","",4,100
581921,1,1,block_Practice,2,task_GetReady,1,"","","","",1,"","","","","","","","","","","","","","","","","","","","","","","","","","","",""
581921,1,1,block_Practice,2,task_Trng_Prac,2,1,1,"","",1,"","","","","","","","","","","",K,Stim11,Disallowed,117,"",1,K,red,8,"","","",0,0,"","",""
581921,2,2,block_Practice,2,task_Trng_Prac,2,1,2,"","",1,"","","","","","","","","","","",K,Stim14,Disallowed,100,"",1,K,green,11,"","","",0,0,"","",""
581921,3,3,block_Practice,2,task_Trng_Prac,2,1,3,"","",1,"","","","","","","","","","","",J,Stim11,Disallowed,104,"",1,J,green,9,"","","",0,0,"","",""
581921,4,4,block_Practice,2,task_Trng_Prac,2,1,4,"","",1,"","","","","","","","","","","",J,PreISI1,Disallowed,38,"",1,J,blue,13,"","","",0,0,"","",""
581921,5,5,block_Practice,2,task_Trng_Prac,2,1,5,"","",1,"","","","","","","","","","","",K,Stim14,Disallowed,6,"",1,K,red,10,"","","",0,0,"","",""
581921,6,6,block_Practice,2,task_Trng_Prac,2,1,6,"","",1,"","","","","","","","","","","",J,Stim15,Disallowed,13,"",1,J,blue,12,"","","",0,0,"","",""
581921,1,1,block_Trng,3,task_Trng_End,3,"","","","",1,"","","","","","","","","","","","","","","","","","","","","","",4.67,1374,"","","",""
581921,1,1,block_Testing,4,task_Testing_Instructions,1,"","","","",1,"","","","","","","","","","","","","","","","","","","","","","","","","","","",""
581921,1,1,block_Testing,4,task_Testing,2,1,"","",1,1,"","",Block1,"","","","","","","","",K,Stim14,NR,6,"",0,K,red,9,0,0.56,"",1374,"","","",""
581921,2,2,block_Testing,4,task_Testing,2,1,"","",2,1,"","",Block1,"","","","","","","","",J,Stim11,HR,94,"",0,J,blue,9,0,1.11,"",1374,"","","",""
581921,3,3,block_Testing,4,task_Testing,2,1,"","",3,1,"","",Block1,"","","","","","","","",K,Stim13,NR,96,"",0,K,red,11,0,1.67,"",1374,"","","",""
581921,4,4,block_Testing,4,task_Testing,2,1,"","",4,1,"","",Block1,"","","","","","","","",J,Stim12,LR,74,"",0,J,green,10,0,2.22,"",1374,"","","",""
581921,5,5,block_Testing,4,task_Testing,2,1,"","",5,1,"","",Block1,"","","","","","","","",K,Stim16,HR,27,"",0,K,blue,12,0,2.78,"",1374,"","","",""
581921,6,6,block_Testing,4,task_Testing,2,1,"","",6,1,"","",Block1,"","","","","","","","",J,Stim12,LR,16,"",0,J,green,8,0,3.33,"",1374,"","","",""
581921,7,7,block_Testing,4,task_Testing,2,1,"","",7,1,"","",Block1,"","","","","","","","",J,Stim16,NR,108,"",0,J,red,12,0,3.89,"",1374,"","","",""
581921,8,8,block_Testing,4,task_Testing,2,1,"","",8,1,"","",Block1,"","","","","","","","",K,Stim12,HR,6,"",0,K,blue,8,0,4.44,"",1374,"","","",""
581921,9,9,block_Testing,4,task_Testing,2,1,"","",9,1,"","",Block1,"","","","","","","","",J,Stim16,LR,79,"",0,J,green,12,0,5,"",1374,"","","",""
581921,10,10,block_Testing,4,task_Testing,2,1,"","",10,1,"","",Block1,"","","","","","","","",J,Stim15,HR,46,"",0,J,blue,11,0,5.56,"",1374,"","","",""
581921,11,11,block_Testing,4,task_Testing,2,1,"","",11,1,"","",Block1,"","","","","","","","",K,Stim16,NR,7,"",0,K,red,13,0,6.11,"",1374,"","","",""
581921,12,12,block_Testing,4,task_Testing,2,1,"","",12,1,"","",Block1,"","","","","","","","",J,Stim12,NR,27,"",0,J,red,8,0,6.67,"",1374,"","","",""
581921,13,13,block_Testing,4,task_Testing,2,1,"","",13,1,"","",Block1,"","","","","","","","",J,Stim16,HR,95,"",0,J,blue,13,0,7.22,"",1374,"","","",""
581921,14,14,block_Testing,4,task_Testing,2,1,"","",14,1,"","",Block1,"","","","","","","","",K,PreISI1,LR,1,"",0,K,green,13,0,7.78,"",1374,"","","",""
581921,15,15,block_Testing,4,task_Testing,2,1,"","",15,1,"","",Block1,"","","","","","","","",J,Stim13,NR,25,"",0,J,red,10,0,8.33,"",1374,"","","",""
581921,16,16,block_Testing,4,task_Testing,2,1,"","",16,1,"","",Block1,"","","","","","","","",K,Stim12,HR,109,"",0,K,blue,10,0,8.89,"",1374,"","","",""
581921,17,17,block_Testing,4,task_Testing,2,1,"","",17,1,"","",Block1,"","","","","","","","",K,Stim14,LR,18,"",0,K,green,11,0,9.44,"",1374,"","","",""
581921,18,18,block_Testing,4,task_Testing,2,1,"","",18,1,"","",Block1,"","","","","","","","",K,Stim11,LR,107,"",0,K,green,9,0,10,"",1374,"","","",""
581921,19,19,block_Testing,4,task_Testing,2,1,"","",1,2,"","",Block2,"","","","","","","","",J,Stim15,HR,7,"",0,J,blue,11,0,10.56,"",1374,"","","",""
581921,20,20,block_Testing,4,task_Testing,2,1,"","",2,2,"","",Block2,"","","","","","","","",K,Stim14,NR,17,"",0,K,red,11,0,11.11,"",1374,"","","",""
581921,21,21,block_Testing,4,task_Testing,2,1,"","",3,2,"","",Block2,"","","","","","","","",K,Stim15,NR,114,"",0,K,red,13,0,11.67,"",1374,"","","",""
581921,22,22,block_Testing,4,task_Testing,2,1,"","",4,2,"","",Block2,"","","","","","","","",K,Stim13,NR,39,"",0,K,red,9,0,12.22,"",1374,"","","",""
581921,23,23,block_Testing,4,task_Testing,2,1,"","",5,2,"","",Block2,"","","","","","","","",K,Stim13,HR,49,"",0,K,blue,10,0,12.78,"",1374,"","","",""
581921,24,24,block_Testing,4,task_Testing,2,1,"","",6,2,"","",Block2,"","","","","","","","",J,Stim12,LR,8,"",0,J,green,8,0,13.33,"",1374,"","","",""
581921,25,25,block_Testing,4,task_Testing,2,1,"","",7,2,"","",Block2,"","","","","","","","",K,PreISI1,LR,35,"",0,K,green,13,0,13.89,"",1374,"","","",""
581921,26,26,block_Testing,4,task_Testing,2,1,"","",8,2,"","",Block2,"","","","","","","","",K,Stim12,HR,32,"",0,K,blue,8,0,14.44,"",1374,"","","",""
581921,27,27,block_Testing,4,task_Testing,2,1,"","",9,2,"","",Block2,"","","","","","","","",J,Stim13,NR,98,"",0,J,red,10,0,15,"",1374,"","","",""
581921,28,28,block_Testing,4,task_Testing,2,1,"","",10,2,"","",Block2,"","","","","","","","",J,Stim14,LR,67,"",0,J,green,12,0,15.56,"",1374,"","","",""
581921,29,29,block_Testing,4,task_Testing,2,1,"","",11,2,"","",Block2,"","","","","","","","",K,Stim14,LR,11,"",0,K,green,11,0,16.11,"",1374,"","","",""
581921,30,30,block_Testing,4,task_Testing,2,1,"","",12,2,"","",Block2,"","","","","","","","",K,Stim14,HR,116,"",0,K,blue,12,0,16.67,"",1374,"","","",""
581921,31,31,block_Testing,4,task_Testing,2,1,"","",13,2,"","",Block2,"","","","","","","","",J,Stim11,HR,98,"",0,J,blue,9,0,17.22,"",1374,"","","",""
581921,32,32,block_Testing,4,task_Testing,2,1,"","",14,2,"","",Block2,"","","","","","","","",J,Stim12,NR,14,"",0,J,red,8,0,17.78,"",1374,"","","",""
581921,33,33,block_Testing,4,task_Testing,2,1,"","",15,2,"","",Block2,"","","","","","","","",J,Stim15,NR,54,"",0,J,red,12,0,18.33,"",1374,"","","",""
581921,34,34,block_Testing,4,task_Testing,2,1,"","",16,2,"","",Block2,"","","","","","","","",J,Stim14,LR,36,"",0,J,green,10,0,18.89,"",1374,"","","",""
581921,35,35,block_Testing,4,task_Testing,2,1,"","",17,2,"","",Block2,"","","","","","","","",K,Stim12,LR,10,"",0,K,green,9,0,19.44,"",1374,"","","",""
581921,36,36,block_Testing,4,task_Testing,2,1,"","",18,2,"","",Block2,"","","","","","","","",J,Stim16,HR,37,"",0,J,blue,13,0,20,"",1374,"","","",""
581921,37,37,block_Testing,4,task_Testing,2,0,"","",1,3,"","",Block3,"","","","","","","","",K,Stim12,NR,109,"",0,J,red,10,0,20.56,"",1374,"","","",""
581921,38,38,block_Testing,4,task_Testing,2,1,"","",2,3,"","",Block3,"","","","","","","","",J,Stim15,LR,103,"",0,J,green,12,0,21.11,"",1374,"","","",""
581921,39,39,block_Testing,4,task_Testing,2,1,"","",3,3,"","",Block3,"","","","","","","","",K,Stim12,HR,15,"",0,K,blue,8,0,21.67,"",1374,"","","",""
581921,40,40,block_Testing,4,task_Testing,2,1,"","",4,3,"","",Block3,"","","","","","","","",K,Stim12,LR,9,"",0,K,green,9,0,22.22,"",1374,"","","",""
581921,41,41,block_Testing,4,task_Testing,2,1,"","",5,3,"","",Block3,"","","","","","","","",K,PreISI1,NR,25,"",0,K,red,13,0,22.78,"",1374,"","","",""
581921,42,42,block_Testing,4,task_Testing,2,1,"","",6,3,"","",Block3,"","","","","","","","",K,Stim13,NR,39,"",0,K,red,9,0,23.33,"",1374,"","","",""
581921,43,43,block_Testing,4,task_Testing,2,1,"","",7,3,"","",Block3,"","","","","","","","",J,Stim14,LR,73,"",0,J,green,10,0,23.89,"",1374,"","","",""
581921,44,44,block_Testing,4,task_Testing,2,1,"","",8,3,"","",Block3,"","","","","","","","",J,Stim11,NR,53,"",0,J,red,8,0,24.44,"",1374,"","","",""
581921,45,45,block_Testing,4,task_Testing,2,1,"","",9,3,"","",Block3,"","","","","","","","",K,Stim14,LR,22,"",0,K,green,11,0,25,"",1374,"","","",""
581921,46,46,block_Testing,4,task_Testing,2,1,"","",10,3,"","",Block3,"","","","","","","","",K,Stim12,HR,76,"",0,K,blue,10,0,25.56,"",1374,"","","",""
581921,47,47,block_Testing,4,task_Testing,2,1,"","",11,3,"","",Block3,"","","","","","","","",J,Stim14,HR,71,"",0,J,blue,11,0,26.11,"",1374,"","","",""
581921,48,48,block_Testing,4,task_Testing,2,1,"","",12,3,"","",Block3,"","","","","","","","",K,Stim16,LR,34,"",0,K,green,13,0,26.67,"",1374,"","","",""
581921,49,49,block_Testing,4,task_Testing,2,1,"","",13,3,"","",Block3,"","","","","","","","",J,PreISI1,HR,12,"",0,J,blue,13,0,27.22,"",1374,"","","",""
581921,50,50,block_Testing,4,task_Testing,2,1,"","",14,3,"","",Block3,"","","","","","","","",J,Stim13,HR,30,"",0,J,blue,9,0,27.78,"",1374,"","","",""
581921,51,51,block_Testing,4,task_Testing,2,1,"","",15,3,"","",Block3,"","","","","","","","",K,Stim14,HR,114,"",0,K,blue,12,0,28.33,"",1374,"","","",""
581921,52,52,block_Testing,4,task_Testing,2,1,"","",16,3,"","",Block3,"","","","","","","","",J,Stim16,NR,3,"",0,J,red,12,0,28.89,"",1374,"","","",""
581921,53,53,block_Testing,4,task_Testing,2,1,"","",17,3,"","",Block3,"","","","","","","","",J,Stim12,LR,4,"",0,J,green,8,0,29.44,"",1374,"","","",""
581921,54,54,block_Testing,4,task_Testing,2,1,"","",18,3,"","",Block3,"","","","","","","","",K,Stim15,NR,115,"",0,K,red,11,1,30,"",1374,"","","",""
581921,55,55,block_Testing,4,task_Testing,2,1,"","",1,4,"","",Block4,"","","","","","","","",K,Stim15,HR,12,"",0,K,blue,12,1,30.56,"",1374,"","","",""
581921,56,56,block_Testing,4,task_Testing,2,1,"","",2,4,"","",Block4,"","","","","","","","",J,Stim14,HR,11,"",0,J,blue,11,1,31.11,"",1374,"","","",""
581921,57,57,block_Testing,4,task_Testing,2,1,"","",3,4,"","",Block4,"","","","","","","","",K,Stim12,LR,25,"",0,K,green,9,1,31.67,"",1374,"","","",""
581921,58,58,block_Testing,4,task_Testing,2,1,"","",4,4,"","",Block4,"","","","","","","","",J,Stim15,HR,94,"",0,J,blue,13,1,32.22,"",1374,"","","",""
581921,59,59,block_Testing,4,task_Testing,2,1,"","",5,4,"","",Block4,"","","","","","","","",K,Stim13,HR,9,"",0,K,blue,8,1,32.78,"",1374,"","","",""
581921,60,60,block_Testing,4,task_Testing,2,1,"","",6,4,"","",Block4,"","","","","","","","",J,Stim14,LR,99,"",0,J,green,12,1,33.33,"",1374,"","","",""
581921,61,61,block_Testing,4,task_Testing,2,1,"","",7,4,"","",Block4,"","","","","","","","",J,Stim13,LR,55,"",0,J,green,8,1,33.89,"",1374,"","","",""
581921,62,62,block_Testing,4,task_Testing,2,1,"","",8,4,"","",Block4,"","","","","","","","",K,Stim12,HR,60,"",0,K,blue,10,1,34.44,"",1374,"","","",""
581921,63,63,block_Testing,4,task_Testing,2,1,"","",9,4,"","",Block4,"","","","","","","","",K,Stim11,NR,99,"",0,K,red,9,1,35,"",1374,"","","",""
581921,64,64,block_Testing,4,task_Testing,2,1,"","",10,4,"","",Block4,"","","","","","","","",K,Stim15,LR,115,"",0,K,green,13,1,35.56,"",1374,"","","",""
581921,65,65,block_Testing,4,task_Testing,2,1,"","",11,4,"","",Block4,"","","","","","","","",J,Stim12,LR,82,"",0,J,green,10,1,36.11,"",1374,"","","",""
581921,66,66,block_Testing,4,task_Testing,2,1,"","",12,4,"","",Block4,"","","","","","","","",K,Stim13,LR,88,"",0,K,green,11,1,36.67,"",1374,"","","",""
581921,67,67,block_Testing,4,task_Testing,2,1,"","",13,4,"","",Block4,"","","","","","","","",J,Stim16,NR,17,"",0,J,red,12,1,37.22,"",1374,"","","",""
581921,68,68,block_Testing,4,task_Testing,2,1,"","",14,4,"","",Block4,"","","","","","","","",K,Stim15,NR,120,"",0,K,red,13,1,37.78,"",1374,"","","",""
581921,69,69,block_Testing,4,task_Testing,2,1,"","",15,4,"","",Block4,"","","","","","","","",J,Stim13,NR,88,"",0,J,red,10,1,38.33,"",1374,"","","",""
581921,70,70,block_Testing,4,task_Testing,2,1,"","",16,4,"","",Block4,"","","","","","","","",J,Stim11,NR,58,"",0,J,red,8,1,38.89,"",1374,"","","",""
581921,71,71,block_Testing,4,task_Testing,2,0,"","",17,4,"","",Block4,"","","","","","","","",K,Stim11,HR,7,"",0,J,blue,9,1,39.44,"",1374,"","","",""
581921,72,72,block_Testing,4,task_Testing,2,1,"","",18,4,"","",Block4,"","","","","","","","",K,Stim13,NR,108,"",0,K,red,11,1,40,"",1374,"","","",""
581921,73,73,block_Testing,4,task_Testing,2,1,"","",1,5,"","",Block5,"","","","","","","","",J,Stim15,LR,28,"",0,J,green,12,1,40.56,"",1374,"","","",""
581921,74,74,block_Testing,4,task_Testing,2,1,"","",2,5,"","",Block5,"","","","","","","","",K,Stim13,NR,14,"",0,K,red,9,1,41.11,"",1374,"","","",""
581921,75,75,block_Testing,4,task_Testing,2,1,"","",3,5,"","",Block5,"","","","","","","","",J,Stim11,HR,90,"",0,J,blue,9,1,41.67,"",1374,"","","",""
581921,76,76,block_Testing,4,task_Testing,2,1,"","",4,5,"","",Block5,"","","","","","","","",K,Stim13,LR,39,"",0,K,green,9,1,42.22,"",1374,"","","",""
581921,77,77,block_Testing,4,task_Testing,2,1,"","",5,5,"","",Block5,"","","","","","","","",J,Stim12,LR,115,"",0,J,green,8,1,42.78,"",1374,"","","",""
581921,78,78,block_Testing,4,task_Testing,2,1,"","",6,5,"","",Block5,"","","","","","","","",J,Stim15,HR,110,"",0,J,blue,13,1,43.33,"",1374,"","","",""
581921,79,79,block_Testing,4,task_Testing,2,1,"","",7,5,"","",Block5,"","","","","","","","",K,Stim13,LR,69,"",0,K,green,11,1,43.89,"",1374,"","","",""
581921,80,80,block_Testing,4,task_Testing,2,1,"","",8,5,"","",Block5,"","","","","","","","",J,Stim14,HR,44,"",0,J,blue,11,1,44.44,"",1374,"","","",""
581921,81,81,block_Testing,4,task_Testing,2,1,"","",9,5,"","",Block5,"","","","","","","","",K,Stim16,NR,6,"",0,K,red,13,1,45,"",1374,"","","",""
581921,82,82,block_Testing,4,task_Testing,2,1,"","",10,5,"","",Block5,"","","","","","","","",K,Stim11,HR,65,"",0,K,blue,8,1,45.56,"",1374,"","","",""
581921,83,83,block_Testing,4,task_Testing,2,1,"","",11,5,"","",Block5,"","","","","","","","",J,Stim13,NR,14,"",0,J,red,10,1,46.11,"",1374,"","","",""
581921,84,84,block_Testing,4,task_Testing,2,1,"","",12,5,"","",Block5,"","","","","","","","",K,Stim15,HR,10,"",0,K,blue,10,1,46.67,"",1374,"","","",""
581921,85,85,block_Testing,4,task_Testing,2,1,"","",13,5,"","",Block5,"","","","","","","","",J,Stim11,NR,52,"",0,J,red,8,1,47.22,"",1374,"","","",""
581921,86,86,block_Testing,4,task_Testing,2,1,"","",14,5,"","",Block5,"","","","","","","","",K,Stim16,LR,97,"",0,K,green,13,1,47.78,"",1374,"","","",""
581921,87,87,block_Testing,4,task_Testing,2,1,"","",15,5,"","",Block5,"","","","","","","","",K,Stim15,HR,53,"",0,K,blue,12,1,48.33,"",1374,"","","",""
581921,88,88,block_Testing,4,task_Testing,2,1,"","",16,5,"","",Block5,"","","","","","","","",J,Stim14,LR,87,"",0,J,green,10,1,48.89,"",1374,"","","",""
581921,89,89,block_Testing,4,task_Testing,2,1,"","",17,5,"","",Block5,"","","","","","","","",K,Stim15,NR,16,"",0,K,red,11,1,49.44,"",1374,"","","",""
581921,90,90,block_Testing,4,task_Testing,2,1,"","",18,5,"","",Block5,"","","","","","","","",J,Stim15,NR,65,"",0,J,red,12,1,50,"",1374,"","","",""
581921,91,91,block_Testing,4,task_Testing,2,1,"","",1,6,"","",Block6,"","","","","","","","",K,Stim11,HR,99,"",0,K,blue,8,1,50.56,"",1374,"","","",""
581921,92,92,block_Testing,4,task_Testing,2,1,"","",2,6,"","",Block6,"","","","","","","","",J,Stim11,LR,107,"",0,J,green,8,1,51.11,"",1374,"","","",""
581921,93,93,block_Testing,4,task_Testing,2,1,"","",3,6,"","",Block6,"","","","","","","","",J,Stim14,NR,72,"",0,J,red,10,1,51.67,"",1374,"","","",""
581921,94,94,block_Testing,4,task_Testing,2,1,"","",4,6,"","",Block6,"","","","","","","","",J,Stim16,LR,54,"",0,J,green,12,1,52.22,"",1374,"","","",""
581921,95,95,block_Testing,4,task_Testing,2,1,"","",5,6,"","",Block6,"","","","","","","","",J,Stim13,HR,15,"",0,J,blue,9,1,52.78,"",1374,"","","",""
581921,96,96,block_Testing,4,task_Testing,2,1,"","",6,6,"","",Block6,"","","","","","","","",K,Stim14,LR,6,"",0,K,green,11,1,53.33,"",1374,"","","",""
581921,97,97,block_Testing,4,task_Testing,2,1,"","",7,6,"","",Block6,"","","","","","","","",K,Stim13,NR,10,"",0,K,red,9,1,53.89,"",1374,"","","",""
581921,98,98,block_Testing,4,task_Testing,2,1,"","",8,6,"","",Block6,"","","","","","","","",K,Stim15,NR,104,"",0,K,red,13,1,54.44,"",1374,"","","",""
581921,99,99,block_Testing,4,task_Testing,2,1,"","",9,6,"","",Block6,"","","","","","","","",J,Stim11,NR,54,"",0,J,red,8,1,55,"",1374,"","","",""
581921,100,100,block_Testing,4,task_Testing,2,1,"","",10,6,"","",Block6,"","","","","","","","",J,Stim15,NR,33,"",0,J,red,12,1,55.56,"",1374,"","","",""
581921,101,101,block_Testing,4,task_Testing,2,1,"","",11,6,"","",Block6,"","","","","","","","",K,Stim14,NR,17,"",0,K,red,11,1,56.11,"",1374,"","","",""
581921,102,102,block_Testing,4,task_Testing,2,1,"","",12,6,"","",Block6,"","","","","","","","",K,Stim14,HR,112,"",0,K,blue,12,1,56.67,"",1374,"","","",""
581921,103,103,block_Testing,4,task_Testing,2,1,"","",13,6,"","",Block6,"","","","","","","","",J,PreISI1,HR,210,"",0,J,blue,13,1,57.22,"",1374,"","","",""
581921,104,104,block_Testing,4,task_Testing,2,1,"","",14,6,"","",Block6,"","","","","","","","",J,Stim14,LR,24,"",0,J,green,10,1,57.78,"",1374,"","","",""
581921,105,105,block_Testing,4,task_Testing,2,1,"","",15,6,"","",Block6,"","","","","","","","",J,Stim14,HR,82,"",0,J,blue,11,1,58.33,"",1374,"","","",""
581921,106,106,block_Testing,4,task_Testing,2,1,"","",16,6,"","",Block6,"","","","","","","","",K,Stim12,LR,108,"",0,K,green,9,1,58.89,"",1374,"","","",""
581921,107,107,block_Testing,4,task_Testing,2,1,"","",17,6,"","",Block6,"","","","","","","","",K,PreISI1,LR,46,"",0,K,green,13,1,59.44,"",1374,"","","",""
581921,108,108,block_Testing,4,task_Testing,2,1,"","",18,6,"","",Block6,"","","","","","","","",K,Stim14,HR,40,"",0,K,blue,10,2,60,"",1374,"","","",""
581921,109,109,block_Testing,4,task_Testing,2,1,"","",1,7,"","",Block7,"","","","","","","","",J,Stim14,HR,46,"",0,J,blue,11,2,60.56,"",1374,"","","",""
581921,110,110,block_Testing,4,task_Testing,2,1,"","",2,7,"","",Block7,"","","","","","","","",J,Stim13,HR,41,"",0,J,blue,9,2,61.11,"",1374,"","","",""
581921,111,111,block_Testing,4,task_Testing,2,1,"","",3,7,"","",Block7,"","","","","","","","",K,Stim12,HR,86,"",0,K,blue,10,2,61.67,"",1374,"","","",""
581921,112,112,block_Testing,4,task_Testing,2,1,"","",4,7,"","",Block7,"","","","","","","","",J,Stim12,NR,30,"",0,J,red,8,2,62.22,"",1374,"","","",""
581921,113,113,block_Testing,4,task_Testing,2,1,"","",5,7,"","",Block7,"","","","","","","","",K,Stim14,LR,16,"",0,K,green,11,2,62.78,"",1374,"","","",""
581921,114,114,block_Testing,4,task_Testing,2,1,"","",6,7,"","",Block7,"","","","","","","","",J,Stim15,LR,8,"",0,J,green,12,2,63.33,"",1374,"","","",""
581921,115,115,block_Testing,4,task_Testing,2,1,"","",7,7,"","",Block7,"","","","","","","","",J,Stim13,LR,56,"",0,J,green,10,2,63.89,"",1374,"","","",""
581921,116,116,block_Testing,4,task_Testing,2,1,"","",8,7,"","",Block7,"","","","","","","","",K,Stim16,LR,13,"",0,K,green,13,2,64.44,"",1374,"","","",""
581921,117,117,block_Testing,4,task_Testing,2,1,"","",9,7,"","",Block7,"","","","","","","","",K,Stim15,HR,106,"",0,K,blue,12,2,65,"",1374,"","","",""
581921,118,118,block_Testing,4,task_Testing,2,1,"","",10,7,"","",Block7,"","","","","","","","",K,Stim13,NR,110,"",0,K,red,9,2,65.56,"",1374,"","","",""
581921,119,119,block_Testing,4,task_Testing,2,1,"","",11,7,"","",Block7,"","","","","","","","",K,Stim11,HR,14,"",0,K,blue,8,2,66.11,"",1374,"","","",""
581921,120,120,block_Testing,4,task_Testing,2,1,"","",12,7,"","",Block7,"","","","","","","","",J,Stim15,NR,6,"",0,J,red,12,2,66.67,"",1374,"","","",""
581921,121,121,block_Testing,4,task_Testing,2,1,"","",13,7,"","",Block7,"","","","","","","","",K,Stim13,LR,22,"",0,K,green,9,2,67.22,"",1374,"","","",""
581921,122,122,block_Testing,4,task_Testing,2,1,"","",14,7,"","",Block7,"","","","","","","","",J,Stim11,LR,39,"",0,J,green,8,2,67.78,"",1374,"","","",""
581921,123,123,block_Testing,4,task_Testing,2,1,"","",15,7,"","",Block7,"","","","","","","","",K,Stim16,NR,25,"",0,K,red,13,2,68.33,"",1374,"","","",""
581921,124,124,block_Testing,4,task_Testing,2,1,"","",16,7,"","",Block7,"","","","","","","","",K,Stim14,NR,29,"",0,K,red,11,2,68.89,"",1374,"","","",""
581921,125,125,block_Testing,4,task_Testing,2,1,"","",17,7,"","",Block7,"","","","","","","","",J,Stim14,NR,86,"",0,J,red,10,2,69.44,"",1374,"","","",""
581921,126,126,block_Testing,4,task_Testing,2,0,"","",18,7,"","",Block7,"","","","","","","","",K,Stim16,HR,54,"",0,J,blue,13,2,70,"",1374,"","","",""
581921,127,127,block_Testing,4,task_Testing,2,1,"","",1,8,"","",Block8,"","","","","","","","",K,Stim14,LR,57,"",0,K,green,11,2,70.56,"",1374,"","","",""
581921,128,128,block_Testing,4,task_Testing,2,1,"","",2,8,"","",Block8,"","","","","","","","",J,Stim12,LR,72,"",0,J,green,10,2,71.11,"",1374,"","","",""
581921,129,129,block_Testing,4,task_Testing,2,1,"","",3,8,"","",Block8,"","","","","","","","",J,Stim13,NR,59,"",0,J,red,8,2,71.67,"",1374,"","","",""
581921,130,130,block_Testing,4,task_Testing,2,1,"","",4,8,"","",Block8,"","","","","","","","",J,PreISI1,HR,58,"",0,J,blue,13,2,72.22,"",1374,"","","",""
581921,131,131,block_Testing,4,task_Testing,2,1,"","",5,8,"","",Block8,"","","","","","","","",K,Stim15,NR,79,"",0,K,red,11,2,72.78,"",1374,"","","",""
581921,132,132,block_Testing,4,task_Testing,2,1,"","",6,8,"","",Block8,"","","","","","","","",J,Stim14,LR,116,"",0,J,green,12,2,73.33,"",1374,"","","",""
581921,133,133,block_Testing,4,task_Testing,2,1,"","",7,8,"","",Block8,"","","","","","","","",K,Stim12,HR,100,"",0,K,blue,8,2,73.89,"",1374,"","","",""
581921,134,134,block_Testing,4,task_Testing,2,1,"","",8,8,"","",Block8,"","","","","","","","",J,Stim13,NR,15,"",0,J,red,10,2,74.44,"",1374,"","","",""
581921,135,135,block_Testing,4,task_Testing,2,1,"","",9,8,"","",Block8,"","","","","","","","",K,Stim12,LR,18,"",0,K,green,9,2,75,"",1374,"","","",""
581921,136,136,block_Testing,4,task_Testing,2,1,"","",10,8,"","",Block8,"","","","","","","","",K,Stim16,LR,117,"",0,K,green,13,2,75.56,"",1374,"","","",""
581921,137,137,block_Testing,4,task_Testing,2,1,"","",11,8,"","",Block8,"","","","","","","","",J,Stim15,NR,98,"",0,J,red,12,2,76.11,"",1374,"","","",""
581921,138,138,block_Testing,4,task_Testing,2,1,"","",12,8,"","",Block8,"","","","","","","","",J,Stim12,HR,80,"",0,J,blue,9,2,76.67,"",1374,"","","",""
581921,139,139,block_Testing,4,task_Testing,2,1,"","",13,8,"","",Block8,"","","","","","","","",K,Stim16,NR,16,"",0,K,red,13,2,77.22,"",1374,"","","",""
581921,140,140,block_Testing,4,task_Testing,2,1,"","",14,8,"","",Block8,"","","","","","","","",K,Stim16,HR,24,"",0,K,blue,12,2,77.78,"",1374,"","","",""
581921,141,141,block_Testing,4,task_Testing,2,1,"","",15,8,"","",Block8,"","","","","","","","",K,Stim13,HR,27,"",0,K,blue,10,2,78.33,"",1374,"","","",""
581921,142,142,block_Testing,4,task_Testing,2,1,"","",16,8,"","",Block8,"","","","","","","","",J,Stim14,HR,6,"",0,J,blue,11,2,78.89,"",1374,"","","",""
581921,143,143,block_Testing,4,task_Testing,2,1,"","",17,8,"","",Block8,"","","","","","","","",K,Stim11,NR,112,"",0,K,red,9,2,79.44,"",1374,"","","",""
581921,144,144,block_Testing,4,task_Testing,2,1,"","",18,8,"","",Block8,"","","","","","","","",J,Stim11,LR,15,"",0,J,green,8,2,80,"",1374,"","","",""
581921,145,145,block_Testing,4,task_Testing,2,1,"","",1,9,"","",Block9,"","","","","","","","",K,Stim11,HR,113,"",0,K,blue,8,2,80.56,"",1374,"","","",""
581921,146,146,block_Testing,4,task_Testing,2,0,"","",2,9,"","",Block9,"","","","","","","","",K,Stim15,LR,55,"",0,J,green,12,2,81.11,"",1374,"","","",""
581921,147,147,block_Testing,4,task_Testing,2,1,"","",3,9,"","",Block9,"","","","","","","","",J,Stim15,HR,95,"",0,J,blue,9,2,81.67,"",1374,"","","",""
581921,148,148,block_Testing,4,task_Testing,2,1,"","",4,9,"","",Block9,"","","","","","","","",K,Stim13,LR,97,"",0,K,green,11,2,82.22,"",1374,"","","",""
581921,149,149,block_Testing,4,task_Testing,2,1,"","",5,9,"","",Block9,"","","","","","","","",K,Stim12,NR,91,"",0,K,red,9,2,82.78,"",1374,"","","",""
581921,150,150,block_Testing,4,task_Testing,2,1,"","",6,9,"","",Block9,"","","","","","","","",J,Stim15,HR,77,"",0,J,blue,11,2,83.33,"",1374,"","","",""
581921,151,151,block_Testing,4,task_Testing,2,1,"","",7,9,"","",Block9,"","","","","","","","",J,Stim16,HR,114,"",0,J,blue,13,2,83.89,"",1374,"","","",""
581921,152,152,block_Testing,4,task_Testing,2,1,"","",8,9,"","",Block9,"","","","","","","","",K,Stim15,HR,80,"",0,K,blue,12,2,84.44,"",1374,"","","",""
581921,153,153,block_Testing,4,task_Testing,2,1,"","",9,9,"","",Block9,"","","","","","","","",K,Stim16,LR,55,"",0,K,green,13,2,85,"",1374,"","","",""
581921,154,154,block_Testing,4,task_Testing,2,1,"","",10,9,"","",Block9,"","","","","","","","",J,Stim12,NR,11,"",0,J,red,8,2,85.56,"",1374,"","","",""
581921,155,155,block_Testing,4,task_Testing,2,1,"","",11,9,"","",Block9,"","","","","","","","",J,Stim15,NR,96,"",0,J,red,12,2,86.11,"",1374,"","","",""
581921,156,156,block_Testing,4,task_Testing,2,1,"","",12,9,"","",Block9,"","","","","","","","",K,Stim13,HR,17,"",0,K,blue,10,2,86.67,"",1374,"","","",""
581921,157,157,block_Testing,4,task_Testing,2,1,"","",13,9,"","",Block9,"","","","","","","","",J,Stim14,LR,32,"",0,J,green,10,2,87.22,"",1374,"","","",""
581921,158,158,block_Testing,4,task_Testing,2,1,"","",14,9,"","",Block9,"","","","","","","","",K,Stim14,NR,1,"",0,K,red,11,2,87.78,"",1374,"","","",""
581921,159,159,block_Testing,4,task_Testing,2,1,"","",15,9,"","",Block9,"","","","","","","","",J,Stim12,LR,28,"",0,J,green,8,2,88.33,"",1374,"","","",""
581921,160,160,block_Testing,4,task_Testing,2,1,"","",16,9,"","",Block9,"","","","","","","","",K,Stim13,NR,76,"",0,K,red,13,2,88.89,"",1374,"","","",""
581921,161,161,block_Testing,4,task_Testing,2,1,"","",17,9,"","",Block9,"","","","","","","","",K,Stim13,LR,5,"",0,K,green,9,2,89.44,"",1374,"","","",""
581921,162,162,block_Testing,4,task_Testing,2,1,"","",18,9,"","",Block9,"","","","","","","","",J,Stim12,NR,95,"",0,J,red,10,2,90,"",1374,"","","",""
581921,163,163,block_Testing,4,task_Testing,2,1,"","",1,10,"","",Block10,"","","","","","","","",K,Stim14,LR,56,"",0,K,green,11,2,90.56,"",1374,"","","",""
581921,164,164,block_Testing,4,task_Testing,2,1,"","",2,10,"","",Block10,"","","","","","","","",J,Stim16,LR,6,"",0,J,green,12,2,91.11,"",1374,"","","",""
581921,165,165,block_Testing,4,task_Testing,2,1,"","",3,10,"","",Block10,"","","","","","","","",K,Stim11,LR,85,"",0,K,green,9,2,91.67,"",1374,"","","",""
581921,166,166,block_Testing,4,task_Testing,2,1,"","",4,10,"","",Block10,"","","","","","","","",K,Stim15,HR,1,"",0,K,blue,12,2,92.22,"",1374,"","","",""
581921,167,167,block_Testing,4,task_Testing,2,1,"","",5,10,"","",Block10,"","","","","","","","",J,Stim13,NR,75,"",0,J,red,10,2,92.78,"",1374,"","","",""
581921,168,168,block_Testing,4,task_Testing,2,1,"","",6,10,"","",Block10,"","","","","","","","",K,Stim16,NR,69,"",0,K,red,13,2,93.33,"",1374,"","","",""
581921,169,169,block_Testing,4,task_Testing,2,1,"","",7,10,"","",Block10,"","","","","","","","",J,Stim13,LR,64,"",0,J,green,10,2,93.89,"",1374,"","","",""
581921,170,170,block_Testing,4,task_Testing,2,1,"","",8,10,"","",Block10,"","","","","","","","",J,Stim12,NR,25,"",0,J,red,8,2,94.44,"",1374,"","","",""
581921,171,171,block_Testing,4,task_Testing,2,1,"","",9,10,"","",Block10,"","","","","","","","",J,Stim16,NR,67,"",0,J,red,12,2,95,"",1374,"","","",""
581921,172,172,block_Testing,4,task_Testing,2,1,"","",10,10,"","",Block10,"","","","","","","","",K,Stim11,NR,109,"",0,K,red,9,2,95.56,"",1374,"","","",""
581921,173,173,block_Testing,4,task_Testing,2,1,"","",11,10,"","",Block10,"","","","","","","","",J,Stim16,HR,82,"",0,J,blue,13,2,96.11,"",1374,"","","",""
581921,174,174,block_Testing,4,task_Testing,2,1,"","",12,10,"","",Block10,"","","","","","","","",K,Stim16,LR,43,"",0,K,green,13,2,96.67,"",1374,"","","",""
581921,175,175,block_Testing,4,task_Testing,2,1,"","",13,10,"","",Block10,"","","","","","","","",J,Stim16,HR,19,"",0,J,blue,11,2,97.22,"",1374,"","","",""
581921,176,176,block_Testing,4,task_Testing,2,1,"","",14,10,"","",Block10,"","","","","","","","",K,Stim14,HR,1,"",0,K,blue,10,2,97.78,"",1374,"","","",""
581921,177,177,block_Testing,4,task_Testing,2,1,"","",15,10,"","",Block10,"","","","","","","","",J,Stim11,LR,63,"",0,J,green,8,2,98.33,"",1374,"","","",""
581921,178,178,block_Testing,4,task_Testing,2,1,"","",16,10,"","",Block10,"","","","","","","","",K,Stim13,NR,120,"",0,K,red,11,2,98.89,"",1374,"","","",""
581921,179,179,block_Testing,4,task_Testing,2,1,"","",17,10,"","",Block10,"","","","","","","","",K,Stim12,HR,26,"",0,K,blue,8,2,99.44,"",1374,"","","",""
581921,180,180,block_Testing,4,task_Testing,2,1,"","",18,10,"","",Block10,"","","","","","","","",J,Stim12,HR,5,"",0,J,blue,9,2,100,"",1374,"","","",""
581921,1,1,block_End,5,task_Demog_End,1,"","",42,"",1,"","","",natalia5306@gmail.com,"","","","","","","","","","","",Female,"","","","","","","","","","","",""
