Rec_Session_Id,Trial_Nr,Trial_Id,Block_Name,Block_Nr,Task_Name,Task_Nr,ACC,ACC_Total_Prac,Age,BlkTrial_Nr,Condition_Id,Consent,copy_of_factor1_tg1_task2,factor1_tg1_task2,Feedback,RESP,RESP_Frame,Reward,RT_FromFramePress,Sex,Targ,TargCol,TargPos,TotalMoney,TotalPoints,TotalPoints_prac,Trial_Nr_prac
569409,1,1,block_TrngInstructions,1,task_Consent,1,"","","","",1,Yes,"","","","","","","","","","","","","","",""
569409,1,1,block_TrngInstructions,1,task_Trng_Instructions,2,"","","","",1,"","","","","","","","","","","","","","","",""
569409,1,1,block_Practice,2,task_GetReady,1,"","","","",1,"","","","","","","","","","","","","","","",""
569409,1,1,block_Practice,2,task_Trng_Prac,2,0,0,"","",1,"","","","",J,Fdbck,"",207,"",J,blue,12,"",0,0,""
569409,2,2,block_Practice,2,task_Trng_Prac,2,1,1,"","",1,"","","","",J,Stim2,"",85,"",J,blue,13,"",0,0,""
569409,3,3,block_Practice,2,task_Trng_Prac,2,0,1,"","",1,"","","","",J,trial_fix2,"",360,"",K,green,11,"",0,0,""
569409,4,4,block_Practice,2,task_Trng_Prac,2,0,1,"","",1,"","","","",J,trial_fix2,"",461,"",K,red,8,"",0,0,""
569409,5,5,block_Practice,2,task_Trng_Prac,2,1,2,"","",1,"","","","",K,trial_fix2,"",11,"",K,red,10,"",0,0,""
569409,6,6,block_Practice,2,task_Trng_Prac,2,0,0,"","",1,"","","","",J,Break,"",413,"",J,green,9,"",0,0,""
569409,1,1,block_Practice,2,task_GetReady,1,"","","","",1,"","","","","","","","","","","","","","","",""
569409,1,1,block_Practice,2,task_Trng_Prac,2,1,1,"","",1,"","","","",J,trial_fix2,"",295,"",J,blue,12,"",0,0,""
569409,2,2,block_Practice,2,task_Trng_Prac,2,1,2,"","",1,"","","","",K,trial_fix2,"",459,"",K,green,11,"",0,0,""
569409,3,3,block_Practice,2,task_Trng_Prac,2,0,2,"","",1,"","","","",J,trial_fix2,"",343,"",K,red,10,"",0,0,""
569409,4,4,block_Practice,2,task_Trng_Prac,2,0,2,"","",1,"","","","",K,trial_fix2,"",229,"",J,blue,13,"",0,0,""
569409,5,5,block_Practice,2,task_Trng_Prac,2,0,2,"","",1,"","","","",K,trial_fix2,"",586,"",J,green,9,"",0,0,""
569409,6,6,block_Practice,2,task_Trng_Prac,2,0,0,"","",1,"","","","",J,trial_fix2,"",216,"",K,red,8,"",0,0,""
569409,1,1,block_Practice,2,task_GetReady,1,"","","","",1,"","","","","","","","","","","","","","","",""
569409,1,1,block_Practice,2,task_Trng_Prac,2,1,1,"","",1,"","","","",K,trial_fix2,"",342,"",K,red,8,"",0,0,""
569409,2,2,block_Practice,2,task_Trng_Prac,2,1,2,"","",1,"","","","",K,Stim1,"",27,"",K,green,11,"",0,0,""
569409,3,3,block_Practice,2,task_Trng_Prac,2,0,2,"","",1,"","","","",J,trial_fix2,"",351,"",K,red,10,"",0,0,""
569409,4,4,block_Practice,2,task_Trng_Prac,2,0,2,"","",1,"","","","",K,trial_fix2,"",184,"",J,green,9,"",0,0,""
569409,5,5,block_Practice,2,task_Trng_Prac,2,0,2,"","",1,"","","","",K,trial_fix2,"",598,"",J,blue,12,"",0,0,""
569409,6,6,block_Practice,2,task_Trng_Prac,2,0,0,"","",1,"","","","",K,trial_fix2,"",622,"",J,blue,13,"",0,0,""
569409,1,1,block_Practice,2,task_GetReady,1,"","","","",1,"","","","","","","","","","","","","","","",""
569409,1,1,block_Practice,2,task_GetReady,1,"","","","",1,"","","","","","","","","","","","","","","",""
569409,1,1,block_Practice,2,task_Trng_Prac,2,0,0,"","",1,"","","","",J,trial_fix2,"",516,"",K,red,10,"",0,0,""
569409,2,2,block_Practice,2,task_Trng_Prac,2,0,0,"","",1,"","","","",K,Fdbck,"",315,"",J,green,9,"",0,0,""
569409,3,3,block_Practice,2,task_Trng_Prac,2,0,0,"","",1,"","","","",K,ISI,"",643,"",J,blue,12,"",0,0,""
569409,4,4,block_Practice,2,task_Trng_Prac,2,0,0,"","",1,"","","","",J,ISI,"",822,"",K,green,11,"",0,0,""
569409,5,5,block_Practice,2,task_Trng_Prac,2,0,0,"","",1,"","","","",J,ISI,"",627,"",K,red,8,"",0,0,""
569409,6,6,block_Practice,2,task_Trng_Prac,2,0,0,"","",1,"","","","",K,ISI,"",876,"",J,blue,13,"",0,0,""
569409,1,1,block_Practice,2,task_GetReady,1,"","","","",1,"","","","","","","","","","","","","","","",""
569409,1,1,block_Practice,2,task_Trng_Prac,2,0,0,"","",1,"","","","",K,trial_fix2,"",533,"",J,blue,13,"",0,0,""
569409,2,2,block_Practice,2,task_Trng_Prac,2,1,1,"","",1,"","","","",K,Stim3,"",88,"",K,red,8,"",0,0,""
569409,3,3,block_Practice,2,task_Trng_Prac,2,0,1,"","",1,"","","","",K,trial_fix2,"",409,"",J,blue,12,"",0,0,""
569409,4,4,block_Practice,2,task_Trng_Prac,2,1,2,"","",1,"","","","",J,trial_fix2,"",569,"",J,green,9,"",0,0,""
569409,5,5,block_Practice,2,task_Trng_Prac,2,1,3,"","",1,"","","","",K,trial_fix2,"",288,"",K,green,11,"",0,0,""
569409,6,6,block_Practice,2,task_Trng_Prac,2,1,4,"","",1,"","","","",K,trial_fix2,"",438,"",K,red,10,"",0,0,""
569409,1,1,block_Trng,3,task_GetReady,1,"","","","",1,"","","","","","","","","","","","","","","",""
569409,1,1,block_Practice,2,task_Trng_Prac,2,0,0,"","",1,"","","","",J,trial_fix2,"",622,"",K,red,8,"",0,0,""
569409,2,2,block_Practice,2,task_Trng_Prac,2,0,0,"","",1,"","","","",K,trial_fix2,"",139,"",J,blue,13,"",0,0,""
569409,3,3,block_Practice,2,task_Trng_Prac,2,0,0,"","",1,"","","","",J,trial_fix1,"",177,"",K,green,11,"",0,0,""
569409,4,4,block_Practice,2,task_Trng_Prac,2,1,1,"","",1,"","","","",K,trial_fix2,"",459,"",K,red,10,"",0,0,""
569409,5,5,block_Practice,2,task_Trng_Prac,2,1,2,"","",1,"","","","",J,trial_fix2,"",603,"",J,blue,12,"",0,0,""
569409,6,6,block_Practice,2,task_Trng_Prac,2,0,0,"","",1,"","","","",K,trial_fix2,"",314,"",J,green,9,"",0,0,""
569409,1,1,block_Trng,3,task_Trng,2,0,"","",1,1,"","",Block1,"",K,trial_fix2,HR,354,"",J,red,10,"",0,"",""
569409,2,2,block_Trng,3,task_Trng,2,0,"","",2,1,"","",Block1,"",K,ISI,LR,699,"",J,blue,9,"",0,"",""
569409,3,3,block_Trng,3,task_Trng,2,1,"","",3,1,"","",Block1,"",J,ISI,LR,681,"",J,blue,13,"",2,"",""
569409,4,4,block_Trng,3,task_Trng,2,0,"","",4,1,"","",Block1,"",J,Stim5,HR,12,"",K,red,9,"",2,"",""
569409,5,5,block_Trng,3,task_Trng,2,0,"","",5,1,"","",Block1,"",K,trial_fix2,NR,74,"",J,green,8,"",2,"",""
569409,6,6,block_Trng,3,task_Trng,2,0,"","",6,1,"","",Block1,"",K,trial_fix2,HR,442,"",J,red,8,"",2,"",""
569409,7,7,block_Trng,3,task_Trng,2,0,"","",7,1,"","",Block1,"",J,trial_fix2,LR,162,"",K,blue,10,"",2,"",""
569409,8,8,block_Trng,3,task_Trng,2,1,"","",8,1,"","",Block1,"",K,trial_fix2,NR,317,"",K,green,9,"",2,"",""
569409,9,9,block_Trng,3,task_Trng,2,0,"","",9,1,"","",Block1,"",J,trial_fix2,HR,246,"",K,red,11,"",2,"",""
569409,10,10,block_Trng,3,task_Trng,2,1,"","",10,1,"","",Block1,"",K,trial_fix2,NR,731,"",K,green,13,"",2,"",""
569409,11,11,block_Trng,3,task_Trng,2,0,"","",11,1,"","",Block1,"",K,Stim1,LR,63,"",J,blue,11,"",2,"",""
569409,12,12,block_Trng,3,task_Trng,2,0,"","",12,1,"","",Block1,"",J,trial_fix2,LR,186,"",K,blue,12,"",2,"",""
569409,13,13,block_Trng,3,task_Trng,2,0,"","",13,1,"","",Block1,"",K,Fdbck,HR,960,"",K,red,13,"",2,"",""
569409,14,14,block_Trng,3,task_Trng,2,0,"","",14,1,"","",Block1,"",K,ISI,NR,848,"",J,green,12,"",2,"",""
569409,15,15,block_Trng,3,task_Trng,2,0,"","",15,1,"","",Block1,"",J,Stim9,LR,29,"",K,blue,8,"",2,"",""
569409,16,16,block_Trng,3,task_Trng,2,1,"","",16,1,"","",Block1,"",K,trial_fix2,NR,217,"",K,green,11,"",2,"",""
569409,17,17,block_Trng,3,task_Trng,2,0,"","",17,1,"","",Block1,"",K,Stim5,HR,101,"",J,red,12,"",2,"",""
569409,18,18,block_Trng,3,task_Trng,2,1,"","",18,1,"","",Block1,"",J,trial_fix2,NR,257,"",J,green,10,"",2,"",""
569409,19,19,block_Trng,3,task_Trng,2,1,"","",1,2,"","",Block2,"",J,trial_fix1,HR,430,"",J,red,10,"",12,"",""
569409,20,20,block_Trng,3,task_Trng,2,0,"","",2,2,"","",Block2,"",K,Fdbck,LR,821,"",J,blue,9,"",12,"",""
569409,21,21,block_Trng,3,task_Trng,2,1,"","",3,2,"","",Block2,"",J,Stim5,LR,22,"",J,blue,13,"",14,"",""
569409,22,22,block_Trng,3,task_Trng,2,1,"","",4,2,"","",Block2,"",K,trial_fix2,HR,511,"",K,red,9,"",24,"",""
569409,23,23,block_Trng,3,task_Trng,2,0,"","",5,2,"","",Block2,"",K,trial_fix2,NR,512,"",J,green,8,"",24,"",""
569409,24,24,block_Trng,3,task_Trng,2,1,"","",6,2,"","",Block2,"",K,Fdbck,HR,742,"",J,red,8,"",34,"",""
569409,25,25,block_Trng,3,task_Trng,2,0,"","",7,2,"","",Block2,"","","",LR,0,"",K,blue,10,"",34,"",""
569409,26,26,block_Trng,3,task_Trng,2,0,"","",8,2,"","",Block2,"",J,Stim2,NR,63,"",K,green,9,"",34,"",""
569409,27,27,block_Trng,3,task_Trng,2,1,"","",9,2,"","",Block2,"",J,Fdbck,HR,986,"",K,red,11,"",44,"",""
569409,28,28,block_Trng,3,task_Trng,2,0,"","",10,2,"","",Block2,"",J,Stim2,NR,106,"",K,green,13,"",44,"",""
569409,29,29,block_Trng,3,task_Trng,2,0,"","",11,2,"","",Block2,"",K,Stim3,LR,91,"",J,blue,11,"",44,"",""
569409,30,30,block_Trng,3,task_Trng,2,0,"","",12,2,"","",Block2,"",J,trial_fix1,LR,329,"",K,blue,12,"",44,"",""
569409,31,31,block_Trng,3,task_Trng,2,1,"","",13,2,"","",Block2,"",K,trial_fix1,HR,257,"",K,red,13,"",54,"",""
569409,32,32,block_Trng,3,task_Trng,2,1,"","",14,2,"","",Block2,"",K,Fdbck,NR,1000,"",J,green,12,"",54,"",""
569409,33,33,block_Trng,3,task_Trng,2,1,"","",15,2,"","",Block2,"",K,trial_fix2,LR,490,"",K,blue,8,"",56,"",""
569409,34,34,block_Trng,3,task_Trng,2,0,"","",16,2,"","",Block2,"",J,trial_fix2,NR,486,"",K,green,11,"",56,"",""
569409,35,35,block_Trng,3,task_Trng,2,0,"","",17,2,"","",Block2,"",K,trial_fix2,HR,733,"",J,red,12,"",56,"",""
569409,36,36,block_Trng,3,task_Trng,2,1,"","",18,2,"","",Block2,"",J,trial_fix2,NR,452,"",J,green,10,"",56,"",""
569409,37,37,block_Trng,3,task_Trng,2,0,"","",1,3,"","",Block3,"",K,Stim1,HR,61,"",J,red,10,"",56,"",""
569409,38,38,block_Trng,3,task_Trng,2,0,"","",2,3,"","",Block3,"","","",LR,0,"",J,blue,9,"",56,"",""
569409,39,39,block_Trng,3,task_Trng,2,0,"","",3,3,"","",Block3,"","","",LR,0,"",J,blue,13,"",56,"",""
569409,40,40,block_Trng,3,task_Trng,2,0,"","",4,3,"","",Block3,"",K,Fdbck,HR,869,"",K,red,9,"",56,"",""
569409,41,41,block_Trng,3,task_Trng,2,0,"","",5,3,"","",Block3,"",J,Fdbck,NR,814,"",J,green,8,"",56,"",""
569409,42,42,block_Trng,3,task_Trng,2,1,"","",6,3,"","",Block3,"",K,Fdbck,HR,884,"",J,red,8,"",66,"",""
569409,43,43,block_Trng,3,task_Trng,2,0,"","",7,3,"","",Block3,"",J,Fdbck,LR,78,"",K,blue,10,"",66,"",""
569409,44,44,block_Trng,3,task_Trng,2,1,"","",8,3,"","",Block3,"",K,Fdbck,NR,11,"",K,green,9,"",66,"",""
569409,45,45,block_Trng,3,task_Trng,2,0,"","",9,3,"","",Block3,"",J,Fdbck,HR,321,"",K,red,11,"",66,"",""
569409,46,46,block_Trng,3,task_Trng,2,1,"","",10,3,"","",Block3,"",K,Fdbck,NR,7,"",K,green,13,"",66,"",""
569409,47,47,block_Trng,3,task_Trng,2,0,"","",11,3,"","",Block3,"",J,Fdbck,LR,836,"",J,blue,11,"",66,"",""
569409,48,48,block_Trng,3,task_Trng,2,0,"","",12,3,"","",Block3,"",K,Fdbck,LR,193,"",K,blue,12,"",66,"",""
569409,49,49,block_Trng,3,task_Trng,2,0,"","",13,3,"","",Block3,"",J,Fdbck,HR,3,"",K,red,13,"",66,"",""
569409,50,50,block_Trng,3,task_Trng,2,0,"","",14,3,"","",Block3,"",K,ISI,NR,772,"",J,green,12,"",66,"",""
569409,51,51,block_Trng,3,task_Trng,2,0,"","",15,3,"","",Block3,"",J,ISI,LR,779,"",K,blue,8,"",66,"",""
569409,52,52,block_Trng,3,task_Trng,2,0,"","",16,3,"","",Block3,"",J,ISI,NR,801,"",K,green,11,"",66,"",""
569409,53,53,block_Trng,3,task_Trng,2,1,"","",17,3,"","",Block3,"",J,trial_fix2,HR,507,"",J,red,12,"",76,"",""
569409,54,54,block_Trng,3,task_Trng,2,0,"","",18,3,"","",Block3,"",K,Fdbck,NR,943,"",J,green,10,"",76,"",""
569409,55,55,block_Trng,3,task_Trng,2,0,"","",1,4,"","",Block4,"",J,Fdbck,HR,277,"",J,red,10,"",76,"",""
569409,56,56,block_Trng,3,task_Trng,2,0,"","",2,4,"","",Block4,"",K,ISI,LR,700,"",J,blue,9,"",76,"",""
569409,57,57,block_Trng,3,task_Trng,2,1,"","",3,4,"","",Block4,"",J,ISI,LR,121,"",J,blue,13,"",78,"",""
569409,58,58,block_Trng,3,task_Trng,2,0,"","",4,4,"","",Block4,"",J,Stim10,HR,85,"",K,red,9,"",78,"",""
569409,59,59,block_Trng,3,task_Trng,2,0,"","",5,4,"","",Block4,"",K,Stim9,NR,53,"",J,green,8,"",78,"",""
569409,60,60,block_Trng,3,task_Trng,2,1,"","",6,4,"","",Block4,"",J,Stim5,HR,48,"",J,red,8,"",88,"",""
569409,61,61,block_Trng,3,task_Trng,2,0,"","",7,4,"","",Block4,"",J,Stim11,LR,88,"",K,blue,10,"",88,"",""
569409,62,62,block_Trng,3,task_Trng,2,1,"","",8,4,"","",Block4,"",K,Stim3,NR,10,"",K,green,9,"",88,"",""
569409,63,63,block_Trng,3,task_Trng,2,0,"","",9,4,"","",Block4,"",J,trial_fix2,HR,648,"",K,red,11,"",88,"",""
569409,64,64,block_Trng,3,task_Trng,2,1,"","",10,4,"","",Block4,"",K,ISI,NR,28,"",K,green,13,"",88,"",""
569409,65,65,block_Trng,3,task_Trng,2,1,"","",11,4,"","",Block4,"",J,ISI,LR,864,"",J,blue,11,"",90,"",""
569409,66,66,block_Trng,3,task_Trng,2,0,"","",12,4,"","",Block4,"",J,ISI,LR,643,"",K,blue,12,"",90,"",""
569409,67,67,block_Trng,3,task_Trng,2,0,"","",13,4,"","",Block4,"",J,ISI,HR,452,"",K,red,13,"",90,"",""
569409,68,68,block_Trng,3,task_Trng,2,1,"","",14,4,"","",Block4,"",J,Stim16,NR,94,"",J,green,12,"",90,"",""
569409,69,69,block_Trng,3,task_Trng,2,1,"","",15,4,"","",Block4,"",K,Stim13,LR,51,"",K,blue,8,"",92,"",""
569409,70,70,block_Trng,3,task_Trng,2,0,"","",16,4,"","",Block4,"",J,Stim12,NR,88,"",K,green,11,"",92,"",""
569409,71,71,block_Trng,3,task_Trng,2,0,"","",17,4,"","",Block4,"",K,ISI,HR,4,"",J,red,12,"",92,"",""
569409,72,72,block_Trng,3,task_Trng,2,1,"","",18,4,"","",Block4,"",J,Stim11,NR,16,"",J,green,10,"",92,"",""
569409,73,73,block_Trng,3,task_Trng,2,0,"","",1,5,"","",Block5,"",K,Stim11,HR,82,"",J,red,10,"",92,"",""
569409,74,74,block_Trng,3,task_Trng,2,1,"","",2,5,"","",Block5,"",J,Stim9,LR,91,"",J,blue,9,"",94,"",""
569409,75,75,block_Trng,3,task_Trng,2,1,"","",3,5,"","",Block5,"",J,Stim11,LR,77,"",J,blue,13,"",96,"",""
569409,76,76,block_Trng,3,task_Trng,2,0,"","",4,5,"","",Block5,"",J,Stim14,HR,4,"",K,red,9,"",96,"",""
569409,77,77,block_Trng,3,task_Trng,2,0,"","",5,5,"","",Block5,"",K,Stim13,NR,10,"",J,green,8,"",96,"",""
569409,78,78,block_Trng,3,task_Trng,2,1,"","",6,5,"","",Block5,"",J,Stim3,HR,86,"",J,red,8,"",106,"",""
569409,79,79,block_Trng,3,task_Trng,2,0,"","",7,5,"","",Block5,"",J,Stim14,LR,48,"",K,blue,10,"",106,"",""
569409,80,80,block_Trng,3,task_Trng,2,1,"","",8,5,"","",Block5,"",K,Stim12,NR,86,"",K,green,9,"",106,"",""
569409,81,81,block_Trng,3,task_Trng,2,0,"","",9,5,"","",Block5,"",J,Stim13,HR,10,"",K,red,11,"",106,"",""
569409,82,82,block_Trng,3,task_Trng,2,1,"","",10,5,"","",Block5,"",K,Stim8,NR,84,"",K,green,13,"",106,"",""
569409,83,83,block_Trng,3,task_Trng,2,1,"","",11,5,"","",Block5,"",J,Stim9,LR,6,"",J,blue,11,"",108,"",""
569409,84,84,block_Trng,3,task_Trng,2,0,"","",12,5,"","",Block5,"",J,Stim8,LR,98,"",K,blue,12,"",108,"",""
569409,85,85,block_Trng,3,task_Trng,2,1,"","",13,5,"","",Block5,"",K,trial_fix2,HR,437,"",K,red,13,"",118,"",""
569409,86,86,block_Trng,3,task_Trng,2,0,"","",14,5,"","",Block5,"",K,trial_fix2,NR,193,"",J,green,12,"",118,"",""
569409,87,87,block_Trng,3,task_Trng,2,0,"","",15,5,"","",Block5,"",K,Fdbck,LR,727,"",K,blue,8,"",118,"",""
569409,88,88,block_Trng,3,task_Trng,2,0,"","",16,5,"","",Block5,"",J,ISI,NR,901,"",K,green,11,"",118,"",""
569409,89,89,block_Trng,3,task_Trng,2,0,"","",17,5,"","",Block5,"",K,Stim3,HR,17,"",J,red,12,"",118,"",""
569409,90,90,block_Trng,3,task_Trng,2,0,"","",18,5,"","",Block5,"",K,Stim8,NR,17,"",J,green,10,"",118,"",""
569409,91,91,block_Trng,3,task_Trng,2,1,"","",1,6,"","",Block6,"",J,Stim3,HR,43,"",J,red,10,"",128,"",""
569409,92,92,block_Trng,3,task_Trng,2,1,"","",2,6,"","",Block6,"",J,Fdbck,LR,908,"",J,blue,9,"",130,"",""
569409,93,93,block_Trng,3,task_Trng,2,1,"","",3,6,"","",Block6,"",J,Fdbck,LR,562,"",J,blue,13,"",132,"",""
569409,94,94,block_Trng,3,task_Trng,2,0,"","",4,6,"","",Block6,"",J,ISI,HR,552,"",K,red,9,"",132,"",""
569409,95,95,block_Trng,3,task_Trng,2,0,"","",5,6,"","",Block6,"",J,Fdbck,NR,921,"",J,green,8,"",132,"",""
569409,96,96,block_Trng,3,task_Trng,2,0,"","",6,6,"","",Block6,"",K,Stim12,HR,114,"",J,red,8,"",132,"",""
569409,97,97,block_Trng,3,task_Trng,2,0,"","",7,6,"","",Block6,"",K,Fdbck,LR,650,"",K,blue,10,"",132,"",""
569409,98,98,block_Trng,3,task_Trng,2,0,"","",8,6,"","",Block6,"",J,trial_fix2,NR,354,"",K,green,9,"",132,"",""
569409,99,99,block_Trng,3,task_Trng,2,0,"","",9,6,"","",Block6,"",J,Stim7,HR,44,"",K,red,11,"",132,"",""
569409,100,100,block_Trng,3,task_Trng,2,1,"","",10,6,"","",Block6,"",K,Stim8,NR,28,"",K,green,13,"",132,"",""
569409,101,101,block_Trng,3,task_Trng,2,1,"","",11,6,"","",Block6,"",K,Fdbck,LR,242,"",J,blue,11,"",134,"",""
569409,102,102,block_Trng,3,task_Trng,2,0,"","",12,6,"","",Block6,"",J,trial_fix2,LR,529,"",K,blue,12,"",134,"",""
569409,103,103,block_Trng,3,task_Trng,2,0,"","",13,6,"","",Block6,"",J,Fdbck,HR,968,"",K,red,13,"",134,"",""
569409,104,104,block_Trng,3,task_Trng,2,1,"","",14,6,"","",Block6,"",J,ISI,NR,429,"",J,green,12,"",134,"",""
569409,105,105,block_Trng,3,task_Trng,2,0,"","",15,6,"","",Block6,"",J,Stim14,LR,14,"",K,blue,8,"",134,"",""
569409,106,106,block_Trng,3,task_Trng,2,0,"","",16,6,"","",Block6,"",J,trial_fix2,NR,569,"",K,green,11,"",134,"",""
569409,107,107,block_Trng,3,task_Trng,2,0,"","",17,6,"","",Block6,"",J,Fdbck,HR,696,"",J,red,12,"",134,"",""
569409,108,108,block_Trng,3,task_Trng,2,1,"","",18,6,"","",Block6,"",J,Stim3,NR,35,"",J,green,10,"",134,"",""
569409,109,109,block_Trng,3,task_Trng,2,0,"","",1,7,"","",Block7,"",J,Fdbck,HR,825,"",J,red,10,"",134,"",""
569409,110,110,block_Trng,3,task_Trng,2,1,"","",2,7,"","",Block7,"",K,Fdbck,LR,8,"",J,blue,9,"",136,"",""
569409,111,111,block_Trng,3,task_Trng,2,0,"","",3,7,"","",Block7,"",K,Stim16,LR,6,"",J,blue,13,"",136,"",""
569409,112,112,block_Trng,3,task_Trng,2,0,"","",4,7,"","",Block7,"",J,ISI,HR,106,"",K,red,9,"",136,"",""
569409,113,113,block_Trng,3,task_Trng,2,0,"","",5,7,"","",Block7,"",K,Stim4,NR,92,"",J,green,8,"",136,"",""
569409,114,114,block_Trng,3,task_Trng,2,1,"","",6,7,"","",Block7,"",J,Stim2,HR,54,"",J,red,8,"",146,"",""
569409,115,115,block_Trng,3,task_Trng,2,1,"","",7,7,"","",Block7,"",K,trial_fix1,LR,401,"",K,blue,10,"",148,"",""
569409,116,116,block_Trng,3,task_Trng,2,0,"","",8,7,"","",Block7,"",K,Fdbck,NR,935,"",K,green,9,"",148,"",""
569409,117,117,block_Trng,3,task_Trng,2,1,"","",9,7,"","",Block7,"",K,trial_fix1,HR,451,"",K,red,11,"",158,"",""
569409,118,118,block_Trng,3,task_Trng,2,0,"","",10,7,"","",Block7,"",J,Fdbck,NR,794,"",K,green,13,"",158,"",""
569409,119,119,block_Trng,3,task_Trng,2,1,"","",11,7,"","",Block7,"",J,Fdbck,LR,802,"",J,blue,11,"",160,"",""
569409,120,120,block_Trng,3,task_Trng,2,0,"","",12,7,"","",Block7,"",J,Fdbck,LR,78,"",K,blue,12,"",160,"",""
569409,121,121,block_Trng,3,task_Trng,2,1,"","",13,7,"","",Block7,"",K,Stim15,HR,26,"",K,red,13,"",170,"",""
569409,122,122,block_Trng,3,task_Trng,2,1,"","",14,7,"","",Block7,"",J,Fdbck,NR,947,"",J,green,12,"",170,"",""
569409,123,123,block_Trng,3,task_Trng,2,0,"","",15,7,"","",Block7,"",J,trial_fix2,LR,101,"",K,blue,8,"",170,"",""
569409,124,124,block_Trng,3,task_Trng,2,1,"","",16,7,"","",Block7,"",K,ISI,NR,380,"",K,green,11,"",170,"",""
569409,125,125,block_Trng,3,task_Trng,2,1,"","",17,7,"","",Block7,"",J,Stim5,HR,25,"",J,red,12,"",180,"",""
569409,126,126,block_Trng,3,task_Trng,2,0,"","",18,7,"","",Block7,"",K,Stim5,NR,54,"",J,green,10,"",180,"",""
569409,127,127,block_Trng,3,task_Trng,2,1,"","",1,8,"","",Block8,"",J,Fdbck,HR,687,"",J,red,10,"",190,"",""
569409,128,128,block_Trng,3,task_Trng,2,1,"","",2,8,"","",Block8,"",J,Fdbck,LR,863,"",J,blue,9,"",192,"",""
569409,129,129,block_Trng,3,task_Trng,2,1,"","",3,8,"","",Block8,"",J,Stim5,LR,41,"",J,blue,13,"",194,"",""
569409,130,130,block_Trng,3,task_Trng,2,0,"","",4,8,"","",Block8,"",J,Stim1,HR,24,"",K,red,9,"",194,"",""
569409,131,131,block_Trng,3,task_Trng,2,0,"","",5,8,"","",Block8,"",K,trial_fix1,NR,212,"",J,green,8,"",194,"",""
569409,132,132,block_Trng,3,task_Trng,2,0,"","",6,8,"","",Block8,"",J,Fdbck,HR,977,"",J,red,8,"",194,"",""
569409,133,133,block_Trng,3,task_Trng,2,0,"","",7,8,"","",Block8,"",J,Fdbck,LR,746,"",K,blue,10,"",194,"",""
569409,134,134,block_Trng,3,task_Trng,2,0,"","",8,8,"","",Block8,"",J,Fdbck,NR,807,"",K,green,9,"",194,"",""
569409,135,135,block_Trng,3,task_Trng,2,0,"","",9,8,"","",Block8,"",K,Fdbck,HR,919,"",K,red,11,"",194,"",""
569409,136,136,block_Trng,3,task_Trng,2,1,"","",10,8,"","",Block8,"",K,trial_fix2,NR,245,"",K,green,13,"",194,"",""
569409,137,137,block_Trng,3,task_Trng,2,0,"","",11,8,"","",Block8,"",K,trial_fix2,LR,208,"",J,blue,11,"",194,"",""
569409,138,138,block_Trng,3,task_Trng,2,1,"","",12,8,"","",Block8,"",K,trial_fix2,LR,325,"",K,blue,12,"",196,"",""
569409,139,139,block_Trng,3,task_Trng,2,1,"","",13,8,"","",Block8,"",K,trial_fix2,HR,351,"",K,red,13,"",206,"",""
569409,140,140,block_Trng,3,task_Trng,2,0,"","",14,8,"","",Block8,"",K,Stim1,NR,14,"",J,green,12,"",206,"",""
569409,141,141,block_Trng,3,task_Trng,2,1,"","",15,8,"","",Block8,"",K,trial_fix2,LR,155,"",K,blue,8,"",208,"",""
569409,142,142,block_Trng,3,task_Trng,2,0,"","",16,8,"","",Block8,"",J,trial_fix2,NR,357,"",K,green,11,"",208,"",""
569409,143,143,block_Trng,3,task_Trng,2,0,"","",17,8,"","",Block8,"",K,trial_fix2,HR,474,"",J,red,12,"",208,"",""
569409,144,144,block_Trng,3,task_Trng,2,0,"","",18,8,"","",Block8,"",J,Fdbck,NR,692,"",J,green,10,"",208,"",""
569409,145,145,block_Trng,3,task_Trng,2,1,"","",1,9,"","",Block9,"",J,Stim1,HR,78,"",J,red,10,"",218,"",""
569409,146,146,block_Trng,3,task_Trng,2,1,"","",2,9,"","",Block9,"",J,ISI,LR,924,"",J,blue,9,"",220,"",""
569409,147,147,block_Trng,3,task_Trng,2,1,"","",3,9,"","",Block9,"",J,ISI,LR,666,"",J,blue,13,"",222,"",""
569409,148,148,block_Trng,3,task_Trng,2,0,"","",4,9,"","",Block9,"",J,Stim8,HR,103,"",K,red,9,"",222,"",""
569409,149,149,block_Trng,3,task_Trng,2,0,"","",5,9,"","",Block9,"",K,trial_fix2,NR,367,"",J,green,8,"",222,"",""
569409,150,150,block_Trng,3,task_Trng,2,0,"","",6,9,"","",Block9,"",K,trial_fix2,HR,458,"",J,red,8,"",222,"",""
569409,151,151,block_Trng,3,task_Trng,2,0,"","",7,9,"","",Block9,"",J,Stim4,LR,40,"",K,blue,10,"",222,"",""
569409,152,152,block_Trng,3,task_Trng,2,0,"","",8,9,"","",Block9,"","","",NR,0,"",K,green,9,"",222,"",""
569409,153,153,block_Trng,3,task_Trng,2,1,"","",9,9,"","",Block9,"",K,trial_fix1,HR,382,"",K,red,11,"",232,"",""
569409,154,154,block_Trng,3,task_Trng,2,0,"","",10,9,"","",Block9,"",J,trial_fix2,NR,453,"",K,green,13,"",232,"",""
569409,155,155,block_Trng,3,task_Trng,2,1,"","",11,9,"","",Block9,"",J,trial_fix2,LR,570,"",J,blue,11,"",234,"",""
569409,156,156,block_Trng,3,task_Trng,2,1,"","",12,9,"","",Block9,"",K,trial_fix2,LR,395,"",K,blue,12,"",236,"",""
569409,157,157,block_Trng,3,task_Trng,2,0,"","",13,9,"","",Block9,"",J,Fdbck,HR,946,"",K,red,13,"",236,"",""
569409,158,158,block_Trng,3,task_Trng,2,1,"","",14,9,"","",Block9,"",J,Fdbck,NR,633,"",J,green,12,"",236,"",""
569409,159,159,block_Trng,3,task_Trng,2,0,"","",15,9,"","",Block9,"",J,trial_fix2,LR,122,"",K,blue,8,"",236,"",""
569409,160,160,block_Trng,3,task_Trng,2,0,"","",16,9,"","",Block9,"",J,Stim15,NR,103,"",K,green,11,"",236,"",""
569409,161,161,block_Trng,3,task_Trng,2,0,"","",17,9,"","",Block9,"",K,ISI,HR,289,"",J,red,12,"",236,"",""
569409,162,162,block_Trng,3,task_Trng,2,1,"","",18,9,"","",Block9,"",J,Stim8,NR,30,"",J,green,10,"",236,"",""
569409,163,163,block_Trng,3,task_Trng,2,1,"","",1,10,"","",Block10,"",J,Stim15,HR,89,"",J,red,10,"",246,"",""
569409,164,164,block_Trng,3,task_Trng,2,0,"","",2,10,"","",Block10,"",K,Stim14,LR,6,"",J,blue,9,"",246,"",""
569409,165,165,block_Trng,3,task_Trng,2,1,"","",3,10,"","",Block10,"",J,trial_fix2,LR,515,"",J,blue,13,"",248,"",""
569409,166,166,block_Trng,3,task_Trng,2,0,"","",4,10,"","",Block10,"",K,Fdbck,HR,824,"",K,red,9,"",248,"",""
569409,167,167,block_Trng,3,task_Trng,2,0,"","",5,10,"","",Block10,"",K,trial_fix2,NR,104,"",J,green,8,"",248,"",""
569409,168,168,block_Trng,3,task_Trng,2,1,"","",6,10,"","",Block10,"",J,trial_fix2,HR,176,"",J,red,8,"",258,"",""
569409,169,169,block_Trng,3,task_Trng,2,0,"","",7,10,"","",Block10,"",J,Stim7,LR,126,"",K,blue,10,"",258,"",""
569409,170,170,block_Trng,3,task_Trng,2,0,"","",8,10,"","",Block10,"",J,Fdbck,NR,956,"",K,green,9,"",258,"",""
569409,171,171,block_Trng,3,task_Trng,2,1,"","",9,10,"","",Block10,"",K,trial_fix2,HR,366,"",K,red,11,"",268,"",""
569409,172,172,block_Trng,3,task_Trng,2,1,"","",10,10,"","",Block10,"",K,trial_fix2,NR,409,"",K,green,13,"",268,"",""
569409,173,173,block_Trng,3,task_Trng,2,0,"","",11,10,"","",Block10,"",K,Stim8,LR,107,"",J,blue,11,"",268,"",""
569409,174,174,block_Trng,3,task_Trng,2,1,"","",12,10,"","",Block10,"",K,Stim5,LR,78,"",K,blue,12,"",270,"",""
569409,175,175,block_Trng,3,task_Trng,2,1,"","",13,10,"","",Block10,"",K,Stim6,HR,71,"",K,red,13,"",280,"",""
569409,176,176,block_Trng,3,task_Trng,2,1,"","",14,10,"","",Block10,"",J,Stim2,NR,107,"",J,green,12,"",280,"",""
569409,177,177,block_Trng,3,task_Trng,2,1,"","",15,10,"","",Block10,"",K,trial_fix1,LR,500,"",K,blue,8,"",282,"",""
569409,178,178,block_Trng,3,task_Trng,2,0,"","",16,10,"","",Block10,"",J,trial_fix2,NR,195,"",K,green,11,"",282,"",""
569409,179,179,block_Trng,3,task_Trng,2,0,"","",17,10,"","",Block10,"",K,Stim15,HR,79,"",J,red,12,"",282,"",""
569409,180,180,block_Trng,3,task_Trng,2,1,"","",18,10,"","",Block10,"",J,Stim8,NR,81,"",J,green,10,"",282,"",""
569409,181,181,block_Trng,3,task_Trng,2,0,"","",1,11,"","",Block11,"",K,Stim4,HR,104,"",J,red,10,"",282,"",""
569409,182,182,block_Trng,3,task_Trng,2,1,"","",2,11,"","",Block11,"",J,trial_fix2,LR,502,"",J,blue,9,"",284,"",""
569409,183,183,block_Trng,3,task_Trng,2,0,"","",3,11,"","",Block11,"",K,Stim5,LR,102,"",J,blue,13,"",284,"",""
569409,184,184,block_Trng,3,task_Trng,2,0,"","",4,11,"","",Block11,"",J,Fdbck,HR,735,"",K,red,9,"",284,"",""
569409,185,185,block_Trng,3,task_Trng,2,1,"","",5,11,"","",Block11,"",K,Fdbck,NR,622,"",J,green,8,"",284,"",""
569409,186,186,block_Trng,3,task_Trng,2,0,"","",6,11,"","",Block11,"",K,Fdbck,HR,736,"",J,red,8,"",284,"",""
569409,187,187,block_Trng,3,task_Trng,2,1,"","",7,11,"","",Block11,"",J,Fdbck,LR,516,"",K,blue,10,"",286,"",""
569409,188,188,block_Trng,3,task_Trng,2,0,"","",8,11,"","",Block11,"",J,Fdbck,NR,751,"",K,green,9,"",286,"",""
569409,189,189,block_Trng,3,task_Trng,2,1,"","",9,11,"","",Block11,"",K,Fdbck,HR,275,"",K,red,11,"",296,"",""
569409,190,190,block_Trng,3,task_Trng,2,1,"","",10,11,"","",Block11,"",J,Fdbck,NR,581,"",K,green,13,"",296,"",""
569409,191,191,block_Trng,3,task_Trng,2,1,"","",11,11,"","",Block11,"",J,trial_fix2,LR,277,"",J,blue,11,"",298,"",""
569409,192,192,block_Trng,3,task_Trng,2,1,"","",12,11,"","",Block11,"",K,Stim6,LR,35,"",K,blue,12,"",300,"",""
569409,193,193,block_Trng,3,task_Trng,2,0,"","",13,11,"","",Block11,"",J,Stim15,HR,115,"",K,red,13,"",300,"",""
569409,194,194,block_Trng,3,task_Trng,2,0,"","",14,11,"","",Block11,"",K,Stim13,NR,56,"",J,green,12,"",300,"",""
569409,195,195,block_Trng,3,task_Trng,2,0,"","",15,11,"","",Block11,"",J,Stim6,LR,96,"",K,blue,8,"",300,"",""
569409,196,196,block_Trng,3,task_Trng,2,1,"","",16,11,"","",Block11,"",K,Stim8,NR,48,"",K,green,11,"",300,"",""
569409,197,197,block_Trng,3,task_Trng,2,1,"","",17,11,"","",Block11,"",J,trial_fix2,HR,725,"",J,red,12,"",310,"",""
569409,198,198,block_Trng,3,task_Trng,2,1,"","",18,11,"","",Block11,"",K,Fdbck,NR,85,"",J,green,10,"",310,"",""
569409,199,199,block_Trng,3,task_Trng,2,1,"","",1,12,"","",Block12,"",J,Stim11,HR,93,"",J,red,10,"",320,"",""
569409,200,200,block_Trng,3,task_Trng,2,0,"","",2,12,"","",Block12,"",K,Stim14,LR,7,"",J,blue,9,"",320,"",""
569409,201,201,block_Trng,3,task_Trng,2,1,"","",3,12,"","",Block12,"",J,Stim8,LR,17,"",J,blue,13,"",322,"",""
569409,202,202,block_Trng,3,task_Trng,2,1,"","",4,12,"","",Block12,"",K,Stim5,HR,53,"",K,red,9,"",332,"",""
569409,203,203,block_Trng,3,task_Trng,2,1,"","",5,12,"","",Block12,"",J,trial_fix2,NR,322,"",J,green,8,"",332,"",""
569409,204,204,block_Trng,3,task_Trng,2,0,"","",6,12,"","",Block12,"",K,trial_fix1,HR,449,"",J,red,8,"",332,"",""
569409,205,205,block_Trng,3,task_Trng,2,1,"","",7,12,"","",Block12,"",K,Fdbck,LR,818,"",K,blue,10,"",334,"",""
569409,206,206,block_Trng,3,task_Trng,2,1,"","",8,12,"","",Block12,"",J,Fdbck,NR,609,"",K,green,9,"",334,"",""
569409,207,207,block_Trng,3,task_Trng,2,0,"","",9,12,"","",Block12,"",J,trial_fix1,HR,409,"",K,red,11,"",334,"",""
569409,208,208,block_Trng,3,task_Trng,2,0,"","",10,12,"","",Block12,"",J,trial_fix2,NR,342,"",K,green,13,"",334,"",""
569409,209,209,block_Trng,3,task_Trng,2,0,"","",11,12,"","",Block12,"",J,Fdbck,LR,383,"",J,blue,11,"",334,"",""
569409,210,210,block_Trng,3,task_Trng,2,0,"","",12,12,"","",Block12,"",K,Fdbck,LR,831,"",K,blue,12,"",334,"",""
569409,211,211,block_Trng,3,task_Trng,2,0,"","",13,12,"","",Block12,"",J,Fdbck,HR,610,"",K,red,13,"",334,"",""
569409,212,212,block_Trng,3,task_Trng,2,0,"","",14,12,"","",Block12,"",K,trial_fix2,NR,89,"",J,green,12,"",334,"",""
569409,213,213,block_Trng,3,task_Trng,2,1,"","",15,12,"","",Block12,"",J,Fdbck,LR,512,"",K,blue,8,"",336,"",""
569409,214,214,block_Trng,3,task_Trng,2,0,"","",16,12,"","",Block12,"",K,Fdbck,NR,438,"",K,green,11,"",336,"",""
569409,215,215,block_Trng,3,task_Trng,2,0,"","",17,12,"","",Block12,"",K,Fdbck,HR,658,"",J,red,12,"",336,"",""
569409,216,216,block_Trng,3,task_Trng,2,0,"","",18,12,"","",Block12,"",K,trial_fix2,NR,41,"",J,green,10,"",336,"",""
569409,217,217,block_Trng,3,task_Trng,2,1,"","",1,13,"","",Block13,"",J,Stim6,HR,60,"",J,red,10,"",346,"",""
569409,218,218,block_Trng,3,task_Trng,2,1,"","",2,13,"","",Block13,"",J,Stim2,LR,82,"",J,blue,9,"",348,"",""
569409,219,219,block_Trng,3,task_Trng,2,1,"","",3,13,"","",Block13,"",J,trial_fix2,LR,289,"",J,blue,13,"",350,"",""
569409,220,220,block_Trng,3,task_Trng,2,0,"","",4,13,"","",Block13,"",J,Fdbck,HR,657,"",K,red,9,"",350,"",""
569409,221,221,block_Trng,3,task_Trng,2,1,"","",5,13,"","",Block13,"",J,trial_fix2,NR,118,"",J,green,8,"",350,"",""
569409,222,222,block_Trng,3,task_Trng,2,0,"","",6,13,"","",Block13,"",K,trial_fix2,HR,49,"",J,red,8,"",350,"",""
569409,223,223,block_Trng,3,task_Trng,2,1,"","",7,13,"","",Block13,"",K,trial_fix2,LR,186,"",K,blue,10,"",352,"",""
569409,224,224,block_Trng,3,task_Trng,2,1,"","",8,13,"","",Block13,"",K,trial_fix2,NR,140,"",K,green,9,"",352,"",""
569409,225,225,block_Trng,3,task_Trng,2,1,"","",9,13,"","",Block13,"",K,Stim14,HR,37,"",K,red,11,"",362,"",""
569409,226,226,block_Trng,3,task_Trng,2,1,"","",10,13,"","",Block13,"",K,Stim5,NR,114,"",K,green,13,"",362,"",""
569409,227,227,block_Trng,3,task_Trng,2,0,"","",11,13,"","",Block13,"",J,Fdbck,LR,547,"",J,blue,11,"",362,"",""
569409,228,228,block_Trng,3,task_Trng,2,0,"","",12,13,"","",Block13,"",J,Fdbck,LR,804,"",K,blue,12,"",362,"",""
569409,229,229,block_Trng,3,task_Trng,2,0,"","",13,13,"","",Block13,"",J,Fdbck,HR,681,"",K,red,13,"",362,"",""
569409,230,230,block_Trng,3,task_Trng,2,1,"","",14,13,"","",Block13,"",J,Stim16,NR,76,"",J,green,12,"",362,"",""
569409,231,231,block_Trng,3,task_Trng,2,0,"","",15,13,"","",Block13,"",J,Stim6,LR,100,"",K,blue,8,"",362,"",""
569409,232,232,block_Trng,3,task_Trng,2,0,"","",16,13,"","",Block13,"",J,Fdbck,NR,597,"",K,green,11,"",362,"",""
569409,233,233,block_Trng,3,task_Trng,2,1,"","",17,13,"","",Block13,"",J,Stim14,HR,51,"",J,red,12,"",372,"",""
569409,234,234,block_Trng,3,task_Trng,2,1,"","",18,13,"","",Block13,"",J,Stim12,NR,25,"",J,green,10,"",372,"",""
569409,235,235,block_Trng,3,task_Trng,2,1,"","",1,14,"","",Block14,"",J,trial_fix2,HR,424,"",J,red,10,"",382,"",""
569409,236,236,block_Trng,3,task_Trng,2,1,"","",2,14,"","",Block14,"",J,Stim1,LR,7,"",J,blue,9,"",384,"",""
569409,237,237,block_Trng,3,task_Trng,2,0,"","",3,14,"","",Block14,"",K,trial_fix2,LR,699,"",J,blue,13,"",384,"",""
569409,238,238,block_Trng,3,task_Trng,2,0,"","",4,14,"","",Block14,"",J,Fdbck,HR,747,"",K,red,9,"",384,"",""
569409,239,239,block_Trng,3,task_Trng,2,1,"","",5,14,"","",Block14,"",J,Fdbck,NR,532,"",J,green,8,"",384,"",""
569409,240,240,block_Trng,3,task_Trng,2,0,"","",6,14,"","",Block14,"",K,trial_fix2,HR,128,"",J,red,8,"",384,"",""
569409,241,241,block_Trng,3,task_Trng,2,0,"","",7,14,"","",Block14,"",K,Fdbck,LR,850,"",K,blue,10,"",384,"",""
569409,242,242,block_Trng,3,task_Trng,2,0,"","",8,14,"","",Block14,"",J,Stim8,NR,91,"",K,green,9,"",384,"",""
569409,243,243,block_Trng,3,task_Trng,2,0,"","",9,14,"","",Block14,"",J,Fdbck,HR,983,"",K,red,11,"",384,"",""
569409,244,244,block_Trng,3,task_Trng,2,0,"","",10,14,"","",Block14,"",J,trial_fix2,NR,373,"",K,green,13,"",384,"",""
569409,245,245,block_Trng,3,task_Trng,2,0,"","",11,14,"","",Block14,"",K,Fdbck,LR,547,"",J,blue,11,"",384,"",""
569409,246,246,block_Trng,3,task_Trng,2,1,"","",12,14,"","",Block14,"",K,Fdbck,LR,855,"",K,blue,12,"",386,"",""
569409,247,247,block_Trng,3,task_Trng,2,1,"","",13,14,"","",Block14,"",J,Fdbck,HR,74,"",K,red,13,"",396,"",""
569409,248,248,block_Trng,3,task_Trng,2,1,"","",14,14,"","",Block14,"",J,Stim10,NR,111,"",J,green,12,"",396,"",""
569409,249,249,block_Trng,3,task_Trng,2,0,"","",15,14,"","",Block14,"",J,Stim14,LR,72,"",K,blue,8,"",396,"",""
569409,250,250,block_Trng,3,task_Trng,2,1,"","",16,14,"","",Block14,"",K,Fdbck,NR,705,"",K,green,11,"",396,"",""
569409,251,251,block_Trng,3,task_Trng,2,1,"","",17,14,"","",Block14,"",K,Fdbck,HR,60,"",J,red,12,"",406,"",""
569409,252,252,block_Trng,3,task_Trng,2,1,"","",18,14,"","",Block14,"",J,Fdbck,NR,951,"",J,green,10,"",406,"",""
569409,253,253,block_Trng,3,task_Trng,2,0,"","",1,15,"","",Block15,"",K,Stim9,HR,95,"",J,red,10,"",406,"",""
569409,254,254,block_Trng,3,task_Trng,2,0,"","",2,15,"","",Block15,"",K,trial_fix2,LR,199,"",J,blue,9,"",406,"",""
569409,255,255,block_Trng,3,task_Trng,2,0,"","",3,15,"","",Block15,"",K,trial_fix2,LR,45,"",J,blue,13,"",406,"",""
569409,256,256,block_Trng,3,task_Trng,2,1,"","",4,15,"","",Block15,"",K,trial_fix2,HR,397,"",K,red,9,"",416,"",""
569409,257,257,block_Trng,3,task_Trng,2,0,"","",5,15,"","",Block15,"",K,trial_fix2,NR,677,"",J,green,8,"",416,"",""
569409,258,258,block_Trng,3,task_Trng,2,1,"","",6,15,"","",Block15,"",J,Fdbck,HR,800,"",J,red,8,"",426,"",""
569409,259,259,block_Trng,3,task_Trng,2,0,"","",7,15,"","",Block15,"",J,trial_fix2,LR,104,"",K,blue,10,"",426,"",""
569409,260,260,block_Trng,3,task_Trng,2,1,"","",8,15,"","",Block15,"",K,trial_fix2,NR,207,"",K,green,9,"",426,"",""
569409,261,261,block_Trng,3,task_Trng,2,0,"","",9,15,"","",Block15,"",K,Fdbck,HR,983,"",K,red,11,"",426,"",""
569409,262,262,block_Trng,3,task_Trng,2,1,"","",10,15,"","",Block15,"",K,trial_fix2,NR,121,"",K,green,13,"",426,"",""
569409,263,263,block_Trng,3,task_Trng,2,0,"","",11,15,"","",Block15,"",K,Stim1,LR,33,"",J,blue,11,"",426,"",""
569409,264,264,block_Trng,3,task_Trng,2,1,"","",12,15,"","",Block15,"",J,Fdbck,LR,533,"",K,blue,12,"",428,"",""
569409,265,265,block_Trng,3,task_Trng,2,0,"","",13,15,"","",Block15,"",J,trial_fix2,HR,121,"",K,red,13,"",428,"",""
569409,266,266,block_Trng,3,task_Trng,2,0,"","",14,15,"","",Block15,"",J,Fdbck,NR,559,"",J,green,12,"",428,"",""
569409,267,267,block_Trng,3,task_Trng,2,1,"","",15,15,"","",Block15,"",K,Stim15,LR,6,"",K,blue,8,"",430,"",""
569409,268,268,block_Trng,3,task_Trng,2,0,"","",16,15,"","",Block15,"",K,Fdbck,NR,886,"",K,green,11,"",430,"",""
569409,269,269,block_Trng,3,task_Trng,2,1,"","",17,15,"","",Block15,"",J,Stim15,HR,113,"",J,red,12,"",440,"",""
569409,270,270,block_Trng,3,task_Trng,2,1,"","",18,15,"","",Block15,"",J,trial_fix2,NR,543,"",J,green,10,"",440,"",""
569409,271,271,block_Trng,3,task_Trng,2,0,"","",1,16,"","",Block16',"",K,Fdbck,HR,166,"",J,red,10,"",440,"",""
569409,272,272,block_Trng,3,task_Trng,2,0,"","",2,16,"","",Block16',"",K,Stim3,LR,22,"",J,blue,9,"",440,"",""
569409,273,273,block_Trng,3,task_Trng,2,1,"","",3,16,"","",Block16',"",J,Fdbck,LR,866,"",J,blue,13,"",442,"",""
569409,274,274,block_Trng,3,task_Trng,2,1,"","",4,16,"","",Block16',"",J,Fdbck,HR,11,"",K,red,9,"",452,"",""
569409,275,275,block_Trng,3,task_Trng,2,1,"","",5,16,"","",Block16',"",J,Stim9,NR,37,"",J,green,8,"",452,"",""
569409,276,276,block_Trng,3,task_Trng,2,0,"","",6,16,"","",Block16',"",K,Stim9,HR,31,"",J,red,8,"",452,"",""
569409,277,277,block_Trng,3,task_Trng,2,0,"","",7,16,"","",Block16',"",J,Stim5,LR,118,"",K,blue,10,"",452,"",""
569409,278,278,block_Trng,3,task_Trng,2,0,"","",8,16,"","",Block16',"",J,Stim6,NR,69,"",K,green,9,"",452,"",""
569409,279,279,block_Trng,3,task_Trng,2,0,"","",9,16,"","",Block16',"",J,Stim7,HR,17,"",K,red,11,"",452,"",""
569409,280,280,block_Trng,3,task_Trng,2,1,"","",10,16,"","",Block16',"",K,trial_fix2,NR,541,"",K,green,13,"",452,"",""
569409,281,281,block_Trng,3,task_Trng,2,1,"","",11,16,"","",Block16',"",J,Stim4,LR,77,"",J,blue,11,"",454,"",""
569409,282,282,block_Trng,3,task_Trng,2,1,"","",12,16,"","",Block16',"",K,Stim8,LR,26,"",K,blue,12,"",456,"",""
569409,283,283,block_Trng,3,task_Trng,2,0,"","",13,16,"","",Block16',"",J,trial_fix2,HR,290,"",K,red,13,"",456,"",""
569409,284,284,block_Trng,3,task_Trng,2,0,"","",14,16,"","",Block16',"",K,Stim7,NR,65,"",J,green,12,"",456,"",""
569409,285,285,block_Trng,3,task_Trng,2,0,"","",15,16,"","",Block16',"",J,Stim7,LR,103,"",K,blue,8,"",456,"",""
569409,286,286,block_Trng,3,task_Trng,2,1,"","",16,16,"","",Block16',"",K,Stim6,NR,5,"",K,green,11,"",456,"",""
569409,287,287,block_Trng,3,task_Trng,2,1,"","",17,16,"","",Block16',"",J,Stim8,HR,55,"",J,red,12,"",466,"",""
569409,288,288,block_Trng,3,task_Trng,2,1,"","",18,16,"","",Block16',"",J,Stim16,NR,47,"",J,green,10,"",466,"",""
569409,289,289,block_Trng,3,task_Trng,2,0,"","",1,17,"","",Block17,"",K,Stim9,HR,39,"",J,red,10,"",466,"",""
569409,290,290,block_Trng,3,task_Trng,2,1,"","",2,17,"","",Block17,"",J,Stim6,LR,31,"",J,blue,9,"",468,"",""
569409,291,291,block_Trng,3,task_Trng,2,0,"","",3,17,"","",Block17,"",K,Stim6,LR,76,"",J,blue,13,"",468,"",""
569409,292,292,block_Trng,3,task_Trng,2,0,"","",4,17,"","",Block17,"",J,Stim7,HR,59,"",K,red,9,"",468,"",""
569409,293,293,block_Trng,3,task_Trng,2,0,"","",5,17,"","",Block17,"",J,Fdbck,NR,73,"",J,green,8,"",468,"",""
569409,294,294,block_Trng,3,task_Trng,2,0,"","",6,17,"","",Block17,"",J,Fdbck,HR,660,"",J,red,8,"",468,"",""
569409,295,295,block_Trng,3,task_Trng,2,0,"","",7,17,"","",Block17,"",J,Fdbck,LR,796,"",K,blue,10,"",468,"",""
569409,296,296,block_Trng,3,task_Trng,2,0,"","",8,17,"","",Block17,"",J,trial_fix2,NR,468,"",K,green,9,"",468,"",""
569409,297,297,block_Trng,3,task_Trng,2,1,"","",9,17,"","",Block17,"",J,Fdbck,HR,824,"",K,red,11,"",478,"",""
569409,298,298,block_Trng,3,task_Trng,2,0,"","",10,17,"","",Block17,"",J,Fdbck,NR,350,"",K,green,13,"",478,"",""
569409,299,299,block_Trng,3,task_Trng,2,1,"","",11,17,"","",Block17,"",J,Stim11,LR,74,"",J,blue,11,"",480,"",""
569409,300,300,block_Trng,3,task_Trng,2,0,"","",12,17,"","",Block17,"",J,Stim8,LR,13,"",K,blue,12,"",480,"",""
569409,301,301,block_Trng,3,task_Trng,2,1,"","",13,17,"","",Block17,"",J,Fdbck,HR,474,"",K,red,13,"",490,"",""
569409,302,302,block_Trng,3,task_Trng,2,1,"","",14,17,"","",Block17,"",J,Stim7,NR,10,"",J,green,12,"",490,"",""
569409,303,303,block_Trng,3,task_Trng,2,1,"","",15,17,"","",Block17,"",J,Fdbck,LR,709,"",K,blue,8,"",492,"",""
569409,304,304,block_Trng,3,task_Trng,2,0,"","",16,17,"","",Block17,"",J,trial_fix2,NR,62,"",K,green,11,"",492,"",""
569409,305,305,block_Trng,3,task_Trng,2,0,"","",17,17,"","",Block17,"",K,trial_fix2,HR,259,"",J,red,12,"",492,"",""
569409,306,306,block_Trng,3,task_Trng,2,1,"","",18,17,"","",Block17,"",J,Fdbck,NR,643,"",J,green,10,"",492,"",""
569409,307,307,block_Trng,3,task_Trng,2,1,"","",1,18,"","",Block18,"",J,Fdbck,HR,704,"",J,red,10,"",502,"",""
569409,308,308,block_Trng,3,task_Trng,2,1,"","",2,18,"","",Block18,"",J,trial_fix2,LR,132,"",J,blue,9,"",504,"",""
569409,309,309,block_Trng,3,task_Trng,2,1,"","",3,18,"","",Block18,"",J,Stim7,LR,46,"",J,blue,13,"",506,"",""
569409,310,310,block_Trng,3,task_Trng,2,1,"","",4,18,"","",Block18,"",K,Stim11,HR,86,"",K,red,9,"",516,"",""
569409,311,311,block_Trng,3,task_Trng,2,1,"","",5,18,"","",Block18,"",J,trial_fix2,NR,483,"",J,green,8,"",516,"",""
569409,312,312,block_Trng,3,task_Trng,2,1,"","",6,18,"","",Block18,"",J,trial_fix1,HR,441,"",J,red,8,"",526,"",""
569409,313,313,block_Trng,3,task_Trng,2,0,"","",7,18,"","",Block18,"",J,ISI,LR,571,"",K,blue,10,"",526,"",""
569409,314,314,block_Trng,3,task_Trng,2,1,"","",8,18,"","",Block18,"",K,Stim3,NR,106,"",K,green,9,"",526,"",""
569409,315,315,block_Trng,3,task_Trng,2,0,"","",9,18,"","",Block18,"",J,trial_fix2,HR,54,"",K,red,11,"",526,"",""
569409,316,316,block_Trng,3,task_Trng,2,0,"","",10,18,"","",Block18,"",J,Fdbck,NR,612,"",K,green,13,"",526,"",""
569409,317,317,block_Trng,3,task_Trng,2,1,"","",11,18,"","",Block18,"",J,trial_fix2,LR,157,"",J,blue,11,"",528,"",""
569409,318,318,block_Trng,3,task_Trng,2,0,"","",12,18,"","",Block18,"",J,trial_fix2,LR,125,"",K,blue,12,"",528,"",""
569409,319,319,block_Trng,3,task_Trng,2,1,"","",13,18,"","",Block18,"",K,trial_fix2,HR,375,"",K,red,13,"",538,"",""
569409,320,320,block_Trng,3,task_Trng,2,0,"","",14,18,"","",Block18,"",K,Stim7,NR,21,"",J,green,12,"",538,"",""
569409,321,321,block_Trng,3,task_Trng,2,0,"","",15,18,"","",Block18,"",J,trial_fix2,LR,460,"",K,blue,8,"",538,"",""
569409,322,322,block_Trng,3,task_Trng,2,0,"","",16,18,"","",Block18,"",J,trial_fix2,NR,292,"",K,green,11,"",538,"",""
569409,323,323,block_Trng,3,task_Trng,2,0,"","",17,18,"","",Block18,"",K,Fdbck,HR,387,"",J,red,12,"",538,"",""
569409,324,324,block_Trng,3,task_Trng,2,0,"","",18,18,"","",Block18,"",K,trial_fix2,NR,484,"",J,green,10,"",538,"",""
569409,325,325,block_Trng,3,task_Trng,2,0,"","",1,19,"","",Block19,"",K,Stim14,HR,83,"",J,red,10,"",538,"",""
569409,326,326,block_Trng,3,task_Trng,2,1,"","",2,19,"","",Block19,"",K,Fdbck,LR,567,"",J,blue,9,"",540,"",""
569409,327,327,block_Trng,3,task_Trng,2,0,"","",3,19,"","",Block19,"",J,Fdbck,LR,674,"",J,blue,13,"",540,"",""
569409,328,328,block_Trng,3,task_Trng,2,0,"","",4,19,"","",Block19,"",J,Stim8,HR,68,"",K,red,9,"",540,"",""
569409,329,329,block_Trng,3,task_Trng,2,0,"","",5,19,"","",Block19,"",K,trial_fix1,NR,130,"",J,green,8,"",540,"",""
569409,330,330,block_Trng,3,task_Trng,2,0,"","",6,19,"","",Block19,"",K,Stim8,HR,27,"",J,red,8,"",540,"",""
569409,331,331,block_Trng,3,task_Trng,2,1,"","",7,19,"","",Block19,"",K,Stim9,LR,68,"",K,blue,10,"",542,"",""
569409,332,332,block_Trng,3,task_Trng,2,0,"","",8,19,"","",Block19,"",J,Stim8,NR,82,"",K,green,9,"",542,"",""
569409,333,333,block_Trng,3,task_Trng,2,1,"","",9,19,"","",Block19,"",K,Stim6,HR,101,"",K,red,11,"",552,"",""
569409,334,334,block_Trng,3,task_Trng,2,1,"","",10,19,"","",Block19,"",K,Stim6,NR,33,"",K,green,13,"",552,"",""
569409,335,335,block_Trng,3,task_Trng,2,0,"","",11,19,"","",Block19,"",K,Stim11,LR,35,"",J,blue,11,"",552,"",""
569409,336,336,block_Trng,3,task_Trng,2,0,"","",12,19,"","",Block19,"",J,Stim3,LR,59,"",K,blue,12,"",552,"",""
569409,337,337,block_Trng,3,task_Trng,2,1,"","",13,19,"","",Block19,"",K,Stim8,HR,14,"",K,red,13,"",562,"",""
569409,338,338,block_Trng,3,task_Trng,2,1,"","",14,19,"","",Block19,"",J,Stim9,NR,40,"",J,green,12,"",562,"",""
569409,339,339,block_Trng,3,task_Trng,2,1,"","",15,19,"","",Block19,"",K,Stim7,LR,14,"",K,blue,8,"",564,"",""
569409,340,340,block_Trng,3,task_Trng,2,0,"","",16,19,"","",Block19,"",J,Stim8,NR,38,"",K,green,11,"",564,"",""
569409,341,341,block_Trng,3,task_Trng,2,0,"","",17,19,"","",Block19,"",K,Stim8,HR,31,"",J,red,12,"",564,"",""
569409,342,342,block_Trng,3,task_Trng,2,1,"","",18,19,"","",Block19,"",J,Stim7,NR,88,"",J,green,10,"",564,"",""
569409,343,343,block_Trng,3,task_Trng,2,0,"","",1,20,"","",Block20,"",K,Stim6,HR,19,"",J,red,10,"",564,"",""
569409,344,344,block_Trng,3,task_Trng,2,1,"","",2,20,"","",Block20,"",J,Stim8,LR,10,"",J,blue,9,"",566,"",""
569409,345,345,block_Trng,3,task_Trng,2,0,"","",3,20,"","",Block20,"",K,Stim10,LR,75,"",J,blue,13,"",566,"",""
569409,346,346,block_Trng,3,task_Trng,2,0,"","",4,20,"","",Block20,"",J,Stim7,HR,26,"",K,red,9,"",566,"",""
569409,347,347,block_Trng,3,task_Trng,2,0,"","",5,20,"","",Block20,"",K,Stim6,NR,71,"",J,green,8,"",566,"",""
569409,348,348,block_Trng,3,task_Trng,2,1,"","",6,20,"","",Block20,"",J,Stim8,HR,15,"",J,red,8,"",576,"",""
569409,349,349,block_Trng,3,task_Trng,2,1,"","",7,20,"","",Block20,"",K,Stim7,LR,9,"",K,blue,10,"",578,"",""
569409,350,350,block_Trng,3,task_Trng,2,0,"","",8,20,"","",Block20,"",J,Stim9,NR,1,"",K,green,9,"",578,"",""
569409,351,351,block_Trng,3,task_Trng,2,1,"","",9,20,"","",Block20,"",K,Stim11,HR,29,"",K,red,11,"",588,"",""
569409,352,352,block_Trng,3,task_Trng,2,0,"","",10,20,"","",Block20,"",J,Stim8,NR,64,"",K,green,13,"",588,"",""
569409,353,353,block_Trng,3,task_Trng,2,0,"","",11,20,"","",Block20,"",K,Stim10,LR,3,"",J,blue,11,"",588,"",""
569409,354,354,block_Trng,3,task_Trng,2,0,"","",12,20,"","",Block20,"",J,Stim15,LR,89,"",K,blue,12,"",588,"",""
569409,355,355,block_Trng,3,task_Trng,2,0,"","",13,20,"","",Block20,"",J,Stim9,HR,102,"",K,red,13,"",588,"",""
569409,356,356,block_Trng,3,task_Trng,2,0,"","",14,20,"","",Block20,"",K,Stim12,NR,93,"",J,green,12,"",588,"",""
569409,357,357,block_Trng,3,task_Trng,2,0,"","",15,20,"","",Block20,"",J,ISI,LR,120,"",K,blue,8,"",588,"",""
569409,358,358,block_Trng,3,task_Trng,2,1,"","",16,20,"","",Block20,"",K,Stim6,NR,71,"",K,green,11,"",588,"",""
569409,359,359,block_Trng,3,task_Trng,2,1,"","",17,20,"","",Block20,"",J,trial_fix2,HR,377,"",J,red,12,"",598,"",""
569409,360,360,block_Trng,3,task_Trng,2,1,"","",18,20,"","",Block20,"",J,trial_fix2,NR,587,"",J,green,10,"",598,"",""
569409,1,1,block_Trng,3,task_Trng_End,3,"","","","",1,"","","","","","","","","","","","",2.03,598,"",""
569409,1,1,block_Testing,4,task_Testing,2,0,"","",1,1,"",Block1,"","",K,trial_fix2,NR,369,"",J,green,8,"",598,"",""
569409,2,2,block_Testing,4,task_Testing,2,1,"","",2,1,"",Block1,"","",J,trial_fix2,LR,540,"",J,blue,13,"",598,"",""
569409,3,3,block_Testing,4,task_Testing,2,1,"","",3,1,"",Block1,"","",K,Stim15,NR,100,"",K,green,13,"",598,"",""
569409,4,4,block_Testing,4,task_Testing,2,0,"","",4,1,"",Block1,"","",J,Stim3,HR,19,"",K,red,9,"",598,"",""
569409,5,5,block_Testing,4,task_Testing,2,0,"","",5,1,"",Block1,"","",J,trial_fix2,HR,403,"",K,red,13,"",598,"",""
569409,6,6,block_Testing,4,task_Testing,2,1,"","",6,1,"",Block1,"","",K,Stim1,LR,54,"",K,blue,12,"",598,"",""
569409,7,7,block_Testing,4,task_Testing,2,1,"","",7,1,"",Block1,"","",J,Stim8,NR,88,"",J,green,10,"",598,"",""
569409,8,8,block_Testing,4,task_Testing,2,0,"","",8,1,"",Block1,"","",K,Stim8,HR,40,"",J,red,10,"",598,"",""
569409,9,9,block_Testing,4,task_Testing,2,0,"","",9,1,"",Block1,"","",J,Stim7,NR,29,"",K,green,11,"",598,"",""
569409,10,10,block_Testing,4,task_Testing,2,1,"","",10,1,"",Block1,"","",K,Stim6,NR,47,"",K,green,9,"",598,"",""
569409,11,11,block_Testing,4,task_Testing,2,1,"","",11,1,"",Block1,"","",J,Stim7,HR,27,"",J,red,12,"",598,"",""
569409,12,12,block_Testing,4,task_Testing,2,0,"","",12,1,"",Block1,"","",K,Stim7,LR,83,"",J,blue,9,"",598,"",""
569409,13,13,block_Testing,4,task_Testing,2,1,"","",13,1,"",Block1,"","",J,Stim7,NR,59,"",J,green,12,"",598,"",""
569409,14,14,block_Testing,4,task_Testing,2,1,"","",14,1,"",Block1,"","",K,trial_fix2,LR,222,"",K,blue,10,"",598,"",""
569409,15,15,block_Testing,4,task_Testing,2,1,"","",15,1,"",Block1,"","",J,Stim6,LR,100,"",J,blue,11,"",598,"",""
569409,16,16,block_Testing,4,task_Testing,2,1,"","",16,1,"",Block1,"","",K,trial_fix2,LR,368,"",K,blue,8,"",598,"",""
569409,17,17,block_Testing,4,task_Testing,2,1,"","",17,1,"",Block1,"","",J,trial_fix1,HR,206,"",J,red,8,"",598,"",""
569409,18,18,block_Testing,4,task_Testing,2,0,"","",18,1,"",Block1,"","",J,Stim7,HR,32,"",K,red,11,"",598,"",""
569409,19,19,block_Testing,4,task_Testing,2,0,"","",1,2,"",Block2,"","",K,trial_fix2,NR,389,"",J,green,8,"",598,"",""
569409,20,20,block_Testing,4,task_Testing,2,0,"","",2,2,"",Block2,"","",K,trial_fix2,LR,411,"",J,blue,13,"",598,"",""
569409,21,21,block_Testing,4,task_Testing,2,1,"","",3,2,"",Block2,"","",K,Stim4,NR,57,"",K,green,13,"",598,"",""
569409,22,22,block_Testing,4,task_Testing,2,1,"","",4,2,"",Block2,"","",K,Stim7,HR,102,"",K,red,9,"",598,"",""
569409,23,23,block_Testing,4,task_Testing,2,0,"","",5,2,"",Block2,"","",J,trial_fix2,HR,318,"",K,red,13,"",598,"",""
569409,24,24,block_Testing,4,task_Testing,2,1,"","",6,2,"",Block2,"","",K,trial_fix1,LR,253,"",K,blue,12,"",598,"",""
569409,25,25,block_Testing,4,task_Testing,2,0,"","",7,2,"",Block2,"","",K,Stim5,NR,7,"",J,green,10,"",598,"",""
569409,26,26,block_Testing,4,task_Testing,2,1,"","",8,2,"",Block2,"","",J,trial_fix2,HR,343,"",J,red,10,"",598,"",""
569409,27,27,block_Testing,4,task_Testing,2,0,"","",9,2,"",Block2,"","",J,Stim6,NR,60,"",K,green,11,"",598,"",""
569409,28,28,block_Testing,4,task_Testing,2,1,"","",10,2,"",Block2,"","",K,Stim6,NR,38,"",K,green,9,"",598,"",""
569409,29,29,block_Testing,4,task_Testing,2,0,"","",11,2,"",Block2,"","",K,trial_fix2,HR,512,"",J,red,12,"",598,"",""
569409,30,30,block_Testing,4,task_Testing,2,1,"","",12,2,"",Block2,"","",J,trial_fix2,LR,378,"",J,blue,9,"",598,"",""
569409,31,31,block_Testing,4,task_Testing,2,0,"","",13,2,"",Block2,"","",K,trial_fix2,NR,308,"",J,green,12,"",598,"",""
569409,32,32,block_Testing,4,task_Testing,2,1,"","",14,2,"",Block2,"","",K,trial_fix2,LR,213,"",K,blue,10,"",598,"",""
569409,33,33,block_Testing,4,task_Testing,2,1,"","",15,2,"",Block2,"","",J,trial_fix2,LR,256,"",J,blue,11,"",598,"",""
569409,34,34,block_Testing,4,task_Testing,2,1,"","",16,2,"",Block2,"","",K,trial_fix2,LR,204,"",K,blue,8,"",598,"",""
569409,35,35,block_Testing,4,task_Testing,2,1,"","",17,2,"",Block2,"","",J,trial_fix2,HR,199,"",J,red,8,"",598,"",""
569409,36,36,block_Testing,4,task_Testing,2,1,"","",18,2,"",Block2,"","",K,trial_fix2,HR,606,"",K,red,11,"",598,"",""
569409,37,37,block_Testing,4,task_Testing,2,1,"","",1,3,"",Block3,"","",J,trial_fix2,NR,609,"",J,green,8,"",598,"",""
569409,38,38,block_Testing,4,task_Testing,2,0,"","",2,3,"",Block3,"","",K,Stim14,LR,117,"",J,blue,13,"",598,"",""
569409,39,39,block_Testing,4,task_Testing,2,1,"","",3,3,"",Block3,"","",K,Stim6,NR,23,"",K,green,13,"",598,"",""
569409,40,40,block_Testing,4,task_Testing,2,0,"","",4,3,"",Block3,"","",J,Stim1,HR,13,"",K,red,9,"",598,"",""
569409,41,41,block_Testing,4,task_Testing,2,1,"","",5,3,"",Block3,"","",K,Stim7,HR,56,"",K,red,13,"",598,"",""
569409,42,42,block_Testing,4,task_Testing,2,0,"","",6,3,"",Block3,"","",J,Stim5,LR,49,"",K,blue,12,"",598,"",""
569409,43,43,block_Testing,4,task_Testing,2,0,"","",7,3,"",Block3,"","",K,Stim6,NR,11,"",J,green,10,"",598,"",""
569409,44,44,block_Testing,4,task_Testing,2,1,"","",8,3,"",Block3,"","",J,Stim9,HR,23,"",J,red,10,"",598,"",""
569409,45,45,block_Testing,4,task_Testing,2,1,"","",9,3,"",Block3,"","",K,Stim2,NR,72,"",K,green,11,"",598,"",""
569409,46,46,block_Testing,4,task_Testing,2,0,"","",10,3,"",Block3,"","",J,Stim5,NR,112,"",K,green,9,"",598,"",""
569409,47,47,block_Testing,4,task_Testing,2,0,"","",11,3,"",Block3,"","",K,Stim6,HR,85,"",J,red,12,"",598,"",""
569409,48,48,block_Testing,4,task_Testing,2,1,"","",12,3,"",Block3,"","",J,Stim8,LR,85,"",J,blue,9,"",598,"",""
569409,49,49,block_Testing,4,task_Testing,2,0,"","",13,3,"",Block3,"","",K,Stim8,NR,48,"",J,green,12,"",598,"",""
569409,50,50,block_Testing,4,task_Testing,2,0,"","",14,3,"",Block3,"","",J,Stim8,LR,15,"",K,blue,10,"",598,"",""
569409,51,51,block_Testing,4,task_Testing,2,0,"","",15,3,"",Block3,"","",K,Stim7,LR,35,"",J,blue,11,"",598,"",""
569409,52,52,block_Testing,4,task_Testing,2,0,"","",16,3,"",Block3,"","",J,Stim6,LR,31,"",K,blue,8,"",598,"",""
569409,53,53,block_Testing,4,task_Testing,2,0,"","",17,3,"",Block3,"","",K,Stim5,HR,47,"",J,red,8,"",598,"",""
569409,54,54,block_Testing,4,task_Testing,2,0,"","",18,3,"",Block3,"","",J,Stim5,HR,5,"",K,red,11,"",598,"",""
569409,55,55,block_Testing,4,task_Testing,2,0,"","",1,4,"",Block4,"","",K,Stim6,NR,130,"",J,green,8,"",598,"",""
569409,56,56,block_Testing,4,task_Testing,2,1,"","",2,4,"",Block4,"","",J,Stim1,LR,65,"",J,blue,13,"",598,"",""
569409,57,57,block_Testing,4,task_Testing,2,1,"","",3,4,"",Block4,"","",K,Stim7,NR,19,"",K,green,13,"",598,"",""
569409,58,58,block_Testing,4,task_Testing,2,1,"","",4,4,"",Block4,"","",K,trial_fix2,HR,398,"",K,red,9,"",598,"",""
569409,59,59,block_Testing,4,task_Testing,2,0,"","",5,4,"",Block4,"","",J,Stim3,HR,64,"",K,red,13,"",598,"",""
569409,60,60,block_Testing,4,task_Testing,2,1,"","",6,4,"",Block4,"","",K,Stim6,LR,98,"",K,blue,12,"",598,"",""
569409,61,61,block_Testing,4,task_Testing,2,1,"","",7,4,"",Block4,"","",J,Stim7,NR,61,"",J,green,10,"",598,"",""
569409,62,62,block_Testing,4,task_Testing,2,0,"","",8,4,"",Block4,"","",K,Stim5,HR,84,"",J,red,10,"",598,"",""
569409,63,63,block_Testing,4,task_Testing,2,0,"","",9,4,"",Block4,"","",J,Stim6,NR,10,"",K,green,11,"",598,"",""
569409,64,64,block_Testing,4,task_Testing,2,0,"","",10,4,"",Block4,"","",J,Stim5,NR,79,"",K,green,9,"",598,"",""
569409,65,65,block_Testing,4,task_Testing,2,0,"","",11,4,"",Block4,"","",K,Stim5,HR,103,"",J,red,12,"",598,"",""
569409,66,66,block_Testing,4,task_Testing,2,1,"","",12,4,"",Block4,"","",J,trial_fix2,LR,554,"",J,blue,9,"",598,"",""
569409,67,67,block_Testing,4,task_Testing,2,0,"","",13,4,"",Block4,"","",K,Stim2,NR,112,"",J,green,12,"",598,"",""
569409,68,68,block_Testing,4,task_Testing,2,0,"","",14,4,"",Block4,"","",J,trial_fix2,LR,273,"",K,blue,10,"",598,"",""
569409,69,69,block_Testing,4,task_Testing,2,0,"","",15,4,"",Block4,"","",K,Stim6,LR,33,"",J,blue,11,"",598,"",""
569409,70,70,block_Testing,4,task_Testing,2,0,"","",16,4,"",Block4,"","",J,trial_fix2,LR,274,"",K,blue,8,"",598,"",""
569409,71,71,block_Testing,4,task_Testing,2,0,"","",17,4,"",Block4,"","",K,trial_fix1,HR,326,"",J,red,8,"",598,"",""
569409,72,72,block_Testing,4,task_Testing,2,0,"","",18,4,"",Block4,"","",K,ITI,HR,67,"",K,red,11,"",598,"",""
569409,73,73,block_Testing,4,task_Testing,2,0,"","",1,5,"",Block5,"","",K,Stim4,NR,24,"",J,green,8,"",598,"",""
569409,74,74,block_Testing,4,task_Testing,2,1,"","",2,5,"",Block5,"","",K,ITI,LR,496,"",J,blue,13,"",598,"",""
569409,75,75,block_Testing,4,task_Testing,2,1,"","",3,5,"",Block5,"","",K,ITI,NR,470,"",K,green,13,"",598,"",""
569409,76,76,block_Testing,4,task_Testing,2,1,"","",4,5,"",Block5,"","",K,trial_fix2,HR,256,"",K,red,9,"",598,"",""
569409,77,77,block_Testing,4,task_Testing,2,1,"","",5,5,"",Block5,"","",K,trial_fix2,HR,579,"",K,red,13,"",598,"",""
569409,78,78,block_Testing,4,task_Testing,2,1,"","",6,5,"",Block5,"","",K,trial_fix2,LR,220,"",K,blue,12,"",598,"",""
569409,79,79,block_Testing,4,task_Testing,2,0,"","",7,5,"",Block5,"","",K,trial_fix2,NR,375,"",J,green,10,"",598,"",""
569409,80,80,block_Testing,4,task_Testing,2,1,"","",8,5,"",Block5,"","",J,Stim6,HR,4,"",J,red,10,"",598,"",""
569409,81,81,block_Testing,4,task_Testing,2,1,"","",9,5,"",Block5,"","",K,Stim7,NR,34,"",K,green,11,"",598,"",""
569409,82,82,block_Testing,4,task_Testing,2,1,"","",10,5,"",Block5,"","",K,Stim7,NR,8,"",K,green,9,"",598,"",""
569409,83,83,block_Testing,4,task_Testing,2,1,"","",11,5,"",Block5,"","",J,Stim5,HR,109,"",J,red,12,"",598,"",""
569409,84,84,block_Testing,4,task_Testing,2,0,"","",12,5,"",Block5,"","",K,Stim7,LR,9,"",J,blue,9,"",598,"",""
569409,85,85,block_Testing,4,task_Testing,2,0,"","",13,5,"",Block5,"","",K,Stim1,NR,67,"",J,green,12,"",598,"",""
569409,86,86,block_Testing,4,task_Testing,2,0,"","",14,5,"",Block5,"","",J,Stim7,LR,41,"",K,blue,10,"",598,"",""
569409,87,87,block_Testing,4,task_Testing,2,0,"","",15,5,"",Block5,"","",K,Stim6,LR,96,"",J,blue,11,"",598,"",""
569409,88,88,block_Testing,4,task_Testing,2,0,"","",16,5,"",Block5,"","",J,trial_fix2,LR,390,"",K,blue,8,"",598,"",""
569409,89,89,block_Testing,4,task_Testing,2,0,"","",17,5,"",Block5,"","",K,trial_fix2,HR,132,"",J,red,8,"",598,"",""
569409,90,90,block_Testing,4,task_Testing,2,1,"","",18,5,"",Block5,"","",K,trial_fix2,HR,90,"",K,red,11,"",598,"",""
569409,91,91,block_Testing,4,task_Testing,2,0,"","",1,6,"",Block6,"","",K,trial_fix2,NR,158,"",J,green,8,"",598,"",""
569409,92,92,block_Testing,4,task_Testing,2,1,"","",2,6,"",Block6,"","",J,trial_fix2,LR,90,"",J,blue,13,"",598,"",""
569409,93,93,block_Testing,4,task_Testing,2,0,"","",3,6,"",Block6,"","",J,trial_fix2,NR,229,"",K,green,13,"",598,"",""
569409,94,94,block_Testing,4,task_Testing,2,1,"","",4,6,"",Block6,"","",K,trial_fix2,HR,450,"",K,red,9,"",598,"",""
569409,95,95,block_Testing,4,task_Testing,2,1,"","",5,6,"",Block6,"","",K,trial_fix2,HR,170,"",K,red,13,"",598,"",""
569409,96,96,block_Testing,4,task_Testing,2,0,"","",6,6,"",Block6,"","",J,trial_fix1,LR,479,"",K,blue,12,"",598,"",""
569409,97,97,block_Testing,4,task_Testing,2,1,"","",7,6,"",Block6,"","",J,trial_fix2,NR,149,"",J,green,10,"",598,"",""
569409,98,98,block_Testing,4,task_Testing,2,0,"","",8,6,"",Block6,"","",K,trial_fix2,HR,70,"",J,red,10,"",598,"",""
569409,99,99,block_Testing,4,task_Testing,2,1,"","",9,6,"",Block6,"","",K,trial_fix2,NR,279,"",K,green,11,"",598,"",""
569409,100,100,block_Testing,4,task_Testing,2,1,"","",10,6,"",Block6,"","",K,trial_fix2,NR,114,"",K,green,9,"",598,"",""
569409,101,101,block_Testing,4,task_Testing,2,1,"","",11,6,"",Block6,"","",J,ITI,HR,1,"",J,red,12,"",598,"",""
569409,102,102,block_Testing,4,task_Testing,2,0,"","",12,6,"",Block6,"","",K,trial_fix2,LR,593,"",J,blue,9,"",598,"",""
569409,103,103,block_Testing,4,task_Testing,2,1,"","",13,6,"",Block6,"","",J,trial_fix1,NR,187,"",J,green,12,"",598,"",""
569409,104,104,block_Testing,4,task_Testing,2,1,"","",14,6,"",Block6,"","",J,ITI,LR,70,"",K,blue,10,"",598,"",""
569409,105,105,block_Testing,4,task_Testing,2,1,"","",15,6,"",Block6,"","",J,Stim3,LR,99,"",J,blue,11,"",598,"",""
569409,106,106,block_Testing,4,task_Testing,2,1,"","",16,6,"",Block6,"","",K,trial_fix2,LR,528,"",K,blue,8,"",598,"",""
569409,107,107,block_Testing,4,task_Testing,2,1,"","",17,6,"",Block6,"","",J,trial_fix2,HR,244,"",J,red,8,"",598,"",""
569409,108,108,block_Testing,4,task_Testing,2,0,"","",18,6,"",Block6,"","",J,trial_fix2,HR,207,"",K,red,11,"",598,"",""
569409,109,109,block_Testing,4,task_Testing,2,0,"","",1,7,"",Block7,"","",K,trial_fix2,NR,59,"",J,green,8,"",598,"",""
569409,110,110,block_Testing,4,task_Testing,2,0,"","",2,7,"",Block7,"","",K,trial_fix2,LR,133,"",J,blue,13,"",598,"",""
569409,111,111,block_Testing,4,task_Testing,2,0,"","",3,7,"",Block7,"","",J,trial_fix2,NR,222,"",K,green,13,"",598,"",""
569409,112,112,block_Testing,4,task_Testing,2,0,"","",4,7,"",Block7,"","",J,ITI,HR,333,"",K,red,9,"",598,"",""
569409,113,113,block_Testing,4,task_Testing,2,0,"","",5,7,"",Block7,"","",J,trial_fix2,HR,358,"",K,red,13,"",598,"",""
569409,114,114,block_Testing,4,task_Testing,2,0,"","",6,7,"",Block7,"","",J,ITI,LR,111,"",K,blue,12,"",598,"",""
569409,115,115,block_Testing,4,task_Testing,2,1,"","",7,7,"",Block7,"","",J,trial_fix2,NR,625,"",J,green,10,"",598,"",""
569409,116,116,block_Testing,4,task_Testing,2,1,"","",8,7,"",Block7,"","",J,trial_fix2,HR,257,"",J,red,10,"",598,"",""
569409,117,117,block_Testing,4,task_Testing,2,0,"","",9,7,"",Block7,"","",J,Stim1,NR,8,"",K,green,11,"",598,"",""
569409,118,118,block_Testing,4,task_Testing,2,0,"","",10,7,"",Block7,"","",J,trial_fix2,NR,366,"",K,green,9,"",598,"",""
569409,119,119,block_Testing,4,task_Testing,2,1,"","",11,7,"",Block7,"","",J,trial_fix2,HR,290,"",J,red,12,"",598,"",""
569409,120,120,block_Testing,4,task_Testing,2,1,"","",12,7,"",Block7,"","",J,trial_fix2,LR,490,"",J,blue,9,"",598,"",""
569409,121,121,block_Testing,4,task_Testing,2,1,"","",13,7,"",Block7,"","",J,Stim4,NR,12,"",J,green,12,"",598,"",""
569409,122,122,block_Testing,4,task_Testing,2,1,"","",14,7,"",Block7,"","",K,Stim6,LR,60,"",K,blue,10,"",598,"",""
569409,123,123,block_Testing,4,task_Testing,2,1,"","",15,7,"",Block7,"","",J,Stim5,LR,107,"",J,blue,11,"",598,"",""
569409,124,124,block_Testing,4,task_Testing,2,1,"","",16,7,"",Block7,"","",K,Stim5,LR,116,"",K,blue,8,"",598,"",""
569409,125,125,block_Testing,4,task_Testing,2,1,"","",17,7,"",Block7,"","",J,Stim7,HR,76,"",J,red,8,"",598,"",""
569409,126,126,block_Testing,4,task_Testing,2,1,"","",18,7,"",Block7,"","",K,Stim6,HR,56,"",K,red,11,"",598,"",""
569409,127,127,block_Testing,4,task_Testing,2,1,"","",1,8,"",Block8,"","",J,Stim6,NR,84,"",J,green,8,"",598,"",""
569409,128,128,block_Testing,4,task_Testing,2,1,"","",2,8,"",Block8,"","",J,Stim6,LR,57,"",J,blue,13,"",598,"",""
569409,129,129,block_Testing,4,task_Testing,2,0,"","",3,8,"",Block8,"","",J,Stim8,NR,96,"",K,green,13,"",598,"",""
569409,130,130,block_Testing,4,task_Testing,2,1,"","",4,8,"",Block8,"","",K,trial_fix2,HR,483,"",K,red,9,"",598,"",""
569409,131,131,block_Testing,4,task_Testing,2,1,"","",5,8,"",Block8,"","",K,Stim5,HR,86,"",K,red,13,"",598,"",""
569409,132,132,block_Testing,4,task_Testing,2,0,"","",6,8,"",Block8,"","",J,Stim6,LR,96,"",K,blue,12,"",598,"",""
569409,133,133,block_Testing,4,task_Testing,2,0,"","",7,8,"",Block8,"","",K,trial_fix2,NR,665,"",J,green,10,"",598,"",""
569409,134,134,block_Testing,4,task_Testing,2,1,"","",8,8,"",Block8,"","",J,trial_fix2,HR,708,"",J,red,10,"",598,"",""
569409,135,135,block_Testing,4,task_Testing,2,1,"","",9,8,"",Block8,"","",K,trial_fix2,NR,418,"",K,green,11,"",598,"",""
569409,136,136,block_Testing,4,task_Testing,2,1,"","",10,8,"",Block8,"","",K,Stim7,NR,117,"",K,green,9,"",598,"",""
569409,137,137,block_Testing,4,task_Testing,2,1,"","",11,8,"",Block8,"","",J,Stim8,HR,38,"",J,red,12,"",598,"",""
569409,138,138,block_Testing,4,task_Testing,2,0,"","",12,8,"",Block8,"","",K,Stim6,LR,56,"",J,blue,9,"",598,"",""
569409,139,139,block_Testing,4,task_Testing,2,1,"","",13,8,"",Block8,"","",J,Stim6,NR,23,"",J,green,12,"",598,"",""
569409,140,140,block_Testing,4,task_Testing,2,1,"","",14,8,"",Block8,"","",K,Stim6,LR,112,"",K,blue,10,"",598,"",""
569409,141,141,block_Testing,4,task_Testing,2,1,"","",15,8,"",Block8,"","",J,Stim7,LR,112,"",J,blue,11,"",598,"",""
569409,142,142,block_Testing,4,task_Testing,2,1,"","",16,8,"",Block8,"","",K,Stim9,LR,97,"",K,blue,8,"",598,"",""
569409,143,143,block_Testing,4,task_Testing,2,1,"","",17,8,"",Block8,"","",J,Stim6,HR,95,"",J,red,8,"",598,"",""
569409,144,144,block_Testing,4,task_Testing,2,0,"","",18,8,"",Block8,"","",J,Stim8,HR,14,"",K,red,11,"",598,"",""
569409,145,145,block_Testing,4,task_Testing,2,0,"","",1,9,"",Block9,"","",K,trial_fix2,NR,431,"",J,green,8,"",598,"",""
569409,146,146,block_Testing,4,task_Testing,2,1,"","",2,9,"",Block9,"","",J,trial_fix2,LR,107,"",J,blue,13,"",598,"",""
569409,147,147,block_Testing,4,task_Testing,2,0,"","",3,9,"",Block9,"","",J,trial_fix2,NR,415,"",K,green,13,"",598,"",""
569409,148,148,block_Testing,4,task_Testing,2,1,"","",4,9,"",Block9,"","",K,trial_fix2,HR,381,"",K,red,9,"",598,"",""
569409,149,149,block_Testing,4,task_Testing,2,1,"","",5,9,"",Block9,"","",K,trial_fix2,HR,355,"",K,red,13,"",598,"",""
569409,150,150,block_Testing,4,task_Testing,2,0,"","",6,9,"",Block9,"","",J,trial_fix2,LR,258,"",K,blue,12,"",598,"",""
569409,151,151,block_Testing,4,task_Testing,2,1,"","",7,9,"",Block9,"","",J,trial_fix2,NR,326,"",J,green,10,"",598,"",""
569409,152,152,block_Testing,4,task_Testing,2,1,"","",8,9,"",Block9,"","",J,trial_fix2,HR,383,"",J,red,10,"",598,"",""
569409,153,153,block_Testing,4,task_Testing,2,1,"","",9,9,"",Block9,"","",K,trial_fix2,NR,358,"",K,green,11,"",598,"",""
569409,154,154,block_Testing,4,task_Testing,2,0,"","",10,9,"",Block9,"","",J,trial_fix2,NR,225,"",K,green,9,"",598,"",""
569409,155,155,block_Testing,4,task_Testing,2,1,"","",11,9,"",Block9,"","",J,trial_fix2,HR,135,"",J,red,12,"",598,"",""
569409,156,156,block_Testing,4,task_Testing,2,1,"","",12,9,"",Block9,"","",J,trial_fix2,LR,542,"",J,blue,9,"",598,"",""
569409,157,157,block_Testing,4,task_Testing,2,0,"","",13,9,"",Block9,"","",K,trial_fix2,NR,453,"",J,green,12,"",598,"",""
569409,158,158,block_Testing,4,task_Testing,2,0,"","",14,9,"",Block9,"","",J,trial_fix2,LR,307,"",K,blue,10,"",598,"",""
569409,159,159,block_Testing,4,task_Testing,2,0,"","",15,9,"",Block9,"","",K,Stim6,LR,43,"",J,blue,11,"",598,"",""
569409,160,160,block_Testing,4,task_Testing,2,0,"","",16,9,"",Block9,"","",J,Stim6,LR,18,"",K,blue,8,"",598,"",""
569409,161,161,block_Testing,4,task_Testing,2,0,"","",17,9,"",Block9,"","",K,Stim7,HR,9,"",J,red,8,"",598,"",""
569409,162,162,block_Testing,4,task_Testing,2,0,"","",18,9,"",Block9,"","",J,Stim6,HR,99,"",K,red,11,"",598,"",""
569409,163,163,block_Testing,4,task_Testing,2,0,"","",1,10,"",Block10,"","",K,Stim13,NR,93,"",J,green,8,"",598,"",""
569409,164,164,block_Testing,4,task_Testing,2,1,"","",2,10,"",Block10,"","",J,Stim5,LR,84,"",J,blue,13,"",598,"",""
569409,165,165,block_Testing,4,task_Testing,2,1,"","",3,10,"",Block10,"","",K,Stim8,NR,33,"",K,green,13,"",598,"",""
569409,166,166,block_Testing,4,task_Testing,2,0,"","",4,10,"",Block10,"","",J,trial_fix2,HR,336,"",K,red,9,"",598,"",""
569409,167,167,block_Testing,4,task_Testing,2,1,"","",5,10,"",Block10,"","",K,Stim7,HR,5,"",K,red,13,"",598,"",""
569409,168,168,block_Testing,4,task_Testing,2,0,"","",6,10,"",Block10,"","",J,trial_fix2,LR,325,"",K,blue,12,"",598,"",""
569409,169,169,block_Testing,4,task_Testing,2,0,"","",7,10,"",Block10,"","",K,Stim7,NR,38,"",J,green,10,"",598,"",""
569409,170,170,block_Testing,4,task_Testing,2,1,"","",8,10,"",Block10,"","",J,Stim8,HR,80,"",J,red,10,"",598,"",""
569409,171,171,block_Testing,4,task_Testing,2,1,"","",9,10,"",Block10,"","",K,Stim5,NR,23,"",K,green,11,"",598,"",""
569409,172,172,block_Testing,4,task_Testing,2,0,"","",10,10,"",Block10,"","",J,Stim8,NR,6,"",K,green,9,"",598,"",""
569409,173,173,block_Testing,4,task_Testing,2,0,"","",11,10,"",Block10,"","",K,Stim7,HR,4,"",J,red,12,"",598,"",""
569409,174,174,block_Testing,4,task_Testing,2,1,"","",12,10,"",Block10,"","",J,Stim6,LR,58,"",J,blue,9,"",598,"",""
569409,175,175,block_Testing,4,task_Testing,2,0,"","",13,10,"",Block10,"","",K,Stim6,NR,119,"",J,green,12,"",598,"",""
569409,176,176,block_Testing,4,task_Testing,2,0,"","",14,10,"",Block10,"","",J,Stim6,LR,68,"",K,blue,10,"",598,"",""
569409,177,177,block_Testing,4,task_Testing,2,0,"","",15,10,"",Block10,"","",K,trial_fix2,LR,541,"",J,blue,11,"",598,"",""
569409,178,178,block_Testing,4,task_Testing,2,0,"","",16,10,"",Block10,"","",J,Stim6,LR,69,"",K,blue,8,"",598,"",""
569409,179,179,block_Testing,4,task_Testing,2,1,"","",17,10,"",Block10,"","",J,Stim8,HR,31,"",J,red,8,"",598,"",""
569409,180,180,block_Testing,4,task_Testing,2,1,"","",18,10,"",Block10,"","",K,Stim6,HR,35,"",K,red,11,"",598,"",""
569409,1,1,block_Testing,4,task_Testing_Instructions,1,"","","","",1,"","","","","","","","","","","","","","","",""
569409,1,1,block_End,5,task_Demog_End,1,"","",25,"",1,"","","",GOOD,"","","","",Male,"","","","","","",""
