Rec_Session_Id,Trial_Nr,Trial_Id,Block_Name,Block_Nr,Task_Name,Task_Nr,ACC,ACC_Total_Prac,Age,BlkTrial_Nr,Condition_Id,Consent,copy_of_factor1_tg1_task2,factor1_tg1_task2,Feedback,RESP,RESP_Frame,Reward,RT_FromFramePress,Sex,Targ,TargCol,TargPos,TotalMoney,TotalPoints,TotalPoints_prac,Trial_Nr_prac
568046,1,1,block_Practice,2,task_GetReady,1,"","","","",1,"","","","","","","","","","","","","","","",""
568046,1,1,block_Practice,2,task_Trng_Prac,2,1,1,"","",1,"","","","",K,ISI,"",519,"",K,red,10,"",0,0,""
568046,2,2,block_Practice,2,task_Trng_Prac,2,1,2,"","",1,"","","","",J,ISI,"",330,"",J,green,9,"",0,0,""
568046,3,3,block_Practice,2,task_Trng_Prac,2,1,3,"","",1,"","","","",K,ISI,"",348,"",K,green,11,"",0,0,""
568046,4,4,block_Practice,2,task_Trng_Prac,2,1,4,"","",1,"","","","",K,ISI,"",314,"",K,red,8,"",0,0,""
568046,5,5,block_Practice,2,task_Trng_Prac,2,1,5,"","",1,"","","","",J,ISI,"",328,"",J,blue,13,"",0,0,""
568046,6,6,block_Practice,2,task_Trng_Prac,2,1,6,"","",1,"","","","",J,ISI,"",352,"",J,blue,12,"",0,0,""
568046,1,1,block_Trng,3,task_GetReady,1,"","","","",1,"","","","","","","","","","","","","","","",""
568046,1,1,block_Trng,3,task_Trng,2,1,"","",1,1,"","",Block1,"",K,ISI,LR,407,"",K,blue,8,"",2,"",""
568046,2,2,block_Trng,3,task_Trng,2,1,"","",2,1,"","",Block1,"",J,ISI,LR,319,"",J,blue,13,"",4,"",""
568046,3,3,block_Trng,3,task_Trng,2,1,"","",3,1,"","",Block1,"",J,ISI,NR,323,"",J,green,8,"",4,"",""
568046,4,4,block_Trng,3,task_Trng,2,1,"","",4,1,"","",Block1,"",J,ISI,NR,331,"",J,green,10,"",4,"",""
568046,5,5,block_Trng,3,task_Trng,2,1,"","",5,1,"","",Block1,"",J,ISI,HR,316,"",J,red,10,"",14,"",""
568046,6,6,block_Trng,3,task_Trng,2,1,"","",6,1,"","",Block1,"",J,ISI,LR,302,"",J,blue,11,"",16,"",""
568046,7,7,block_Trng,3,task_Trng,2,1,"","",7,1,"","",Block1,"",K,ISI,HR,283,"",K,red,9,"",26,"",""
568046,8,8,block_Trng,3,task_Trng,2,1,"","",8,1,"","",Block1,"",K,ISI,NR,295,"",K,green,11,"",26,"",""
568046,9,9,block_Trng,3,task_Trng,2,1,"","",9,1,"","",Block1,"",K,ISI,LR,296,"",K,blue,10,"",28,"",""
568046,10,10,block_Trng,3,task_Trng,2,1,"","",10,1,"","",Block1,"",K,ISI,NR,472,"",K,green,13,"",28,"",""
568046,11,11,block_Trng,3,task_Trng,2,1,"","",11,1,"","",Block1,"",K,ISI,HR,503,"",K,red,11,"",38,"",""
568046,12,12,block_Trng,3,task_Trng,2,1,"","",12,1,"","",Block1,"",J,ISI,HR,318,"",J,red,8,"",48,"",""
568046,13,13,block_Trng,3,task_Trng,2,1,"","",13,1,"","",Block1,"",K,ISI,LR,336,"",K,blue,12,"",50,"",""
568046,14,14,block_Trng,3,task_Trng,2,1,"","",14,1,"","",Block1,"",K,ISI,NR,283,"",K,green,9,"",50,"",""
568046,15,15,block_Trng,3,task_Trng,2,1,"","",15,1,"","",Block1,"",J,ISI,NR,303,"",J,green,12,"",50,"",""
568046,16,16,block_Trng,3,task_Trng,2,1,"","",16,1,"","",Block1,"",J,ISI,LR,254,"",J,blue,9,"",52,"",""
568046,17,17,block_Trng,3,task_Trng,2,1,"","",17,1,"","",Block1,"",K,ISI,HR,437,"",K,red,13,"",62,"",""
568046,18,18,block_Trng,3,task_Trng,2,1,"","",18,1,"","",Block1,"",J,ISI,HR,267,"",J,red,12,"",72,"",""
568046,19,19,block_Trng,3,task_Trng,2,1,"","",1,2,"","",Block2,"",K,ISI,LR,243,"",K,blue,8,"",74,"",""
568046,20,20,block_Trng,3,task_Trng,2,1,"","",2,2,"","",Block2,"",J,ISI,LR,306,"",J,blue,13,"",76,"",""
568046,21,21,block_Trng,3,task_Trng,2,1,"","",3,2,"","",Block2,"",J,ISI,NR,304,"",J,green,8,"",76,"",""
568046,22,22,block_Trng,3,task_Trng,2,1,"","",4,2,"","",Block2,"",J,ISI,NR,290,"",J,green,10,"",76,"",""
568046,23,23,block_Trng,3,task_Trng,2,1,"","",5,2,"","",Block2,"",J,ISI,HR,341,"",J,red,10,"",86,"",""
568046,24,24,block_Trng,3,task_Trng,2,1,"","",6,2,"","",Block2,"",J,ISI,LR,316,"",J,blue,11,"",88,"",""
568046,25,25,block_Trng,3,task_Trng,2,1,"","",7,2,"","",Block2,"",K,ISI,HR,285,"",K,red,9,"",98,"",""
568046,26,26,block_Trng,3,task_Trng,2,1,"","",8,2,"","",Block2,"",K,ISI,NR,278,"",K,green,11,"",98,"",""
568046,27,27,block_Trng,3,task_Trng,2,1,"","",9,2,"","",Block2,"",K,ISI,LR,303,"",K,blue,10,"",100,"",""
568046,28,28,block_Trng,3,task_Trng,2,1,"","",10,2,"","",Block2,"",K,ISI,NR,309,"",K,green,13,"",100,"",""
568046,29,29,block_Trng,3,task_Trng,2,1,"","",11,2,"","",Block2,"",K,ISI,HR,313,"",K,red,11,"",110,"",""
568046,30,30,block_Trng,3,task_Trng,2,1,"","",12,2,"","",Block2,"",J,ISI,HR,347,"",J,red,8,"",120,"",""
568046,31,31,block_Trng,3,task_Trng,2,1,"","",13,2,"","",Block2,"",K,ISI,LR,283,"",K,blue,12,"",122,"",""
568046,32,32,block_Trng,3,task_Trng,2,1,"","",14,2,"","",Block2,"",K,ISI,NR,267,"",K,green,9,"",122,"",""
568046,33,33,block_Trng,3,task_Trng,2,1,"","",15,2,"","",Block2,"",J,ISI,NR,406,"",J,green,12,"",122,"",""
568046,34,34,block_Trng,3,task_Trng,2,1,"","",16,2,"","",Block2,"",J,ISI,LR,293,"",J,blue,9,"",124,"",""
568046,35,35,block_Trng,3,task_Trng,2,1,"","",17,2,"","",Block2,"",K,ISI,HR,305,"",K,red,13,"",134,"",""
568046,36,36,block_Trng,3,task_Trng,2,1,"","",18,2,"","",Block2,"",J,ISI,HR,526,"",J,red,12,"",144,"",""
568046,37,37,block_Trng,3,task_Trng,2,1,"","",1,3,"","",Block3,"",K,ISI,LR,248,"",K,blue,8,"",146,"",""
568046,38,38,block_Trng,3,task_Trng,2,1,"","",2,3,"","",Block3,"",J,ISI,LR,314,"",J,blue,13,"",148,"",""
568046,39,39,block_Trng,3,task_Trng,2,1,"","",3,3,"","",Block3,"",J,ISI,NR,297,"",J,green,8,"",148,"",""
568046,40,40,block_Trng,3,task_Trng,2,1,"","",4,3,"","",Block3,"",J,ISI,NR,251,"",J,green,10,"",148,"",""
568046,41,41,block_Trng,3,task_Trng,2,1,"","",5,3,"","",Block3,"",J,ISI,HR,306,"",J,red,10,"",158,"",""
568046,42,42,block_Trng,3,task_Trng,2,1,"","",6,3,"","",Block3,"",J,ISI,LR,294,"",J,blue,11,"",160,"",""
568046,43,43,block_Trng,3,task_Trng,2,1,"","",7,3,"","",Block3,"",K,ISI,HR,298,"",K,red,9,"",170,"",""
568046,44,44,block_Trng,3,task_Trng,2,1,"","",8,3,"","",Block3,"",K,ISI,NR,289,"",K,green,11,"",170,"",""
568046,45,45,block_Trng,3,task_Trng,2,1,"","",9,3,"","",Block3,"",K,ISI,LR,284,"",K,blue,10,"",172,"",""
568046,46,46,block_Trng,3,task_Trng,2,1,"","",10,3,"","",Block3,"",K,ISI,NR,292,"",K,green,13,"",172,"",""
568046,47,47,block_Trng,3,task_Trng,2,1,"","",11,3,"","",Block3,"",K,ISI,HR,288,"",K,red,11,"",182,"",""
568046,48,48,block_Trng,3,task_Trng,2,1,"","",12,3,"","",Block3,"",J,ISI,HR,296,"",J,red,8,"",192,"",""
568046,49,49,block_Trng,3,task_Trng,2,1,"","",13,3,"","",Block3,"",K,ISI,LR,305,"",K,blue,12,"",194,"",""
568046,50,50,block_Trng,3,task_Trng,2,1,"","",14,3,"","",Block3,"",K,ISI,NR,239,"",K,green,9,"",194,"",""
568046,51,51,block_Trng,3,task_Trng,2,1,"","",15,3,"","",Block3,"",J,ISI,NR,293,"",J,green,12,"",194,"",""
568046,52,52,block_Trng,3,task_Trng,2,1,"","",16,3,"","",Block3,"",J,ISI,LR,305,"",J,blue,9,"",196,"",""
568046,53,53,block_Trng,3,task_Trng,2,1,"","",17,3,"","",Block3,"",K,ISI,HR,287,"",K,red,13,"",206,"",""
568046,54,54,block_Trng,3,task_Trng,2,1,"","",18,3,"","",Block3,"",J,ISI,HR,543,"",J,red,12,"",216,"",""
568046,55,55,block_Trng,3,task_Trng,2,1,"","",1,4,"","",Block4,"",K,ISI,LR,329,"",K,blue,8,"",218,"",""
568046,56,56,block_Trng,3,task_Trng,2,1,"","",2,4,"","",Block4,"",J,ISI,LR,302,"",J,blue,13,"",220,"",""
568046,57,57,block_Trng,3,task_Trng,2,1,"","",3,4,"","",Block4,"",J,ISI,NR,299,"",J,green,8,"",220,"",""
568046,58,58,block_Trng,3,task_Trng,2,1,"","",4,4,"","",Block4,"",J,ISI,NR,394,"",J,green,10,"",220,"",""
568046,59,59,block_Trng,3,task_Trng,2,1,"","",5,4,"","",Block4,"",J,ISI,HR,299,"",J,red,10,"",230,"",""
568046,60,60,block_Trng,3,task_Trng,2,1,"","",6,4,"","",Block4,"",J,ISI,LR,354,"",J,blue,11,"",232,"",""
568046,61,61,block_Trng,3,task_Trng,2,1,"","",7,4,"","",Block4,"",K,Stim16,HR,17,"",K,red,9,"",242,"",""
568046,62,62,block_Trng,3,task_Trng,2,1,"","",8,4,"","",Block4,"",K,Stim16,NR,93,"",K,green,11,"",242,"",""
568046,63,63,block_Trng,3,task_Trng,2,1,"","",9,4,"","",Block4,"",K,Stim15,LR,7,"",K,blue,10,"",244,"",""
568046,64,64,block_Trng,3,task_Trng,2,1,"","",10,4,"","",Block4,"",K,Stim16,NR,107,"",K,green,13,"",244,"",""
568046,65,65,block_Trng,3,task_Trng,2,1,"","",11,4,"","",Block4,"",K,ISI,HR,338,"",K,red,11,"",254,"",""
568046,66,66,block_Trng,3,task_Trng,2,0,"","",12,4,"","",Block4,"",K,ISI,HR,713,"",J,red,8,"",254,"",""
568046,67,67,block_Trng,3,task_Trng,2,1,"","",13,4,"","",Block4,"",K,ISI,LR,311,"",K,blue,12,"",256,"",""
568046,68,68,block_Trng,3,task_Trng,2,1,"","",14,4,"","",Block4,"",K,ISI,NR,322,"",K,green,9,"",256,"",""
568046,69,69,block_Trng,3,task_Trng,2,1,"","",15,4,"","",Block4,"",J,ISI,NR,275,"",J,green,12,"",256,"",""
568046,70,70,block_Trng,3,task_Trng,2,1,"","",16,4,"","",Block4,"",J,ISI,LR,235,"",J,blue,9,"",258,"",""
568046,71,71,block_Trng,3,task_Trng,2,1,"","",17,4,"","",Block4,"",K,ISI,HR,302,"",K,red,13,"",268,"",""
568046,72,72,block_Trng,3,task_Trng,2,1,"","",18,4,"","",Block4,"",J,ISI,HR,313,"",J,red,12,"",278,"",""
568046,73,73,block_Trng,3,task_Trng,2,1,"","",1,5,"","",Block5,"",K,ISI,LR,269,"",K,blue,8,"",280,"",""
568046,74,74,block_Trng,3,task_Trng,2,1,"","",2,5,"","",Block5,"",J,ISI,LR,370,"",J,blue,13,"",282,"",""
568046,75,75,block_Trng,3,task_Trng,2,1,"","",3,5,"","",Block5,"",J,ISI,NR,268,"",J,green,8,"",282,"",""
568046,76,76,block_Trng,3,task_Trng,2,1,"","",4,5,"","",Block5,"",J,ISI,NR,77,"",J,green,10,"",282,"",""
568046,77,77,block_Trng,3,task_Trng,2,1,"","",5,5,"","",Block5,"",J,Stim13,HR,24,"",J,red,10,"",292,"",""
568046,78,78,block_Trng,3,task_Trng,2,1,"","",6,5,"","",Block5,"",J,Stim14,LR,93,"",J,blue,11,"",294,"",""
568046,79,79,block_Trng,3,task_Trng,2,1,"","",7,5,"","",Block5,"",K,Stim14,HR,4,"",K,red,9,"",304,"",""
568046,80,80,block_Trng,3,task_Trng,2,1,"","",8,5,"","",Block5,"",K,Stim13,NR,66,"",K,green,11,"",304,"",""
568046,81,81,block_Trng,3,task_Trng,2,1,"","",9,5,"","",Block5,"",K,Stim14,LR,14,"",K,blue,10,"",306,"",""
568046,82,82,block_Trng,3,task_Trng,2,1,"","",10,5,"","",Block5,"",K,ISI,NR,39,"",K,green,13,"",306,"",""
568046,83,83,block_Trng,3,task_Trng,2,1,"","",11,5,"","",Block5,"",K,Stim16,HR,15,"",K,red,11,"",316,"",""
568046,84,84,block_Trng,3,task_Trng,2,1,"","",12,5,"","",Block5,"",J,Stim10,HR,97,"",J,red,8,"",326,"",""
568046,85,85,block_Trng,3,task_Trng,2,1,"","",13,5,"","",Block5,"",K,Stim15,LR,1,"",K,blue,12,"",328,"",""
568046,86,86,block_Trng,3,task_Trng,2,1,"","",14,5,"","",Block5,"",K,Stim12,NR,14,"",K,green,9,"",328,"",""
568046,87,87,block_Trng,3,task_Trng,2,1,"","",15,5,"","",Block5,"",J,Stim15,NR,59,"",J,green,12,"",328,"",""
568046,88,88,block_Trng,3,task_Trng,2,1,"","",16,5,"","",Block5,"",J,Stim13,LR,14,"",J,blue,9,"",330,"",""
568046,89,89,block_Trng,3,task_Trng,2,1,"","",17,5,"","",Block5,"",K,Stim16,HR,2,"",K,red,13,"",340,"",""
568046,90,90,block_Trng,3,task_Trng,2,1,"","",18,5,"","",Block5,"",J,Stim15,HR,75,"",J,red,12,"",350,"",""
568046,91,91,block_Trng,3,task_Trng,2,1,"","",1,6,"","",Block6,"",K,Stim11,LR,24,"",K,blue,8,"",352,"",""
568046,92,92,block_Trng,3,task_Trng,2,1,"","",2,6,"","",Block6,"",J,ISI,LR,11,"",J,blue,13,"",354,"",""
568046,93,93,block_Trng,3,task_Trng,2,1,"","",3,6,"","",Block6,"",J,Stim10,NR,105,"",J,green,8,"",354,"",""
568046,94,94,block_Trng,3,task_Trng,2,1,"","",4,6,"","",Block6,"",J,Stim13,NR,29,"",J,green,10,"",354,"",""
568046,95,95,block_Trng,3,task_Trng,2,1,"","",5,6,"","",Block6,"",J,Stim13,HR,55,"",J,red,10,"",364,"",""
568046,96,96,block_Trng,3,task_Trng,2,1,"","",6,6,"","",Block6,"",J,Stim14,LR,114,"",J,blue,11,"",366,"",""
568046,97,97,block_Trng,3,task_Trng,2,0,"","",7,6,"","",Block6,"",J,Stim15,HR,21,"",K,red,9,"",366,"",""
568046,98,98,block_Trng,3,task_Trng,2,1,"","",8,6,"","",Block6,"",K,Stim14,NR,66,"",K,green,11,"",366,"",""
568046,99,99,block_Trng,3,task_Trng,2,1,"","",9,6,"","",Block6,"",K,Stim13,LR,50,"",K,blue,10,"",368,"",""
568046,100,100,block_Trng,3,task_Trng,2,1,"","",10,6,"","",Block6,"",K,Stim16,NR,12,"",K,green,13,"",368,"",""
568046,101,101,block_Trng,3,task_Trng,2,1,"","",11,6,"","",Block6,"",K,Stim14,HR,88,"",K,red,11,"",378,"",""
568046,102,102,block_Trng,3,task_Trng,2,1,"","",12,6,"","",Block6,"",J,Stim11,HR,14,"",J,red,8,"",388,"",""
568046,103,103,block_Trng,3,task_Trng,2,1,"","",13,6,"","",Block6,"",K,Stim14,LR,80,"",K,blue,12,"",390,"",""
568046,104,104,block_Trng,3,task_Trng,2,1,"","",14,6,"","",Block6,"",K,Stim12,NR,62,"",K,green,9,"",390,"",""
568046,105,105,block_Trng,3,task_Trng,2,1,"","",15,6,"","",Block6,"",J,Stim15,NR,20,"",J,green,12,"",390,"",""
568046,106,106,block_Trng,3,task_Trng,2,1,"","",16,6,"","",Block6,"",J,Stim12,LR,85,"",J,blue,9,"",392,"",""
568046,107,107,block_Trng,3,task_Trng,2,1,"","",17,6,"","",Block6,"",K,Stim15,HR,102,"",K,red,13,"",402,"",""
568046,108,108,block_Trng,3,task_Trng,2,1,"","",18,6,"","",Block6,"",J,Stim15,HR,35,"",J,red,12,"",412,"",""
568046,109,109,block_Trng,3,task_Trng,2,1,"","",1,7,"","",Block7,"",K,Stim12,LR,73,"",K,blue,8,"",414,"",""
568046,110,110,block_Trng,3,task_Trng,2,1,"","",2,7,"","",Block7,"",J,ISI,LR,399,"",J,blue,13,"",416,"",""
568046,111,111,block_Trng,3,task_Trng,2,1,"","",3,7,"","",Block7,"",J,Stim11,NR,49,"",J,green,8,"",416,"",""
568046,112,112,block_Trng,3,task_Trng,2,1,"","",4,7,"","",Block7,"",J,Stim13,NR,42,"",J,green,10,"",416,"",""
568046,113,113,block_Trng,3,task_Trng,2,1,"","",5,7,"","",Block7,"",J,Stim13,HR,10,"",J,red,10,"",426,"",""
568046,114,114,block_Trng,3,task_Trng,2,1,"","",6,7,"","",Block7,"",J,Stim14,LR,79,"",J,blue,11,"",428,"",""
568046,115,115,block_Trng,3,task_Trng,2,1,"","",7,7,"","",Block7,"",K,Stim13,HR,22,"",K,red,9,"",438,"",""
568046,116,116,block_Trng,3,task_Trng,2,1,"","",8,7,"","",Block7,"",K,Stim15,NR,115,"",K,green,11,"",438,"",""
568046,117,117,block_Trng,3,task_Trng,2,1,"","",9,7,"","",Block7,"",K,Stim14,LR,16,"",K,blue,10,"",440,"",""
568046,118,118,block_Trng,3,task_Trng,2,1,"","",10,7,"","",Block7,"",K,Stim15,NR,113,"",K,green,13,"",440,"",""
568046,119,119,block_Trng,3,task_Trng,2,1,"","",11,7,"","",Block7,"",K,Stim14,HR,44,"",K,red,11,"",450,"",""
568046,120,120,block_Trng,3,task_Trng,2,0,"","",12,7,"","",Block7,"",K,Stim13,HR,52,"",J,red,8,"",450,"",""
568046,121,121,block_Trng,3,task_Trng,2,1,"","",13,7,"","",Block7,"",K,Stim16,LR,7,"",K,blue,12,"",452,"",""
568046,122,122,block_Trng,3,task_Trng,2,1,"","",14,7,"","",Block7,"",K,Stim13,NR,32,"",K,green,9,"",452,"",""
568046,123,123,block_Trng,3,task_Trng,2,1,"","",15,7,"","",Block7,"",J,Stim16,NR,32,"",J,green,12,"",452,"",""
568046,124,124,block_Trng,3,task_Trng,2,1,"","",16,7,"","",Block7,"",J,Stim13,LR,69,"",J,blue,9,"",454,"",""
568046,125,125,block_Trng,3,task_Trng,2,1,"","",17,7,"","",Block7,"",K,Stim15,HR,82,"",K,red,13,"",464,"",""
568046,126,126,block_Trng,3,task_Trng,2,1,"","",18,7,"","",Block7,"",J,Stim16,HR,2,"",J,red,12,"",474,"",""
568046,127,127,block_Trng,3,task_Trng,2,1,"","",1,8,"","",Block8,"",K,Stim11,LR,52,"",K,blue,8,"",476,"",""
568046,128,128,block_Trng,3,task_Trng,2,1,"","",2,8,"","",Block8,"",J,Stim16,LR,57,"",J,blue,13,"",478,"",""
568046,129,129,block_Trng,3,task_Trng,2,1,"","",3,8,"","",Block8,"",J,Stim12,NR,47,"",J,green,8,"",478,"",""
568046,130,130,block_Trng,3,task_Trng,2,1,"","",4,8,"","",Block8,"",J,Stim15,NR,81,"",J,green,10,"",478,"",""
568046,131,131,block_Trng,3,task_Trng,2,1,"","",5,8,"","",Block8,"",J,Stim14,HR,72,"",J,red,10,"",488,"",""
568046,132,132,block_Trng,3,task_Trng,2,1,"","",6,8,"","",Block8,"",J,ISI,LR,66,"",J,blue,11,"",490,"",""
568046,133,133,block_Trng,3,task_Trng,2,1,"","",7,8,"","",Block8,"",K,Stim13,HR,9,"",K,red,9,"",500,"",""
568046,134,134,block_Trng,3,task_Trng,2,1,"","",8,8,"","",Block8,"",K,Stim14,NR,5,"",K,green,11,"",500,"",""
568046,135,135,block_Trng,3,task_Trng,2,1,"","",9,8,"","",Block8,"",K,Stim13,LR,49,"",K,blue,10,"",502,"",""
568046,136,136,block_Trng,3,task_Trng,2,1,"","",10,8,"","",Block8,"",K,Stim16,NR,61,"",K,green,13,"",502,"",""
568046,137,137,block_Trng,3,task_Trng,2,1,"","",11,8,"","",Block8,"",K,Stim14,HR,34,"",K,red,11,"",512,"",""
568046,138,138,block_Trng,3,task_Trng,2,1,"","",12,8,"","",Block8,"",J,Stim13,HR,104,"",J,red,8,"",522,"",""
568046,139,139,block_Trng,3,task_Trng,2,1,"","",13,8,"","",Block8,"",K,Stim15,LR,35,"",K,blue,12,"",524,"",""
568046,140,140,block_Trng,3,task_Trng,2,1,"","",14,8,"","",Block8,"",K,Stim15,NR,7,"",K,green,9,"",524,"",""
568046,141,141,block_Trng,3,task_Trng,2,1,"","",15,8,"","",Block8,"",J,Stim16,NR,2,"",J,green,12,"",524,"",""
568046,142,142,block_Trng,3,task_Trng,2,0,"","",16,8,"","",Block8,"",K,Stim13,LR,81,"",J,blue,9,"",524,"",""
568046,143,143,block_Trng,3,task_Trng,2,1,"","",17,8,"","",Block8,"",K,Stim16,HR,109,"",K,red,13,"",534,"",""
568046,144,144,block_Trng,3,task_Trng,2,1,"","",18,8,"","",Block8,"",J,Stim15,HR,29,"",J,red,12,"",544,"",""
568046,145,145,block_Trng,3,task_Trng,2,1,"","",1,9,"","",Block9,"",K,Stim12,LR,56,"",K,blue,8,"",546,"",""
568046,146,146,block_Trng,3,task_Trng,2,1,"","",2,9,"","",Block9,"",J,Stim16,LR,21,"",J,blue,13,"",548,"",""
568046,147,147,block_Trng,3,task_Trng,2,1,"","",3,9,"","",Block9,"",J,Stim12,NR,7,"",J,green,8,"",548,"",""
568046,148,148,block_Trng,3,task_Trng,2,1,"","",4,9,"","",Block9,"",J,Stim13,NR,76,"",J,green,10,"",548,"",""
568046,149,149,block_Trng,3,task_Trng,2,1,"","",5,9,"","",Block9,"",J,Stim13,HR,105,"",J,red,10,"",558,"",""
568046,150,150,block_Trng,3,task_Trng,2,1,"","",6,9,"","",Block9,"",J,Stim14,LR,69,"",J,blue,11,"",560,"",""
568046,151,151,block_Trng,3,task_Trng,2,1,"","",7,9,"","",Block9,"",K,Stim14,HR,108,"",K,red,9,"",570,"",""
568046,152,152,block_Trng,3,task_Trng,2,1,"","",8,9,"","",Block9,"",K,Stim14,NR,64,"",K,green,11,"",570,"",""
568046,153,153,block_Trng,3,task_Trng,2,1,"","",9,9,"","",Block9,"",K,Stim13,LR,47,"",K,blue,10,"",572,"",""
568046,154,154,block_Trng,3,task_Trng,2,1,"","",10,9,"","",Block9,"",K,Stim16,NR,59,"",K,green,13,"",572,"",""
568046,155,155,block_Trng,3,task_Trng,2,1,"","",11,9,"","",Block9,"",K,Stim15,HR,16,"",K,red,11,"",582,"",""
568046,156,156,block_Trng,3,task_Trng,2,1,"","",12,9,"","",Block9,"",J,Stim11,HR,75,"",J,red,8,"",592,"",""
568046,157,157,block_Trng,3,task_Trng,2,1,"","",13,9,"","",Block9,"",K,Stim14,LR,64,"",K,blue,12,"",594,"",""
568046,158,158,block_Trng,3,task_Trng,2,1,"","",14,9,"","",Block9,"",K,Stim12,NR,3,"",K,green,9,"",594,"",""
568046,159,159,block_Trng,3,task_Trng,2,1,"","",15,9,"","",Block9,"",J,Stim16,NR,2,"",J,green,12,"",594,"",""
568046,160,160,block_Trng,3,task_Trng,2,1,"","",16,9,"","",Block9,"",J,Stim12,LR,42,"",J,blue,9,"",596,"",""
568046,161,161,block_Trng,3,task_Trng,2,1,"","",17,9,"","",Block9,"",K,Stim16,HR,107,"",K,red,13,"",606,"",""
568046,162,162,block_Trng,3,task_Trng,2,1,"","",18,9,"","",Block9,"",J,Stim15,HR,62,"",J,red,12,"",616,"",""
568046,163,163,block_Trng,3,task_Trng,2,1,"","",1,10,"","",Block10,"",K,Stim11,LR,8,"",K,blue,8,"",618,"",""
568046,164,164,block_Trng,3,task_Trng,2,1,"","",2,10,"","",Block10,"",J,ISI,LR,27,"",J,blue,13,"",620,"",""
568046,165,165,block_Trng,3,task_Trng,2,1,"","",3,10,"","",Block10,"",J,Stim12,NR,108,"",J,green,8,"",620,"",""
568046,166,166,block_Trng,3,task_Trng,2,1,"","",4,10,"","",Block10,"",J,Stim13,NR,114,"",J,green,10,"",620,"",""
568046,167,167,block_Trng,3,task_Trng,2,0,"","",5,10,"","",Block10,"",K,ISI,HR,845,"",J,red,10,"",620,"",""
568046,168,168,block_Trng,3,task_Trng,2,1,"","",6,10,"","",Block10,"",J,Stim14,LR,101,"",J,blue,11,"",622,"",""
568046,169,169,block_Trng,3,task_Trng,2,1,"","",7,10,"","",Block10,"",K,Stim12,HR,99,"",K,red,9,"",632,"",""
568046,170,170,block_Trng,3,task_Trng,2,1,"","",8,10,"","",Block10,"",K,Stim13,NR,94,"",K,green,11,"",632,"",""
568046,171,171,block_Trng,3,task_Trng,2,1,"","",9,10,"","",Block10,"",K,Stim13,LR,47,"",K,blue,10,"",634,"",""
568046,172,172,block_Trng,3,task_Trng,2,1,"","",10,10,"","",Block10,"",K,Stim16,NR,4,"",K,green,13,"",634,"",""
568046,173,173,block_Trng,3,task_Trng,2,1,"","",11,10,"","",Block10,"",K,Stim15,HR,7,"",K,red,11,"",644,"",""
568046,174,174,block_Trng,3,task_Trng,2,1,"","",12,10,"","",Block10,"",J,Stim11,HR,100,"",J,red,8,"",654,"",""
568046,175,175,block_Trng,3,task_Trng,2,1,"","",13,10,"","",Block10,"",K,Stim15,LR,20,"",K,blue,12,"",656,"",""
568046,176,176,block_Trng,3,task_Trng,2,1,"","",14,10,"","",Block10,"",K,Stim13,NR,27,"",K,green,9,"",656,"",""
568046,177,177,block_Trng,3,task_Trng,2,1,"","",15,10,"","",Block10,"",J,Stim15,NR,28,"",J,green,12,"",656,"",""
568046,178,178,block_Trng,3,task_Trng,2,1,"","",16,10,"","",Block10,"",J,Stim12,LR,105,"",J,blue,9,"",658,"",""
568046,179,179,block_Trng,3,task_Trng,2,1,"","",17,10,"","",Block10,"",K,Stim16,HR,46,"",K,red,13,"",668,"",""
568046,180,180,block_Trng,3,task_Trng,2,1,"","",18,10,"","",Block10,"",J,Stim15,HR,7,"",J,red,12,"",678,"",""
568046,181,181,block_Trng,3,task_Trng,2,1,"","",1,11,"","",Block11,"",K,Stim11,LR,5,"",K,blue,8,"",680,"",""
568046,182,182,block_Trng,3,task_Trng,2,1,"","",2,11,"","",Block11,"",J,Stim16,LR,73,"",J,blue,13,"",682,"",""
568046,183,183,block_Trng,3,task_Trng,2,1,"","",3,11,"","",Block11,"",J,Stim12,NR,74,"",J,green,8,"",682,"",""
568046,184,184,block_Trng,3,task_Trng,2,1,"","",4,11,"","",Block11,"",J,Stim16,NR,2,"",J,green,10,"",682,"",""
568046,185,185,block_Trng,3,task_Trng,2,1,"","",5,11,"","",Block11,"",J,Stim13,HR,57,"",J,red,10,"",692,"",""
568046,186,186,block_Trng,3,task_Trng,2,1,"","",6,11,"","",Block11,"",J,Stim14,LR,74,"",J,blue,11,"",694,"",""
568046,187,187,block_Trng,3,task_Trng,2,1,"","",7,11,"","",Block11,"",K,Stim12,HR,26,"",K,red,9,"",704,"",""
568046,188,188,block_Trng,3,task_Trng,2,1,"","",8,11,"","",Block11,"",K,Stim14,NR,18,"",K,green,11,"",704,"",""
568046,189,189,block_Trng,3,task_Trng,2,1,"","",9,11,"","",Block11,"",K,Stim13,LR,13,"",K,blue,10,"",706,"",""
568046,190,190,block_Trng,3,task_Trng,2,1,"","",10,11,"","",Block11,"",K,Stim16,NR,69,"",K,green,13,"",706,"",""
568046,191,191,block_Trng,3,task_Trng,2,1,"","",11,11,"","",Block11,"",K,Stim15,HR,28,"",K,red,11,"",716,"",""
568046,192,192,block_Trng,3,task_Trng,2,1,"","",12,11,"","",Block11,"",J,ISI,HR,503,"",J,red,8,"",726,"",""
568046,193,193,block_Trng,3,task_Trng,2,1,"","",13,11,"","",Block11,"",K,Stim15,LR,10,"",K,blue,12,"",728,"",""
568046,194,194,block_Trng,3,task_Trng,2,1,"","",14,11,"","",Block11,"",K,Stim12,NR,8,"",K,green,9,"",728,"",""
568046,195,195,block_Trng,3,task_Trng,2,1,"","",15,11,"","",Block11,"",J,Stim15,NR,50,"",J,green,12,"",728,"",""
568046,196,196,block_Trng,3,task_Trng,2,1,"","",16,11,"","",Block11,"",J,Stim13,LR,59,"",J,blue,9,"",730,"",""
568046,197,197,block_Trng,3,task_Trng,2,1,"","",17,11,"","",Block11,"",K,Stim16,HR,27,"",K,red,13,"",740,"",""
568046,198,198,block_Trng,3,task_Trng,2,1,"","",18,11,"","",Block11,"",J,Stim15,HR,95,"",J,red,12,"",750,"",""
568046,199,199,block_Trng,3,task_Trng,2,1,"","",1,12,"","",Block12,"",K,Stim11,LR,14,"",K,blue,8,"",752,"",""
568046,200,200,block_Trng,3,task_Trng,2,1,"","",2,12,"","",Block12,"",J,ISI,LR,15,"",J,blue,13,"",754,"",""
568046,201,201,block_Trng,3,task_Trng,2,1,"","",3,12,"","",Block12,"",J,Stim11,NR,90,"",J,green,8,"",754,"",""
568046,202,202,block_Trng,3,task_Trng,2,1,"","",4,12,"","",Block12,"",J,Stim14,NR,12,"",J,green,10,"",754,"",""
568046,203,203,block_Trng,3,task_Trng,2,1,"","",5,12,"","",Block12,"",J,Stim13,HR,61,"",J,red,10,"",764,"",""
568046,204,204,block_Trng,3,task_Trng,2,1,"","",6,12,"","",Block12,"",J,Stim15,LR,7,"",J,blue,11,"",766,"",""
568046,205,205,block_Trng,3,task_Trng,2,1,"","",7,12,"","",Block12,"",K,Stim14,HR,16,"",K,red,9,"",776,"",""
568046,206,206,block_Trng,3,task_Trng,2,0,"","",8,12,"","",Block12,"",J,ISI,NR,463,"",K,green,11,"",776,"",""
568046,207,207,block_Trng,3,task_Trng,2,1,"","",9,12,"","",Block12,"",K,Stim12,LR,81,"",K,blue,10,"",778,"",""
568046,208,208,block_Trng,3,task_Trng,2,1,"","",10,12,"","",Block12,"",K,Stim15,NR,91,"",K,green,13,"",778,"",""
568046,209,209,block_Trng,3,task_Trng,2,1,"","",11,12,"","",Block12,"",K,Stim14,HR,78,"",K,red,11,"",788,"",""
568046,210,210,block_Trng,3,task_Trng,2,1,"","",12,12,"","",Block12,"",J,Stim11,HR,98,"",J,red,8,"",798,"",""
568046,211,211,block_Trng,3,task_Trng,2,1,"","",13,12,"","",Block12,"",K,Stim15,LR,95,"",K,blue,12,"",800,"",""
568046,212,212,block_Trng,3,task_Trng,2,1,"","",14,12,"","",Block12,"",K,Stim14,NR,61,"",K,green,9,"",800,"",""
568046,213,213,block_Trng,3,task_Trng,2,1,"","",15,12,"","",Block12,"",J,Stim15,NR,11,"",J,green,12,"",800,"",""
568046,214,214,block_Trng,3,task_Trng,2,1,"","",16,12,"","",Block12,"",J,Stim12,LR,53,"",J,blue,9,"",802,"",""
568046,215,215,block_Trng,3,task_Trng,2,1,"","",17,12,"","",Block12,"",K,Stim15,HR,74,"",K,red,13,"",812,"",""
568046,216,216,block_Trng,3,task_Trng,2,1,"","",18,12,"","",Block12,"",J,ISI,HR,27,"",J,red,12,"",822,"",""
568046,217,217,block_Trng,3,task_Trng,2,1,"","",1,13,"","",Block13,"",K,Stim11,LR,49,"",K,blue,8,"",824,"",""
568046,218,218,block_Trng,3,task_Trng,2,1,"","",2,13,"","",Block13,"",J,ISI,LR,57,"",J,blue,13,"",826,"",""
568046,219,219,block_Trng,3,task_Trng,2,1,"","",3,13,"","",Block13,"",J,Stim13,NR,61,"",J,green,8,"",826,"",""
568046,220,220,block_Trng,3,task_Trng,2,1,"","",4,13,"","",Block13,"",J,Stim13,NR,74,"",J,green,10,"",826,"",""
568046,221,221,block_Trng,3,task_Trng,2,1,"","",5,13,"","",Block13,"",J,Stim14,HR,34,"",J,red,10,"",836,"",""
568046,222,222,block_Trng,3,task_Trng,2,1,"","",6,13,"","",Block13,"",J,Stim14,LR,51,"",J,blue,11,"",838,"",""
568046,223,223,block_Trng,3,task_Trng,2,0,"","",7,13,"","",Block13,"",J,Stim13,HR,114,"",K,red,9,"",838,"",""
568046,224,224,block_Trng,3,task_Trng,2,1,"","",8,13,"","",Block13,"",K,Stim14,NR,13,"",K,green,11,"",838,"",""
568046,225,225,block_Trng,3,task_Trng,2,1,"","",9,13,"","",Block13,"",K,Stim13,LR,14,"",K,blue,10,"",840,"",""
568046,226,226,block_Trng,3,task_Trng,2,1,"","",10,13,"","",Block13,"",K,Stim16,NR,29,"",K,green,13,"",840,"",""
568046,227,227,block_Trng,3,task_Trng,2,1,"","",11,13,"","",Block13,"",K,Stim14,HR,25,"",K,red,11,"",850,"",""
568046,228,228,block_Trng,3,task_Trng,2,1,"","",12,13,"","",Block13,"",J,Stim11,HR,111,"",J,red,8,"",860,"",""
568046,229,229,block_Trng,3,task_Trng,2,1,"","",13,13,"","",Block13,"",K,Stim15,LR,67,"",K,blue,12,"",862,"",""
568046,230,230,block_Trng,3,task_Trng,2,1,"","",14,13,"","",Block13,"",K,Stim13,NR,86,"",K,green,9,"",862,"",""
568046,231,231,block_Trng,3,task_Trng,2,1,"","",15,13,"","",Block13,"",J,Stim15,NR,58,"",J,green,12,"",862,"",""
568046,232,232,block_Trng,3,task_Trng,2,0,"","",16,13,"","",Block13,"",K,Stim13,LR,76,"",J,blue,9,"",862,"",""
568046,233,233,block_Trng,3,task_Trng,2,1,"","",17,13,"","",Block13,"",K,Stim15,HR,84,"",K,red,13,"",872,"",""
568046,234,234,block_Trng,3,task_Trng,2,1,"","",18,13,"","",Block13,"",J,Stim16,HR,51,"",J,red,12,"",882,"",""
568046,235,235,block_Trng,3,task_Trng,2,1,"","",1,14,"","",Block14,"",K,Stim12,LR,28,"",K,blue,8,"",884,"",""
568046,236,236,block_Trng,3,task_Trng,2,1,"","",2,14,"","",Block14,"",J,Stim16,LR,114,"",J,blue,13,"",886,"",""
568046,237,237,block_Trng,3,task_Trng,2,1,"","",3,14,"","",Block14,"",J,Stim12,NR,53,"",J,green,8,"",886,"",""
568046,238,238,block_Trng,3,task_Trng,2,1,"","",4,14,"","",Block14,"",J,Stim13,NR,75,"",J,green,10,"",886,"",""
568046,239,239,block_Trng,3,task_Trng,2,1,"","",5,14,"","",Block14,"",J,Stim14,HR,13,"",J,red,10,"",896,"",""
568046,240,240,block_Trng,3,task_Trng,2,1,"","",6,14,"","",Block14,"",J,Stim14,LR,52,"",J,blue,11,"",898,"",""
568046,241,241,block_Trng,3,task_Trng,2,1,"","",7,14,"","",Block14,"",K,Stim12,HR,15,"",K,red,9,"",908,"",""
568046,242,242,block_Trng,3,task_Trng,2,1,"","",8,14,"","",Block14,"",K,Stim15,NR,15,"",K,green,11,"",908,"",""
568046,243,243,block_Trng,3,task_Trng,2,1,"","",9,14,"","",Block14,"",K,Stim13,LR,6,"",K,blue,10,"",910,"",""
568046,244,244,block_Trng,3,task_Trng,2,1,"","",10,14,"","",Block14,"",K,Stim16,NR,89,"",K,green,13,"",910,"",""
568046,245,245,block_Trng,3,task_Trng,2,1,"","",11,14,"","",Block14,"",K,Stim14,HR,112,"",K,red,11,"",920,"",""
568046,246,246,block_Trng,3,task_Trng,2,1,"","",12,14,"","",Block14,"",J,Stim12,HR,6,"",J,red,8,"",930,"",""
568046,247,247,block_Trng,3,task_Trng,2,1,"","",13,14,"","",Block14,"",K,Stim16,LR,32,"",K,blue,12,"",932,"",""
568046,248,248,block_Trng,3,task_Trng,2,1,"","",14,14,"","",Block14,"",K,Stim13,NR,10,"",K,green,9,"",932,"",""
568046,249,249,block_Trng,3,task_Trng,2,1,"","",15,14,"","",Block14,"",J,Stim15,NR,74,"",J,green,12,"",932,"",""
568046,250,250,block_Trng,3,task_Trng,2,1,"","",16,14,"","",Block14,"",J,Stim14,LR,6,"",J,blue,9,"",934,"",""
568046,251,251,block_Trng,3,task_Trng,2,1,"","",17,14,"","",Block14,"",K,Stim16,HR,88,"",K,red,13,"",944,"",""
568046,252,252,block_Trng,3,task_Trng,2,1,"","",18,14,"","",Block14,"",J,ISI,HR,38,"",J,red,12,"",954,"",""
568046,253,253,block_Trng,3,task_Trng,2,1,"","",1,15,"","",Block15,"",K,Stim13,LR,5,"",K,blue,8,"",956,"",""
568046,254,254,block_Trng,3,task_Trng,2,1,"","",2,15,"","",Block15,"",J,Stim16,LR,29,"",J,blue,13,"",958,"",""
568046,255,255,block_Trng,3,task_Trng,2,1,"","",3,15,"","",Block15,"",J,Stim12,NR,61,"",J,green,8,"",958,"",""
568046,256,256,block_Trng,3,task_Trng,2,1,"","",4,15,"","",Block15,"",J,Stim13,NR,118,"",J,green,10,"",958,"",""
568046,257,257,block_Trng,3,task_Trng,2,1,"","",5,15,"","",Block15,"",J,Stim15,HR,110,"",J,red,10,"",968,"",""
568046,258,258,block_Trng,3,task_Trng,2,1,"","",6,15,"","",Block15,"",J,Stim15,LR,96,"",J,blue,11,"",970,"",""
568046,259,259,block_Trng,3,task_Trng,2,1,"","",7,15,"","",Block15,"",K,Stim12,HR,55,"",K,red,9,"",980,"",""
568046,260,260,block_Trng,3,task_Trng,2,1,"","",8,15,"","",Block15,"",K,Stim14,NR,20,"",K,green,11,"",980,"",""
568046,261,261,block_Trng,3,task_Trng,2,1,"","",9,15,"","",Block15,"",K,Stim13,LR,37,"",K,blue,10,"",982,"",""
568046,262,262,block_Trng,3,task_Trng,2,1,"","",10,15,"","",Block15,"",K,Stim15,NR,113,"",K,green,13,"",982,"",""
568046,263,263,block_Trng,3,task_Trng,2,1,"","",11,15,"","",Block15,"",K,Stim14,HR,68,"",K,red,11,"",992,"",""
568046,264,264,block_Trng,3,task_Trng,2,1,"","",12,15,"","",Block15,"",J,Stim11,HR,85,"",J,red,8,"",1002,"",""
568046,265,265,block_Trng,3,task_Trng,2,1,"","",13,15,"","",Block15,"",K,Stim15,LR,13,"",K,blue,12,"",1004,"",""
568046,266,266,block_Trng,3,task_Trng,2,1,"","",14,15,"","",Block15,"",K,ISI,NR,240,"",K,green,9,"",1004,"",""
568046,267,267,block_Trng,3,task_Trng,2,1,"","",15,15,"","",Block15,"",J,ISI,NR,146,"",J,green,12,"",1004,"",""
568046,268,268,block_Trng,3,task_Trng,2,1,"","",16,15,"","",Block15,"",J,Stim14,LR,10,"",J,blue,9,"",1006,"",""
568046,269,269,block_Trng,3,task_Trng,2,1,"","",17,15,"","",Block15,"",K,Stim15,HR,112,"",K,red,13,"",1016,"",""
568046,270,270,block_Trng,3,task_Trng,2,1,"","",18,15,"","",Block15,"",J,Stim15,HR,57,"",J,red,12,"",1026,"",""
568046,271,271,block_Trng,3,task_Trng,2,1,"","",1,16,"","",Block16',"",K,Stim11,LR,57,"",K,blue,8,"",1028,"",""
568046,272,272,block_Trng,3,task_Trng,2,1,"","",2,16,"","",Block16',"",J,Stim16,LR,92,"",J,blue,13,"",1030,"",""
568046,273,273,block_Trng,3,task_Trng,2,1,"","",3,16,"","",Block16',"",J,Stim11,NR,81,"",J,green,8,"",1030,"",""
568046,274,274,block_Trng,3,task_Trng,2,1,"","",4,16,"","",Block16',"",J,Stim13,NR,55,"",J,green,10,"",1030,"",""
568046,275,275,block_Trng,3,task_Trng,2,1,"","",5,16,"","",Block16',"",J,Stim14,HR,8,"",J,red,10,"",1040,"",""
568046,276,276,block_Trng,3,task_Trng,2,1,"","",6,16,"","",Block16',"",J,Stim14,LR,66,"",J,blue,11,"",1042,"",""
568046,277,277,block_Trng,3,task_Trng,2,1,"","",7,16,"","",Block16',"",K,Stim12,HR,74,"",K,red,9,"",1052,"",""
568046,278,278,block_Trng,3,task_Trng,2,1,"","",8,16,"","",Block16',"",K,Stim14,NR,60,"",K,green,11,"",1052,"",""
568046,279,279,block_Trng,3,task_Trng,2,0,"","",9,16,"","",Block16',"",J,Stim14,LR,34,"",K,blue,10,"",1052,"",""
568046,280,280,block_Trng,3,task_Trng,2,1,"","",10,16,"","",Block16',"",K,Stim15,NR,73,"",K,green,13,"",1052,"",""
568046,281,281,block_Trng,3,task_Trng,2,1,"","",11,16,"","",Block16',"",K,Stim14,HR,0,"",K,red,11,"",1062,"",""
568046,282,282,block_Trng,3,task_Trng,2,1,"","",12,16,"","",Block16',"",J,Stim11,HR,74,"",J,red,8,"",1072,"",""
568046,283,283,block_Trng,3,task_Trng,2,1,"","",13,16,"","",Block16',"",K,ISI,LR,66,"",K,blue,12,"",1074,"",""
568046,284,284,block_Trng,3,task_Trng,2,1,"","",14,16,"","",Block16',"",K,Stim12,NR,56,"",K,green,9,"",1074,"",""
568046,285,285,block_Trng,3,task_Trng,2,1,"","",15,16,"","",Block16',"",J,Stim15,NR,81,"",J,green,12,"",1074,"",""
568046,286,286,block_Trng,3,task_Trng,2,1,"","",16,16,"","",Block16',"",J,Stim13,LR,48,"",J,blue,9,"",1076,"",""
568046,287,287,block_Trng,3,task_Trng,2,1,"","",17,16,"","",Block16',"",K,ISI,HR,38,"",K,red,13,"",1086,"",""
568046,288,288,block_Trng,3,task_Trng,2,1,"","",18,16,"","",Block16',"",J,Stim14,HR,101,"",J,red,12,"",1096,"",""
568046,289,289,block_Trng,3,task_Trng,2,1,"","",1,17,"","",Block17,"",K,Stim11,LR,67,"",K,blue,8,"",1098,"",""
568046,290,290,block_Trng,3,task_Trng,2,1,"","",2,17,"","",Block17,"",J,ISI,LR,1,"",J,blue,13,"",1100,"",""
568046,291,291,block_Trng,3,task_Trng,2,1,"","",3,17,"","",Block17,"",J,Stim11,NR,80,"",J,green,8,"",1100,"",""
568046,292,292,block_Trng,3,task_Trng,2,1,"","",4,17,"","",Block17,"",J,ISI,NR,435,"",J,green,10,"",1100,"",""
568046,293,293,block_Trng,3,task_Trng,2,1,"","",5,17,"","",Block17,"",J,Stim14,HR,38,"",J,red,10,"",1110,"",""
568046,294,294,block_Trng,3,task_Trng,2,1,"","",6,17,"","",Block17,"",J,Stim15,LR,8,"",J,blue,11,"",1112,"",""
568046,295,295,block_Trng,3,task_Trng,2,1,"","",7,17,"","",Block17,"",K,Stim12,HR,91,"",K,red,9,"",1122,"",""
568046,296,296,block_Trng,3,task_Trng,2,1,"","",8,17,"","",Block17,"",K,Stim15,NR,9,"",K,green,11,"",1122,"",""
568046,297,297,block_Trng,3,task_Trng,2,1,"","",9,17,"","",Block17,"",K,Stim13,LR,40,"",K,blue,10,"",1124,"",""
568046,298,298,block_Trng,3,task_Trng,2,1,"","",10,17,"","",Block17,"",K,Stim16,NR,80,"",K,green,13,"",1124,"",""
568046,299,299,block_Trng,3,task_Trng,2,1,"","",11,17,"","",Block17,"",K,Stim14,HR,69,"",K,red,11,"",1134,"",""
568046,300,300,block_Trng,3,task_Trng,2,1,"","",12,17,"","",Block17,"",J,Stim11,HR,113,"",J,red,8,"",1144,"",""
568046,301,301,block_Trng,3,task_Trng,2,1,"","",13,17,"","",Block17,"",K,Stim15,LR,16,"",K,blue,12,"",1146,"",""
568046,302,302,block_Trng,3,task_Trng,2,1,"","",14,17,"","",Block17,"",K,Stim12,NR,114,"",K,green,9,"",1146,"",""
568046,303,303,block_Trng,3,task_Trng,2,1,"","",15,17,"","",Block17,"",J,Stim15,NR,116,"",J,green,12,"",1146,"",""
568046,304,304,block_Trng,3,task_Trng,2,1,"","",16,17,"","",Block17,"",J,Stim13,LR,28,"",J,blue,9,"",1148,"",""
568046,305,305,block_Trng,3,task_Trng,2,1,"","",17,17,"","",Block17,"",K,Stim16,HR,27,"",K,red,13,"",1158,"",""
568046,306,306,block_Trng,3,task_Trng,2,1,"","",18,17,"","",Block17,"",J,Stim16,HR,81,"",J,red,12,"",1168,"",""
568046,307,307,block_Trng,3,task_Trng,2,1,"","",1,18,"","",Block18,"",K,Stim12,LR,20,"",K,blue,8,"",1170,"",""
568046,308,308,block_Trng,3,task_Trng,2,1,"","",2,18,"","",Block18,"",J,Stim16,LR,56,"",J,blue,13,"",1172,"",""
568046,309,309,block_Trng,3,task_Trng,2,1,"","",3,18,"","",Block18,"",J,Stim16,NR,7,"",J,green,8,"",1172,"",""
568046,310,310,block_Trng,3,task_Trng,2,1,"","",4,18,"","",Block18,"",J,Stim13,NR,99,"",J,green,10,"",1172,"",""
568046,311,311,block_Trng,3,task_Trng,2,1,"","",5,18,"","",Block18,"",J,Stim13,HR,79,"",J,red,10,"",1182,"",""
568046,312,312,block_Trng,3,task_Trng,2,1,"","",6,18,"","",Block18,"",J,Stim15,LR,7,"",J,blue,11,"",1184,"",""
568046,313,313,block_Trng,3,task_Trng,2,1,"","",7,18,"","",Block18,"",K,Stim14,HR,117,"",K,red,9,"",1194,"",""
568046,314,314,block_Trng,3,task_Trng,2,1,"","",8,18,"","",Block18,"",K,Stim15,NR,30,"",K,green,11,"",1194,"",""
568046,315,315,block_Trng,3,task_Trng,2,1,"","",9,18,"","",Block18,"",K,Stim13,LR,18,"",K,blue,10,"",1196,"",""
568046,316,316,block_Trng,3,task_Trng,2,1,"","",10,18,"","",Block18,"",K,Stim16,NR,16,"",K,green,13,"",1196,"",""
568046,317,317,block_Trng,3,task_Trng,2,1,"","",11,18,"","",Block18,"",K,Stim13,HR,117,"",K,red,11,"",1206,"",""
568046,318,318,block_Trng,3,task_Trng,2,1,"","",12,18,"","",Block18,"",J,Stim11,HR,89,"",J,red,8,"",1216,"",""
568046,319,319,block_Trng,3,task_Trng,2,1,"","",13,18,"","",Block18,"",K,Stim15,LR,30,"",K,blue,12,"",1218,"",""
568046,320,320,block_Trng,3,task_Trng,2,1,"","",14,18,"","",Block18,"",K,Stim13,NR,69,"",K,green,9,"",1218,"",""
568046,321,321,block_Trng,3,task_Trng,2,1,"","",15,18,"","",Block18,"",J,Stim16,NR,15,"",J,green,12,"",1218,"",""
568046,322,322,block_Trng,3,task_Trng,2,1,"","",16,18,"","",Block18,"",J,Stim12,LR,116,"",J,blue,9,"",1220,"",""
568046,323,323,block_Trng,3,task_Trng,2,1,"","",17,18,"","",Block18,"",K,Stim16,HR,49,"",K,red,13,"",1230,"",""
568046,324,324,block_Trng,3,task_Trng,2,1,"","",18,18,"","",Block18,"",J,Stim15,HR,56,"",J,red,12,"",1240,"",""
568046,325,325,block_Trng,3,task_Trng,2,1,"","",1,19,"","",Block19,"",K,Stim11,LR,41,"",K,blue,8,"",1242,"",""
568046,326,326,block_Trng,3,task_Trng,2,1,"","",2,19,"","",Block19,"",J,Stim16,LR,106,"",J,blue,13,"",1244,"",""
568046,327,327,block_Trng,3,task_Trng,2,1,"","",3,19,"","",Block19,"",J,Stim12,NR,2,"",J,green,8,"",1244,"",""
568046,328,328,block_Trng,3,task_Trng,2,1,"","",4,19,"","",Block19,"",J,Stim14,NR,34,"",J,green,10,"",1244,"",""
568046,329,329,block_Trng,3,task_Trng,2,0,"","",5,19,"","",Block19,"",K,ISI,HR,120,"",J,red,10,"",1244,"",""
568046,330,330,block_Trng,3,task_Trng,2,1,"","",6,19,"","",Block19,"",J,Stim14,LR,85,"",J,blue,11,"",1246,"",""
568046,331,331,block_Trng,3,task_Trng,2,1,"","",7,19,"","",Block19,"",K,Stim12,HR,21,"",K,red,9,"",1256,"",""
568046,332,332,block_Trng,3,task_Trng,2,1,"","",8,19,"","",Block19,"",K,Stim13,NR,114,"",K,green,11,"",1256,"",""
568046,333,333,block_Trng,3,task_Trng,2,1,"","",9,19,"","",Block19,"",K,Stim13,LR,58,"",K,blue,10,"",1258,"",""
568046,334,334,block_Trng,3,task_Trng,2,1,"","",10,19,"","",Block19,"",K,Stim16,NR,10,"",K,green,13,"",1258,"",""
568046,335,335,block_Trng,3,task_Trng,2,1,"","",11,19,"","",Block19,"",K,Stim13,HR,104,"",K,red,11,"",1268,"",""
568046,336,336,block_Trng,3,task_Trng,2,1,"","",12,19,"","",Block19,"",J,Stim14,HR,95,"",J,red,8,"",1278,"",""
568046,337,337,block_Trng,3,task_Trng,2,1,"","",13,19,"","",Block19,"",K,Stim15,LR,71,"",K,blue,12,"",1280,"",""
568046,338,338,block_Trng,3,task_Trng,2,1,"","",14,19,"","",Block19,"",K,Stim11,NR,38,"",K,green,9,"",1280,"",""
568046,339,339,block_Trng,3,task_Trng,2,1,"","",15,19,"","",Block19,"",J,Stim16,NR,4,"",J,green,12,"",1280,"",""
568046,340,340,block_Trng,3,task_Trng,2,1,"","",16,19,"","",Block19,"",J,Stim14,LR,72,"",J,blue,9,"",1282,"",""
568046,341,341,block_Trng,3,task_Trng,2,1,"","",17,19,"","",Block19,"",K,ISI,HR,5,"",K,red,13,"",1292,"",""
568046,342,342,block_Trng,3,task_Trng,2,1,"","",18,19,"","",Block19,"",J,ISI,HR,147,"",J,red,12,"",1302,"",""
568046,343,343,block_Trng,3,task_Trng,2,1,"","",1,20,"","",Block20,"",K,Stim11,LR,23,"",K,blue,8,"",1304,"",""
568046,344,344,block_Trng,3,task_Trng,2,1,"","",2,20,"","",Block20,"",J,Stim16,LR,64,"",J,blue,13,"",1306,"",""
568046,345,345,block_Trng,3,task_Trng,2,1,"","",3,20,"","",Block20,"",J,Stim13,NR,114,"",J,green,8,"",1306,"",""
568046,346,346,block_Trng,3,task_Trng,2,1,"","",4,20,"","",Block20,"",J,Stim13,NR,118,"",J,green,10,"",1306,"",""
568046,347,347,block_Trng,3,task_Trng,2,1,"","",5,20,"","",Block20,"",J,Stim13,HR,107,"",J,red,10,"",1316,"",""
568046,348,348,block_Trng,3,task_Trng,2,1,"","",6,20,"","",Block20,"",J,Stim14,LR,46,"",J,blue,11,"",1318,"",""
568046,349,349,block_Trng,3,task_Trng,2,1,"","",7,20,"","",Block20,"",K,Stim13,HR,4,"",K,red,9,"",1328,"",""
568046,350,350,block_Trng,3,task_Trng,2,1,"","",8,20,"","",Block20,"",K,Stim16,NR,8,"",K,green,11,"",1328,"",""
568046,351,351,block_Trng,3,task_Trng,2,1,"","",9,20,"","",Block20,"",K,Stim14,LR,2,"",K,blue,10,"",1330,"",""
568046,352,352,block_Trng,3,task_Trng,2,1,"","",10,20,"","",Block20,"",K,Stim16,NR,3,"",K,green,13,"",1330,"",""
568046,353,353,block_Trng,3,task_Trng,2,1,"","",11,20,"","",Block20,"",K,Stim14,HR,11,"",K,red,11,"",1340,"",""
568046,354,354,block_Trng,3,task_Trng,2,1,"","",12,20,"","",Block20,"",J,Stim15,HR,18,"",J,red,8,"",1350,"",""
568046,355,355,block_Trng,3,task_Trng,2,1,"","",13,20,"","",Block20,"",K,Stim15,LR,105,"",K,blue,12,"",1352,"",""
568046,356,356,block_Trng,3,task_Trng,2,1,"","",14,20,"","",Block20,"",K,Stim12,NR,26,"",K,green,9,"",1352,"",""
568046,357,357,block_Trng,3,task_Trng,2,1,"","",15,20,"","",Block20,"",J,Stim15,NR,71,"",J,green,12,"",1352,"",""
568046,358,358,block_Trng,3,task_Trng,2,1,"","",16,20,"","",Block20,"",J,Stim13,LR,10,"",J,blue,9,"",1354,"",""
568046,359,359,block_Trng,3,task_Trng,2,1,"","",17,20,"","",Block20,"",K,ISI,HR,11,"",K,red,13,"",1364,"",""
568046,360,360,block_Trng,3,task_Trng,2,1,"","",18,20,"","",Block20,"",J,Stim16,HR,12,"",J,red,12,"",1374,"",""
568046,1,1,block_Trng,3,task_Trng_End,3,"","","","",1,"","","","","","","","","","","","",4.67,1374,"",""
568046,1,1,block_Testing,4,task_Testing_Instructions,1,"","","","",1,"","","","","","","","","","","","","","","",""
568046,1,1,block_Testing,4,task_Testing,2,1,"","",1,1,"",Block1,"","",J,Stim13,HR,34,"",J,red,10,"",1374,"",""
568046,2,2,block_Testing,4,task_Testing,2,1,"","",2,1,"",Block1,"","",K,Stim12,NR,94,"",K,green,9,"",1374,"",""
568046,3,3,block_Testing,4,task_Testing,2,1,"","",3,1,"",Block1,"","",K,Stim15,NR,91,"",K,green,13,"",1374,"",""
568046,4,4,block_Testing,4,task_Testing,2,1,"","",4,1,"",Block1,"","",K,Stim12,HR,46,"",K,red,9,"",1374,"",""
568046,5,5,block_Testing,4,task_Testing,2,1,"","",5,1,"",Block1,"","",J,Stim12,LR,8,"",J,blue,9,"",1374,"",""
568046,6,6,block_Testing,4,task_Testing,2,1,"","",6,1,"",Block1,"","",K,Stim13,LR,9,"",K,blue,10,"",1374,"",""
568046,7,7,block_Testing,4,task_Testing,2,1,"","",7,1,"",Block1,"","",J,Stim11,NR,97,"",J,green,8,"",1374,"",""
568046,8,8,block_Testing,4,task_Testing,2,1,"","",8,1,"",Block1,"","",J,Stim16,LR,132,"",J,blue,13,"",1374,"",""
568046,9,9,block_Testing,4,task_Testing,2,1,"","",9,1,"",Block1,"","",J,Stim14,LR,58,"",J,blue,11,"",1374,"",""
568046,10,10,block_Testing,4,task_Testing,2,1,"","",10,1,"",Block1,"","",K,Stim15,HR,116,"",K,red,13,"",1374,"",""
568046,11,11,block_Testing,4,task_Testing,2,1,"","",11,1,"",Block1,"","",J,Stim15,NR,52,"",J,green,12,"",1374,"",""
568046,12,12,block_Testing,4,task_Testing,2,1,"","",12,1,"",Block1,"","",K,Stim14,HR,10,"",K,red,11,"",1374,"",""
568046,13,13,block_Testing,4,task_Testing,2,1,"","",13,1,"",Block1,"","",K,Stim11,LR,31,"",K,blue,8,"",1374,"",""
568046,14,14,block_Testing,4,task_Testing,2,1,"","",14,1,"",Block1,"","",J,Stim16,HR,14,"",J,red,12,"",1374,"",""
568046,15,15,block_Testing,4,task_Testing,2,1,"","",15,1,"",Block1,"","",K,Stim14,NR,2,"",K,green,11,"",1374,"",""
568046,16,16,block_Testing,4,task_Testing,2,1,"","",16,1,"",Block1,"","",J,Stim12,HR,8,"",J,red,8,"",1374,"",""
568046,17,17,block_Testing,4,task_Testing,2,1,"","",17,1,"",Block1,"","",J,Stim15,NR,6,"",J,green,10,"",1374,"",""
568046,18,18,block_Testing,4,task_Testing,2,1,"","",18,1,"",Block1,"","",K,Stim15,LR,49,"",K,blue,12,"",1374,"",""
568046,19,19,block_Testing,4,task_Testing,2,1,"","",1,2,"",Block2,"","",J,Stim13,HR,83,"",J,red,10,"",1374,"",""
568046,20,20,block_Testing,4,task_Testing,2,1,"","",2,2,"",Block2,"","",K,Stim12,NR,59,"",K,green,9,"",1374,"",""
568046,21,21,block_Testing,4,task_Testing,2,1,"","",3,2,"",Block2,"","",K,Stim16,NR,24,"",K,green,13,"",1374,"",""
568046,22,22,block_Testing,4,task_Testing,2,1,"","",4,2,"",Block2,"","",K,Stim12,HR,9,"",K,red,9,"",1374,"",""
568046,23,23,block_Testing,4,task_Testing,2,1,"","",5,2,"",Block2,"","",J,Stim13,LR,5,"",J,blue,9,"",1374,"",""
568046,24,24,block_Testing,4,task_Testing,2,1,"","",6,2,"",Block2,"","",K,Stim13,LR,6,"",K,blue,10,"",1374,"",""
568046,25,25,block_Testing,4,task_Testing,2,1,"","",7,2,"",Block2,"","",J,Stim11,NR,53,"",J,green,8,"",1374,"",""
568046,26,26,block_Testing,4,task_Testing,2,1,"","",8,2,"",Block2,"","",J,ISI,LR,12,"",J,blue,13,"",1374,"",""
568046,27,27,block_Testing,4,task_Testing,2,1,"","",9,2,"",Block2,"","",J,Stim14,LR,50,"",J,blue,11,"",1374,"",""
568046,28,28,block_Testing,4,task_Testing,2,1,"","",10,2,"",Block2,"","",K,Stim15,HR,106,"",K,red,13,"",1374,"",""
568046,29,29,block_Testing,4,task_Testing,2,1,"","",11,2,"",Block2,"","",J,Stim15,NR,7,"",J,green,12,"",1374,"",""
568046,30,30,block_Testing,4,task_Testing,2,1,"","",12,2,"",Block2,"","",K,Stim13,HR,117,"",K,red,11,"",1374,"",""
568046,31,31,block_Testing,4,task_Testing,2,1,"","",13,2,"",Block2,"","",K,Stim12,LR,21,"",K,blue,8,"",1374,"",""
568046,32,32,block_Testing,4,task_Testing,2,1,"","",14,2,"",Block2,"","",J,Stim15,HR,35,"",J,red,12,"",1374,"",""
568046,33,33,block_Testing,4,task_Testing,2,1,"","",15,2,"",Block2,"","",K,Stim14,NR,35,"",K,green,11,"",1374,"",""
568046,34,34,block_Testing,4,task_Testing,2,1,"","",16,2,"",Block2,"","",J,Stim11,HR,86,"",J,red,8,"",1374,"",""
568046,35,35,block_Testing,4,task_Testing,2,1,"","",17,2,"",Block2,"","",J,Stim14,NR,4,"",J,green,10,"",1374,"",""
568046,36,36,block_Testing,4,task_Testing,2,1,"","",18,2,"",Block2,"","",K,Stim15,LR,84,"",K,blue,12,"",1374,"",""
568046,37,37,block_Testing,4,task_Testing,2,1,"","",1,3,"",Block3,"","",J,Stim13,HR,16,"",J,red,10,"",1374,"",""
568046,38,38,block_Testing,4,task_Testing,2,1,"","",2,3,"",Block3,"","",K,Stim12,NR,11,"",K,green,9,"",1374,"",""
568046,39,39,block_Testing,4,task_Testing,2,1,"","",3,3,"",Block3,"","",K,ISI,NR,180,"",K,green,13,"",1374,"",""
568046,40,40,block_Testing,4,task_Testing,2,1,"","",4,3,"",Block3,"","",K,Stim12,HR,38,"",K,red,9,"",1374,"",""
568046,41,41,block_Testing,4,task_Testing,2,1,"","",5,3,"",Block3,"","",J,Stim12,LR,52,"",J,blue,9,"",1374,"",""
568046,42,42,block_Testing,4,task_Testing,2,1,"","",6,3,"",Block3,"","",K,Stim13,LR,61,"",K,blue,10,"",1374,"",""
568046,43,43,block_Testing,4,task_Testing,2,1,"","",7,3,"",Block3,"","",J,Stim14,NR,52,"",J,green,8,"",1374,"",""
568046,44,44,block_Testing,4,task_Testing,2,1,"","",8,3,"",Block3,"","",J,ISI,LR,193,"",J,blue,13,"",1374,"",""
568046,45,45,block_Testing,4,task_Testing,2,1,"","",9,3,"",Block3,"","",J,Stim14,LR,50,"",J,blue,11,"",1374,"",""
568046,46,46,block_Testing,4,task_Testing,2,1,"","",10,3,"",Block3,"","",K,Stim16,HR,35,"",K,red,13,"",1374,"",""
568046,47,47,block_Testing,4,task_Testing,2,1,"","",11,3,"",Block3,"","",J,Stim15,NR,95,"",J,green,12,"",1374,"",""
568046,48,48,block_Testing,4,task_Testing,2,1,"","",12,3,"",Block3,"","",K,Stim14,HR,79,"",K,red,11,"",1374,"",""
568046,49,49,block_Testing,4,task_Testing,2,1,"","",13,3,"",Block3,"","",K,Stim11,LR,105,"",K,blue,8,"",1374,"",""
568046,50,50,block_Testing,4,task_Testing,2,1,"","",14,3,"",Block3,"","",J,Stim16,HR,40,"",J,red,12,"",1374,"",""
568046,51,51,block_Testing,4,task_Testing,2,1,"","",15,3,"",Block3,"","",K,Stim14,NR,117,"",K,green,11,"",1374,"",""
568046,52,52,block_Testing,4,task_Testing,2,1,"","",16,3,"",Block3,"","",J,Stim13,HR,65,"",J,red,8,"",1374,"",""
568046,53,53,block_Testing,4,task_Testing,2,1,"","",17,3,"",Block3,"","",J,Stim13,NR,10,"",J,green,10,"",1374,"",""
568046,54,54,block_Testing,4,task_Testing,2,1,"","",18,3,"",Block3,"","",K,Stim15,LR,29,"",K,blue,12,"",1374,"",""
568046,55,55,block_Testing,4,task_Testing,2,1,"","",1,4,"",Block4,"","",J,Stim14,HR,6,"",J,red,10,"",1374,"",""
568046,56,56,block_Testing,4,task_Testing,2,1,"","",2,4,"",Block4,"","",K,Stim12,NR,91,"",K,green,9,"",1374,"",""
568046,57,57,block_Testing,4,task_Testing,2,1,"","",3,4,"",Block4,"","",K,Stim16,NR,87,"",K,green,13,"",1374,"",""
568046,58,58,block_Testing,4,task_Testing,2,1,"","",4,4,"",Block4,"","",K,ISI,HR,512,"",K,red,9,"",1374,"",""
568046,59,59,block_Testing,4,task_Testing,2,1,"","",5,4,"",Block4,"","",J,Stim12,LR,46,"",J,blue,9,"",1374,"",""
568046,60,60,block_Testing,4,task_Testing,2,1,"","",6,4,"",Block4,"","",K,Stim13,LR,40,"",K,blue,10,"",1374,"",""
568046,61,61,block_Testing,4,task_Testing,2,1,"","",7,4,"",Block4,"","",J,Stim11,NR,117,"",J,green,8,"",1374,"",""
568046,62,62,block_Testing,4,task_Testing,2,1,"","",8,4,"",Block4,"","",J,Stim16,LR,82,"",J,blue,13,"",1374,"",""
568046,63,63,block_Testing,4,task_Testing,2,0,"","",9,4,"",Block4,"","",K,ISI,LR,25,"",J,blue,11,"",1374,"",""
568046,64,64,block_Testing,4,task_Testing,2,1,"","",10,4,"",Block4,"","",K,Stim16,HR,15,"",K,red,13,"",1374,"",""
568046,65,65,block_Testing,4,task_Testing,2,1,"","",11,4,"",Block4,"","",J,Stim16,NR,7,"",J,green,12,"",1374,"",""
568046,66,66,block_Testing,4,task_Testing,2,1,"","",12,4,"",Block4,"","",K,Stim14,HR,71,"",K,red,11,"",1374,"",""
568046,67,67,block_Testing,4,task_Testing,2,1,"","",13,4,"",Block4,"","",K,Stim11,LR,80,"",K,blue,8,"",1374,"",""
568046,68,68,block_Testing,4,task_Testing,2,1,"","",14,4,"",Block4,"","",J,Stim15,HR,81,"",J,red,12,"",1374,"",""
568046,69,69,block_Testing,4,task_Testing,2,1,"","",15,4,"",Block4,"","",K,Stim14,NR,97,"",K,green,11,"",1374,"",""
568046,70,70,block_Testing,4,task_Testing,2,1,"","",16,4,"",Block4,"","",J,Stim12,HR,68,"",J,red,8,"",1374,"",""
568046,71,71,block_Testing,4,task_Testing,2,1,"","",17,4,"",Block4,"","",J,Stim14,NR,114,"",J,green,10,"",1374,"",""
568046,72,72,block_Testing,4,task_Testing,2,1,"","",18,4,"",Block4,"","",K,ISI,LR,75,"",K,blue,12,"",1374,"",""
568046,73,73,block_Testing,4,task_Testing,2,1,"","",1,5,"",Block5,"","",J,Stim15,HR,25,"",J,red,10,"",1374,"",""
568046,74,74,block_Testing,4,task_Testing,2,1,"","",2,5,"",Block5,"","",K,Stim12,NR,74,"",K,green,9,"",1374,"",""
568046,75,75,block_Testing,4,task_Testing,2,1,"","",3,5,"",Block5,"","",K,Stim16,NR,3,"",K,green,13,"",1374,"",""
568046,76,76,block_Testing,4,task_Testing,2,1,"","",4,5,"",Block5,"","",K,Stim12,HR,62,"",K,red,9,"",1374,"",""
568046,77,77,block_Testing,4,task_Testing,2,1,"","",5,5,"",Block5,"","",J,Stim12,LR,26,"",J,blue,9,"",1374,"",""
568046,78,78,block_Testing,4,task_Testing,2,1,"","",6,5,"",Block5,"","",K,Stim13,LR,2,"",K,blue,10,"",1374,"",""
568046,79,79,block_Testing,4,task_Testing,2,1,"","",7,5,"",Block5,"","",J,Stim12,NR,98,"",J,green,8,"",1374,"",""
568046,80,80,block_Testing,4,task_Testing,2,1,"","",8,5,"",Block5,"","",J,ISI,LR,2,"",J,blue,13,"",1374,"",""
568046,81,81,block_Testing,4,task_Testing,2,1,"","",9,5,"",Block5,"","",J,Stim15,LR,19,"",J,blue,11,"",1374,"",""
568046,82,82,block_Testing,4,task_Testing,2,1,"","",10,5,"",Block5,"","",K,Stim16,HR,18,"",K,red,13,"",1374,"",""
568046,83,83,block_Testing,4,task_Testing,2,1,"","",11,5,"",Block5,"","",J,ISI,NR,92,"",J,green,12,"",1374,"",""
568046,84,84,block_Testing,4,task_Testing,2,1,"","",12,5,"",Block5,"","",K,Stim13,HR,93,"",K,red,11,"",1374,"",""
568046,85,85,block_Testing,4,task_Testing,2,1,"","",13,5,"",Block5,"","",K,Stim12,LR,1,"",K,blue,8,"",1374,"",""
568046,86,86,block_Testing,4,task_Testing,2,1,"","",14,5,"",Block5,"","",J,Stim15,HR,34,"",J,red,12,"",1374,"",""
568046,87,87,block_Testing,4,task_Testing,2,1,"","",15,5,"",Block5,"","",K,Stim14,NR,2,"",K,green,11,"",1374,"",""
568046,88,88,block_Testing,4,task_Testing,2,1,"","",16,5,"",Block5,"","",J,Stim11,HR,95,"",J,red,8,"",1374,"",""
568046,89,89,block_Testing,4,task_Testing,2,1,"","",17,5,"",Block5,"","",J,Stim13,NR,85,"",J,green,10,"",1374,"",""
568046,90,90,block_Testing,4,task_Testing,2,1,"","",18,5,"",Block5,"","",K,Stim14,LR,85,"",K,blue,12,"",1374,"",""
568046,91,91,block_Testing,4,task_Testing,2,1,"","",1,6,"",Block6,"","",J,Stim14,HR,3,"",J,red,10,"",1374,"",""
568046,92,92,block_Testing,4,task_Testing,2,1,"","",2,6,"",Block6,"","",K,Stim12,NR,28,"",K,green,9,"",1374,"",""
568046,93,93,block_Testing,4,task_Testing,2,1,"","",3,6,"",Block6,"","",K,Stim16,NR,19,"",K,green,13,"",1374,"",""
568046,94,94,block_Testing,4,task_Testing,2,1,"","",4,6,"",Block6,"","",K,Stim12,HR,105,"",K,red,9,"",1374,"",""
568046,95,95,block_Testing,4,task_Testing,2,1,"","",5,6,"",Block6,"","",J,Stim13,LR,46,"",J,blue,9,"",1374,"",""
568046,96,96,block_Testing,4,task_Testing,2,1,"","",6,6,"",Block6,"","",K,Stim13,LR,38,"",K,blue,10,"",1374,"",""
568046,97,97,block_Testing,4,task_Testing,2,0,"","",7,6,"",Block6,"","",K,Stim12,NR,101,"",J,green,8,"",1374,"",""
568046,98,98,block_Testing,4,task_Testing,2,0,"","",8,6,"",Block6,"","",K,ISI,LR,176,"",J,blue,13,"",1374,"",""
568046,99,99,block_Testing,4,task_Testing,2,1,"","",9,6,"",Block6,"","",J,Stim14,LR,11,"",J,blue,11,"",1374,"",""
568046,100,100,block_Testing,4,task_Testing,2,1,"","",10,6,"",Block6,"","",K,ISI,HR,214,"",K,red,13,"",1374,"",""
568046,101,101,block_Testing,4,task_Testing,2,1,"","",11,6,"",Block6,"","",J,Stim15,NR,110,"",J,green,12,"",1374,"",""
568046,102,102,block_Testing,4,task_Testing,2,1,"","",12,6,"",Block6,"","",K,Stim14,HR,36,"",K,red,11,"",1374,"",""
568046,103,103,block_Testing,4,task_Testing,2,1,"","",13,6,"",Block6,"","",K,Stim12,LR,12,"",K,blue,8,"",1374,"",""
568046,104,104,block_Testing,4,task_Testing,2,1,"","",14,6,"",Block6,"","",J,Stim16,HR,45,"",J,red,12,"",1374,"",""
568046,105,105,block_Testing,4,task_Testing,2,1,"","",15,6,"",Block6,"","",K,Stim16,NR,23,"",K,green,11,"",1374,"",""
568046,106,106,block_Testing,4,task_Testing,2,1,"","",16,6,"",Block6,"","",J,Stim12,HR,105,"",J,red,8,"",1374,"",""
568046,107,107,block_Testing,4,task_Testing,2,1,"","",17,6,"",Block6,"","",J,Stim14,NR,68,"",J,green,10,"",1374,"",""
568046,108,108,block_Testing,4,task_Testing,2,1,"","",18,6,"",Block6,"","",K,Stim16,LR,62,"",K,blue,12,"",1374,"",""
568046,109,109,block_Testing,4,task_Testing,2,1,"","",1,7,"",Block7,"","",J,Stim13,HR,78,"",J,red,10,"",1374,"",""
568046,110,110,block_Testing,4,task_Testing,2,1,"","",2,7,"",Block7,"","",K,Stim12,NR,84,"",K,green,9,"",1374,"",""
568046,111,111,block_Testing,4,task_Testing,2,1,"","",3,7,"",Block7,"","",K,Stim16,NR,74,"",K,green,13,"",1374,"",""
568046,112,112,block_Testing,4,task_Testing,2,1,"","",4,7,"",Block7,"","",K,Stim13,HR,50,"",K,red,9,"",1374,"",""
568046,113,113,block_Testing,4,task_Testing,2,1,"","",5,7,"",Block7,"","",J,Stim13,LR,86,"",J,blue,9,"",1374,"",""
568046,114,114,block_Testing,4,task_Testing,2,1,"","",6,7,"",Block7,"","",K,Stim14,LR,27,"",K,blue,10,"",1374,"",""
568046,115,115,block_Testing,4,task_Testing,2,1,"","",7,7,"",Block7,"","",J,Stim12,NR,8,"",J,green,8,"",1374,"",""
568046,116,116,block_Testing,4,task_Testing,2,1,"","",8,7,"",Block7,"","",J,Stim16,LR,101,"",J,blue,13,"",1374,"",""
568046,117,117,block_Testing,4,task_Testing,2,1,"","",9,7,"",Block7,"","",J,Stim14,LR,115,"",J,blue,11,"",1374,"",""
568046,118,118,block_Testing,4,task_Testing,2,1,"","",10,7,"",Block7,"","",K,ISI,HR,89,"",K,red,13,"",1374,"",""
568046,119,119,block_Testing,4,task_Testing,2,1,"","",11,7,"",Block7,"","",J,Stim16,NR,81,"",J,green,12,"",1374,"",""
568046,120,120,block_Testing,4,task_Testing,2,1,"","",12,7,"",Block7,"","",K,Stim14,HR,39,"",K,red,11,"",1374,"",""
568046,121,121,block_Testing,4,task_Testing,2,1,"","",13,7,"",Block7,"","",K,Stim11,LR,70,"",K,blue,8,"",1374,"",""
568046,122,122,block_Testing,4,task_Testing,2,1,"","",14,7,"",Block7,"","",J,Stim16,HR,43,"",J,red,12,"",1374,"",""
568046,123,123,block_Testing,4,task_Testing,2,1,"","",15,7,"",Block7,"","",K,Stim14,NR,110,"",K,green,11,"",1374,"",""
568046,124,124,block_Testing,4,task_Testing,2,0,"","",16,7,"",Block7,"","",K,Stim14,HR,8,"",J,red,8,"",1374,"",""
568046,125,125,block_Testing,4,task_Testing,2,1,"","",17,7,"",Block7,"","",J,Stim16,NR,48,"",J,green,10,"",1374,"",""
568046,126,126,block_Testing,4,task_Testing,2,1,"","",18,7,"",Block7,"","",K,Stim15,LR,38,"",K,blue,12,"",1374,"",""
568046,127,127,block_Testing,4,task_Testing,2,1,"","",1,8,"",Block8,"","",J,Stim14,HR,25,"",J,red,10,"",1374,"",""
568046,128,128,block_Testing,4,task_Testing,2,1,"","",2,8,"",Block8,"","",K,Stim12,NR,29,"",K,green,9,"",1374,"",""
568046,129,129,block_Testing,4,task_Testing,2,1,"","",3,8,"",Block8,"","",K,Stim16,NR,12,"",K,green,13,"",1374,"",""
568046,130,130,block_Testing,4,task_Testing,2,1,"","",4,8,"",Block8,"","",K,Stim14,HR,53,"",K,red,9,"",1374,"",""
568046,131,131,block_Testing,4,task_Testing,2,1,"","",5,8,"",Block8,"","",J,Stim14,LR,36,"",J,blue,9,"",1374,"",""
568046,132,132,block_Testing,4,task_Testing,2,1,"","",6,8,"",Block8,"","",K,Stim12,LR,131,"",K,blue,10,"",1374,"",""
568046,133,133,block_Testing,4,task_Testing,2,1,"","",7,8,"",Block8,"","",J,Stim11,NR,105,"",J,green,8,"",1374,"",""
568046,134,134,block_Testing,4,task_Testing,2,1,"","",8,8,"",Block8,"","",J,ISI,LR,21,"",J,blue,13,"",1374,"",""
568046,135,135,block_Testing,4,task_Testing,2,1,"","",9,8,"",Block8,"","",J,Stim14,LR,55,"",J,blue,11,"",1374,"",""
568046,136,136,block_Testing,4,task_Testing,2,1,"","",10,8,"",Block8,"","",K,Stim16,HR,25,"",K,red,13,"",1374,"",""
568046,137,137,block_Testing,4,task_Testing,2,1,"","",11,8,"",Block8,"","",J,Stim15,NR,47,"",J,green,12,"",1374,"",""
568046,138,138,block_Testing,4,task_Testing,2,1,"","",12,8,"",Block8,"","",K,Stim15,HR,12,"",K,red,11,"",1374,"",""
568046,139,139,block_Testing,4,task_Testing,2,0,"","",13,8,"",Block8,"","",J,ISI,LR,548,"",K,blue,8,"",1374,"",""
568046,140,140,block_Testing,4,task_Testing,2,1,"","",14,8,"",Block8,"","",J,Stim16,HR,72,"",J,red,12,"",1374,"",""
568046,141,141,block_Testing,4,task_Testing,2,1,"","",15,8,"",Block8,"","",K,Stim14,NR,65,"",K,green,11,"",1374,"",""
568046,142,142,block_Testing,4,task_Testing,2,1,"","",16,8,"",Block8,"","",J,Stim11,HR,43,"",J,red,8,"",1374,"",""
568046,143,143,block_Testing,4,task_Testing,2,0,"","",17,8,"",Block8,"","",K,Stim15,NR,58,"",J,green,10,"",1374,"",""
568046,144,144,block_Testing,4,task_Testing,2,1,"","",18,8,"",Block8,"","",K,Stim14,LR,96,"",K,blue,12,"",1374,"",""
568046,145,145,block_Testing,4,task_Testing,2,1,"","",1,9,"",Block9,"","",J,Stim13,HR,81,"",J,red,10,"",1374,"",""
568046,146,146,block_Testing,4,task_Testing,2,1,"","",2,9,"",Block9,"","",K,Stim12,NR,103,"",K,green,9,"",1374,"",""
568046,147,147,block_Testing,4,task_Testing,2,1,"","",3,9,"",Block9,"","",K,Stim16,NR,70,"",K,green,13,"",1374,"",""
568046,148,148,block_Testing,4,task_Testing,2,1,"","",4,9,"",Block9,"","",K,Stim13,HR,4,"",K,red,9,"",1374,"",""
568046,149,149,block_Testing,4,task_Testing,2,1,"","",5,9,"",Block9,"","",J,Stim13,LR,9,"",J,blue,9,"",1374,"",""
568046,150,150,block_Testing,4,task_Testing,2,1,"","",6,9,"",Block9,"","",K,Stim14,LR,69,"",K,blue,10,"",1374,"",""
568046,151,151,block_Testing,4,task_Testing,2,1,"","",7,9,"",Block9,"","",J,Stim11,NR,31,"",J,green,8,"",1374,"",""
568046,152,152,block_Testing,4,task_Testing,2,1,"","",8,9,"",Block9,"","",J,ISI,LR,76,"",J,blue,13,"",1374,"",""
568046,153,153,block_Testing,4,task_Testing,2,1,"","",9,9,"",Block9,"","",J,Stim14,LR,66,"",J,blue,11,"",1374,"",""
568046,154,154,block_Testing,4,task_Testing,2,0,"","",10,9,"",Block9,"","",K,ITI,HR,45,"",K,red,13,"",1374,"",""
568046,155,155,block_Testing,4,task_Testing,2,1,"","",11,9,"",Block9,"","",J,Stim15,NR,104,"",J,green,12,"",1374,"",""
568046,156,156,block_Testing,4,task_Testing,2,1,"","",12,9,"",Block9,"","",K,Stim14,HR,2,"",K,red,11,"",1374,"",""
568046,157,157,block_Testing,4,task_Testing,2,1,"","",13,9,"",Block9,"","",K,Stim14,LR,45,"",K,blue,8,"",1374,"",""
568046,158,158,block_Testing,4,task_Testing,2,1,"","",14,9,"",Block9,"","",J,Stim16,HR,35,"",J,red,12,"",1374,"",""
568046,159,159,block_Testing,4,task_Testing,2,1,"","",15,9,"",Block9,"","",K,ISI,NR,665,"",K,green,11,"",1374,"",""
568046,160,160,block_Testing,4,task_Testing,2,1,"","",16,9,"",Block9,"","",J,Stim11,HR,34,"",J,red,8,"",1374,"",""
568046,161,161,block_Testing,4,task_Testing,2,1,"","",17,9,"",Block9,"","",J,Stim14,NR,111,"",J,green,10,"",1374,"",""
568046,162,162,block_Testing,4,task_Testing,2,1,"","",18,9,"",Block9,"","",K,ISI,LR,46,"",K,blue,12,"",1374,"",""
568046,163,163,block_Testing,4,task_Testing,2,1,"","",1,10,"",Block10,"","",J,Stim13,HR,81,"",J,red,10,"",1374,"",""
568046,164,164,block_Testing,4,task_Testing,2,1,"","",2,10,"",Block10,"","",K,Stim12,NR,92,"",K,green,9,"",1374,"",""
568046,165,165,block_Testing,4,task_Testing,2,1,"","",3,10,"",Block10,"","",K,ISI,NR,62,"",K,green,13,"",1374,"",""
568046,166,166,block_Testing,4,task_Testing,2,1,"","",4,10,"",Block10,"","",K,Stim12,HR,32,"",K,red,9,"",1374,"",""
568046,167,167,block_Testing,4,task_Testing,2,1,"","",5,10,"",Block10,"","",J,Stim12,LR,117,"",J,blue,9,"",1374,"",""
568046,168,168,block_Testing,4,task_Testing,2,1,"","",6,10,"",Block10,"","",K,Stim13,LR,13,"",K,blue,10,"",1374,"",""
568046,169,169,block_Testing,4,task_Testing,2,0,"","",7,10,"",Block10,"","",K,Stim12,NR,49,"",J,green,8,"",1374,"",""
568046,170,170,block_Testing,4,task_Testing,2,1,"","",8,10,"",Block10,"","",J,ISI,LR,59,"",J,blue,13,"",1374,"",""
568046,171,171,block_Testing,4,task_Testing,2,1,"","",9,10,"",Block10,"","",J,Stim15,LR,23,"",J,blue,11,"",1374,"",""
568046,172,172,block_Testing,4,task_Testing,2,1,"","",10,10,"",Block10,"","",K,Stim16,HR,6,"",K,red,13,"",1374,"",""
568046,173,173,block_Testing,4,task_Testing,2,1,"","",11,10,"",Block10,"","",J,Stim15,NR,41,"",J,green,12,"",1374,"",""
568046,174,174,block_Testing,4,task_Testing,2,1,"","",12,10,"",Block10,"","",K,Stim15,HR,13,"",K,red,11,"",1374,"",""
568046,175,175,block_Testing,4,task_Testing,2,1,"","",13,10,"",Block10,"","",K,Stim11,LR,31,"",K,blue,8,"",1374,"",""
568046,176,176,block_Testing,4,task_Testing,2,1,"","",14,10,"",Block10,"","",J,Stim15,HR,84,"",J,red,12,"",1374,"",""
568046,177,177,block_Testing,4,task_Testing,2,1,"","",15,10,"",Block10,"","",K,Stim14,NR,8,"",K,green,11,"",1374,"",""
568046,178,178,block_Testing,4,task_Testing,2,1,"","",16,10,"",Block10,"","",J,Stim12,HR,22,"",J,red,8,"",1374,"",""
568046,179,179,block_Testing,4,task_Testing,2,1,"","",17,10,"",Block10,"","",J,Stim14,NR,3,"",J,green,10,"",1374,"",""
568046,180,180,block_Testing,4,task_Testing,2,1,"","",18,10,"",Block10,"","",K,Stim15,LR,81,"",K,blue,12,"",1374,"",""
568046,1,1,block_TrngInstructions,1,task_Consent,1,"","","","",1,Yes,"","","","","","","","","","","","","","",""
568046,1,1,block_TrngInstructions,1,task_Trng_Instructions,2,"","","","",1,"","","","","","","","","","","","","","","",""
568046,1,1,block_End,5,task_Demog_End,1,"","",40,"",1,"","","","","","","","",Female,"","","","","","",""
