Rec_Session_Id,Trial_Nr,Trial_Id,Block_Name,Block_Nr,Task_Name,Task_Nr,ACC,ACC_Total_Prac,Age,BlkTrial_Nr,Condition_Id,Consent,copy_of_factor1_tg1_task2,factor1_tg1_task2,Feedback,RESP,RESP_Frame,Reward,RT_FromFramePress,Sex,Targ,TargCol,TargPos,TotalMoney,TotalPoints,TotalPoints_prac,Trial_Nr_prac
568851,1,1,block_TrngInstructions,1,task_Consent,1,"","","","",1,Yes,"","","","","","","","","","","","","","",""
568851,1,1,block_TrngInstructions,1,task_Trng_Instructions,2,"","","","",1,"","","","","","","","","","","","","","","",""
568851,1,1,block_Practice,2,task_GetReady,1,"","","","",1,"","","","","","","","","","","","","","","",""
568851,1,1,block_Practice,2,task_Trng_Prac,2,1,1,"","",1,"","","","",K,Fdbck,"",356,"",J,blue,12,"",0,0,""
568851,2,2,block_Practice,2,task_Trng_Prac,2,0,1,"","",1,"","","","",K,Fdbck,"",493,"",J,green,9,"",0,0,""
568851,3,3,block_Practice,2,task_Trng_Prac,2,1,2,"","",1,"","","","",J,Fdbck,"",317,"",K,red,10,"",0,0,""
568851,4,4,block_Practice,2,task_Trng_Prac,2,0,2,"","",1,"","","","",J,Fdbck,"",434,"",K,red,8,"",0,0,""
568851,5,5,block_Practice,2,task_Trng_Prac,2,1,3,"","",1,"","","","",K,Fdbck,"",292,"",K,green,11,"",0,0,""
568851,6,6,block_Practice,2,task_Trng_Prac,2,0,3,"","",1,"","","","",J,Fdbck,"",693,"",J,blue,13,"",0,0,""
568851,1,1,block_Trng,3,task_GetReady,1,"","","","",1,"","","","","","","","","","","","","","","",""
568851,1,1,block_Trng,3,task_Trng,2,1,"","",1,1,"","",Block1,"",J,Fdbck,HR,280,"",J,red,12,"",10,"",""
568851,2,2,block_Trng,3,task_Trng,2,0,"","",2,1,"","",Block1,"",J,Fdbck,HR,253,"",K,red,9,"",10,"",""
568851,3,3,block_Trng,3,task_Trng,2,0,"","",3,1,"","",Block1,"",K,Fdbck,NR,259,"",J,green,12,"",10,"",""
568851,4,4,block_Trng,3,task_Trng,2,0,"","",4,1,"","",Block1,"",J,Fdbck,NR,114,"",K,green,11,"",10,"",""
568851,5,5,block_Trng,3,task_Trng,2,1,"","",5,1,"","",Block1,"",J,Fdbck,HR,163,"",J,red,10,"",20,"",""
568851,6,6,block_Trng,3,task_Trng,2,1,"","",6,1,"","",Block1,"",J,Fdbck,LR,436,"",J,blue,11,"",22,"",""
568851,7,7,block_Trng,3,task_Trng,2,1,"","",7,1,"","",Block1,"",J,Fdbck,NR,473,"",J,green,10,"",22,"",""
568851,8,8,block_Trng,3,task_Trng,2,1,"","",8,1,"","",Block1,"",J,Fdbck,NR,254,"",J,green,8,"",22,"",""
568851,9,9,block_Trng,3,task_Trng,2,1,"","",9,1,"","",Block1,"",K,Fdbck,LR,664,"",K,blue,8,"",24,"",""
568851,10,10,block_Trng,3,task_Trng,2,1,"","",10,1,"","",Block1,"",K,Fdbck,NR,477,"",K,green,13,"",24,"",""
568851,11,11,block_Trng,3,task_Trng,2,1,"","",11,1,"","",Block1,"",J,Fdbck,HR,429,"",K,red,13,"",34,"",""
568851,12,12,block_Trng,3,task_Trng,2,1,"","",12,1,"","",Block1,"",J,Fdbck,HR,703,"",K,red,11,"",44,"",""
568851,13,13,block_Trng,3,task_Trng,2,0,"","",13,1,"","",Block1,"",K,Fdbck,HR,429,"",J,red,8,"",44,"",""
568851,14,14,block_Trng,3,task_Trng,2,0,"","",14,1,"","",Block1,"",J,Fdbck,LR,573,"",J,blue,9,"",44,"",""
568851,15,15,block_Trng,3,task_Trng,2,1,"","",15,1,"","",Block1,"",K,Fdbck,LR,265,"",K,blue,10,"",46,"",""
568851,16,16,block_Trng,3,task_Trng,2,0,"","",16,1,"","",Block1,"",K,Fdbck,LR,519,"",K,blue,12,"",46,"",""
568851,17,17,block_Trng,3,task_Trng,2,0,"","",17,1,"","",Block1,"",K,Fdbck,LR,552,"",J,blue,13,"",46,"",""
568851,18,18,block_Trng,3,task_Trng,2,1,"","",18,1,"","",Block1,"",K,Fdbck,NR,545,"",K,green,9,"",46,"",""
568851,19,19,block_Trng,3,task_Trng,2,0,"","",1,2,"","",Block2,"",K,Fdbck,HR,375,"",J,red,12,"",46,"",""
568851,20,20,block_Trng,3,task_Trng,2,0,"","",2,2,"","",Block2,"",J,Fdbck,HR,648,"",K,red,9,"",46,"",""
568851,21,21,block_Trng,3,task_Trng,2,0,"","",3,2,"","",Block2,"",K,Fdbck,NR,815,"",J,green,12,"",46,"",""
568851,22,22,block_Trng,3,task_Trng,2,0,"","",4,2,"","",Block2,"",J,Fdbck,NR,956,"",K,green,11,"",46,"",""
568851,23,23,block_Trng,3,task_Trng,2,1,"","",5,2,"","",Block2,"",K,Fdbck,HR,735,"",J,red,10,"",56,"",""
568851,24,24,block_Trng,3,task_Trng,2,0,"","",6,2,"","",Block2,"",J,Fdbck,LR,892,"",J,blue,11,"",56,"",""
568851,25,25,block_Trng,3,task_Trng,2,1,"","",7,2,"","",Block2,"",K,Fdbck,NR,549,"",J,green,10,"",56,"",""
568851,26,26,block_Trng,3,task_Trng,2,0,"","",8,2,"","",Block2,"",K,Fdbck,NR,332,"",J,green,8,"",56,"",""
568851,27,27,block_Trng,3,task_Trng,2,0,"","",9,2,"","",Block2,"",K,Fdbck,LR,472,"",K,blue,8,"",56,"",""
568851,28,28,block_Trng,3,task_Trng,2,0,"","",10,2,"","",Block2,"",K,Fdbck,NR,344,"",K,green,13,"",56,"",""
568851,29,29,block_Trng,3,task_Trng,2,0,"","",11,2,"","",Block2,"",J,Fdbck,HR,392,"",K,red,13,"",56,"",""
568851,30,30,block_Trng,3,task_Trng,2,1,"","",12,2,"","",Block2,"",K,Fdbck,HR,708,"",K,red,11,"",66,"",""
568851,31,31,block_Trng,3,task_Trng,2,1,"","",13,2,"","",Block2,"",J,Fdbck,HR,454,"",J,red,8,"",76,"",""
568851,32,32,block_Trng,3,task_Trng,2,0,"","",14,2,"","",Block2,"",K,Fdbck,LR,457,"",J,blue,9,"",76,"",""
568851,33,33,block_Trng,3,task_Trng,2,0,"","",15,2,"","",Block2,"",J,Fdbck,LR,174,"",K,blue,10,"",76,"",""
568851,34,34,block_Trng,3,task_Trng,2,0,"","",16,2,"","",Block2,"",K,Fdbck,LR,968,"",K,blue,12,"",76,"",""
568851,35,35,block_Trng,3,task_Trng,2,1,"","",17,2,"","",Block2,"",J,Fdbck,LR,529,"",J,blue,13,"",78,"",""
568851,36,36,block_Trng,3,task_Trng,2,0,"","",18,2,"","",Block2,"",J,Fdbck,NR,333,"",K,green,9,"",78,"",""
568851,37,37,block_Trng,3,task_Trng,2,0,"","",1,3,"","",Block3,"",K,Fdbck,HR,384,"",J,red,12,"",78,"",""
568851,38,38,block_Trng,3,task_Trng,2,0,"","",2,3,"","",Block3,"",K,Fdbck,HR,427,"",K,red,9,"",78,"",""
568851,39,39,block_Trng,3,task_Trng,2,1,"","",3,3,"","",Block3,"",J,Fdbck,NR,502,"",J,green,12,"",78,"",""
568851,40,40,block_Trng,3,task_Trng,2,1,"","",4,3,"","",Block3,"",K,Fdbck,NR,448,"",K,green,11,"",78,"",""
568851,41,41,block_Trng,3,task_Trng,2,1,"","",5,3,"","",Block3,"",J,Fdbck,HR,454,"",J,red,10,"",88,"",""
568851,42,42,block_Trng,3,task_Trng,2,0,"","",6,3,"","",Block3,"",K,Fdbck,LR,403,"",J,blue,11,"",88,"",""
568851,43,43,block_Trng,3,task_Trng,2,1,"","",7,3,"","",Block3,"",K,Fdbck,NR,599,"",J,green,10,"",88,"",""
568851,44,44,block_Trng,3,task_Trng,2,0,"","",8,3,"","",Block3,"",K,Fdbck,NR,409,"",J,green,8,"",88,"",""
568851,45,45,block_Trng,3,task_Trng,2,1,"","",9,3,"","",Block3,"",K,Fdbck,LR,367,"",K,blue,8,"",90,"",""
568851,46,46,block_Trng,3,task_Trng,2,0,"","",10,3,"","",Block3,"",J,Fdbck,NR,431,"",K,green,13,"",90,"",""
568851,47,47,block_Trng,3,task_Trng,2,1,"","",11,3,"","",Block3,"",J,Fdbck,HR,683,"",K,red,13,"",100,"",""
568851,48,48,block_Trng,3,task_Trng,2,0,"","",12,3,"","",Block3,"",J,Fdbck,HR,859,"",K,red,11,"",100,"",""
568851,49,49,block_Trng,3,task_Trng,2,1,"","",13,3,"","",Block3,"",K,Break,HR,2,"",J,red,8,"",110,"",""
568851,50,50,block_Trng,3,task_Trng,2,1,"","",14,3,"","",Block3,"",K,Fdbck,LR,980,"",J,blue,9,"",112,"",""
568851,51,51,block_Trng,3,task_Trng,2,0,"","",15,3,"","",Block3,"",J,Fdbck,LR,857,"",K,blue,10,"",112,"",""
568851,52,52,block_Trng,3,task_Trng,2,1,"","",16,3,"","",Block3,"",K,Fdbck,LR,735,"",K,blue,12,"",114,"",""
568851,53,53,block_Trng,3,task_Trng,2,1,"","",17,3,"","",Block3,"",J,Fdbck,LR,598,"",J,blue,13,"",116,"",""
568851,54,54,block_Trng,3,task_Trng,2,0,"","",18,3,"","",Block3,"",K,Fdbck,NR,888,"",K,green,9,"",116,"",""
568851,55,55,block_Trng,3,task_Trng,2,1,"","",1,4,"","",Block4,"",K,Break,HR,19,"",J,red,12,"",126,"",""
568851,56,56,block_Trng,3,task_Trng,2,1,"","",2,4,"","",Block4,"",K,Fdbck,HR,721,"",K,red,9,"",136,"",""
568851,57,57,block_Trng,3,task_Trng,2,1,"","",3,4,"","",Block4,"",K,Fdbck,NR,875,"",J,green,12,"",136,"",""
568851,58,58,block_Trng,3,task_Trng,2,0,"","",4,4,"","",Block4,"",K,Fdbck,NR,900,"",K,green,11,"",136,"",""
568851,59,59,block_Trng,3,task_Trng,2,0,"","",5,4,"","",Block4,"",J,Fdbck,HR,926,"",J,red,10,"",136,"",""
568851,60,60,block_Trng,3,task_Trng,2,0,"","",6,4,"","",Block4,"",K,Break,LR,28,"",J,blue,11,"",136,"",""
568851,61,61,block_Trng,3,task_Trng,2,0,"","",7,4,"","",Block4,"",J,Fdbck,NR,883,"",J,green,10,"",136,"",""
568851,62,62,block_Trng,3,task_Trng,2,1,"","",8,4,"","",Block4,"",J,Fdbck,NR,29,"",J,green,8,"",136,"",""
568851,63,63,block_Trng,3,task_Trng,2,0,"","",9,4,"","",Block4,"",J,Break,LR,13,"",K,blue,8,"",136,"",""
568851,64,64,block_Trng,3,task_Trng,2,1,"","",10,4,"","",Block4,"",K,Fdbck,NR,830,"",K,green,13,"",136,"",""
568851,65,65,block_Trng,3,task_Trng,2,1,"","",11,4,"","",Block4,"",K,Fdbck,HR,728,"",K,red,13,"",146,"",""
568851,66,66,block_Trng,3,task_Trng,2,1,"","",12,4,"","",Block4,"",K,Fdbck,HR,912,"",K,red,11,"",156,"",""
568851,67,67,block_Trng,3,task_Trng,2,0,"","",13,4,"","",Block4,"",J,Fdbck,HR,734,"",J,red,8,"",156,"",""
568851,68,68,block_Trng,3,task_Trng,2,0,"","",14,4,"","",Block4,"",K,Fdbck,LR,929,"",J,blue,9,"",156,"",""
568851,69,69,block_Trng,3,task_Trng,2,1,"","",15,4,"","",Block4,"",K,Fdbck,LR,996,"",K,blue,10,"",158,"",""
568851,70,70,block_Trng,3,task_Trng,2,1,"","",16,4,"","",Block4,"",J,Break,LR,1,"",K,blue,12,"",160,"",""
568851,71,71,block_Trng,3,task_Trng,2,1,"","",17,4,"","",Block4,"",J,Fdbck,LR,307,"",J,blue,13,"",162,"",""
568851,72,72,block_Trng,3,task_Trng,2,1,"","",18,4,"","",Block4,"",K,Fdbck,NR,904,"",K,green,9,"",162,"",""
568851,73,73,block_Trng,3,task_Trng,2,1,"","",1,5,"","",Block5,"",K,Fdbck,HR,837,"",J,red,12,"",172,"",""
568851,74,74,block_Trng,3,task_Trng,2,1,"","",2,5,"","",Block5,"",K,Stim6,HR,18,"",K,red,9,"",182,"",""
568851,75,75,block_Trng,3,task_Trng,2,0,"","",3,5,"","",Block5,"",K,Fdbck,NR,991,"",J,green,12,"",182,"",""
568851,76,76,block_Trng,3,task_Trng,2,0,"","",4,5,"","",Block5,"",J,Fdbck,NR,913,"",K,green,11,"",182,"",""
568851,77,77,block_Trng,3,task_Trng,2,0,"","",5,5,"","",Block5,"",J,Fdbck,HR,814,"",J,red,10,"",182,"",""
568851,78,78,block_Trng,3,task_Trng,2,0,"","",6,5,"","",Block5,"",J,Fdbck,LR,819,"",J,blue,11,"",182,"",""
568851,79,79,block_Trng,3,task_Trng,2,0,"","",7,5,"","",Block5,"",J,Fdbck,NR,753,"",J,green,10,"",182,"",""
568851,80,80,block_Trng,3,task_Trng,2,1,"","",8,5,"","",Block5,"",J,Stim15,NR,42,"",J,green,8,"",182,"",""
568851,81,81,block_Trng,3,task_Trng,2,0,"","",9,5,"","",Block5,"",J,Fdbck,LR,163,"",K,blue,8,"",182,"",""
568851,82,82,block_Trng,3,task_Trng,2,1,"","",10,5,"","",Block5,"",J,Fdbck,NR,673,"",K,green,13,"",182,"",""
568851,83,83,block_Trng,3,task_Trng,2,0,"","",11,5,"","",Block5,"",J,Fdbck,HR,890,"",K,red,13,"",182,"",""
568851,84,84,block_Trng,3,task_Trng,2,1,"","",12,5,"","",Block5,"",K,Fdbck,HR,789,"",K,red,11,"",192,"",""
568851,85,85,block_Trng,3,task_Trng,2,1,"","",13,5,"","",Block5,"",K,Fdbck,HR,595,"",J,red,8,"",202,"",""
568851,86,86,block_Trng,3,task_Trng,2,1,"","",14,5,"","",Block5,"",J,trial_fix1,LR,415,"",J,blue,9,"",204,"",""
568851,87,87,block_Trng,3,task_Trng,2,1,"","",15,5,"","",Block5,"",J,Fdbck,LR,903,"",K,blue,10,"",206,"",""
568851,88,88,block_Trng,3,task_Trng,2,1,"","",16,5,"","",Block5,"",K,Fdbck,LR,979,"",K,blue,12,"",208,"",""
568851,89,89,block_Trng,3,task_Trng,2,1,"","",17,5,"","",Block5,"",K,Fdbck,LR,663,"",J,blue,13,"",210,"",""
568851,90,90,block_Trng,3,task_Trng,2,1,"","",18,5,"","",Block5,"",J,Fdbck,NR,918,"",K,green,9,"",210,"",""
568851,91,91,block_Trng,3,task_Trng,2,0,"","",1,6,"","",Block6,"",J,Fdbck,HR,974,"",J,red,12,"",210,"",""
568851,92,92,block_Trng,3,task_Trng,2,0,"","",2,6,"","",Block6,"",K,Fdbck,HR,711,"",K,red,9,"",210,"",""
568851,93,93,block_Trng,3,task_Trng,2,0,"","",3,6,"","",Block6,"",K,Fdbck,NR,849,"",J,green,12,"",210,"",""
568851,94,94,block_Trng,3,task_Trng,2,1,"","",4,6,"","",Block6,"",K,trial_fix2,NR,294,"",K,green,11,"",210,"",""
568851,95,95,block_Trng,3,task_Trng,2,1,"","",5,6,"","",Block6,"",K,Fdbck,HR,946,"",J,red,10,"",220,"",""
568851,96,96,block_Trng,3,task_Trng,2,1,"","",6,6,"","",Block6,"",J,trial_fix2,LR,569,"",J,blue,11,"",222,"",""
568851,97,97,block_Trng,3,task_Trng,2,1,"","",7,6,"","",Block6,"",K,Fdbck,NR,933,"",J,green,10,"",222,"",""
568851,98,98,block_Trng,3,task_Trng,2,0,"","",8,6,"","",Block6,"",K,Fdbck,NR,888,"",J,green,8,"",222,"",""
568851,99,99,block_Trng,3,task_Trng,2,0,"","",9,6,"","",Block6,"",J,Fdbck,LR,495,"",K,blue,8,"",222,"",""
568851,100,100,block_Trng,3,task_Trng,2,1,"","",10,6,"","",Block6,"",J,Fdbck,NR,539,"",K,green,13,"",222,"",""
568851,101,101,block_Trng,3,task_Trng,2,1,"","",11,6,"","",Block6,"",J,Fdbck,HR,982,"",K,red,13,"",232,"",""
568851,102,102,block_Trng,3,task_Trng,2,1,"","",12,6,"","",Block6,"",J,Fdbck,HR,992,"",K,red,11,"",242,"",""
568851,103,103,block_Trng,3,task_Trng,2,1,"","",13,6,"","",Block6,"",K,Fdbck,HR,890,"",J,red,8,"",252,"",""
568851,104,104,block_Trng,3,task_Trng,2,0,"","",14,6,"","",Block6,"",K,Fdbck,LR,618,"",J,blue,9,"",252,"",""
568851,105,105,block_Trng,3,task_Trng,2,0,"","",15,6,"","",Block6,"",J,Break,LR,12,"",K,blue,10,"",252,"",""
568851,106,106,block_Trng,3,task_Trng,2,0,"","",16,6,"","",Block6,"",K,Fdbck,LR,604,"",K,blue,12,"",252,"",""
568851,107,107,block_Trng,3,task_Trng,2,1,"","",17,6,"","",Block6,"",K,Fdbck,LR,868,"",J,blue,13,"",254,"",""
568851,108,108,block_Trng,3,task_Trng,2,1,"","",18,6,"","",Block6,"",J,Fdbck,NR,129,"",K,green,9,"",254,"",""
568851,109,109,block_Trng,3,task_Trng,2,1,"","",1,7,"","",Block7,"",J,Fdbck,HR,903,"",J,red,12,"",264,"",""
568851,110,110,block_Trng,3,task_Trng,2,1,"","",2,7,"","",Block7,"",J,Fdbck,HR,953,"",K,red,9,"",274,"",""
568851,111,111,block_Trng,3,task_Trng,2,0,"","",3,7,"","",Block7,"",K,Fdbck,NR,847,"",J,green,12,"",274,"",""
568851,112,112,block_Trng,3,task_Trng,2,0,"","",4,7,"","",Block7,"",J,Fdbck,NR,984,"",K,green,11,"",274,"",""
568851,113,113,block_Trng,3,task_Trng,2,1,"","",5,7,"","",Block7,"",K,Fdbck,HR,954,"",J,red,10,"",284,"",""
568851,114,114,block_Trng,3,task_Trng,2,1,"","",6,7,"","",Block7,"",K,Fdbck,LR,898,"",J,blue,11,"",286,"",""
568851,115,115,block_Trng,3,task_Trng,2,1,"","",7,7,"","",Block7,"",J,Break,NR,20,"",J,green,10,"",286,"",""
568851,116,116,block_Trng,3,task_Trng,2,1,"","",8,7,"","",Block7,"",J,Fdbck,NR,757,"",J,green,8,"",286,"",""
568851,117,117,block_Trng,3,task_Trng,2,0,"","",9,7,"","",Block7,"",K,Fdbck,LR,704,"",K,blue,8,"",286,"",""
568851,118,118,block_Trng,3,task_Trng,2,0,"","",10,7,"","",Block7,"",J,Fdbck,NR,784,"",K,green,13,"",286,"",""
568851,119,119,block_Trng,3,task_Trng,2,1,"","",11,7,"","",Block7,"",J,Break,HR,1,"",K,red,13,"",296,"",""
568851,120,120,block_Trng,3,task_Trng,2,1,"","",12,7,"","",Block7,"",K,Break,HR,27,"",K,red,11,"",306,"",""
568851,121,121,block_Trng,3,task_Trng,2,1,"","",13,7,"","",Block7,"",J,Fdbck,HR,778,"",J,red,8,"",316,"",""
568851,122,122,block_Trng,3,task_Trng,2,0,"","",14,7,"","",Block7,"",J,Fdbck,LR,884,"",J,blue,9,"",316,"",""
568851,123,123,block_Trng,3,task_Trng,2,0,"","",15,7,"","",Block7,"",J,Fdbck,LR,797,"",K,blue,10,"",316,"",""
568851,124,124,block_Trng,3,task_Trng,2,0,"","",16,7,"","",Block7,"",J,Fdbck,LR,791,"",K,blue,12,"",316,"",""
568851,125,125,block_Trng,3,task_Trng,2,1,"","",17,7,"","",Block7,"",J,Fdbck,LR,983,"",J,blue,13,"",318,"",""
568851,126,126,block_Trng,3,task_Trng,2,0,"","",18,7,"","",Block7,"",J,Break,NR,18,"",K,green,9,"",318,"",""
568851,127,127,block_Trng,3,task_Trng,2,0,"","",1,8,"","",Block8,"",K,Fdbck,HR,689,"",J,red,12,"",318,"",""
568851,128,128,block_Trng,3,task_Trng,2,1,"","",2,8,"","",Block8,"",K,Fdbck,HR,839,"",K,red,9,"",328,"",""
568851,129,129,block_Trng,3,task_Trng,2,0,"","",3,8,"","",Block8,"",J,Fdbck,NR,839,"",J,green,12,"",328,"",""
568851,130,130,block_Trng,3,task_Trng,2,1,"","",4,8,"","",Block8,"",J,Break,NR,17,"",K,green,11,"",328,"",""
568851,131,131,block_Trng,3,task_Trng,2,1,"","",5,8,"","",Block8,"",K,Fdbck,HR,880,"",J,red,10,"",338,"",""
568851,132,132,block_Trng,3,task_Trng,2,0,"","",6,8,"","",Block8,"",K,Fdbck,LR,799,"",J,blue,11,"",338,"",""
568851,133,133,block_Trng,3,task_Trng,2,0,"","",7,8,"","",Block8,"",K,Fdbck,NR,647,"",J,green,10,"",338,"",""
568851,134,134,block_Trng,3,task_Trng,2,0,"","",8,8,"","",Block8,"",J,Fdbck,NR,854,"",J,green,8,"",338,"",""
568851,135,135,block_Trng,3,task_Trng,2,1,"","",9,8,"","",Block8,"",J,Fdbck,LR,799,"",K,blue,8,"",340,"",""
568851,136,136,block_Trng,3,task_Trng,2,1,"","",10,8,"","",Block8,"",J,Fdbck,NR,826,"",K,green,13,"",340,"",""
568851,137,137,block_Trng,3,task_Trng,2,0,"","",11,8,"","",Block8,"",K,Fdbck,HR,473,"",K,red,13,"",340,"",""
568851,138,138,block_Trng,3,task_Trng,2,0,"","",12,8,"","",Block8,"",J,Fdbck,HR,784,"",K,red,11,"",340,"",""
568851,139,139,block_Trng,3,task_Trng,2,1,"","",13,8,"","",Block8,"",J,Fdbck,HR,813,"",J,red,8,"",350,"",""
568851,140,140,block_Trng,3,task_Trng,2,1,"","",14,8,"","",Block8,"",K,Fdbck,LR,765,"",J,blue,9,"",352,"",""
568851,141,141,block_Trng,3,task_Trng,2,0,"","",15,8,"","",Block8,"",J,Fdbck,LR,755,"",K,blue,10,"",352,"",""
568851,142,142,block_Trng,3,task_Trng,2,0,"","",16,8,"","",Block8,"",K,Fdbck,LR,996,"",K,blue,12,"",352,"",""
568851,143,143,block_Trng,3,task_Trng,2,1,"","",17,8,"","",Block8,"",K,Fdbck,LR,627,"",J,blue,13,"",354,"",""
568851,144,144,block_Trng,3,task_Trng,2,0,"","",18,8,"","",Block8,"",J,Fdbck,NR,877,"",K,green,9,"",354,"",""
568851,145,145,block_Trng,3,task_Trng,2,1,"","",1,9,"","",Block9,"",J,Fdbck,HR,690,"",J,red,12,"",364,"",""
568851,146,146,block_Trng,3,task_Trng,2,1,"","",2,9,"","",Block9,"",J,Fdbck,HR,783,"",K,red,9,"",374,"",""
568851,147,147,block_Trng,3,task_Trng,2,0,"","",3,9,"","",Block9,"",K,Fdbck,NR,943,"",J,green,12,"",374,"",""
568851,148,148,block_Trng,3,task_Trng,2,0,"","",4,9,"","",Block9,"",J,Fdbck,NR,908,"",K,green,11,"",374,"",""
568851,149,149,block_Trng,3,task_Trng,2,0,"","",5,9,"","",Block9,"",K,Fdbck,HR,820,"",J,red,10,"",374,"",""
568851,150,150,block_Trng,3,task_Trng,2,0,"","",6,9,"","",Block9,"",K,Fdbck,LR,703,"",J,blue,11,"",374,"",""
568851,151,151,block_Trng,3,task_Trng,2,1,"","",7,9,"","",Block9,"",J,Fdbck,NR,770,"",J,green,10,"",374,"",""
568851,152,152,block_Trng,3,task_Trng,2,1,"","",8,9,"","",Block9,"",J,Fdbck,NR,528,"",J,green,8,"",374,"",""
568851,153,153,block_Trng,3,task_Trng,2,1,"","",9,9,"","",Block9,"",K,Fdbck,LR,850,"",K,blue,8,"",376,"",""
568851,154,154,block_Trng,3,task_Trng,2,1,"","",10,9,"","",Block9,"",K,Fdbck,NR,913,"",K,green,13,"",376,"",""
568851,155,155,block_Trng,3,task_Trng,2,1,"","",11,9,"","",Block9,"",K,Fdbck,HR,499,"",K,red,13,"",386,"",""
568851,156,156,block_Trng,3,task_Trng,2,0,"","",12,9,"","",Block9,"",J,Fdbck,HR,666,"",K,red,11,"",386,"",""
568851,157,157,block_Trng,3,task_Trng,2,1,"","",13,9,"","",Block9,"",J,Fdbck,HR,991,"",J,red,8,"",396,"",""
568851,158,158,block_Trng,3,task_Trng,2,1,"","",14,9,"","",Block9,"",J,Fdbck,LR,799,"",J,blue,9,"",398,"",""
568851,159,159,block_Trng,3,task_Trng,2,0,"","",15,9,"","",Block9,"",J,Fdbck,LR,939,"",K,blue,10,"",398,"",""
568851,160,160,block_Trng,3,task_Trng,2,0,"","",16,9,"","",Block9,"",J,Fdbck,LR,673,"",K,blue,12,"",398,"",""
568851,161,161,block_Trng,3,task_Trng,2,0,"","",17,9,"","",Block9,"",J,Break,LR,32,"",J,blue,13,"",398,"",""
568851,162,162,block_Trng,3,task_Trng,2,0,"","",18,9,"","",Block9,"",K,Fdbck,NR,685,"",K,green,9,"",398,"",""
568851,163,163,block_Trng,3,task_Trng,2,1,"","",1,10,"","",Block10,"",J,Fdbck,HR,879,"",J,red,12,"",408,"",""
568851,164,164,block_Trng,3,task_Trng,2,0,"","",2,10,"","",Block10,"",J,Stim13,HR,108,"",K,red,9,"",408,"",""
568851,165,165,block_Trng,3,task_Trng,2,1,"","",3,10,"","",Block10,"",J,Fdbck,NR,591,"",J,green,12,"",408,"",""
568851,166,166,block_Trng,3,task_Trng,2,0,"","",4,10,"","",Block10,"",J,Break,NR,18,"",K,green,11,"",408,"",""
568851,167,167,block_Trng,3,task_Trng,2,0,"","",5,10,"","",Block10,"",K,Fdbck,HR,969,"",J,red,10,"",408,"",""
568851,168,168,block_Trng,3,task_Trng,2,1,"","",6,10,"","",Block10,"",J,Fdbck,LR,652,"",J,blue,11,"",410,"",""
568851,169,169,block_Trng,3,task_Trng,2,1,"","",7,10,"","",Block10,"",K,Fdbck,NR,737,"",J,green,10,"",410,"",""
568851,170,170,block_Trng,3,task_Trng,2,1,"","",8,10,"","",Block10,"",K,Fdbck,NR,722,"",J,green,8,"",410,"",""
568851,171,171,block_Trng,3,task_Trng,2,0,"","",9,10,"","",Block10,"",K,Break,LR,16,"",K,blue,8,"",410,"",""
568851,172,172,block_Trng,3,task_Trng,2,1,"","",10,10,"","",Block10,"",J,Fdbck,NR,859,"",K,green,13,"",410,"",""
568851,173,173,block_Trng,3,task_Trng,2,0,"","",11,10,"","",Block10,"",K,Fdbck,HR,861,"",K,red,13,"",410,"",""
568851,174,174,block_Trng,3,task_Trng,2,0,"","",12,10,"","",Block10,"",K,Fdbck,HR,888,"",K,red,11,"",410,"",""
568851,175,175,block_Trng,3,task_Trng,2,0,"","",13,10,"","",Block10,"",K,Stim6,HR,96,"",J,red,8,"",410,"",""
568851,176,176,block_Trng,3,task_Trng,2,1,"","",14,10,"","",Block10,"",J,Fdbck,LR,389,"",J,blue,9,"",412,"",""
568851,177,177,block_Trng,3,task_Trng,2,0,"","",15,10,"","",Block10,"",J,Fdbck,LR,828,"",K,blue,10,"",412,"",""
568851,178,178,block_Trng,3,task_Trng,2,0,"","",16,10,"","",Block10,"",J,Fdbck,LR,777,"",K,blue,12,"",412,"",""
568851,179,179,block_Trng,3,task_Trng,2,0,"","",17,10,"","",Block10,"",J,Fdbck,LR,803,"",J,blue,13,"",412,"",""
568851,180,180,block_Trng,3,task_Trng,2,1,"","",18,10,"","",Block10,"",J,Break,NR,11129,"",K,green,9,"",412,"",""
568851,181,181,block_Trng,3,task_Trng,2,0,"","",1,11,"","",Block11,"",J,Fdbck,HR,392,"",J,red,12,"",412,"",""
568851,182,182,block_Trng,3,task_Trng,2,0,"","",2,11,"","",Block11,"",K,Fdbck,HR,414,"",K,red,9,"",412,"",""
568851,183,183,block_Trng,3,task_Trng,2,1,"","",3,11,"","",Block11,"",J,Fdbck,NR,287,"",J,green,12,"",412,"",""
568851,184,184,block_Trng,3,task_Trng,2,1,"","",4,11,"","",Block11,"",K,Fdbck,NR,472,"",K,green,11,"",412,"",""
568851,185,185,block_Trng,3,task_Trng,2,0,"","",5,11,"","",Block11,"",J,Fdbck,HR,549,"",J,red,10,"",412,"",""
568851,186,186,block_Trng,3,task_Trng,2,0,"","",6,11,"","",Block11,"",J,Fdbck,LR,996,"",J,blue,11,"",412,"",""
568851,187,187,block_Trng,3,task_Trng,2,1,"","",7,11,"","",Block11,"",K,Fdbck,NR,805,"",J,green,10,"",412,"",""
568851,188,188,block_Trng,3,task_Trng,2,0,"","",8,11,"","",Block11,"",K,Fdbck,NR,693,"",J,green,8,"",412,"",""
568851,189,189,block_Trng,3,task_Trng,2,1,"","",9,11,"","",Block11,"",K,Fdbck,LR,954,"",K,blue,8,"",414,"",""
568851,190,190,block_Trng,3,task_Trng,2,0,"","",10,11,"","",Block11,"",K,Fdbck,NR,797,"",K,green,13,"",414,"",""
568851,191,191,block_Trng,3,task_Trng,2,1,"","",11,11,"","",Block11,"",J,Fdbck,HR,823,"",K,red,13,"",424,"",""
568851,192,192,block_Trng,3,task_Trng,2,0,"","",12,11,"","",Block11,"",K,Fdbck,HR,853,"",K,red,11,"",424,"",""
568851,193,193,block_Trng,3,task_Trng,2,0,"","",13,11,"","",Block11,"",K,Fdbck,HR,858,"",J,red,8,"",424,"",""
568851,194,194,block_Trng,3,task_Trng,2,1,"","",14,11,"","",Block11,"",K,Fdbck,LR,956,"",J,blue,9,"",426,"",""
568851,195,195,block_Trng,3,task_Trng,2,0,"","",15,11,"","",Block11,"",K,Fdbck,LR,811,"",K,blue,10,"",426,"",""
568851,196,196,block_Trng,3,task_Trng,2,0,"","",16,11,"","",Block11,"",K,Fdbck,LR,884,"",K,blue,12,"",426,"",""
568851,197,197,block_Trng,3,task_Trng,2,0,"","",17,11,"","",Block11,"",K,Fdbck,LR,804,"",J,blue,13,"",426,"",""
568851,198,198,block_Trng,3,task_Trng,2,1,"","",18,11,"","",Block11,"",K,Fdbck,NR,889,"",K,green,9,"",426,"",""
568851,199,199,block_Trng,3,task_Trng,2,0,"","",1,12,"","",Block12,"",K,Fdbck,HR,808,"",J,red,12,"",426,"",""
568851,200,200,block_Trng,3,task_Trng,2,0,"","",2,12,"","",Block12,"",J,Break,HR,5,"",K,red,9,"",426,"",""
568851,201,201,block_Trng,3,task_Trng,2,1,"","",3,12,"","",Block12,"",J,Fdbck,NR,552,"",J,green,12,"",426,"",""
568851,202,202,block_Trng,3,task_Trng,2,1,"","",4,12,"","",Block12,"",J,Break,NR,12,"",K,green,11,"",426,"",""
568851,203,203,block_Trng,3,task_Trng,2,1,"","",5,12,"","",Block12,"",J,Fdbck,HR,822,"",J,red,10,"",436,"",""
568851,204,204,block_Trng,3,task_Trng,2,0,"","",6,12,"","",Block12,"",J,Fdbck,LR,887,"",J,blue,11,"",436,"",""
568851,205,205,block_Trng,3,task_Trng,2,1,"","",7,12,"","",Block12,"",J,Fdbck,NR,864,"",J,green,10,"",436,"",""
568851,206,206,block_Trng,3,task_Trng,2,0,"","",8,12,"","",Block12,"",K,Fdbck,NR,800,"",J,green,8,"",436,"",""
568851,207,207,block_Trng,3,task_Trng,2,0,"","",9,12,"","",Block12,"",K,Fdbck,LR,472,"",K,blue,8,"",436,"",""
568851,208,208,block_Trng,3,task_Trng,2,1,"","",10,12,"","",Block12,"",K,Fdbck,NR,743,"",K,green,13,"",436,"",""
568851,209,209,block_Trng,3,task_Trng,2,1,"","",11,12,"","",Block12,"",K,Fdbck,HR,904,"",K,red,13,"",446,"",""
568851,210,210,block_Trng,3,task_Trng,2,0,"","",12,12,"","",Block12,"",K,Fdbck,HR,665,"",K,red,11,"",446,"",""
568851,211,211,block_Trng,3,task_Trng,2,0,"","",13,12,"","",Block12,"",J,Fdbck,HR,938,"",J,red,8,"",446,"",""
568851,212,212,block_Trng,3,task_Trng,2,1,"","",14,12,"","",Block12,"",K,Fdbck,LR,709,"",J,blue,9,"",448,"",""
568851,213,213,block_Trng,3,task_Trng,2,0,"","",15,12,"","",Block12,"",K,Fdbck,LR,588,"",K,blue,10,"",448,"",""
568851,214,214,block_Trng,3,task_Trng,2,0,"","",16,12,"","",Block12,"",K,Fdbck,LR,958,"",K,blue,12,"",448,"",""
568851,215,215,block_Trng,3,task_Trng,2,0,"","",17,12,"","",Block12,"",J,Fdbck,LR,658,"",J,blue,13,"",448,"",""
568851,216,216,block_Trng,3,task_Trng,2,1,"","",18,12,"","",Block12,"",K,Break,NR,12,"",K,green,9,"",448,"",""
568851,217,217,block_Trng,3,task_Trng,2,1,"","",1,13,"","",Block13,"",J,Stim14,HR,37,"",J,red,12,"",458,"",""
568851,218,218,block_Trng,3,task_Trng,2,0,"","",2,13,"","",Block13,"",K,Fdbck,HR,872,"",K,red,9,"",458,"",""
568851,219,219,block_Trng,3,task_Trng,2,0,"","",3,13,"","",Block13,"",J,Break,NR,17,"",J,green,12,"",458,"",""
568851,220,220,block_Trng,3,task_Trng,2,0,"","",4,13,"","",Block13,"",K,Fdbck,NR,958,"",K,green,11,"",458,"",""
568851,221,221,block_Trng,3,task_Trng,2,1,"","",5,13,"","",Block13,"",K,Fdbck,HR,667,"",J,red,10,"",468,"",""
568851,222,222,block_Trng,3,task_Trng,2,1,"","",6,13,"","",Block13,"",J,Fdbck,LR,915,"",J,blue,11,"",470,"",""
568851,223,223,block_Trng,3,task_Trng,2,1,"","",7,13,"","",Block13,"",J,Fdbck,NR,937,"",J,green,10,"",470,"",""
568851,224,224,block_Trng,3,task_Trng,2,1,"","",8,13,"","",Block13,"",J,Fdbck,NR,853,"",J,green,8,"",470,"",""
568851,225,225,block_Trng,3,task_Trng,2,0,"","",9,13,"","",Block13,"",K,Break,LR,13,"",K,blue,8,"",470,"",""
568851,226,226,block_Trng,3,task_Trng,2,1,"","",10,13,"","",Block13,"",K,Fdbck,NR,784,"",K,green,13,"",470,"",""
568851,227,227,block_Trng,3,task_Trng,2,1,"","",11,13,"","",Block13,"",J,Fdbck,HR,904,"",K,red,13,"",480,"",""
568851,228,228,block_Trng,3,task_Trng,2,0,"","",12,13,"","",Block13,"",J,Fdbck,HR,947,"",K,red,11,"",480,"",""
568851,229,229,block_Trng,3,task_Trng,2,1,"","",13,13,"","",Block13,"",K,Fdbck,HR,925,"",J,red,8,"",490,"",""
568851,230,230,block_Trng,3,task_Trng,2,1,"","",14,13,"","",Block13,"",K,Fdbck,LR,972,"",J,blue,9,"",492,"",""
568851,231,231,block_Trng,3,task_Trng,2,0,"","",15,13,"","",Block13,"",J,Fdbck,LR,444,"",K,blue,10,"",492,"",""
568851,232,232,block_Trng,3,task_Trng,2,0,"","",16,13,"","",Block13,"",J,Fdbck,LR,893,"",K,blue,12,"",492,"",""
568851,233,233,block_Trng,3,task_Trng,2,1,"","",17,13,"","",Block13,"",K,Fdbck,LR,893,"",J,blue,13,"",494,"",""
568851,234,234,block_Trng,3,task_Trng,2,0,"","",18,13,"","",Block13,"",J,Fdbck,NR,972,"",K,green,9,"",494,"",""
568851,235,235,block_Trng,3,task_Trng,2,0,"","",1,14,"","",Block14,"",K,Fdbck,HR,890,"",J,red,12,"",494,"",""
568851,236,236,block_Trng,3,task_Trng,2,1,"","",2,14,"","",Block14,"",K,Fdbck,HR,894,"",K,red,9,"",504,"",""
568851,237,237,block_Trng,3,task_Trng,2,1,"","",3,14,"","",Block14,"",J,Fdbck,NR,909,"",J,green,12,"",504,"",""
568851,238,238,block_Trng,3,task_Trng,2,0,"","",4,14,"","",Block14,"",J,Fdbck,NR,809,"",K,green,11,"",504,"",""
568851,239,239,block_Trng,3,task_Trng,2,1,"","",5,14,"","",Block14,"",J,Fdbck,HR,599,"",J,red,10,"",514,"",""
568851,240,240,block_Trng,3,task_Trng,2,0,"","",6,14,"","",Block14,"",J,Fdbck,LR,889,"",J,blue,11,"",514,"",""
568851,241,241,block_Trng,3,task_Trng,2,1,"","",7,14,"","",Block14,"",K,Fdbck,NR,872,"",J,green,10,"",514,"",""
568851,242,242,block_Trng,3,task_Trng,2,0,"","",8,14,"","",Block14,"",J,Fdbck,NR,982,"",J,green,8,"",514,"",""
568851,243,243,block_Trng,3,task_Trng,2,1,"","",9,14,"","",Block14,"",J,Fdbck,LR,820,"",K,blue,8,"",516,"",""
568851,244,244,block_Trng,3,task_Trng,2,1,"","",10,14,"","",Block14,"",J,Fdbck,NR,645,"",K,green,13,"",516,"",""
568851,245,245,block_Trng,3,task_Trng,2,0,"","",11,14,"","",Block14,"",K,Fdbck,HR,941,"",K,red,13,"",516,"",""
568851,246,246,block_Trng,3,task_Trng,2,0,"","",12,14,"","",Block14,"",J,Break,HR,25,"",K,red,11,"",516,"",""
568851,247,247,block_Trng,3,task_Trng,2,0,"","",13,14,"","",Block14,"",J,Fdbck,HR,985,"",J,red,8,"",516,"",""
568851,248,248,block_Trng,3,task_Trng,2,0,"","",14,14,"","",Block14,"",J,Fdbck,LR,947,"",J,blue,9,"",516,"",""
568851,249,249,block_Trng,3,task_Trng,2,1,"","",15,14,"","",Block14,"",K,Fdbck,LR,749,"",K,blue,10,"",518,"",""
568851,250,250,block_Trng,3,task_Trng,2,1,"","",16,14,"","",Block14,"",K,Fdbck,LR,767,"",K,blue,12,"",520,"",""
568851,251,251,block_Trng,3,task_Trng,2,1,"","",17,14,"","",Block14,"",J,Fdbck,LR,977,"",J,blue,13,"",522,"",""
568851,252,252,block_Trng,3,task_Trng,2,0,"","",18,14,"","",Block14,"",J,Fdbck,NR,929,"",K,green,9,"",522,"",""
568851,253,253,block_Trng,3,task_Trng,2,0,"","",1,15,"","",Block15,"",K,Fdbck,HR,878,"",J,red,12,"",522,"",""
568851,254,254,block_Trng,3,task_Trng,2,1,"","",2,15,"","",Block15,"",J,Fdbck,HR,947,"",K,red,9,"",532,"",""
568851,255,255,block_Trng,3,task_Trng,2,0,"","",3,15,"","",Block15,"",J,Fdbck,NR,848,"",J,green,12,"",532,"",""
568851,256,256,block_Trng,3,task_Trng,2,1,"","",4,15,"","",Block15,"",K,Break,NR,16,"",K,green,11,"",532,"",""
568851,257,257,block_Trng,3,task_Trng,2,1,"","",5,15,"","",Block15,"",K,Fdbck,HR,948,"",J,red,10,"",542,"",""
568851,258,258,block_Trng,3,task_Trng,2,0,"","",6,15,"","",Block15,"",K,Fdbck,LR,810,"",J,blue,11,"",542,"",""
568851,259,259,block_Trng,3,task_Trng,2,0,"","",7,15,"","",Block15,"",K,Fdbck,NR,877,"",J,green,10,"",542,"",""
568851,260,260,block_Trng,3,task_Trng,2,0,"","",8,15,"","",Block15,"",K,Fdbck,NR,773,"",J,green,8,"",542,"",""
568851,261,261,block_Trng,3,task_Trng,2,1,"","",9,15,"","",Block15,"",J,Break,LR,2,"",K,blue,8,"",544,"",""
568851,262,262,block_Trng,3,task_Trng,2,0,"","",10,15,"","",Block15,"",J,Fdbck,NR,879,"",K,green,13,"",544,"",""
568851,263,263,block_Trng,3,task_Trng,2,1,"","",11,15,"","",Block15,"",J,Fdbck,HR,563,"",K,red,13,"",554,"",""
568851,264,264,block_Trng,3,task_Trng,2,0,"","",12,15,"","",Block15,"",J,Fdbck,HR,664,"",K,red,11,"",554,"",""
568851,265,265,block_Trng,3,task_Trng,2,1,"","",13,15,"","",Block15,"",J,Fdbck,HR,238,"",J,red,8,"",564,"",""
568851,266,266,block_Trng,3,task_Trng,2,0,"","",14,15,"","",Block15,"",K,Fdbck,LR,423,"",J,blue,9,"",564,"",""
568851,267,267,block_Trng,3,task_Trng,2,1,"","",15,15,"","",Block15,"",K,Fdbck,LR,408,"",K,blue,10,"",566,"",""
568851,268,268,block_Trng,3,task_Trng,2,0,"","",16,15,"","",Block15,"",K,Fdbck,LR,658,"",K,blue,12,"",566,"",""
568851,269,269,block_Trng,3,task_Trng,2,0,"","",17,15,"","",Block15,"",K,Fdbck,LR,258,"",J,blue,13,"",566,"",""
568851,270,270,block_Trng,3,task_Trng,2,1,"","",18,15,"","",Block15,"",K,Fdbck,NR,738,"",K,green,9,"",566,"",""
568851,271,271,block_Trng,3,task_Trng,2,1,"","",1,16,"","",Block16',"",J,Fdbck,HR,795,"",J,red,12,"",576,"",""
568851,272,272,block_Trng,3,task_Trng,2,0,"","",2,16,"","",Block16',"",K,Fdbck,HR,23,"",K,red,9,"",576,"",""
568851,273,273,block_Trng,3,task_Trng,2,1,"","",3,16,"","",Block16',"",J,Stim6,NR,114,"",J,green,12,"",576,"",""
568851,274,274,block_Trng,3,task_Trng,2,0,"","",4,16,"","",Block16',"","","",NR,0,"",K,green,11,"",576,"",""
568851,275,275,block_Trng,3,task_Trng,2,0,"","",5,16,"","",Block16',"","","",HR,0,"",J,red,10,"",576,"",""
568851,276,276,block_Trng,3,task_Trng,2,0,"","",6,16,"","",Block16',"","","",LR,0,"",J,blue,11,"",576,"",""
568851,277,277,block_Trng,3,task_Trng,2,0,"","",7,16,"","",Block16',"","","",NR,0,"",J,green,10,"",576,"",""
568851,278,278,block_Trng,3,task_Trng,2,0,"","",8,16,"","",Block16',"","","",NR,0,"",J,green,8,"",576,"",""
568851,279,279,block_Trng,3,task_Trng,2,0,"","",9,16,"","",Block16',"","","",LR,0,"",K,blue,8,"",576,"",""
568851,280,280,block_Trng,3,task_Trng,2,0,"","",10,16,"","",Block16',"","","",NR,0,"",K,green,13,"",576,"",""
568851,281,281,block_Trng,3,task_Trng,2,0,"","",11,16,"","",Block16',"","","",HR,0,"",K,red,13,"",576,"",""
568851,282,282,block_Trng,3,task_Trng,2,0,"","",12,16,"","",Block16',"","","",HR,0,"",K,red,11,"",576,"",""
568851,283,283,block_Trng,3,task_Trng,2,0,"","",13,16,"","",Block16',"","","",HR,0,"",J,red,8,"",576,"",""
568851,284,284,block_Trng,3,task_Trng,2,0,"","",14,16,"","",Block16',"",K,Break,LR,2,"",J,blue,9,"",576,"",""
568851,285,285,block_Trng,3,task_Trng,2,1,"","",15,16,"","",Block16',"",K,Fdbck,LR,9,"",K,blue,10,"",578,"",""
568851,286,286,block_Trng,3,task_Trng,2,1,"","",16,16,"","",Block16',"",K,Fdbck,LR,923,"",K,blue,12,"",580,"",""
568851,287,287,block_Trng,3,task_Trng,2,1,"","",17,16,"","",Block16',"",K,Fdbck,LR,581,"",J,blue,13,"",582,"",""
568851,288,288,block_Trng,3,task_Trng,2,1,"","",18,16,"","",Block16',"",K,Fdbck,NR,994,"",K,green,9,"",582,"",""
568851,289,289,block_Trng,3,task_Trng,2,1,"","",1,17,"","",Block17,"",K,Fdbck,HR,794,"",J,red,12,"",592,"",""
568851,290,290,block_Trng,3,task_Trng,2,0,"","",2,17,"","",Block17,"",J,Fdbck,HR,832,"",K,red,9,"",592,"",""
568851,291,291,block_Trng,3,task_Trng,2,1,"","",3,17,"","",Block17,"",J,Fdbck,NR,998,"",J,green,12,"",592,"",""
568851,292,292,block_Trng,3,task_Trng,2,0,"","",4,17,"","",Block17,"",K,Fdbck,NR,883,"",K,green,11,"",592,"",""
568851,293,293,block_Trng,3,task_Trng,2,1,"","",5,17,"","",Block17,"",K,Break,HR,8,"",J,red,10,"",602,"",""
568851,294,294,block_Trng,3,task_Trng,2,0,"","",6,17,"","",Block17,"",K,Fdbck,LR,834,"",J,blue,11,"",602,"",""
568851,295,295,block_Trng,3,task_Trng,2,0,"","",7,17,"","",Block17,"",J,Fdbck,NR,613,"",J,green,10,"",602,"",""
568851,296,296,block_Trng,3,task_Trng,2,0,"","",8,17,"","",Block17,"",J,Fdbck,NR,535,"",J,green,8,"",602,"",""
568851,297,297,block_Trng,3,task_Trng,2,0,"","",9,17,"","",Block17,"",J,Fdbck,LR,648,"",K,blue,8,"",602,"",""
568851,298,298,block_Trng,3,task_Trng,2,0,"","",10,17,"","",Block17,"",K,Fdbck,NR,483,"",K,green,13,"",602,"",""
568851,299,299,block_Trng,3,task_Trng,2,1,"","",11,17,"","",Block17,"",K,Fdbck,HR,842,"",K,red,13,"",612,"",""
568851,300,300,block_Trng,3,task_Trng,2,0,"","",12,17,"","",Block17,"",J,Fdbck,HR,718,"",K,red,11,"",612,"",""
568851,301,301,block_Trng,3,task_Trng,2,0,"","",13,17,"","",Block17,"",K,Fdbck,HR,188,"",J,red,8,"",612,"",""
568851,302,302,block_Trng,3,task_Trng,2,0,"","",14,17,"","",Block17,"",K,Fdbck,LR,977,"",J,blue,9,"",612,"",""
568851,303,303,block_Trng,3,task_Trng,2,1,"","",15,17,"","",Block17,"",J,Fdbck,LR,897,"",K,blue,10,"",614,"",""
568851,304,304,block_Trng,3,task_Trng,2,1,"","",16,17,"","",Block17,"",J,Fdbck,LR,879,"",K,blue,12,"",616,"",""
568851,305,305,block_Trng,3,task_Trng,2,1,"","",17,17,"","",Block17,"",J,Fdbck,LR,718,"",J,blue,13,"",618,"",""
568851,306,306,block_Trng,3,task_Trng,2,0,"","",18,17,"","",Block17,"",J,Fdbck,NR,865,"",K,green,9,"",618,"",""
568851,307,307,block_Trng,3,task_Trng,2,1,"","",1,18,"","",Block18,"",K,Fdbck,HR,759,"",J,red,12,"",628,"",""
568851,308,308,block_Trng,3,task_Trng,2,0,"","",2,18,"","",Block18,"",K,Fdbck,HR,906,"",K,red,9,"",628,"",""
568851,309,309,block_Trng,3,task_Trng,2,0,"","",3,18,"","",Block18,"",K,Fdbck,NR,724,"",J,green,12,"",628,"",""
568851,310,310,block_Trng,3,task_Trng,2,1,"","",4,18,"","",Block18,"",K,Fdbck,NR,979,"",K,green,11,"",628,"",""
568851,311,311,block_Trng,3,task_Trng,2,1,"","",5,18,"","",Block18,"",J,Fdbck,HR,728,"",J,red,10,"",638,"",""
568851,312,312,block_Trng,3,task_Trng,2,0,"","",6,18,"","",Block18,"",J,Fdbck,LR,948,"",J,blue,11,"",638,"",""
568851,313,313,block_Trng,3,task_Trng,2,1,"","",7,18,"","",Block18,"",J,Fdbck,NR,607,"",J,green,10,"",638,"",""
568851,314,314,block_Trng,3,task_Trng,2,1,"","",8,18,"","",Block18,"",J,Fdbck,NR,532,"",J,green,8,"",638,"",""
568851,315,315,block_Trng,3,task_Trng,2,1,"","",9,18,"","",Block18,"",K,Fdbck,LR,995,"",K,blue,8,"",640,"",""
568851,316,316,block_Trng,3,task_Trng,2,0,"","",10,18,"","",Block18,"",J,Fdbck,NR,839,"",K,green,13,"",640,"",""
568851,317,317,block_Trng,3,task_Trng,2,1,"","",11,18,"","",Block18,"",J,Break,HR,3,"",K,red,13,"",650,"",""
568851,318,318,block_Trng,3,task_Trng,2,0,"","",12,18,"","",Block18,"",J,Fdbck,HR,667,"",K,red,11,"",650,"",""
568851,319,319,block_Trng,3,task_Trng,2,1,"","",13,18,"","",Block18,"",J,Fdbck,HR,765,"",J,red,8,"",660,"",""
568851,320,320,block_Trng,3,task_Trng,2,1,"","",14,18,"","",Block18,"",J,Fdbck,LR,690,"",J,blue,9,"",662,"",""
568851,321,321,block_Trng,3,task_Trng,2,1,"","",15,18,"","",Block18,"",J,Fdbck,LR,762,"",K,blue,10,"",664,"",""
568851,322,322,block_Trng,3,task_Trng,2,1,"","",16,18,"","",Block18,"",K,Fdbck,LR,753,"",K,blue,12,"",666,"",""
568851,323,323,block_Trng,3,task_Trng,2,0,"","",17,18,"","",Block18,"",J,Fdbck,LR,757,"",J,blue,13,"",666,"",""
568851,324,324,block_Trng,3,task_Trng,2,1,"","",18,18,"","",Block18,"",J,Fdbck,NR,753,"",K,green,9,"",666,"",""
568851,325,325,block_Trng,3,task_Trng,2,1,"","",1,19,"","",Block19,"",K,Fdbck,HR,1000,"",J,red,12,"",676,"",""
568851,326,326,block_Trng,3,task_Trng,2,1,"","",2,19,"","",Block19,"",J,Fdbck,HR,893,"",K,red,9,"",686,"",""
568851,327,327,block_Trng,3,task_Trng,2,0,"","",3,19,"","",Block19,"",K,Fdbck,NR,471,"",J,green,12,"",686,"",""
568851,328,328,block_Trng,3,task_Trng,2,0,"","",4,19,"","",Block19,"",J,Break,NR,17,"",K,green,11,"",686,"",""
568851,329,329,block_Trng,3,task_Trng,2,1,"","",5,19,"","",Block19,"",K,Fdbck,HR,857,"",J,red,10,"",696,"",""
568851,330,330,block_Trng,3,task_Trng,2,1,"","",6,19,"","",Block19,"",K,Fdbck,LR,927,"",J,blue,11,"",698,"",""
568851,331,331,block_Trng,3,task_Trng,2,1,"","",7,19,"","",Block19,"",J,Fdbck,NR,603,"",J,green,10,"",698,"",""
568851,332,332,block_Trng,3,task_Trng,2,0,"","",8,19,"","",Block19,"",K,Fdbck,NR,908,"",J,green,8,"",698,"",""
568851,333,333,block_Trng,3,task_Trng,2,1,"","",9,19,"","",Block19,"",K,Fdbck,LR,978,"",K,blue,8,"",700,"",""
568851,334,334,block_Trng,3,task_Trng,2,0,"","",10,19,"","",Block19,"",K,Fdbck,NR,973,"",K,green,13,"",700,"",""
568851,335,335,block_Trng,3,task_Trng,2,0,"","",11,19,"","",Block19,"",J,Fdbck,HR,956,"",K,red,13,"",700,"",""
568851,336,336,block_Trng,3,task_Trng,2,0,"","",12,19,"","",Block19,"",K,Fdbck,HR,728,"",K,red,11,"",700,"",""
568851,337,337,block_Trng,3,task_Trng,2,1,"","",13,19,"","",Block19,"",J,Fdbck,HR,919,"",J,red,8,"",710,"",""
568851,338,338,block_Trng,3,task_Trng,2,1,"","",14,19,"","",Block19,"",K,Fdbck,LR,504,"",J,blue,9,"",712,"",""
568851,339,339,block_Trng,3,task_Trng,2,1,"","",15,19,"","",Block19,"",K,Break,LR,14,"",K,blue,10,"",714,"",""
568851,340,340,block_Trng,3,task_Trng,2,0,"","",16,19,"","",Block19,"",J,Fdbck,LR,993,"",K,blue,12,"",714,"",""
568851,341,341,block_Trng,3,task_Trng,2,0,"","",17,19,"","",Block19,"",J,Fdbck,LR,857,"",J,blue,13,"",714,"",""
568851,342,342,block_Trng,3,task_Trng,2,0,"","",18,19,"","",Block19,"",J,Fdbck,NR,895,"",K,green,9,"",714,"",""
568851,343,343,block_Trng,3,task_Trng,2,0,"","",1,20,"","",Block20,"",J,Break,HR,11,"",J,red,12,"",714,"",""
568851,344,344,block_Trng,3,task_Trng,2,1,"","",2,20,"","",Block20,"",K,Fdbck,HR,839,"",K,red,9,"",724,"",""
568851,345,345,block_Trng,3,task_Trng,2,1,"","",3,20,"","",Block20,"",J,Fdbck,NR,826,"",J,green,12,"",724,"",""
568851,346,346,block_Trng,3,task_Trng,2,1,"","",4,20,"","",Block20,"",J,Fdbck,NR,977,"",K,green,11,"",724,"",""
568851,347,347,block_Trng,3,task_Trng,2,1,"","",5,20,"","",Block20,"",J,Fdbck,HR,885,"",J,red,10,"",734,"",""
568851,348,348,block_Trng,3,task_Trng,2,0,"","",6,20,"","",Block20,"",K,Fdbck,LR,1004,"",J,blue,11,"",734,"",""
568851,349,349,block_Trng,3,task_Trng,2,1,"","",7,20,"","",Block20,"",K,Fdbck,NR,953,"",J,green,10,"",734,"",""
568851,350,350,block_Trng,3,task_Trng,2,0,"","",8,20,"","",Block20,"",J,Fdbck,NR,699,"",J,green,8,"",734,"",""
568851,351,351,block_Trng,3,task_Trng,2,1,"","",9,20,"","",Block20,"",K,Fdbck,LR,892,"",K,blue,8,"",736,"",""
568851,352,352,block_Trng,3,task_Trng,2,0,"","",10,20,"","",Block20,"",K,Fdbck,NR,779,"",K,green,13,"",736,"",""
568851,353,353,block_Trng,3,task_Trng,2,1,"","",11,20,"","",Block20,"",J,Fdbck,HR,915,"",K,red,13,"",746,"",""
568851,354,354,block_Trng,3,task_Trng,2,1,"","",12,20,"","",Block20,"",J,Break,HR,12,"",K,red,11,"",756,"",""
568851,355,355,block_Trng,3,task_Trng,2,1,"","",13,20,"","",Block20,"",K,Fdbck,HR,618,"",J,red,8,"",766,"",""
568851,356,356,block_Trng,3,task_Trng,2,0,"","",14,20,"","",Block20,"",K,Fdbck,LR,902,"",J,blue,9,"",766,"",""
568851,357,357,block_Trng,3,task_Trng,2,0,"","",15,20,"","",Block20,"",J,Fdbck,LR,677,"",K,blue,10,"",766,"",""
568851,358,358,block_Trng,3,task_Trng,2,0,"","",16,20,"","",Block20,"",J,Fdbck,LR,443,"",K,blue,12,"",766,"",""
568851,359,359,block_Trng,3,task_Trng,2,1,"","",17,20,"","",Block20,"",J,Fdbck,LR,783,"",J,blue,13,"",768,"",""
568851,360,360,block_Trng,3,task_Trng,2,1,"","",18,20,"","",Block20,"",K,Fdbck,NR,721,"",K,green,9,"",768,"",""
568851,1,1,block_Trng,3,task_Trng_End,3,"","","","",1,"","","","","","","","","","","","",2.61,768,"",""
568851,1,1,block_Testing,4,task_Testing_Instructions,1,"","","","",1,"","","","","","","","","","","","","","","",""
568851,1,1,block_Testing,4,task_Testing,2,1,"","",1,1,"",Block1,"","",J,ITI,HR,417,"",K,red,11,"",768,"",""
568851,2,2,block_Testing,4,task_Testing,2,1,"","",2,1,"",Block1,"","",K,ITI,LR,372,"",K,blue,10,"",768,"",""
568851,3,3,block_Testing,4,task_Testing,2,1,"","",3,1,"",Block1,"","",J,ITI,NR,360,"",K,green,11,"",768,"",""
568851,4,4,block_Testing,4,task_Testing,2,0,"","",4,1,"",Block1,"","",J,ITI,NR,322,"",K,green,9,"",768,"",""
568851,5,5,block_Testing,4,task_Testing,2,0,"","",5,1,"",Block1,"","",J,ITI,LR,374,"",K,blue,12,"",768,"",""
568851,6,6,block_Testing,4,task_Testing,2,0,"","",6,1,"",Block1,"","",K,ITI,NR,363,"",K,green,13,"",768,"",""
568851,7,7,block_Testing,4,task_Testing,2,0,"","",7,1,"",Block1,"","",K,ITI,NR,254,"",J,green,8,"",768,"",""
568851,8,8,block_Testing,4,task_Testing,2,1,"","",8,1,"",Block1,"","",K,ITI,HR,285,"",J,red,12,"",768,"",""
568851,9,9,block_Testing,4,task_Testing,2,1,"","",9,1,"",Block1,"","",J,ITI,LR,484,"",K,blue,8,"",768,"",""
568851,10,10,block_Testing,4,task_Testing,2,1,"","",10,1,"",Block1,"","",K,ITI,HR,323,"",J,red,10,"",768,"",""
568851,11,11,block_Testing,4,task_Testing,2,0,"","",11,1,"",Block1,"","",J,ITI,LR,493,"",J,blue,11,"",768,"",""
568851,12,12,block_Testing,4,task_Testing,2,0,"","",12,1,"",Block1,"","",K,ITI,HR,452,"",K,red,13,"",768,"",""
568851,13,13,block_Testing,4,task_Testing,2,1,"","",13,1,"",Block1,"","",J,ITI,HR,493,"",K,red,9,"",768,"",""
568851,14,14,block_Testing,4,task_Testing,2,1,"","",14,1,"",Block1,"","",J,ITI,NR,412,"",J,green,12,"",768,"",""
568851,15,15,block_Testing,4,task_Testing,2,0,"","",15,1,"",Block1,"","",K,Stim15,LR,27,"",J,blue,13,"",768,"",""
568851,16,16,block_Testing,4,task_Testing,2,0,"","",16,1,"",Block1,"","",K,ITI,NR,265,"",J,green,10,"",768,"",""
568851,17,17,block_Testing,4,task_Testing,2,1,"","",17,1,"",Block1,"","",J,Stim15,LR,53,"",J,blue,9,"",768,"",""
568851,18,18,block_Testing,4,task_Testing,2,1,"","",18,1,"",Block1,"","",J,ITI,HR,415,"",J,red,8,"",768,"",""
568851,19,19,block_Testing,4,task_Testing,2,1,"","",1,2,"",Block2,"","",J,ITI,HR,413,"",K,red,11,"",768,"",""
568851,20,20,block_Testing,4,task_Testing,2,1,"","",2,2,"",Block2,"","",J,ITI,LR,307,"",K,blue,10,"",768,"",""
568851,21,21,block_Testing,4,task_Testing,2,0,"","",3,2,"",Block2,"","",K,ITI,NR,414,"",K,green,11,"",768,"",""
568851,22,22,block_Testing,4,task_Testing,2,0,"","",4,2,"",Block2,"","",K,ITI,NR,424,"",K,green,9,"",768,"",""
568851,23,23,block_Testing,4,task_Testing,2,0,"","",5,2,"",Block2,"","",J,ITI,LR,209,"",K,blue,12,"",768,"",""
568851,24,24,block_Testing,4,task_Testing,2,0,"","",6,2,"",Block2,"","",J,Stim16,NR,109,"",K,green,13,"",768,"",""
568851,25,25,block_Testing,4,task_Testing,2,1,"","",7,2,"",Block2,"","",J,ITI,NR,331,"",J,green,8,"",768,"",""
568851,26,26,block_Testing,4,task_Testing,2,0,"","",8,2,"",Block2,"","",J,ITI,HR,497,"",J,red,12,"",768,"",""
568851,27,27,block_Testing,4,task_Testing,2,0,"","",9,2,"",Block2,"","",K,ITI,LR,421,"",K,blue,8,"",768,"",""
568851,28,28,block_Testing,4,task_Testing,2,1,"","",10,2,"",Block2,"","",K,ITI,HR,428,"",J,red,10,"",768,"",""
568851,29,29,block_Testing,4,task_Testing,2,0,"","",11,2,"",Block2,"","",K,Stim16,LR,52,"",J,blue,11,"",768,"",""
568851,30,30,block_Testing,4,task_Testing,2,0,"","",12,2,"",Block2,"","",K,ITI,HR,283,"",K,red,13,"",768,"",""
568851,31,31,block_Testing,4,task_Testing,2,0,"","",13,2,"",Block2,"","",J,ITI,HR,337,"",K,red,9,"",768,"",""
568851,32,32,block_Testing,4,task_Testing,2,1,"","",14,2,"",Block2,"","",K,ITI,NR,368,"",J,green,12,"",768,"",""
568851,33,33,block_Testing,4,task_Testing,2,0,"","",15,2,"",Block2,"","",K,ITI,LR,316,"",J,blue,13,"",768,"",""
568851,34,34,block_Testing,4,task_Testing,2,0,"","",16,2,"",Block2,"","",K,ITI,NR,496,"",J,green,10,"",768,"",""
568851,35,35,block_Testing,4,task_Testing,2,0,"","",17,2,"",Block2,"","",K,ITI,LR,493,"",J,blue,9,"",768,"",""
568851,36,36,block_Testing,4,task_Testing,2,1,"","",18,2,"",Block2,"","",J,ITI,HR,368,"",J,red,8,"",768,"",""
568851,37,37,block_Testing,4,task_Testing,2,0,"","",1,3,"",Block3,"","",K,ITI,HR,229,"",K,red,11,"",768,"",""
568851,38,38,block_Testing,4,task_Testing,2,0,"","",2,3,"",Block3,"","",J,ITI,LR,174,"",K,blue,10,"",768,"",""
568851,39,39,block_Testing,4,task_Testing,2,0,"","",3,3,"",Block3,"","",K,ITI,NR,310,"",K,green,11,"",768,"",""
568851,40,40,block_Testing,4,task_Testing,2,0,"","",4,3,"",Block3,"","",J,ITI,NR,439,"",K,green,9,"",768,"",""
568851,41,41,block_Testing,4,task_Testing,2,0,"","",5,3,"",Block3,"","",K,ITI,LR,303,"",K,blue,12,"",768,"",""
568851,42,42,block_Testing,4,task_Testing,2,0,"","",6,3,"",Block3,"","",J,ITI,NR,447,"",K,green,13,"",768,"",""
568851,43,43,block_Testing,4,task_Testing,2,1,"","",7,3,"",Block3,"","",K,ITI,NR,489,"",J,green,8,"",768,"",""
568851,44,44,block_Testing,4,task_Testing,2,1,"","",8,3,"",Block3,"","",J,ITI,HR,458,"",J,red,12,"",768,"",""
568851,45,45,block_Testing,4,task_Testing,2,1,"","",9,3,"",Block3,"","",J,ITI,LR,467,"",K,blue,8,"",768,"",""
568851,46,46,block_Testing,4,task_Testing,2,0,"","",10,3,"",Block3,"","",J,ITI,HR,426,"",J,red,10,"",768,"",""
568851,47,47,block_Testing,4,task_Testing,2,1,"","",11,3,"",Block3,"","",K,ITI,LR,278,"",J,blue,11,"",768,"",""
568851,48,48,block_Testing,4,task_Testing,2,0,"","",12,3,"",Block3,"","",K,ITI,HR,259,"",K,red,13,"",768,"",""
568851,49,49,block_Testing,4,task_Testing,2,1,"","",13,3,"",Block3,"","",K,ITI,HR,301,"",K,red,9,"",768,"",""
568851,50,50,block_Testing,4,task_Testing,2,1,"","",14,3,"",Block3,"","",J,ITI,NR,319,"",J,green,12,"",768,"",""
568851,51,51,block_Testing,4,task_Testing,2,1,"","",15,3,"",Block3,"","",K,ITI,LR,468,"",J,blue,13,"",768,"",""
568851,52,52,block_Testing,4,task_Testing,2,0,"","",16,3,"",Block3,"","",J,ITI,NR,420,"",J,green,10,"",768,"",""
568851,53,53,block_Testing,4,task_Testing,2,1,"","",17,3,"",Block3,"","",J,ITI,LR,338,"",J,blue,9,"",768,"",""
568851,54,54,block_Testing,4,task_Testing,2,1,"","",18,3,"",Block3,"","",K,ITI,HR,367,"",J,red,8,"",768,"",""
568851,55,55,block_Testing,4,task_Testing,2,1,"","",1,4,"",Block4,"","",K,ITI,HR,477,"",K,red,11,"",768,"",""
568851,56,56,block_Testing,4,task_Testing,2,0,"","",2,4,"",Block4,"","",J,ITI,LR,479,"",K,blue,10,"",768,"",""
568851,57,57,block_Testing,4,task_Testing,2,1,"","",3,4,"",Block4,"","",J,ITI,NR,415,"",K,green,11,"",768,"",""
568851,58,58,block_Testing,4,task_Testing,2,1,"","",4,4,"",Block4,"","",J,ITI,NR,129,"",K,green,9,"",768,"",""
568851,59,59,block_Testing,4,task_Testing,2,0,"","",5,4,"",Block4,"","",J,ITI,LR,369,"",K,blue,12,"",768,"",""
568851,60,60,block_Testing,4,task_Testing,2,0,"","",6,4,"",Block4,"","",J,ITI,NR,10,"",K,green,13,"",768,"",""
568851,61,61,block_Testing,4,task_Testing,2,0,"","",7,4,"",Block4,"","",J,ITI,NR,495,"",J,green,8,"",768,"",""
568851,62,62,block_Testing,4,task_Testing,2,1,"","",8,4,"",Block4,"","",J,ITI,HR,316,"",J,red,12,"",768,"",""
568851,63,63,block_Testing,4,task_Testing,2,1,"","",9,4,"",Block4,"","",J,ITI,LR,176,"",K,blue,8,"",768,"",""
568851,64,64,block_Testing,4,task_Testing,2,1,"","",10,4,"",Block4,"","",J,ITI,HR,364,"",J,red,10,"",768,"",""
568851,65,65,block_Testing,4,task_Testing,2,0,"","",11,4,"",Block4,"","",J,ITI,LR,401,"",J,blue,11,"",768,"",""
568851,66,66,block_Testing,4,task_Testing,2,1,"","",12,4,"",Block4,"","",K,ITI,HR,319,"",K,red,13,"",768,"",""
568851,67,67,block_Testing,4,task_Testing,2,0,"","",13,4,"",Block4,"","",J,ITI,HR,339,"",K,red,9,"",768,"",""
568851,68,68,block_Testing,4,task_Testing,2,1,"","",14,4,"",Block4,"","",J,Stim16,NR,88,"",J,green,12,"",768,"",""
568851,69,69,block_Testing,4,task_Testing,2,0,"","",15,4,"",Block4,"","",J,ITI,LR,100,"",J,blue,13,"",768,"",""
568851,70,70,block_Testing,4,task_Testing,2,0,"","",16,4,"",Block4,"","",K,ITI,NR,441,"",J,green,10,"",768,"",""
568851,71,71,block_Testing,4,task_Testing,2,0,"","",17,4,"",Block4,"","",K,ITI,LR,469,"",J,blue,9,"",768,"",""
568851,72,72,block_Testing,4,task_Testing,2,1,"","",18,4,"",Block4,"","",K,ITI,HR,338,"",J,red,8,"",768,"",""
568851,73,73,block_Testing,4,task_Testing,2,0,"","",1,5,"",Block5,"","",J,ITI,HR,259,"",K,red,11,"",768,"",""
568851,74,74,block_Testing,4,task_Testing,2,0,"","",2,5,"",Block5,"","",J,ITI,LR,293,"",K,blue,10,"",768,"",""
568851,75,75,block_Testing,4,task_Testing,2,0,"","",3,5,"",Block5,"","",J,ITI,NR,308,"",K,green,11,"",768,"",""
568851,76,76,block_Testing,4,task_Testing,2,0,"","",4,5,"",Block5,"","",J,ITI,NR,275,"",K,green,9,"",768,"",""
568851,77,77,block_Testing,4,task_Testing,2,0,"","",5,5,"",Block5,"","",K,ITI,LR,183,"",K,blue,12,"",768,"",""
568851,78,78,block_Testing,4,task_Testing,2,0,"","",6,5,"",Block5,"","",J,ITI,NR,247,"",K,green,13,"",768,"",""
568851,79,79,block_Testing,4,task_Testing,2,0,"","",7,5,"",Block5,"","",K,ITI,NR,422,"",J,green,8,"",768,"",""
568851,80,80,block_Testing,4,task_Testing,2,0,"","",8,5,"",Block5,"","",J,ITI,HR,273,"",J,red,12,"",768,"",""
568851,81,81,block_Testing,4,task_Testing,2,1,"","",9,5,"",Block5,"","",K,ITI,LR,272,"",K,blue,8,"",768,"",""
568851,82,82,block_Testing,4,task_Testing,2,0,"","",10,5,"",Block5,"","",K,ITI,HR,334,"",J,red,10,"",768,"",""
568851,83,83,block_Testing,4,task_Testing,2,0,"","",11,5,"",Block5,"","",J,ITI,LR,9,"",J,blue,11,"",768,"",""
568851,84,84,block_Testing,4,task_Testing,2,0,"","",12,5,"",Block5,"","",K,ITI,HR,304,"",K,red,13,"",768,"",""
568851,85,85,block_Testing,4,task_Testing,2,1,"","",13,5,"",Block5,"","",J,ITI,HR,232,"",K,red,9,"",768,"",""
568851,86,86,block_Testing,4,task_Testing,2,0,"","",14,5,"",Block5,"","",J,ITI,NR,243,"",J,green,12,"",768,"",""
568851,87,87,block_Testing,4,task_Testing,2,1,"","",15,5,"",Block5,"","",J,ITI,LR,152,"",J,blue,13,"",768,"",""
568851,88,88,block_Testing,4,task_Testing,2,1,"","",16,5,"",Block5,"","",K,ITI,NR,287,"",J,green,10,"",768,"",""
568851,89,89,block_Testing,4,task_Testing,2,1,"","",17,5,"",Block5,"","",J,ITI,LR,249,"",J,blue,9,"",768,"",""
568851,90,90,block_Testing,4,task_Testing,2,1,"","",18,5,"",Block5,"","",J,Stim15,HR,7,"",J,red,8,"",768,"",""
568851,91,91,block_Testing,4,task_Testing,2,0,"","",1,6,"",Block6,"","",J,ITI,HR,413,"",K,red,11,"",768,"",""
568851,92,92,block_Testing,4,task_Testing,2,1,"","",2,6,"",Block6,"","",J,ITI,LR,386,"",K,blue,10,"",768,"",""
568851,93,93,block_Testing,4,task_Testing,2,0,"","",3,6,"",Block6,"","",J,ITI,NR,179,"",K,green,11,"",768,"",""
568851,94,94,block_Testing,4,task_Testing,2,1,"","",4,6,"",Block6,"","",K,Stim16,NR,59,"",K,green,9,"",768,"",""
568851,95,95,block_Testing,4,task_Testing,2,1,"","",5,6,"",Block6,"","",J,ITI,LR,474,"",K,blue,12,"",768,"",""
568851,96,96,block_Testing,4,task_Testing,2,1,"","",6,6,"",Block6,"","",K,ITI,NR,258,"",K,green,13,"",768,"",""
568851,97,97,block_Testing,4,task_Testing,2,0,"","",7,6,"",Block6,"","",K,ITI,NR,420,"",J,green,8,"",768,"",""
568851,98,98,block_Testing,4,task_Testing,2,0,"","",8,6,"",Block6,"","",J,ITI,HR,424,"",J,red,12,"",768,"",""
568851,99,99,block_Testing,4,task_Testing,2,0,"","",9,6,"",Block6,"","",J,Stim7,LR,3,"",K,blue,8,"",768,"",""
568851,100,100,block_Testing,4,task_Testing,2,1,"","",10,6,"",Block6,"","",K,ITI,HR,495,"",J,red,10,"",768,"",""
568851,101,101,block_Testing,4,task_Testing,2,0,"","",11,6,"",Block6,"","",K,ITI,LR,263,"",J,blue,11,"",768,"",""
568851,102,102,block_Testing,4,task_Testing,2,1,"","",12,6,"",Block6,"","",K,ITI,HR,323,"",K,red,13,"",768,"",""
568851,103,103,block_Testing,4,task_Testing,2,1,"","",13,6,"",Block6,"","",J,ITI,HR,258,"",K,red,9,"",768,"",""
568851,104,104,block_Testing,4,task_Testing,2,0,"","",14,6,"",Block6,"","",K,ITI,NR,401,"",J,green,12,"",768,"",""
568851,105,105,block_Testing,4,task_Testing,2,0,"","",15,6,"",Block6,"","",K,ITI,LR,237,"",J,blue,13,"",768,"",""
568851,106,106,block_Testing,4,task_Testing,2,0,"","",16,6,"",Block6,"","",K,ITI,NR,406,"",J,green,10,"",768,"",""
568851,107,107,block_Testing,4,task_Testing,2,0,"","",17,6,"",Block6,"","",K,ITI,LR,273,"",J,blue,9,"",768,"",""
568851,108,108,block_Testing,4,task_Testing,2,0,"","",18,6,"",Block6,"","",K,trial_fix2,HR,711,"",J,red,8,"",768,"",""
568851,109,109,block_Testing,4,task_Testing,2,1,"","",1,7,"",Block7,"","",J,ITI,HR,458,"",K,red,11,"",768,"",""
568851,110,110,block_Testing,4,task_Testing,2,0,"","",2,7,"",Block7,"","",J,ITI,LR,279,"",K,blue,10,"",768,"",""
568851,111,111,block_Testing,4,task_Testing,2,1,"","",3,7,"",Block7,"","",K,ITI,NR,448,"",K,green,11,"",768,"",""
568851,112,112,block_Testing,4,task_Testing,2,0,"","",4,7,"",Block7,"","",J,ITI,NR,434,"",K,green,9,"",768,"",""
568851,113,113,block_Testing,4,task_Testing,2,0,"","",5,7,"",Block7,"","",J,ITI,LR,374,"",K,blue,12,"",768,"",""
568851,114,114,block_Testing,4,task_Testing,2,0,"","",6,7,"",Block7,"","",J,ITI,NR,349,"",K,green,13,"",768,"",""
568851,115,115,block_Testing,4,task_Testing,2,1,"","",7,7,"",Block7,"","",K,ITI,NR,414,"",J,green,8,"",768,"",""
568851,116,116,block_Testing,4,task_Testing,2,0,"","",8,7,"",Block7,"","",J,ITI,HR,294,"",J,red,12,"",768,"",""
568851,117,117,block_Testing,4,task_Testing,2,1,"","",9,7,"",Block7,"","",K,ITI,LR,363,"",K,blue,8,"",768,"",""
568851,118,118,block_Testing,4,task_Testing,2,0,"","",10,7,"",Block7,"","",K,ITI,HR,249,"",J,red,10,"",768,"",""
568851,119,119,block_Testing,4,task_Testing,2,0,"","",11,7,"",Block7,"","",K,ITI,LR,274,"",J,blue,11,"",768,"",""
568851,120,120,block_Testing,4,task_Testing,2,0,"","",12,7,"",Block7,"","",J,ITI,HR,243,"",K,red,13,"",768,"",""
568851,121,121,block_Testing,4,task_Testing,2,1,"","",13,7,"",Block7,"","",K,ITI,HR,359,"",K,red,9,"",768,"",""
568851,122,122,block_Testing,4,task_Testing,2,1,"","",14,7,"",Block7,"","",K,ITI,NR,433,"",J,green,12,"",768,"",""
568851,123,123,block_Testing,4,task_Testing,2,0,"","",15,7,"",Block7,"","",K,ITI,LR,367,"",J,blue,13,"",768,"",""
568851,124,124,block_Testing,4,task_Testing,2,1,"","",16,7,"",Block7,"","",J,ITI,NR,289,"",J,green,10,"",768,"",""
568851,125,125,block_Testing,4,task_Testing,2,1,"","",17,7,"",Block7,"","",J,ITI,LR,354,"",J,blue,9,"",768,"",""
568851,126,126,block_Testing,4,task_Testing,2,0,"","",18,7,"",Block7,"","",K,Stim3,HR,68,"",J,red,8,"",768,"",""
568851,127,127,block_Testing,4,task_Testing,2,0,"","",1,8,"",Block8,"","",K,ITI,HR,403,"",K,red,11,"",768,"",""
568851,128,128,block_Testing,4,task_Testing,2,0,"","",2,8,"",Block8,"","",K,ITI,LR,168,"",K,blue,10,"",768,"",""
568851,129,129,block_Testing,4,task_Testing,2,1,"","",3,8,"",Block8,"","",K,ITI,NR,389,"",K,green,11,"",768,"",""
568851,130,130,block_Testing,4,task_Testing,2,0,"","",4,8,"",Block8,"","",K,ITI,NR,451,"",K,green,9,"",768,"",""
568851,131,131,block_Testing,4,task_Testing,2,1,"","",5,8,"",Block8,"","",J,ITI,LR,435,"",K,blue,12,"",768,"",""
568851,132,132,block_Testing,4,task_Testing,2,0,"","",6,8,"",Block8,"","",K,ITI,NR,122,"",K,green,13,"",768,"",""
568851,133,133,block_Testing,4,task_Testing,2,0,"","",7,8,"",Block8,"","",K,ITI,NR,458,"",J,green,8,"",768,"",""
568851,134,134,block_Testing,4,task_Testing,2,0,"","",8,8,"",Block8,"","",J,ITI,HR,323,"",J,red,12,"",768,"",""
568851,135,135,block_Testing,4,task_Testing,2,0,"","",9,8,"",Block8,"","",J,ITI,LR,322,"",K,blue,8,"",768,"",""
568851,136,136,block_Testing,4,task_Testing,2,1,"","",10,8,"",Block8,"","",K,ITI,HR,375,"",J,red,10,"",768,"",""
568851,137,137,block_Testing,4,task_Testing,2,0,"","",11,8,"",Block8,"","",K,ITI,LR,290,"",J,blue,11,"",768,"",""
568851,138,138,block_Testing,4,task_Testing,2,0,"","",12,8,"",Block8,"","",K,ITI,HR,394,"",K,red,13,"",768,"",""
568851,139,139,block_Testing,4,task_Testing,2,1,"","",13,8,"",Block8,"","",J,ITI,HR,445,"",K,red,9,"",768,"",""
568851,140,140,block_Testing,4,task_Testing,2,0,"","",14,8,"",Block8,"","",K,ITI,NR,335,"",J,green,12,"",768,"",""
568851,141,141,block_Testing,4,task_Testing,2,0,"","",15,8,"",Block8,"","",K,ITI,LR,363,"",J,blue,13,"",768,"",""
568851,142,142,block_Testing,4,task_Testing,2,0,"","",16,8,"",Block8,"","",J,ITI,NR,454,"",J,green,10,"",768,"",""
568851,143,143,block_Testing,4,task_Testing,2,1,"","",17,8,"",Block8,"","",J,ITI,LR,352,"",J,blue,9,"",768,"",""
568851,144,144,block_Testing,4,task_Testing,2,1,"","",18,8,"",Block8,"","",J,ITI,HR,389,"",J,red,8,"",768,"",""
568851,145,145,block_Testing,4,task_Testing,2,0,"","",1,9,"",Block9,"","",K,ITI,HR,384,"",K,red,11,"",768,"",""
568851,146,146,block_Testing,4,task_Testing,2,0,"","",2,9,"",Block9,"","",J,ITI,LR,304,"",K,blue,10,"",768,"",""
568851,147,147,block_Testing,4,task_Testing,2,1,"","",3,9,"",Block9,"","",K,ITI,NR,265,"",K,green,11,"",768,"",""
568851,148,148,block_Testing,4,task_Testing,2,1,"","",4,9,"",Block9,"","",K,ITI,NR,303,"",K,green,9,"",768,"",""
568851,149,149,block_Testing,4,task_Testing,2,0,"","",5,9,"",Block9,"","",J,Stim8,LR,27,"",K,blue,12,"",768,"",""
568851,150,150,block_Testing,4,task_Testing,2,0,"","",6,9,"",Block9,"","","","",NR,0,"",K,green,13,"",768,"",""
568851,151,151,block_Testing,4,task_Testing,2,0,"","",7,9,"",Block9,"","","","",NR,0,"",J,green,8,"",768,"",""
568851,152,152,block_Testing,4,task_Testing,2,0,"","",8,9,"",Block9,"","","","",HR,0,"",J,red,12,"",768,"",""
568851,153,153,block_Testing,4,task_Testing,2,0,"","",9,9,"",Block9,"","","","",LR,0,"",K,blue,8,"",768,"",""
568851,154,154,block_Testing,4,task_Testing,2,0,"","",10,9,"",Block9,"","","","",HR,0,"",J,red,10,"",768,"",""
568851,155,155,block_Testing,4,task_Testing,2,0,"","",11,9,"",Block9,"","","","",LR,0,"",J,blue,11,"",768,"",""
568851,156,156,block_Testing,4,task_Testing,2,0,"","",12,9,"",Block9,"","","","",HR,0,"",K,red,13,"",768,"",""
568851,157,157,block_Testing,4,task_Testing,2,0,"","",13,9,"",Block9,"","","","",HR,0,"",K,red,9,"",768,"",""
568851,158,158,block_Testing,4,task_Testing,2,0,"","",14,9,"",Block9,"","","","",NR,0,"",J,green,12,"",768,"",""
568851,159,159,block_Testing,4,task_Testing,2,0,"","",15,9,"",Block9,"","","","",LR,0,"",J,blue,13,"",768,"",""
568851,160,160,block_Testing,4,task_Testing,2,0,"","",16,9,"",Block9,"","","","",NR,0,"",J,green,10,"",768,"",""
568851,161,161,block_Testing,4,task_Testing,2,0,"","",17,9,"",Block9,"","","","",LR,0,"",J,blue,9,"",768,"",""
568851,162,162,block_Testing,4,task_Testing,2,0,"","",18,9,"",Block9,"","","","",HR,0,"",J,red,8,"",768,"",""
568851,163,163,block_Testing,4,task_Testing,2,0,"","",1,10,"",Block10,"","","","",HR,0,"",K,red,11,"",768,"",""
568851,164,164,block_Testing,4,task_Testing,2,0,"","",2,10,"",Block10,"","","","",LR,0,"",K,blue,10,"",768,"",""
568851,165,165,block_Testing,4,task_Testing,2,0,"","",3,10,"",Block10,"","","","",NR,0,"",K,green,11,"",768,"",""
568851,166,166,block_Testing,4,task_Testing,2,0,"","",4,10,"",Block10,"","","","",NR,0,"",K,green,9,"",768,"",""
568851,167,167,block_Testing,4,task_Testing,2,0,"","",5,10,"",Block10,"","","","",LR,0,"",K,blue,12,"",768,"",""
568851,168,168,block_Testing,4,task_Testing,2,0,"","",6,10,"",Block10,"","","","",NR,0,"",K,green,13,"",768,"",""
568851,169,169,block_Testing,4,task_Testing,2,0,"","",7,10,"",Block10,"","","","",NR,0,"",J,green,8,"",768,"",""
568851,170,170,block_Testing,4,task_Testing,2,0,"","",8,10,"",Block10,"","","","",HR,0,"",J,red,12,"",768,"",""
568851,171,171,block_Testing,4,task_Testing,2,0,"","",9,10,"",Block10,"","","","",LR,0,"",K,blue,8,"",768,"",""
568851,172,172,block_Testing,4,task_Testing,2,0,"","",10,10,"",Block10,"","","","",HR,0,"",J,red,10,"",768,"",""
568851,173,173,block_Testing,4,task_Testing,2,0,"","",11,10,"",Block10,"","","","",LR,0,"",J,blue,11,"",768,"",""
568851,174,174,block_Testing,4,task_Testing,2,0,"","",12,10,"",Block10,"","","","",HR,0,"",K,red,13,"",768,"",""
568851,175,175,block_Testing,4,task_Testing,2,0,"","",13,10,"",Block10,"","","","",HR,0,"",K,red,9,"",768,"",""
568851,176,176,block_Testing,4,task_Testing,2,0,"","",14,10,"",Block10,"","","","",NR,0,"",J,green,12,"",768,"",""
568851,177,177,block_Testing,4,task_Testing,2,0,"","",15,10,"",Block10,"","","","",LR,0,"",J,blue,13,"",768,"",""
568851,178,178,block_Testing,4,task_Testing,2,0,"","",16,10,"",Block10,"","","","",NR,0,"",J,green,10,"",768,"",""
568851,179,179,block_Testing,4,task_Testing,2,0,"","",17,10,"",Block10,"","","","",LR,0,"",J,blue,9,"",768,"",""
568851,180,180,block_Testing,4,task_Testing,2,0,"","",18,10,"",Block10,"","","","",HR,0,"",J,red,8,"",768,"",""
568851,1,1,block_End,5,task_Demog_End,1,"","",34,"",1,"","","","","","","","",Female,"","","","","","",""
