Rec_Session_Id,Trial_Nr,Trial_Id,Block_Name,Block_Nr,Task_Name,Task_Nr,ACC,ACC_Total_Prac,Age,BlkTrial_Nr,Condition_Id,Consent,copy_of_factor1_tg1_task2,factor1_tg1_task2,Feedback,RESP,RESP_Frame,Reward,RT_FromFramePress,Sex,SlowResp,Targ,TargCol,TargPos,TotalMoney,TotalPoints,TotalPoints_prac,Trial_Nr_prac
573320,1,1,block_TrngInstructions,1,task_Consent,1,"","","","",1,Yes,"","","","","","","","","","","","","","","",""
573320,1,1,block_TrngInstructions,1,task_Trng_Instructions,2,"","","","",1,"","","","","","","","","","","","","","","","",""
573320,1,1,block_Practice,2,task_GetReady,1,"","","","",1,"","","","","","","","","","","","","","","","",""
573320,1,1,block_Practice,2,task_Trng_Prac,2,1,1,"","",1,"","","","",J,Stim14,"",59,"","",J,green,9,"",0,0,""
573320,2,2,block_Practice,2,task_Trng_Prac,2,1,0,"","",1,"","","","",J,ISI,"",356,"","",J,blue,12,"",0,0,""
573320,3,3,block_Practice,2,task_Trng_Prac,2,1,1,"","",1,"","","","",K,Fdbck,"",414,"","",K,red,8,"",0,0,""
573320,4,4,block_Practice,2,task_Trng_Prac,2,1,2,"","",1,"","","","",K,Stim16,"",92,"","",K,green,11,"",0,0,""
573320,5,5,block_Practice,2,task_Trng_Prac,2,1,0,"","",1,"","","","",J,ISI,"",275,"","",J,blue,13,"",0,0,""
573320,6,6,block_Practice,2,task_Trng_Prac,2,0,0,"","",1,"","","","",K,Fdbck,"",22,"","",K,red,10,"",0,0,""
573320,1,1,block_Practice,2,task_GetReady,1,"","","","",1,"","","","","","","","","","","","","","","","",""
573320,1,1,block_Practice,2,task_Trng_Prac,2,1,0,"","",1,"","","","",K,ISI,"",191,"","",K,green,11,"",0,0,""
573320,2,2,block_Practice,2,task_Trng_Prac,2,1,1,"","",1,"","","","",J,Stim15,"",89,"","",J,green,9,"",0,0,""
573320,3,3,block_Practice,2,task_Trng_Prac,2,1,0,"","",1,"","","","",J,ISI,"",176,"","",J,blue,12,"",0,0,""
573320,4,4,block_Practice,2,task_Trng_Prac,2,1,1,"","",1,"","","","",K,Stim13,"",78,"","",K,red,8,"",0,0,""
573320,5,5,block_Practice,2,task_Trng_Prac,2,1,2,"","",1,"","","","",K,Stim16,"",2,"","",K,red,10,"",0,0,""
573320,6,6,block_Practice,2,task_Trng_Prac,2,1,0,"","",1,"","","","",J,Stim16,"",115,"","",J,blue,13,"",0,0,""
573320,1,1,block_Practice,2,task_GetReady,1,"","","","",1,"","","","","","","","","","","","","","","","",""
573320,1,1,block_Practice,2,task_Trng_Prac,2,0,0,"","",1,"","","","",J,Fdbck,"",51,"","",J,blue,12,"",0,0,""
573320,2,2,block_Practice,2,task_Trng_Prac,2,0,0,"","",1,"","","","",J,Fdbck,"",497,"","",K,red,10,"",0,0,""
573320,3,3,block_Practice,2,task_Trng_Prac,2,1,1,"","",1,"","","","",J,Stim15,"",15,"","",J,blue,13,"",0,0,""
573320,4,4,block_Practice,2,task_Trng_Prac,2,1,2,"","",1,"","","","",K,Stim13,"",118,"","",K,red,8,"",0,0,""
573320,5,5,block_Practice,2,task_Trng_Prac,2,1,0,"","",1,"","","","",K,ISI,"",487,"","",K,green,11,"",0,0,""
573320,6,6,block_Practice,2,task_Trng_Prac,2,1,0,"","",1,"","","","",J,ISI,"",338,"","",J,green,9,"",0,0,""
573320,1,1,block_Practice,2,task_GetReady,1,"","","","",1,"","","","","","","","","","","","","","","","",""
573320,1,1,block_Practice,2,task_Trng_Prac,2,1,0,"","",1,"","","","",K,ISI,"",816,"","",K,red,8,"",0,0,""
573320,2,2,block_Practice,2,task_Trng_Prac,2,1,0,"","",1,"","","","",K,ISI,"",722,"","",K,green,11,"",0,0,""
573320,3,3,block_Practice,2,task_Trng_Prac,2,1,0,"","",1,"","","","",J,ISI,"",861,"","",J,blue,13,"",0,0,""
573320,4,4,block_Practice,2,task_Trng_Prac,2,1,0,"","",1,"","","","",K,ISI,"",199,"","",K,red,10,"",0,0,""
573320,5,5,block_Practice,2,task_Trng_Prac,2,1,0,"","",1,"","","","",J,ISI,"",307,"","",J,blue,12,"",0,0,""
573320,6,6,block_Practice,2,task_Trng_Prac,2,0,0,"","",1,"","","","",J,Fdbck,"",309,"","",J,green,9,"",0,0,""
573320,1,1,block_Practice,2,task_GetReady,1,"","","","",1,"","","","","","","","","","","","","","","","",""
573320,1,1,block_Practice,2,task_Trng_Prac,2,1,1,"","",1,"","","","",K,Stim16,"",114,"","",K,red,10,"",0,0,""
573320,2,2,block_Practice,2,task_Trng_Prac,2,0,0,"","",1,"","","","",J,ISI,"",8,"","",K,red,8,"",0,0,""
573320,3,3,block_Practice,2,task_Trng_Prac,2,1,0,"","",1,"","","","",J,ISI,"",443,"","",J,blue,13,"",0,0,""
573320,4,4,block_Practice,2,task_Trng_Prac,2,1,1,"","",1,"","","","",J,Stim15,"",57,"","",J,green,9,"",0,0,""
573320,5,5,block_Practice,2,task_Trng_Prac,2,0,0,"","",1,"","","","",K,ISI,"",653,"","",J,blue,12,"",0,0,""
573320,6,6,block_Practice,2,task_Trng_Prac,2,1,0,"","",1,"","","","",K,ISI,"",140,"","",K,green,11,"",0,0,""
573320,1,1,block_Practice,2,task_GetReady,1,"","","","",1,"","","","","","","","","","","","","","","","",""
573320,1,1,block_Practice,2,task_Trng_Prac,2,1,1,"","",1,"","","","",K,Stim16,"",20,"","",K,red,10,"",0,0,""
573320,2,2,block_Practice,2,task_Trng_Prac,2,1,0,"","",1,"","","","",J,ISI,"",223,"","",J,blue,12,"",0,0,""
573320,3,3,block_Practice,2,task_Trng_Prac,2,1,1,"","",1,"","","","",K,Stim13,"",112,"","",K,red,8,"",0,0,""
573320,4,4,block_Practice,2,task_Trng_Prac,2,1,2,"","",1,"","","","",K,Stim16,"",72,"","",K,green,11,"",0,0,""
573320,5,5,block_Practice,2,task_Trng_Prac,2,1,0,"","",1,"","","","",J,ISI,"",226,"","",J,blue,13,"",0,0,""
573320,6,6,block_Practice,2,task_Trng_Prac,2,0,0,"","",1,"","","","",K,ISI,"",238,"","",J,green,9,"",0,0,""
573320,1,1,block_Practice,2,task_GetReady,1,"","","","",1,"","","","","","","","","","","","","","","","",""
573320,1,1,block_Practice,2,task_Trng_Prac,2,1,0,"","",1,"","","","",J,ISI,"",335,"","",J,blue,13,"",0,0,""
573320,2,2,block_Practice,2,task_Trng_Prac,2,1,0,"","",1,"","","","",J,ISI,"",244,"","",J,blue,12,"",0,0,""
573320,3,3,block_Practice,2,task_Trng_Prac,2,1,1,"","",1,"","","","",K,Stim13,"",108,"","",K,red,8,"",0,0,""
573320,4,4,block_Practice,2,task_Trng_Prac,2,1,2,"","",1,"","","","",K,Stim16,"",11,"","",K,red,10,"",0,0,""
573320,5,5,block_Practice,2,task_Trng_Prac,2,1,3,"","",1,"","","","",J,Stim14,"",84,"","",J,green,9,"",0,0,""
573320,6,6,block_Practice,2,task_Trng_Prac,2,1,4,"","",1,"","","","",K,Stim16,"",51,"","",K,green,11,"",0,0,""
573320,1,1,block_Trng,3,task_GetReady,1,"","","","",1,"","","","","","","","","","","","","","","","",""
573320,1,1,block_Trng,3,task_Trng,2,1,"","",1,1,"","",Block1,"",J,ISI,HR,344,"",1,J,blue,13,"",10,"",""
573320,2,2,block_Trng,3,task_Trng,2,1,"","",2,1,"","",Block1,"",K,Stim16,HR,64,"",0,K,blue,10,"",20,"",""
573320,3,3,block_Trng,3,task_Trng,2,1,"","",3,1,"","",Block1,"",J,Stim16,NR,7,"",0,J,red,10,"",20,"",""
573320,4,4,block_Trng,3,task_Trng,2,1,"","",4,1,"","",Block1,"",J,Stim15,LR,37,"",0,J,green,8,"",22,"",""
573320,5,5,block_Trng,3,task_Trng,2,1,"","",5,1,"","",Block1,"",J,ISI,HR,125,"",1,J,blue,9,"",32,"",""
573320,6,6,block_Trng,3,task_Trng,2,1,"","",6,1,"","",Block1,"",K,ISI,LR,257,"",2,K,green,11,"",34,"",""
573320,7,7,block_Trng,3,task_Trng,2,1,"","",7,1,"","",Block1,"",K,Stim15,LR,14,"",0,K,green,9,"",36,"",""
573320,8,8,block_Trng,3,task_Trng,2,0,"","",8,1,"","",Block1,"",J,Stim14,HR,43,"",0,K,blue,8,"",36,"",""
573320,9,9,block_Trng,3,task_Trng,2,1,"","",9,1,"","",Block1,"",J,ISI,NR,464,"",1,J,red,8,"",36,"",""
573320,10,10,block_Trng,3,task_Trng,2,1,"","",10,1,"","",Block1,"",J,ISI,NR,474,"",2,J,red,12,"",36,"",""
573320,11,11,block_Trng,3,task_Trng,2,1,"","",11,1,"","",Block1,"",J,ISI,HR,283,"",3,J,blue,11,"",46,"",""
573320,12,12,block_Trng,3,task_Trng,2,1,"","",12,1,"","",Block1,"",K,ISI,LR,291,"",4,K,green,13,"",48,"",""
573320,13,13,block_Trng,3,task_Trng,2,1,"","",13,1,"","",Block1,"",J,Stim16,LR,119,"",0,J,green,10,"",50,"",""
573320,14,14,block_Trng,3,task_Trng,2,1,"","",14,1,"","",Block1,"",K,ISI,NR,364,"",1,K,red,13,"",50,"",""
573320,15,15,block_Trng,3,task_Trng,2,1,"","",15,1,"","",Block1,"",K,ISI,NR,140,"",2,K,red,11,"",50,"",""
573320,16,16,block_Trng,3,task_Trng,2,1,"","",16,1,"","",Block1,"",K,ISI,HR,321,"",3,K,blue,12,"",60,"",""
573320,17,17,block_Trng,3,task_Trng,2,0,"","",17,1,"","",Block1,"",K,Fdbck,NR,985,"",4,K,red,9,"",60,"",""
573320,18,18,block_Trng,3,task_Trng,2,1,"","",18,1,"","",Block1,"",J,ISI,LR,469,"",5,J,green,12,"",62,"",""
573320,19,19,block_Trng,3,task_Trng,2,1,"","",1,2,"","",Block2,"",J,ISI,HR,443,"",6,J,blue,13,"",72,"",""
573320,20,20,block_Trng,3,task_Trng,2,1,"","",2,2,"","",Block2,"",K,ISI,HR,52,"",7,K,blue,10,"",82,"",""
573320,21,21,block_Trng,3,task_Trng,2,1,"","",3,2,"","",Block2,"",J,ISI,NR,134,"",8,J,red,10,"",82,"",""
573320,22,22,block_Trng,3,task_Trng,2,0,"","",4,2,"","",Block2,"",K,ISI,LR,700,"",9,J,green,8,"",82,"",""
573320,23,23,block_Trng,3,task_Trng,2,0,"","",5,2,"","",Block2,"",J,Fdbck_Slow,HR,936,"",10,J,blue,9,"",82,"",""
573320,24,24,block_Trng,3,task_Trng,2,1,"","",6,2,"","",Block2,"",K,ISI,LR,248,"",11,K,green,11,"",84,"",""
573320,25,25,block_Trng,3,task_Trng,2,1,"","",7,2,"","",Block2,"",K,Stim16,LR,55,"",0,K,green,9,"",86,"",""
573320,26,26,block_Trng,3,task_Trng,2,1,"","",8,2,"","",Block2,"",K,Stim14,HR,105,"",0,K,blue,8,"",96,"",""
573320,27,27,block_Trng,3,task_Trng,2,1,"","",9,2,"","",Block2,"",J,Stim16,NR,41,"",0,J,red,8,"",96,"",""
573320,28,28,block_Trng,3,task_Trng,2,0,"","",10,2,"","",Block2,"","","",NR,0,"",1,J,red,12,"",96,"",""
573320,29,29,block_Trng,3,task_Trng,2,0,"","",11,2,"","",Block2,"","","",HR,0,"",2,J,blue,11,"",96,"",""
573320,30,30,block_Trng,3,task_Trng,2,0,"","",12,2,"","",Block2,"",J,Fdbck,LR,809,"",3,K,green,13,"",96,"",""
573320,31,31,block_Trng,3,task_Trng,2,0,"","",13,2,"","",Block2,"","","",LR,0,"",4,J,green,10,"",96,"",""
573320,32,32,block_Trng,3,task_Trng,2,0,"","",14,2,"","",Block2,"",J,Fdbck_Slow,NR,919,"",5,K,red,13,"",96,"",""
573320,33,33,block_Trng,3,task_Trng,2,0,"","",15,2,"","",Block2,"",J,Fdbck,NR,288,"",6,K,red,11,"",96,"",""
573320,34,34,block_Trng,3,task_Trng,2,1,"","",16,2,"","",Block2,"",K,ISI,HR,178,"",7,K,blue,12,"",106,"",""
573320,35,35,block_Trng,3,task_Trng,2,1,"","",17,2,"","",Block2,"",K,Stim16,NR,4,"",0,K,red,9,"",106,"",""
573320,36,36,block_Trng,3,task_Trng,2,1,"","",18,2,"","",Block2,"",J,ISI,LR,101,"",1,J,green,12,"",108,"",""
573320,37,37,block_Trng,3,task_Trng,2,1,"","",1,3,"","",Block3,"",J,ISI,HR,393,"",2,J,blue,13,"",118,"",""
573320,38,38,block_Trng,3,task_Trng,2,1,"","",2,3,"","",Block3,"",K,Stim16,HR,116,"",0,K,blue,10,"",128,"",""
573320,39,39,block_Trng,3,task_Trng,2,1,"","",3,3,"","",Block3,"",J,Stim16,NR,103,"",0,J,red,10,"",128,"",""
573320,40,40,block_Trng,3,task_Trng,2,1,"","",4,3,"","",Block3,"",J,Stim15,LR,22,"",0,J,green,8,"",130,"",""
573320,41,41,block_Trng,3,task_Trng,2,1,"","",5,3,"","",Block3,"",J,Stim16,HR,26,"",0,J,blue,9,"",140,"",""
573320,42,42,block_Trng,3,task_Trng,2,1,"","",6,3,"","",Block3,"",K,ISI,LR,58,"",1,K,green,11,"",142,"",""
573320,43,43,block_Trng,3,task_Trng,2,1,"","",7,3,"","",Block3,"",K,Stim16,LR,38,"",0,K,green,9,"",144,"",""
573320,44,44,block_Trng,3,task_Trng,2,1,"","",8,3,"","",Block3,"",K,Stim15,HR,65,"",0,K,blue,8,"",154,"",""
573320,45,45,block_Trng,3,task_Trng,2,1,"","",9,3,"","",Block3,"",J,Stim15,NR,7,"",0,J,red,8,"",154,"",""
573320,46,46,block_Trng,3,task_Trng,2,1,"","",10,3,"","",Block3,"",J,ISI,NR,406,"",1,J,red,12,"",154,"",""
573320,47,47,block_Trng,3,task_Trng,2,1,"","",11,3,"","",Block3,"",J,ISI,HR,192,"",2,J,blue,11,"",164,"",""
573320,48,48,block_Trng,3,task_Trng,2,1,"","",12,3,"","",Block3,"",K,ISI,LR,204,"",3,K,green,13,"",166,"",""
573320,49,49,block_Trng,3,task_Trng,2,1,"","",13,3,"","",Block3,"",J,ISI,LR,61,"",4,J,green,10,"",168,"",""
573320,50,50,block_Trng,3,task_Trng,2,0,"","",14,3,"","",Block3,"",J,Fdbck,NR,180,"",5,K,red,13,"",168,"",""
573320,51,51,block_Trng,3,task_Trng,2,0,"","",15,3,"","",Block3,"",J,ISI,NR,468,"",6,K,red,11,"",168,"",""
573320,52,52,block_Trng,3,task_Trng,2,1,"","",16,3,"","",Block3,"",K,ISI,HR,187,"",7,K,blue,12,"",178,"",""
573320,53,53,block_Trng,3,task_Trng,2,1,"","",17,3,"","",Block3,"",K,Stim15,NR,41,"",0,K,red,9,"",178,"",""
573320,54,54,block_Trng,3,task_Trng,2,1,"","",18,3,"","",Block3,"",J,Stim15,LR,111,"",0,J,green,12,"",180,"",""
573320,55,55,block_Trng,3,task_Trng,2,1,"","",1,4,"","",Block4,"",J,ISI,HR,642,"",1,J,blue,13,"",190,"",""
573320,56,56,block_Trng,3,task_Trng,2,1,"","",2,4,"","",Block4,"",K,ISI,HR,172,"",2,K,blue,10,"",200,"",""
573320,57,57,block_Trng,3,task_Trng,2,1,"","",3,4,"","",Block4,"",J,Stim16,NR,114,"",0,J,red,10,"",200,"",""
573320,58,58,block_Trng,3,task_Trng,2,1,"","",4,4,"","",Block4,"",J,Stim14,LR,42,"",0,J,green,8,"",202,"",""
573320,59,59,block_Trng,3,task_Trng,2,1,"","",5,4,"","",Block4,"",J,Stim16,HR,70,"",0,J,blue,9,"",212,"",""
573320,60,60,block_Trng,3,task_Trng,2,1,"","",6,4,"","",Block4,"",K,ISI,LR,259,"",1,K,green,11,"",214,"",""
573320,61,61,block_Trng,3,task_Trng,2,1,"","",7,4,"","",Block4,"",K,ISI,LR,394,"",2,K,green,9,"",216,"",""
573320,62,62,block_Trng,3,task_Trng,2,1,"","",8,4,"","",Block4,"",K,Stim15,HR,32,"",0,K,blue,8,"",226,"",""
573320,63,63,block_Trng,3,task_Trng,2,1,"","",9,4,"","",Block4,"",J,Stim14,NR,52,"",0,J,red,8,"",226,"",""
573320,64,64,block_Trng,3,task_Trng,2,0,"","",10,4,"","",Block4,"",K,ISI,NR,160,"",1,J,red,12,"",226,"",""
573320,65,65,block_Trng,3,task_Trng,2,1,"","",11,4,"","",Block4,"",J,ISI,HR,69,"",2,J,blue,11,"",236,"",""
573320,66,66,block_Trng,3,task_Trng,2,1,"","",12,4,"","",Block4,"",K,ISI,LR,268,"",3,K,green,13,"",238,"",""
573320,67,67,block_Trng,3,task_Trng,2,1,"","",13,4,"","",Block4,"",J,ISI,LR,68,"",4,J,green,10,"",240,"",""
573320,68,68,block_Trng,3,task_Trng,2,1,"","",14,4,"","",Block4,"",K,ISI,NR,291,"",5,K,red,13,"",240,"",""
573320,69,69,block_Trng,3,task_Trng,2,1,"","",15,4,"","",Block4,"",K,ISI,NR,146,"",6,K,red,11,"",240,"",""
573320,70,70,block_Trng,3,task_Trng,2,1,"","",16,4,"","",Block4,"",K,ISI,HR,227,"",7,K,blue,12,"",250,"",""
573320,71,71,block_Trng,3,task_Trng,2,1,"","",17,4,"","",Block4,"",K,Stim16,NR,84,"",0,K,red,9,"",250,"",""
573320,72,72,block_Trng,3,task_Trng,2,1,"","",18,4,"","",Block4,"",J,ISI,LR,231,"",1,J,green,12,"",252,"",""
573320,73,73,block_Trng,3,task_Trng,2,0,"","",1,5,"","",Block5,"",K,ISI,HR,274,"",2,J,blue,13,"",252,"",""
573320,74,74,block_Trng,3,task_Trng,2,1,"","",2,5,"","",Block5,"",J,Fdbck,HR,74,"",3,K,blue,10,"",262,"",""
573320,75,75,block_Trng,3,task_Trng,2,0,"","",3,5,"","",Block5,"",J,Fdbck,NR,101,"",0,J,red,10,"",262,"",""
573320,76,76,block_Trng,3,task_Trng,2,1,"","",4,5,"","",Block5,"",J,ISI,LR,692,"",1,J,green,8,"",264,"",""
573320,77,77,block_Trng,3,task_Trng,2,0,"","",5,5,"","",Block5,"",J,Fdbck,HR,198,"",2,J,blue,9,"",264,"",""
573320,78,78,block_Trng,3,task_Trng,2,0,"","",6,5,"","",Block5,"",J,Stim11,LR,23,"",0,K,green,11,"",264,"",""
573320,79,79,block_Trng,3,task_Trng,2,0,"","",7,5,"","",Block5,"",J,Stim12,LR,81,"",0,K,green,9,"",264,"",""
573320,80,80,block_Trng,3,task_Trng,2,0,"","",8,5,"","",Block5,"",J,Fdbck,HR,489,"",0,K,blue,8,"",264,"",""
573320,81,81,block_Trng,3,task_Trng,2,0,"","",9,5,"","",Block5,"",K,Stim6,NR,105,"",0,J,red,8,"",264,"",""
573320,82,82,block_Trng,3,task_Trng,2,1,"","",10,5,"","",Block5,"",J,trial_fix2,NR,217,"",0,J,red,12,"",264,"",""
573320,83,83,block_Trng,3,task_Trng,2,0,"","",11,5,"","",Block5,"",K,Stim16,HR,40,"",0,J,blue,11,"",264,"",""
573320,84,84,block_Trng,3,task_Trng,2,0,"","",12,5,"","",Block5,"",J,Stim16,LR,14,"",0,K,green,13,"",264,"",""
573320,85,85,block_Trng,3,task_Trng,2,1,"","",13,5,"","",Block5,"",J,Stim4,LR,22,"",0,J,green,10,"",266,"",""
573320,86,86,block_Trng,3,task_Trng,2,0,"","",14,5,"","",Block5,"",J,Stim16,NR,35,"",0,K,red,13,"",266,"",""
573320,87,87,block_Trng,3,task_Trng,2,0,"","",15,5,"","",Block5,"",J,Stim12,NR,87,"",0,K,red,11,"",266,"",""
573320,88,88,block_Trng,3,task_Trng,2,1,"","",16,5,"","",Block5,"",K,Fdbck,HR,579,"",0,K,blue,12,"",276,"",""
573320,89,89,block_Trng,3,task_Trng,2,1,"","",17,5,"","",Block5,"",K,Stim14,NR,3,"",0,K,red,9,"",276,"",""
573320,90,90,block_Trng,3,task_Trng,2,1,"","",18,5,"","",Block5,"",J,Stim13,LR,110,"",0,J,green,12,"",278,"",""
573320,91,91,block_Trng,3,task_Trng,2,1,"","",1,6,"","",Block6,"",J,Stim8,HR,86,"",0,J,blue,13,"",288,"",""
573320,92,92,block_Trng,3,task_Trng,2,1,"","",2,6,"","",Block6,"",K,Stim14,HR,110,"",0,K,blue,10,"",298,"",""
573320,93,93,block_Trng,3,task_Trng,2,0,"","",3,6,"","",Block6,"",K,Stim15,NR,57,"",0,J,red,10,"",298,"",""
573320,94,94,block_Trng,3,task_Trng,2,0,"","",4,6,"","",Block6,"",K,Stim11,LR,13,"",0,J,green,8,"",298,"",""
573320,95,95,block_Trng,3,task_Trng,2,0,"","",5,6,"","",Block6,"",K,trial_fix2,HR,359,"",0,J,blue,9,"",298,"",""
573320,96,96,block_Trng,3,task_Trng,2,1,"","",6,6,"","",Block6,"",J,Fdbck,LR,610,"",0,K,green,11,"",300,"",""
573320,97,97,block_Trng,3,task_Trng,2,0,"","",7,6,"","",Block6,"",J,Stim11,LR,67,"",0,K,green,9,"",300,"",""
573320,98,98,block_Trng,3,task_Trng,2,1,"","",8,6,"","",Block6,"",K,Stim14,HR,30,"",0,K,blue,8,"",310,"",""
573320,99,99,block_Trng,3,task_Trng,2,1,"","",9,6,"","",Block6,"",J,trial_fix2,NR,296,"",0,J,red,8,"",310,"",""
573320,100,100,block_Trng,3,task_Trng,2,1,"","",10,6,"","",Block6,"",J,trial_fix1,NR,262,"",0,J,red,12,"",310,"",""
573320,101,101,block_Trng,3,task_Trng,2,1,"","",11,6,"","",Block6,"",J,Stim5,HR,74,"",0,J,blue,11,"",320,"",""
573320,102,102,block_Trng,3,task_Trng,2,0,"","",12,6,"","",Block6,"",J,Stim12,LR,113,"",0,K,green,13,"",320,"",""
573320,103,103,block_Trng,3,task_Trng,2,0,"","",13,6,"","",Block6,"",K,Fdbck,LR,505,"",0,J,green,10,"",320,"",""
573320,104,104,block_Trng,3,task_Trng,2,0,"","",14,6,"","",Block6,"",J,Fdbck,NR,487,"",1,K,red,13,"",320,"",""
573320,105,105,block_Trng,3,task_Trng,2,0,"","",15,6,"","",Block6,"","","",NR,0,"",2,K,red,11,"",320,"",""
573320,106,106,block_Trng,3,task_Trng,2,0,"","",16,6,"","",Block6,"",K,Fdbck_Slow,HR,3299,"",3,K,blue,12,"",320,"",""
573320,107,107,block_Trng,3,task_Trng,2,0,"","",17,6,"","",Block6,"","","",NR,0,"",4,K,red,9,"",320,"",""
573320,108,108,block_Trng,3,task_Trng,2,0,"","",18,6,"","",Block6,"",J,Fdbck,LR,96,"",5,J,green,12,"",320,"",""
573320,109,109,block_Trng,3,task_Trng,2,0,"","",1,7,"","",Block7,"",K,Stim9,HR,118,"",0,J,blue,13,"",320,"",""
573320,110,110,block_Trng,3,task_Trng,2,0,"","",2,7,"","",Block7,"","","",HR,0,"",1,K,blue,10,"",320,"",""
573320,111,111,block_Trng,3,task_Trng,2,0,"","",3,7,"","",Block7,"",K,Stim11,NR,2,"",0,J,red,10,"",320,"",""
573320,112,112,block_Trng,3,task_Trng,2,1,"","",4,7,"","",Block7,"",J,Fdbck,LR,629,"",0,J,green,8,"",322,"",""
573320,113,113,block_Trng,3,task_Trng,2,0,"","",5,7,"","",Block7,"",J,Fdbck,HR,920,"",0,J,blue,9,"",322,"",""
573320,114,114,block_Trng,3,task_Trng,2,1,"","",6,7,"","",Block7,"",K,Stim14,LR,17,"",0,K,green,11,"",324,"",""
573320,115,115,block_Trng,3,task_Trng,2,0,"","",7,7,"","",Block7,"","","",LR,0,"",1,K,green,9,"",324,"",""
573320,116,116,block_Trng,3,task_Trng,2,1,"","",8,7,"","",Block7,"",K,Fdbck,HR,448,"",0,K,blue,8,"",334,"",""
573320,117,117,block_Trng,3,task_Trng,2,1,"","",9,7,"","",Block7,"",J,Fdbck,NR,788,"",0,J,red,8,"",334,"",""
573320,118,118,block_Trng,3,task_Trng,2,0,"","",10,7,"","",Block7,"",K,Fdbck,NR,519,"",0,J,red,12,"",334,"",""
573320,119,119,block_Trng,3,task_Trng,2,1,"","",11,7,"","",Block7,"",J,Stim9,HR,105,"",0,J,blue,11,"",344,"",""
573320,120,120,block_Trng,3,task_Trng,2,0,"","",12,7,"","",Block7,"",J,Fdbck,LR,406,"",0,K,green,13,"",344,"",""
573320,121,121,block_Trng,3,task_Trng,2,0,"","",13,7,"","",Block7,"",K,trial_fix2,LR,588,"",0,J,green,10,"",344,"",""
573320,122,122,block_Trng,3,task_Trng,2,1,"","",14,7,"","",Block7,"",J,Fdbck,NR,566,"",0,K,red,13,"",344,"",""
573320,123,123,block_Trng,3,task_Trng,2,0,"","",15,7,"","",Block7,"",K,Fdbck,NR,532,"",0,K,red,11,"",344,"",""
573320,124,124,block_Trng,3,task_Trng,2,0,"","",16,7,"","",Block7,"",K,Fdbck,HR,871,"",0,K,blue,12,"",344,"",""
573320,125,125,block_Trng,3,task_Trng,2,1,"","",17,7,"","",Block7,"",J,Fdbck,NR,979,"",0,K,red,9,"",344,"",""
573320,126,126,block_Trng,3,task_Trng,2,0,"","",18,7,"","",Block7,"",J,Fdbck,LR,682,"",0,J,green,12,"",344,"",""
573320,127,127,block_Trng,3,task_Trng,2,1,"","",1,8,"","",Block8,"",K,Fdbck,HR,694,"",0,J,blue,13,"",354,"",""
573320,128,128,block_Trng,3,task_Trng,2,0,"","",2,8,"","",Block8,"",J,Stim13,HR,28,"",0,K,blue,10,"",354,"",""
573320,129,129,block_Trng,3,task_Trng,2,1,"","",3,8,"","",Block8,"",J,Fdbck,NR,994,"",0,J,red,10,"",354,"",""
573320,130,130,block_Trng,3,task_Trng,2,0,"","",4,8,"","",Block8,"",K,Fdbck,LR,531,"",0,J,green,8,"",354,"",""
573320,131,131,block_Trng,3,task_Trng,2,0,"","",5,8,"","",Block8,"",K,Fdbck,HR,753,"",0,J,blue,9,"",354,"",""
573320,132,132,block_Trng,3,task_Trng,2,1,"","",6,8,"","",Block8,"",K,Stim6,LR,75,"",0,K,green,11,"",356,"",""
573320,133,133,block_Trng,3,task_Trng,2,0,"","",7,8,"","",Block8,"",J,Fdbck,LR,403,"",0,K,green,9,"",356,"",""
573320,134,134,block_Trng,3,task_Trng,2,0,"","",8,8,"","",Block8,"","","",HR,0,"",1,K,blue,8,"",356,"",""
573320,135,135,block_Trng,3,task_Trng,2,1,"","",9,8,"","",Block8,"",J,Stim3,NR,76,"",0,J,red,8,"",356,"",""
573320,136,136,block_Trng,3,task_Trng,2,0,"","",10,8,"","",Block8,"",K,Stim16,NR,59,"",0,J,red,12,"",356,"",""
573320,137,137,block_Trng,3,task_Trng,2,0,"","",11,8,"","",Block8,"",K,Stim3,HR,43,"",0,J,blue,11,"",356,"",""
573320,138,138,block_Trng,3,task_Trng,2,0,"","",12,8,"","",Block8,"",K,Fdbck,LR,58,"",0,K,green,13,"",356,"",""
573320,139,139,block_Trng,3,task_Trng,2,0,"","",13,8,"","",Block8,"",K,Fdbck,LR,467,"",0,J,green,10,"",356,"",""
573320,140,140,block_Trng,3,task_Trng,2,1,"","",14,8,"","",Block8,"",J,Fdbck,NR,872,"",0,K,red,13,"",356,"",""
573320,141,141,block_Trng,3,task_Trng,2,0,"","",15,8,"","",Block8,"",J,Fdbck,NR,693,"",0,K,red,11,"",356,"",""
573320,142,142,block_Trng,3,task_Trng,2,0,"","",16,8,"","",Block8,"",K,Fdbck,HR,85,"",0,K,blue,12,"",356,"",""
573320,143,143,block_Trng,3,task_Trng,2,1,"","",17,8,"","",Block8,"",K,Stim8,NR,68,"",0,K,red,9,"",356,"",""
573320,144,144,block_Trng,3,task_Trng,2,0,"","",18,8,"","",Block8,"",J,Fdbck,LR,932,"",0,J,green,12,"",356,"",""
573320,145,145,block_Trng,3,task_Trng,2,0,"","",1,9,"","",Block9,"",K,Fdbck,HR,834,"",0,J,blue,13,"",356,"",""
573320,146,146,block_Trng,3,task_Trng,2,1,"","",2,9,"","",Block9,"",K,Stim15,HR,101,"",0,K,blue,10,"",366,"",""
573320,147,147,block_Trng,3,task_Trng,2,1,"","",3,9,"","",Block9,"",J,Fdbck,NR,6,"",0,J,red,10,"",366,"",""
573320,148,148,block_Trng,3,task_Trng,2,1,"","",4,9,"","",Block9,"",J,Fdbck,LR,778,"",0,J,green,8,"",368,"",""
573320,149,149,block_Trng,3,task_Trng,2,0,"","",5,9,"","",Block9,"",K,Stim9,HR,86,"",0,J,blue,9,"",368,"",""
573320,150,150,block_Trng,3,task_Trng,2,1,"","",6,9,"","",Block9,"",K,Stim16,LR,61,"",0,K,green,11,"",370,"",""
573320,151,151,block_Trng,3,task_Trng,2,0,"","",7,9,"","",Block9,"",J,Stim7,LR,28,"",0,K,green,9,"",370,"",""
573320,152,152,block_Trng,3,task_Trng,2,1,"","",8,9,"","",Block9,"",J,Fdbck,HR,373,"",0,K,blue,8,"",380,"",""
573320,153,153,block_Trng,3,task_Trng,2,1,"","",9,9,"","",Block9,"",J,Fdbck,NR,213,"",0,J,red,8,"",380,"",""
573320,154,154,block_Trng,3,task_Trng,2,1,"","",10,9,"","",Block9,"",J,Stim14,NR,72,"",0,J,red,12,"",380,"",""
573320,155,155,block_Trng,3,task_Trng,2,1,"","",11,9,"","",Block9,"",J,Stim16,HR,61,"",0,J,blue,11,"",390,"",""
573320,156,156,block_Trng,3,task_Trng,2,1,"","",12,9,"","",Block9,"",K,Fdbck,LR,875,"",0,K,green,13,"",392,"",""
573320,157,157,block_Trng,3,task_Trng,2,1,"","",13,9,"","",Block9,"",K,Fdbck,LR,350,"",1,J,green,10,"",394,"",""
573320,158,158,block_Trng,3,task_Trng,2,0,"","",14,9,"","",Block9,"",J,Stim15,NR,50,"",0,K,red,13,"",394,"",""
573320,159,159,block_Trng,3,task_Trng,2,1,"","",15,9,"","",Block9,"",K,Stim15,NR,10,"",0,K,red,11,"",394,"",""
573320,160,160,block_Trng,3,task_Trng,2,0,"","",16,9,"","",Block9,"",J,Stim14,HR,37,"",0,K,blue,12,"",394,"",""
573320,161,161,block_Trng,3,task_Trng,2,0,"","",17,9,"","",Block9,"",J,Stim15,NR,39,"",0,K,red,9,"",394,"",""
573320,162,162,block_Trng,3,task_Trng,2,0,"","",18,9,"","",Block9,"",K,Stim12,LR,108,"",0,J,green,12,"",394,"",""
573320,163,163,block_Trng,3,task_Trng,2,0,"","",1,10,"","",Block10,"",K,Fdbck,HR,669,"",0,J,blue,13,"",394,"",""
573320,164,164,block_Trng,3,task_Trng,2,0,"","",2,10,"","",Block10,"",K,Fdbck,HR,953,"",0,K,blue,10,"",394,"",""
573320,165,165,block_Trng,3,task_Trng,2,0,"","",3,10,"","",Block10,"",K,Stim9,NR,62,"",0,J,red,10,"",394,"",""
573320,166,166,block_Trng,3,task_Trng,2,0,"","",4,10,"","",Block10,"",K,Stim16,LR,75,"",0,J,green,8,"",394,"",""
573320,167,167,block_Trng,3,task_Trng,2,1,"","",5,10,"","",Block10,"",J,Fdbck,HR,335,"",0,J,blue,9,"",404,"",""
573320,168,168,block_Trng,3,task_Trng,2,0,"","",6,10,"","",Block10,"",J,Fdbck,LR,938,"",0,K,green,11,"",404,"",""
573320,169,169,block_Trng,3,task_Trng,2,1,"","",7,10,"","",Block10,"",K,Stim7,LR,91,"",0,K,green,9,"",406,"",""
573320,170,170,block_Trng,3,task_Trng,2,0,"","",8,10,"","",Block10,"",J,Stim14,HR,95,"",0,K,blue,8,"",406,"",""
573320,171,171,block_Trng,3,task_Trng,2,1,"","",9,10,"","",Block10,"",J,Stim5,NR,42,"",0,J,red,8,"",406,"",""
573320,172,172,block_Trng,3,task_Trng,2,0,"","",10,10,"","",Block10,"",K,Fdbck,NR,282,"",0,J,red,12,"",406,"",""
573320,173,173,block_Trng,3,task_Trng,2,1,"","",11,10,"","",Block10,"",J,Stim14,HR,105,"",0,J,blue,11,"",416,"",""
573320,174,174,block_Trng,3,task_Trng,2,1,"","",12,10,"","",Block10,"",K,Fdbck,LR,15,"",0,K,green,13,"",418,"",""
573320,175,175,block_Trng,3,task_Trng,2,0,"","",13,10,"","",Block10,"",K,Fdbck,LR,353,"",0,J,green,10,"",418,"",""
573320,176,176,block_Trng,3,task_Trng,2,0,"","",14,10,"","",Block10,"",K,Fdbck,NR,337,"",1,K,red,13,"",418,"",""
573320,177,177,block_Trng,3,task_Trng,2,0,"","",15,10,"","",Block10,"",J,Stim9,NR,28,"",0,K,red,11,"",418,"",""
573320,178,178,block_Trng,3,task_Trng,2,1,"","",16,10,"","",Block10,"",J,Fdbck,HR,669,"",0,K,blue,12,"",428,"",""
573320,179,179,block_Trng,3,task_Trng,2,0,"","",17,10,"","",Block10,"",K,Fdbck,NR,457,"",1,K,red,9,"",428,"",""
573320,180,180,block_Trng,3,task_Trng,2,0,"","",18,10,"","",Block10,"",K,Break,LR,41,"",0,J,green,12,"",428,"",""
573320,181,181,block_Trng,3,task_Trng,2,1,"","",1,11,"","",Block11,"",J,Fdbck,HR,489,"",0,J,blue,13,"",438,"",""
573320,182,182,block_Trng,3,task_Trng,2,0,"","",2,11,"","",Block11,"",J,Stim12,HR,94,"",0,K,blue,10,"",438,"",""
573320,183,183,block_Trng,3,task_Trng,2,0,"","",3,11,"","",Block11,"",K,trial_fix1,NR,294,"",0,J,red,10,"",438,"",""
573320,184,184,block_Trng,3,task_Trng,2,1,"","",4,11,"","",Block11,"",J,Stim8,LR,70,"",0,J,green,8,"",440,"",""
573320,185,185,block_Trng,3,task_Trng,2,1,"","",5,11,"","",Block11,"",J,Stim16,HR,68,"",0,J,blue,9,"",450,"",""
573320,186,186,block_Trng,3,task_Trng,2,0,"","",6,11,"","",Block11,"",J,Stim2,LR,18,"",0,K,green,11,"",450,"",""
573320,187,187,block_Trng,3,task_Trng,2,1,"","",7,11,"","",Block11,"",K,trial_fix2,LR,583,"",0,K,green,9,"",452,"",""
573320,188,188,block_Trng,3,task_Trng,2,0,"","",8,11,"","",Block11,"",K,Fdbck,HR,712,"",0,K,blue,8,"",452,"",""
573320,189,189,block_Trng,3,task_Trng,2,1,"","",9,11,"","",Block11,"",J,Stim9,NR,32,"",0,J,red,8,"",452,"",""
573320,190,190,block_Trng,3,task_Trng,2,0,"","",10,11,"","",Block11,"",K,Stim13,NR,38,"",0,J,red,12,"",452,"",""
573320,191,191,block_Trng,3,task_Trng,2,0,"","",11,11,"","",Block11,"",K,Stim16,HR,41,"",0,J,blue,11,"",452,"",""
573320,192,192,block_Trng,3,task_Trng,2,0,"","",12,11,"","",Block11,"",J,Fdbck,LR,654,"",0,K,green,13,"",452,"",""
573320,193,193,block_Trng,3,task_Trng,2,1,"","",13,11,"","",Block11,"",J,Stim12,LR,110,"",0,J,green,10,"",454,"",""
573320,194,194,block_Trng,3,task_Trng,2,0,"","",14,11,"","",Block11,"",J,Fdbck,NR,560,"",0,K,red,13,"",454,"",""
573320,195,195,block_Trng,3,task_Trng,2,1,"","",15,11,"","",Block11,"",K,trial_fix2,NR,115,"",0,K,red,11,"",454,"",""
573320,196,196,block_Trng,3,task_Trng,2,0,"","",16,11,"","",Block11,"",J,ISI,HR,55,"",1,K,blue,12,"",454,"",""
573320,197,197,block_Trng,3,task_Trng,2,0,"","",17,11,"","",Block11,"",J,Fdbck,NR,873,"",0,K,red,9,"",454,"",""
573320,198,198,block_Trng,3,task_Trng,2,0,"","",18,11,"","",Block11,"",J,Fdbck,LR,895,"",1,J,green,12,"",454,"",""
573320,199,199,block_Trng,3,task_Trng,2,0,"","",1,12,"","",Block12,"",J,Fdbck,HR,758,"",0,J,blue,13,"",454,"",""
573320,200,200,block_Trng,3,task_Trng,2,1,"","",2,12,"","",Block12,"",K,Stim15,HR,5,"",0,K,blue,10,"",464,"",""
573320,201,201,block_Trng,3,task_Trng,2,0,"","",3,12,"","",Block12,"",K,Stim13,NR,118,"",0,J,red,10,"",464,"",""
573320,202,202,block_Trng,3,task_Trng,2,1,"","",4,12,"","",Block12,"",J,Fdbck,LR,391,"",0,J,green,8,"",466,"",""
573320,203,203,block_Trng,3,task_Trng,2,0,"","",5,12,"","",Block12,"",J,Fdbck,HR,265,"",0,J,blue,9,"",466,"",""
573320,204,204,block_Trng,3,task_Trng,2,1,"","",6,12,"","",Block12,"",K,Fdbck,LR,483,"",0,K,green,11,"",468,"",""
573320,205,205,block_Trng,3,task_Trng,2,0,"","",7,12,"","",Block12,"",K,Fdbck,LR,593,"",0,K,green,9,"",468,"",""
573320,206,206,block_Trng,3,task_Trng,2,1,"","",8,12,"","",Block12,"",K,Fdbck,HR,325,"",0,K,blue,8,"",478,"",""
573320,207,207,block_Trng,3,task_Trng,2,1,"","",9,12,"","",Block12,"",J,Fdbck,NR,180,"",0,J,red,8,"",478,"",""
573320,208,208,block_Trng,3,task_Trng,2,1,"","",10,12,"","",Block12,"",J,Stim1,NR,76,"",0,J,red,12,"",478,"",""
573320,209,209,block_Trng,3,task_Trng,2,0,"","",11,12,"","",Block12,"",K,Stim9,HR,40,"",0,J,blue,11,"",478,"",""
573320,210,210,block_Trng,3,task_Trng,2,1,"","",12,12,"","",Block12,"",K,trial_fix1,LR,318,"",0,K,green,13,"",480,"",""
573320,211,211,block_Trng,3,task_Trng,2,1,"","",13,12,"","",Block12,"",J,trial_fix1,LR,364,"",0,J,green,10,"",482,"",""
573320,212,212,block_Trng,3,task_Trng,2,0,"","",14,12,"","",Block12,"",J,Stim6,NR,15,"",0,K,red,13,"",482,"",""
573320,213,213,block_Trng,3,task_Trng,2,1,"","",15,12,"","",Block12,"",K,Stim8,NR,86,"",0,K,red,11,"",482,"",""
573320,214,214,block_Trng,3,task_Trng,2,0,"","",16,12,"","",Block12,"",K,Fdbck,HR,367,"",0,K,blue,12,"",482,"",""
573320,215,215,block_Trng,3,task_Trng,2,1,"","",17,12,"","",Block12,"",K,Stim15,NR,64,"",0,K,red,9,"",482,"",""
573320,216,216,block_Trng,3,task_Trng,2,0,"","",18,12,"","",Block12,"",K,ISI,LR,403,"",1,J,green,12,"",482,"",""
573320,217,217,block_Trng,3,task_Trng,2,1,"","",1,13,"","",Block13,"",J,ISI,HR,227,"",2,J,blue,13,"",492,"",""
573320,218,218,block_Trng,3,task_Trng,2,1,"","",2,13,"","",Block13,"",K,Stim9,HR,50,"",0,K,blue,10,"",502,"",""
573320,219,219,block_Trng,3,task_Trng,2,1,"","",3,13,"","",Block13,"",K,Fdbck,NR,532,"",0,J,red,10,"",502,"",""
573320,220,220,block_Trng,3,task_Trng,2,1,"","",4,13,"","",Block13,"",J,ISI,LR,0,"",1,J,green,8,"",504,"",""
573320,221,221,block_Trng,3,task_Trng,2,1,"","",5,13,"","",Block13,"",J,Stim16,HR,42,"",0,J,blue,9,"",514,"",""
573320,222,222,block_Trng,3,task_Trng,2,1,"","",6,13,"","",Block13,"",K,ISI,LR,207,"",1,K,green,11,"",516,"",""
573320,223,223,block_Trng,3,task_Trng,2,1,"","",7,13,"","",Block13,"",K,Stim15,LR,44,"",0,K,green,9,"",518,"",""
573320,224,224,block_Trng,3,task_Trng,2,1,"","",8,13,"","",Block13,"",K,Stim16,HR,35,"",0,K,blue,8,"",528,"",""
573320,225,225,block_Trng,3,task_Trng,2,1,"","",9,13,"","",Block13,"",J,Stim14,NR,4,"",0,J,red,8,"",528,"",""
573320,226,226,block_Trng,3,task_Trng,2,1,"","",10,13,"","",Block13,"",J,ISI,NR,130,"",1,J,red,12,"",528,"",""
573320,227,227,block_Trng,3,task_Trng,2,0,"","",11,13,"","",Block13,"",K,Stim11,HR,113,"",0,J,blue,11,"",528,"",""
573320,228,228,block_Trng,3,task_Trng,2,0,"","",12,13,"","",Block13,"",J,Fdbck,LR,957,"",0,K,green,13,"",528,"",""
573320,229,229,block_Trng,3,task_Trng,2,1,"","",13,13,"","",Block13,"",J,Stim11,LR,74,"",0,J,green,10,"",530,"",""
573320,230,230,block_Trng,3,task_Trng,2,1,"","",14,13,"","",Block13,"",K,Fdbck,NR,858,"",0,K,red,13,"",530,"",""
573320,231,231,block_Trng,3,task_Trng,2,0,"","",15,13,"","",Block13,"",K,Fdbck,NR,715,"",0,K,red,11,"",530,"",""
573320,232,232,block_Trng,3,task_Trng,2,0,"","",16,13,"","",Block13,"",J,Stim10,HR,118,"",0,K,blue,12,"",530,"",""
573320,233,233,block_Trng,3,task_Trng,2,1,"","",17,13,"","",Block13,"",K,Fdbck,NR,236,"",0,K,red,9,"",530,"",""
573320,234,234,block_Trng,3,task_Trng,2,0,"","",18,13,"","",Block13,"",K,ISI,LR,1,"",1,J,green,12,"",530,"",""
573320,235,235,block_Trng,3,task_Trng,2,0,"","",1,14,"","",Block14,"",K,Stim12,HR,57,"",0,J,blue,13,"",530,"",""
573320,236,236,block_Trng,3,task_Trng,2,0,"","",2,14,"","",Block14,"","","",HR,0,"",1,K,blue,10,"",530,"",""
573320,237,237,block_Trng,3,task_Trng,2,0,"","",3,14,"","",Block14,"",K,Stim13,NR,49,"",0,J,red,10,"",530,"",""
573320,238,238,block_Trng,3,task_Trng,2,0,"","",4,14,"","",Block14,"",K,Stim12,LR,93,"",0,J,green,8,"",530,"",""
573320,239,239,block_Trng,3,task_Trng,2,0,"","",5,14,"","",Block14,"",J,Fdbck,HR,444,"",0,J,blue,9,"",530,"",""
573320,240,240,block_Trng,3,task_Trng,2,0,"","",6,14,"","",Block14,"",J,Fdbck,LR,272,"",0,K,green,11,"",530,"",""
573320,241,241,block_Trng,3,task_Trng,2,1,"","",7,14,"","",Block14,"",K,Fdbck,LR,627,"",0,K,green,9,"",532,"",""
573320,242,242,block_Trng,3,task_Trng,2,0,"","",8,14,"","",Block14,"",J,Stim15,HR,40,"",0,K,blue,8,"",532,"",""
573320,243,243,block_Trng,3,task_Trng,2,1,"","",9,14,"","",Block14,"",J,Fdbck,NR,446,"",0,J,red,8,"",532,"",""
573320,244,244,block_Trng,3,task_Trng,2,1,"","",10,14,"","",Block14,"",J,Stim6,NR,111,"",0,J,red,12,"",532,"",""
573320,245,245,block_Trng,3,task_Trng,2,1,"","",11,14,"","",Block14,"",J,trial_fix2,HR,113,"",0,J,blue,11,"",542,"",""
573320,246,246,block_Trng,3,task_Trng,2,0,"","",12,14,"","",Block14,"",J,trial_fix2,LR,352,"",0,K,green,13,"",542,"",""
573320,247,247,block_Trng,3,task_Trng,2,1,"","",13,14,"","",Block14,"",J,ISI,LR,830,"",1,J,green,10,"",544,"",""
573320,248,248,block_Trng,3,task_Trng,2,0,"","",14,14,"","",Block14,"",J,ISI,NR,957,"",2,K,red,13,"",544,"",""
573320,249,249,block_Trng,3,task_Trng,2,0,"","",15,14,"","",Block14,"",K,Fdbck,NR,140,"",3,K,red,11,"",544,"",""
573320,250,250,block_Trng,3,task_Trng,2,0,"","",16,14,"","",Block14,"",J,Fdbck_Slow,HR,11,"",0,K,blue,12,"",544,"",""
573320,251,251,block_Trng,3,task_Trng,2,1,"","",17,14,"","",Block14,"",K,ISI,NR,85,"",1,K,red,9,"",544,"",""
573320,252,252,block_Trng,3,task_Trng,2,0,"","",18,14,"","",Block14,"",K,Stim15,LR,69,"",0,J,green,12,"",544,"",""
573320,253,253,block_Trng,3,task_Trng,2,1,"","",1,15,"","",Block15,"",J,Stim9,HR,21,"",0,J,blue,13,"",554,"",""
573320,254,254,block_Trng,3,task_Trng,2,0,"","",2,15,"","",Block15,"",J,ISI,HR,110,"",1,K,blue,10,"",554,"",""
573320,255,255,block_Trng,3,task_Trng,2,0,"","",3,15,"","",Block15,"",J,Fdbck,NR,504,"",0,J,red,10,"",554,"",""
573320,256,256,block_Trng,3,task_Trng,2,1,"","",4,15,"","",Block15,"",J,Stim15,LR,61,"",0,J,green,8,"",556,"",""
573320,257,257,block_Trng,3,task_Trng,2,1,"","",5,15,"","",Block15,"",J,ISI,HR,585,"",1,J,blue,9,"",566,"",""
573320,258,258,block_Trng,3,task_Trng,2,1,"","",6,15,"","",Block15,"",K,Stim16,LR,116,"",0,K,green,11,"",568,"",""
573320,259,259,block_Trng,3,task_Trng,2,0,"","",7,15,"","",Block15,"",J,Stim12,LR,117,"",0,K,green,9,"",568,"",""
573320,260,260,block_Trng,3,task_Trng,2,1,"","",8,15,"","",Block15,"",K,Stim14,HR,8,"",0,K,blue,8,"",578,"",""
573320,261,261,block_Trng,3,task_Trng,2,1,"","",9,15,"","",Block15,"",K,Fdbck,NR,357,"",0,J,red,8,"",578,"",""
573320,262,262,block_Trng,3,task_Trng,2,0,"","",10,15,"","",Block15,"",K,Stim15,NR,25,"",0,J,red,12,"",578,"",""
573320,263,263,block_Trng,3,task_Trng,2,0,"","",11,15,"","",Block15,"",K,Stim15,HR,17,"",0,J,blue,11,"",578,"",""
573320,264,264,block_Trng,3,task_Trng,2,1,"","",12,15,"","",Block15,"",K,Stim10,LR,62,"",0,K,green,13,"",580,"",""
573320,265,265,block_Trng,3,task_Trng,2,1,"","",13,15,"","",Block15,"",J,Fdbck,LR,576,"",0,J,green,10,"",582,"",""
573320,266,266,block_Trng,3,task_Trng,2,1,"","",14,15,"","",Block15,"",K,Stim7,NR,74,"",0,K,red,13,"",582,"",""
573320,267,267,block_Trng,3,task_Trng,2,0,"","",15,15,"","",Block15,"",K,Fdbck,NR,158,"",0,K,red,11,"",582,"",""
573320,268,268,block_Trng,3,task_Trng,2,1,"","",16,15,"","",Block15,"",K,Fdbck,HR,12,"",0,K,blue,12,"",592,"",""
573320,269,269,block_Trng,3,task_Trng,2,1,"","",17,15,"","",Block15,"",K,Stim14,NR,58,"",0,K,red,9,"",592,"",""
573320,270,270,block_Trng,3,task_Trng,2,0,"","",18,15,"","",Block15,"",K,Stim6,LR,33,"",0,J,green,12,"",592,"",""
573320,271,271,block_Trng,3,task_Trng,2,0,"","",1,16,"","",Block16',"",K,Stim14,HR,68,"",0,J,blue,13,"",592,"",""
573320,272,272,block_Trng,3,task_Trng,2,1,"","",2,16,"","",Block16',"",K,Stim10,HR,64,"",0,K,blue,10,"",602,"",""
573320,273,273,block_Trng,3,task_Trng,2,1,"","",3,16,"","",Block16',"",J,ISI,NR,160,"",1,J,red,10,"",602,"",""
573320,274,274,block_Trng,3,task_Trng,2,1,"","",4,16,"","",Block16',"",J,ISI,LR,786,"",2,J,green,8,"",604,"",""
573320,275,275,block_Trng,3,task_Trng,2,1,"","",5,16,"","",Block16',"",K,Fdbck,HR,191,"",0,J,blue,9,"",614,"",""
573320,276,276,block_Trng,3,task_Trng,2,0,"","",6,16,"","",Block16',"",K,Fdbck,LR,101,"",0,K,green,11,"",614,"",""
573320,277,277,block_Trng,3,task_Trng,2,0,"","",7,16,"","",Block16',"","","",LR,0,"",1,K,green,9,"",614,"",""
573320,278,278,block_Trng,3,task_Trng,2,0,"","",8,16,"","",Block16',"","","",HR,0,"",2,K,blue,8,"",614,"",""
573320,279,279,block_Trng,3,task_Trng,2,0,"","",9,16,"","",Block16',"","","",NR,0,"",3,J,red,8,"",614,"",""
573320,280,280,block_Trng,3,task_Trng,2,0,"","",10,16,"","",Block16',"",K,Fdbck_Slow,NR,7089,"",4,J,red,12,"",614,"",""
573320,281,281,block_Trng,3,task_Trng,2,1,"","",11,16,"","",Block16',"",J,ISI,HR,432,"",5,J,blue,11,"",624,"",""
573320,282,282,block_Trng,3,task_Trng,2,0,"","",12,16,"","",Block16',"",J,Fdbck,LR,280,"",0,K,green,13,"",624,"",""
573320,283,283,block_Trng,3,task_Trng,2,1,"","",13,16,"","",Block16',"",J,ISI,LR,677,"",1,J,green,10,"",626,"",""
573320,284,284,block_Trng,3,task_Trng,2,1,"","",14,16,"","",Block16',"",K,Fdbck,NR,715,"",0,K,red,13,"",626,"",""
573320,285,285,block_Trng,3,task_Trng,2,1,"","",15,16,"","",Block16',"",K,Stim14,NR,42,"",0,K,red,11,"",626,"",""
573320,286,286,block_Trng,3,task_Trng,2,1,"","",16,16,"","",Block16',"",K,ISI,HR,245,"",1,K,blue,12,"",636,"",""
573320,287,287,block_Trng,3,task_Trng,2,1,"","",17,16,"","",Block16',"",K,Stim16,NR,8,"",0,K,red,9,"",636,"",""
573320,288,288,block_Trng,3,task_Trng,2,0,"","",18,16,"","",Block16',"",K,Stim4,LR,12,"",0,J,green,12,"",636,"",""
573320,289,289,block_Trng,3,task_Trng,2,1,"","",1,17,"","",Block17,"",K,Fdbck,HR,854,"",0,J,blue,13,"",646,"",""
573320,290,290,block_Trng,3,task_Trng,2,1,"","",2,17,"","",Block17,"",K,ISI,HR,37,"",1,K,blue,10,"",656,"",""
573320,291,291,block_Trng,3,task_Trng,2,0,"","",3,17,"","",Block17,"","","",NR,0,"",2,J,red,10,"",656,"",""
573320,292,292,block_Trng,3,task_Trng,2,0,"","",4,17,"","",Block17,"","","",LR,0,"",3,J,green,8,"",656,"",""
573320,293,293,block_Trng,3,task_Trng,2,0,"","",5,17,"","",Block17,"",J,Fdbck_Slow,HR,4791,"",4,J,blue,9,"",656,"",""
573320,294,294,block_Trng,3,task_Trng,2,0,"","",6,17,"","",Block17,"",J,Stim9,LR,111,"",0,K,green,11,"",656,"",""
573320,295,295,block_Trng,3,task_Trng,2,1,"","",7,17,"","",Block17,"",K,Stim9,LR,96,"",0,K,green,9,"",658,"",""
573320,296,296,block_Trng,3,task_Trng,2,0,"","",8,17,"","",Block17,"",J,Stim13,HR,39,"",0,K,blue,8,"",658,"",""
573320,297,297,block_Trng,3,task_Trng,2,0,"","",9,17,"","",Block17,"",K,Stim7,NR,114,"",0,J,red,8,"",658,"",""
573320,298,298,block_Trng,3,task_Trng,2,0,"","",10,17,"","",Block17,"","","",NR,0,"",1,J,red,12,"",658,"",""
573320,299,299,block_Trng,3,task_Trng,2,1,"","",11,17,"","",Block17,"",J,Stim5,HR,118,"",0,J,blue,11,"",668,"",""
573320,300,300,block_Trng,3,task_Trng,2,0,"","",12,17,"","",Block17,"",K,Fdbck,LR,822,"",0,K,green,13,"",668,"",""
573320,301,301,block_Trng,3,task_Trng,2,1,"","",13,17,"","",Block17,"",J,Stim16,LR,116,"",0,J,green,10,"",670,"",""
573320,302,302,block_Trng,3,task_Trng,2,1,"","",14,17,"","",Block17,"",K,Stim15,NR,113,"",0,K,red,13,"",670,"",""
573320,303,303,block_Trng,3,task_Trng,2,1,"","",15,17,"","",Block17,"",J,Fdbck,NR,878,"",0,K,red,11,"",670,"",""
573320,304,304,block_Trng,3,task_Trng,2,0,"","",16,17,"","",Block17,"",J,Stim8,HR,45,"",0,K,blue,12,"",670,"",""
573320,305,305,block_Trng,3,task_Trng,2,0,"","",17,17,"","",Block17,"",J,Stim1,NR,59,"",0,K,red,9,"",670,"",""
573320,306,306,block_Trng,3,task_Trng,2,0,"","",18,17,"","",Block17,"",K,Stim8,LR,38,"",0,J,green,12,"",670,"",""
573320,307,307,block_Trng,3,task_Trng,2,0,"","",1,18,"","",Block18,"","","",HR,0,"",1,J,blue,13,"",670,"",""
573320,308,308,block_Trng,3,task_Trng,2,0,"","",2,18,"","",Block18,"","","",HR,0,"",2,K,blue,10,"",670,"",""
573320,309,309,block_Trng,3,task_Trng,2,1,"","",3,18,"","",Block18,"",J,Fdbck,NR,594,"",0,J,red,10,"",670,"",""
573320,310,310,block_Trng,3,task_Trng,2,0,"","",4,18,"","",Block18,"",K,Stim8,LR,24,"",0,J,green,8,"",670,"",""
573320,311,311,block_Trng,3,task_Trng,2,0,"","",5,18,"","",Block18,"",J,Fdbck,HR,997,"",0,J,blue,9,"",670,"",""
573320,312,312,block_Trng,3,task_Trng,2,0,"","",6,18,"","",Block18,"","","",LR,0,"",1,K,green,11,"",670,"",""
573320,313,313,block_Trng,3,task_Trng,2,1,"","",7,18,"","",Block18,"",K,trial_fix1,LR,400,"",0,K,green,9,"",672,"",""
573320,314,314,block_Trng,3,task_Trng,2,0,"","",8,18,"","",Block18,"",J,trial_fix2,HR,18,"",0,K,blue,8,"",672,"",""
573320,315,315,block_Trng,3,task_Trng,2,1,"","",9,18,"","",Block18,"",K,Fdbck,NR,398,"",0,J,red,8,"",672,"",""
573320,316,316,block_Trng,3,task_Trng,2,1,"","",10,18,"","",Block18,"",J,Fdbck,NR,418,"",0,J,red,12,"",672,"",""
573320,317,317,block_Trng,3,task_Trng,2,1,"","",11,18,"","",Block18,"",J,ISI,HR,137,"",1,J,blue,11,"",682,"",""
573320,318,318,block_Trng,3,task_Trng,2,1,"","",12,18,"","",Block18,"",K,ISI,LR,454,"",2,K,green,13,"",684,"",""
573320,319,319,block_Trng,3,task_Trng,2,1,"","",13,18,"","",Block18,"",J,ISI,LR,10,"",3,J,green,10,"",686,"",""
573320,320,320,block_Trng,3,task_Trng,2,1,"","",14,18,"","",Block18,"",K,ISI,NR,377,"",4,K,red,13,"",686,"",""
573320,321,321,block_Trng,3,task_Trng,2,1,"","",15,18,"","",Block18,"",K,ISI,NR,229,"",5,K,red,11,"",686,"",""
573320,322,322,block_Trng,3,task_Trng,2,1,"","",16,18,"","",Block18,"",K,ISI,HR,132,"",6,K,blue,12,"",696,"",""
573320,323,323,block_Trng,3,task_Trng,2,1,"","",17,18,"","",Block18,"",K,Stim15,NR,81,"",0,K,red,9,"",696,"",""
573320,324,324,block_Trng,3,task_Trng,2,1,"","",18,18,"","",Block18,"",J,ISI,LR,62,"",1,J,green,12,"",698,"",""
573320,325,325,block_Trng,3,task_Trng,2,1,"","",1,19,"","",Block19,"",J,ISI,HR,692,"",2,J,blue,13,"",708,"",""
573320,326,326,block_Trng,3,task_Trng,2,1,"","",2,19,"","",Block19,"",K,Stim16,HR,56,"",0,K,blue,10,"",718,"",""
573320,327,327,block_Trng,3,task_Trng,2,0,"","",3,19,"","",Block19,"",J,Fdbck,NR,148,"",0,J,red,10,"",718,"",""
573320,328,328,block_Trng,3,task_Trng,2,1,"","",4,19,"","",Block19,"",J,ISI,LR,712,"",1,J,green,8,"",720,"",""
573320,329,329,block_Trng,3,task_Trng,2,1,"","",5,19,"","",Block19,"",J,ISI,HR,876,"",2,J,blue,9,"",730,"",""
573320,330,330,block_Trng,3,task_Trng,2,0,"","",6,19,"","",Block19,"",K,Fdbck_Slow,LR,1158,"",3,K,green,11,"",730,"",""
573320,331,331,block_Trng,3,task_Trng,2,1,"","",7,19,"","",Block19,"",K,Stim16,LR,91,"",0,K,green,9,"",732,"",""
573320,332,332,block_Trng,3,task_Trng,2,1,"","",8,19,"","",Block19,"",K,Stim15,HR,23,"",0,K,blue,8,"",742,"",""
573320,333,333,block_Trng,3,task_Trng,2,1,"","",9,19,"","",Block19,"",J,Stim16,NR,35,"",0,J,red,8,"",742,"",""
573320,334,334,block_Trng,3,task_Trng,2,1,"","",10,19,"","",Block19,"",J,ISI,NR,229,"",1,J,red,12,"",742,"",""
573320,335,335,block_Trng,3,task_Trng,2,1,"","",11,19,"","",Block19,"",J,ISI,HR,456,"",2,J,blue,11,"",752,"",""
573320,336,336,block_Trng,3,task_Trng,2,0,"","",12,19,"","",Block19,"",J,trial_fix2,LR,98,"",0,K,green,13,"",752,"",""
573320,337,337,block_Trng,3,task_Trng,2,0,"","",13,19,"","",Block19,"",J,Fdbck,LR,968,"",0,J,green,10,"",752,"",""
573320,338,338,block_Trng,3,task_Trng,2,0,"","",14,19,"","",Block19,"","","",NR,0,"",1,K,red,13,"",752,"",""
573320,339,339,block_Trng,3,task_Trng,2,0,"","",15,19,"","",Block19,"",J,Stim8,NR,17,"",0,K,red,11,"",752,"",""
573320,340,340,block_Trng,3,task_Trng,2,0,"","",16,19,"","",Block19,"",J,Stim14,HR,118,"",0,K,blue,12,"",752,"",""
573320,341,341,block_Trng,3,task_Trng,2,1,"","",17,19,"","",Block19,"",K,Stim12,NR,76,"",0,K,red,9,"",752,"",""
573320,342,342,block_Trng,3,task_Trng,2,1,"","",18,19,"","",Block19,"",J,ISI,LR,210,"",1,J,green,12,"",754,"",""
573320,343,343,block_Trng,3,task_Trng,2,1,"","",1,20,"","",Block20,"",J,ISI,HR,524,"",2,J,blue,13,"",764,"",""
573320,344,344,block_Trng,3,task_Trng,2,0,"","",2,20,"","",Block20,"",K,Fdbck_Slow,HR,6685,"",3,K,blue,10,"",764,"",""
573320,345,345,block_Trng,3,task_Trng,2,1,"","",3,20,"","",Block20,"",J,Fdbck_Slow,NR,5422,"",4,J,red,10,"",764,"",""
573320,346,346,block_Trng,3,task_Trng,2,1,"","",4,20,"","",Block20,"",J,Stim16,LR,6,"",0,J,green,8,"",766,"",""
573320,347,347,block_Trng,3,task_Trng,2,1,"","",5,20,"","",Block20,"",J,Fdbck,HR,10,"",0,J,blue,9,"",776,"",""
573320,348,348,block_Trng,3,task_Trng,2,0,"","",6,20,"","",Block20,"","","",LR,0,"",1,K,green,11,"",776,"",""
573320,349,349,block_Trng,3,task_Trng,2,0,"","",7,20,"","",Block20,"","","",LR,0,"",2,K,green,9,"",776,"",""
573320,350,350,block_Trng,3,task_Trng,2,0,"","",8,20,"","",Block20,"","","",HR,0,"",3,K,blue,8,"",776,"",""
573320,351,351,block_Trng,3,task_Trng,2,1,"","",9,20,"","",Block20,"",J,ISI,NR,505,"",4,J,red,8,"",776,"",""
573320,352,352,block_Trng,3,task_Trng,2,0,"","",10,20,"","",Block20,"","","",NR,0,"",5,J,red,12,"",776,"",""
573320,353,353,block_Trng,3,task_Trng,2,1,"","",11,20,"","",Block20,"",J,ISI,HR,81,"",6,J,blue,11,"",786,"",""
573320,354,354,block_Trng,3,task_Trng,2,1,"","",12,20,"","",Block20,"",K,ISI,LR,437,"",7,K,green,13,"",788,"",""
573320,355,355,block_Trng,3,task_Trng,2,1,"","",13,20,"","",Block20,"",J,ISI,LR,305,"",8,J,green,10,"",790,"",""
573320,356,356,block_Trng,3,task_Trng,2,1,"","",14,20,"","",Block20,"",K,ISI,NR,419,"",9,K,red,13,"",790,"",""
573320,357,357,block_Trng,3,task_Trng,2,1,"","",15,20,"","",Block20,"",K,ISI,NR,425,"",10,K,red,11,"",790,"",""
573320,358,358,block_Trng,3,task_Trng,2,0,"","",16,20,"","",Block20,"",K,Fdbck,HR,403,"",0,K,blue,12,"",790,"",""
573320,359,359,block_Trng,3,task_Trng,2,1,"","",17,20,"","",Block20,"",K,Stim16,NR,60,"",0,K,red,9,"",790,"",""
573320,360,360,block_Trng,3,task_Trng,2,0,"","",18,20,"","",Block20,"",K,Fdbck,LR,601,"",0,J,green,12,"",790,"",""
573320,1,1,block_Trng,3,task_Trng_End,3,"","","","",1,"","","","","","","","","","","","","",2.69,790,"",""
573320,1,1,block_Testing,4,task_Testing_Instructions,1,"","","","",1,"","","","","","","","","","","","","","","","",""
573320,1,1,block_Testing,4,task_Testing,2,1,"","",1,1,"",Block1,"","",K,ISI,NR,144,"",1,K,red,11,"",790,"",""
573320,2,2,block_Testing,4,task_Testing,2,1,"","",2,1,"",Block1,"","",K,Stim16,HR,81,"",0,K,blue,10,"",790,"",""
573320,3,3,block_Testing,4,task_Testing,2,1,"","",3,1,"",Block1,"","",K,ISI,HR,260,"",1,K,blue,12,"",790,"",""
573320,4,4,block_Testing,4,task_Testing,2,1,"","",4,1,"",Block1,"","",K,ISI,NR,218,"",2,K,red,13,"",790,"",""
573320,5,5,block_Testing,4,task_Testing,2,0,"","",5,1,"",Block1,"","",K,ISI,HR,835,"",3,J,blue,9,"",790,"",""
573320,6,6,block_Testing,4,task_Testing,2,1,"","",6,1,"",Block1,"","",J,ISI,NR,909,"",4,J,red,12,"",790,"",""
573320,7,7,block_Testing,4,task_Testing,2,1,"","",7,1,"",Block1,"","",J,ISI,NR,932,"",5,J,red,8,"",790,"",""
573320,8,8,block_Testing,4,task_Testing,2,1,"","",8,1,"",Block1,"","",K,ISI,LR,269,"",6,K,green,11,"",790,"",""
573320,9,9,block_Testing,4,task_Testing,2,1,"","",9,1,"",Block1,"","",K,Stim14,LR,101,"",0,K,green,9,"",790,"",""
573320,10,10,block_Testing,4,task_Testing,2,0,"","",10,1,"",Block1,"","",K,ISI,LR,6,"",1,J,green,10,"",790,"",""
573320,11,11,block_Testing,4,task_Testing,2,1,"","",11,1,"",Block1,"","",J,trial_fix1,LR,288,"",0,J,green,12,"",790,"",""
573320,12,12,block_Testing,4,task_Testing,2,0,"","",12,1,"",Block1,"","",K,ITI,NR,257,"",0,K,red,9,"",790,"",""
573320,13,13,block_Testing,4,task_Testing,2,0,"","",13,1,"",Block1,"","",K,Stim16,LR,41,"",0,J,green,8,"",790,"",""
573320,14,14,block_Testing,4,task_Testing,2,0,"","",14,1,"",Block1,"","",K,Stim16,HR,42,"",0,J,blue,11,"",790,"",""
573320,15,15,block_Testing,4,task_Testing,2,0,"","",15,1,"",Block1,"","",J,Stim6,HR,25,"",0,K,blue,8,"",790,"",""
573320,16,16,block_Testing,4,task_Testing,2,0,"","",16,1,"",Block1,"","",K,Stim9,HR,37,"",0,J,blue,13,"",790,"",""
573320,17,17,block_Testing,4,task_Testing,2,0,"","",17,1,"",Block1,"","",K,Stim15,NR,43,"",0,J,red,10,"",790,"",""
573320,18,18,block_Testing,4,task_Testing,2,1,"","",18,1,"",Block1,"","",J,ITI,LR,14,"",0,K,green,13,"",790,"",""
573320,19,19,block_Testing,4,task_Testing,2,0,"","",1,2,"",Block2,"","",K,ITI,NR,440,"",0,K,red,11,"",790,"",""
573320,20,20,block_Testing,4,task_Testing,2,1,"","",2,2,"",Block2,"","",K,Stim5,HR,24,"",0,K,blue,10,"",790,"",""
573320,21,21,block_Testing,4,task_Testing,2,1,"","",3,2,"",Block2,"","",K,Stim14,HR,62,"",0,K,blue,12,"",790,"",""
573320,22,22,block_Testing,4,task_Testing,2,0,"","",4,2,"",Block2,"","",K,ITI,NR,66,"",0,K,red,13,"",790,"",""
573320,23,23,block_Testing,4,task_Testing,2,0,"","",5,2,"",Block2,"","",K,Stim12,HR,58,"",0,J,blue,9,"",790,"",""
573320,24,24,block_Testing,4,task_Testing,2,0,"","",6,2,"",Block2,"","",K,Stim11,NR,68,"",0,J,red,12,"",790,"",""
573320,25,25,block_Testing,4,task_Testing,2,0,"","",7,2,"",Block2,"","",J,ITI,NR,163,"",0,J,red,8,"",790,"",""
573320,26,26,block_Testing,4,task_Testing,2,1,"","",8,2,"",Block2,"","",K,Stim16,LR,95,"",0,K,green,11,"",790,"",""
573320,27,27,block_Testing,4,task_Testing,2,1,"","",9,2,"",Block2,"","",K,ITI,LR,74,"",0,K,green,9,"",790,"",""
573320,28,28,block_Testing,4,task_Testing,2,0,"","",10,2,"",Block2,"","",K,ITI,LR,383,"",0,J,green,10,"",790,"",""
573320,29,29,block_Testing,4,task_Testing,2,0,"","",11,2,"",Block2,"","",K,Stim7,LR,66,"",0,J,green,12,"",790,"",""
573320,30,30,block_Testing,4,task_Testing,2,1,"","",12,2,"",Block2,"","",K,Stim9,NR,77,"",0,K,red,9,"",790,"",""
573320,31,31,block_Testing,4,task_Testing,2,0,"","",13,2,"",Block2,"","",K,Stim3,LR,116,"",0,J,green,8,"",790,"",""
573320,32,32,block_Testing,4,task_Testing,2,0,"","",14,2,"",Block2,"","",K,Stim12,HR,43,"",0,J,blue,11,"",790,"",""
573320,33,33,block_Testing,4,task_Testing,2,1,"","",15,2,"",Block2,"","",K,ITI,HR,133,"",0,K,blue,8,"",790,"",""
573320,34,34,block_Testing,4,task_Testing,2,1,"","",16,2,"",Block2,"","",K,ITI,HR,117,"",0,J,blue,13,"",790,"",""
573320,35,35,block_Testing,4,task_Testing,2,0,"","",17,2,"",Block2,"","",J,ITI,NR,57,"",0,J,red,10,"",790,"",""
573320,36,36,block_Testing,4,task_Testing,2,0,"","",18,2,"",Block2,"","",J,ITI,LR,13,"",0,K,green,13,"",790,"",""
573320,37,37,block_Testing,4,task_Testing,2,1,"","",1,3,"",Block3,"","",K,Stim13,NR,45,"",0,K,red,11,"",790,"",""
573320,38,38,block_Testing,4,task_Testing,2,0,"","",2,3,"",Block3,"","",J,Stim10,HR,101,"",0,K,blue,10,"",790,"",""
573320,39,39,block_Testing,4,task_Testing,2,1,"","",3,3,"",Block3,"","",K,Stim16,HR,58,"",0,K,blue,12,"",790,"",""
573320,40,40,block_Testing,4,task_Testing,2,1,"","",4,3,"",Block3,"","",K,ITI,NR,2,"",0,K,red,13,"",790,"",""
573320,41,41,block_Testing,4,task_Testing,2,1,"","",5,3,"",Block3,"","",K,ITI,HR,236,"",0,J,blue,9,"",790,"",""
573320,42,42,block_Testing,4,task_Testing,2,0,"","",6,3,"",Block3,"","",J,ITI,NR,405,"",0,J,red,12,"",790,"",""
573320,43,43,block_Testing,4,task_Testing,2,0,"","",7,3,"",Block3,"","",K,ITI,NR,476,"",0,J,red,8,"",790,"",""
573320,44,44,block_Testing,4,task_Testing,2,1,"","",8,3,"",Block3,"","",K,Stim1,LR,44,"",0,K,green,11,"",790,"",""
573320,45,45,block_Testing,4,task_Testing,2,1,"","",9,3,"",Block3,"","",K,Stim11,LR,68,"",0,K,green,9,"",790,"",""
573320,46,46,block_Testing,4,task_Testing,2,0,"","",10,3,"",Block3,"","",J,Fdbck_Slow,LR,6,"",0,J,green,10,"",790,"",""
573320,47,47,block_Testing,4,task_Testing,2,0,"","",11,3,"",Block3,"","",K,ITI,LR,491,"",0,J,green,12,"",790,"",""
573320,48,48,block_Testing,4,task_Testing,2,1,"","",12,3,"",Block3,"","",K,Stim13,NR,108,"",0,K,red,9,"",790,"",""
573320,49,49,block_Testing,4,task_Testing,2,1,"","",13,3,"",Block3,"","",J,Stim15,LR,110,"",0,J,green,8,"",790,"",""
573320,50,50,block_Testing,4,task_Testing,2,0,"","",14,3,"",Block3,"","",K,Stim16,HR,83,"",0,J,blue,11,"",790,"",""
573320,51,51,block_Testing,4,task_Testing,2,1,"","",15,3,"",Block3,"","",J,Fdbck_Slow,HR,6,"",0,K,blue,8,"",790,"",""
573320,52,52,block_Testing,4,task_Testing,2,0,"","",16,3,"",Block3,"","",K,trial_fix2,HR,184,"",0,J,blue,13,"",790,"",""
573320,53,53,block_Testing,4,task_Testing,2,0,"","",17,3,"",Block3,"","","","",NR,0,"",1,J,red,10,"",790,"",""
573320,54,54,block_Testing,4,task_Testing,2,0,"","",18,3,"",Block3,"","","","",LR,0,"",2,K,green,13,"",790,"",""
573320,55,55,block_Testing,4,task_Testing,2,0,"","",1,4,"",Block4,"","","","",NR,0,"",3,K,red,11,"",790,"",""
573320,56,56,block_Testing,4,task_Testing,2,1,"","",2,4,"",Block4,"","",K,Stim8,HR,17,"",0,K,blue,10,"",790,"",""
573320,57,57,block_Testing,4,task_Testing,2,0,"","",3,4,"",Block4,"","",J,Stim12,HR,28,"",0,K,blue,12,"",790,"",""
573320,58,58,block_Testing,4,task_Testing,2,1,"","",4,4,"",Block4,"","",K,Stim10,NR,24,"",0,K,red,13,"",790,"",""
573320,59,59,block_Testing,4,task_Testing,2,0,"","",5,4,"",Block4,"","",J,ITI,HR,214,"",1,J,blue,9,"",790,"",""
573320,60,60,block_Testing,4,task_Testing,2,1,"","",6,4,"",Block4,"","",J,Stim12,NR,78,"",0,J,red,12,"",790,"",""
573320,61,61,block_Testing,4,task_Testing,2,1,"","",7,4,"",Block4,"","",J,Stim12,NR,54,"",0,J,red,8,"",790,"",""
573320,62,62,block_Testing,4,task_Testing,2,1,"","",8,4,"",Block4,"","",K,Stim9,LR,33,"",0,K,green,11,"",790,"",""
573320,63,63,block_Testing,4,task_Testing,2,0,"","",9,4,"",Block4,"","",J,trial_fix2,LR,473,"",0,K,green,9,"",790,"",""
573320,64,64,block_Testing,4,task_Testing,2,0,"","",10,4,"",Block4,"","",K,ITI,LR,15,"",0,J,green,10,"",790,"",""
573320,65,65,block_Testing,4,task_Testing,2,1,"","",11,4,"",Block4,"","",J,Stim7,LR,108,"",0,J,green,12,"",790,"",""
573320,66,66,block_Testing,4,task_Testing,2,1,"","",12,4,"",Block4,"","",K,Stim15,NR,73,"",0,K,red,9,"",790,"",""
573320,67,67,block_Testing,4,task_Testing,2,0,"","",13,4,"",Block4,"","",K,Stim5,LR,78,"",0,J,green,8,"",790,"",""
573320,68,68,block_Testing,4,task_Testing,2,1,"","",14,4,"",Block4,"","",K,ITI,HR,204,"",0,J,blue,11,"",790,"",""
573320,69,69,block_Testing,4,task_Testing,2,1,"","",15,4,"",Block4,"","",K,Stim11,HR,9,"",0,K,blue,8,"",790,"",""
573320,70,70,block_Testing,4,task_Testing,2,0,"","",16,4,"",Block4,"","",K,Stim3,HR,31,"",0,J,blue,13,"",790,"",""
573320,71,71,block_Testing,4,task_Testing,2,0,"","",17,4,"",Block4,"","",K,Stim16,NR,68,"",0,J,red,10,"",790,"",""
573320,72,72,block_Testing,4,task_Testing,2,0,"","",18,4,"",Block4,"","",J,Stim15,LR,14,"",0,K,green,13,"",790,"",""
573320,73,73,block_Testing,4,task_Testing,2,1,"","",1,5,"",Block5,"","",K,trial_fix1,NR,160,"",0,K,red,11,"",790,"",""
573320,74,74,block_Testing,4,task_Testing,2,0,"","",2,5,"",Block5,"","",J,Stim9,HR,99,"",0,K,blue,10,"",790,"",""
573320,75,75,block_Testing,4,task_Testing,2,0,"","",3,5,"",Block5,"","",J,Stim4,HR,8,"",0,K,blue,12,"",790,"",""
573320,76,76,block_Testing,4,task_Testing,2,0,"","",4,5,"",Block5,"","",J,ISI,NR,422,"",1,K,red,13,"",790,"",""
573320,77,77,block_Testing,4,task_Testing,2,0,"","",5,5,"",Block5,"","",K,ISI,HR,155,"",2,J,blue,9,"",790,"",""
573320,78,78,block_Testing,4,task_Testing,2,0,"","",6,5,"",Block5,"","",K,Stim8,NR,27,"",0,J,red,12,"",790,"",""
573320,79,79,block_Testing,4,task_Testing,2,0,"","",7,5,"",Block5,"","",K,trial_fix1,NR,231,"",0,J,red,8,"",790,"",""
573320,80,80,block_Testing,4,task_Testing,2,0,"","",8,5,"",Block5,"","",J,Stim10,LR,49,"",0,K,green,11,"",790,"",""
573320,81,81,block_Testing,4,task_Testing,2,1,"","",9,5,"",Block5,"","",K,Stim16,LR,47,"",0,K,green,9,"",790,"",""
573320,82,82,block_Testing,4,task_Testing,2,0,"","",10,5,"",Block5,"","",K,ITI,LR,217,"",0,J,green,10,"",790,"",""
573320,83,83,block_Testing,4,task_Testing,2,1,"","",11,5,"",Block5,"","",J,ISI,LR,468,"",1,J,green,12,"",790,"",""
573320,84,84,block_Testing,4,task_Testing,2,1,"","",12,5,"",Block5,"","",K,Stim4,NR,7,"",0,K,red,9,"",790,"",""
573320,85,85,block_Testing,4,task_Testing,2,0,"","",13,5,"",Block5,"","",K,trial_fix2,LR,222,"",0,J,green,8,"",790,"",""
573320,86,86,block_Testing,4,task_Testing,2,0,"","",14,5,"",Block5,"","",K,trial_fix2,HR,572,"",0,J,blue,11,"",790,"",""
573320,87,87,block_Testing,4,task_Testing,2,0,"","",15,5,"",Block5,"","",J,Stim3,HR,16,"",0,K,blue,8,"",790,"",""
573320,88,88,block_Testing,4,task_Testing,2,0,"","",16,5,"",Block5,"","",K,Stim9,HR,26,"",0,J,blue,13,"",790,"",""
573320,89,89,block_Testing,4,task_Testing,2,0,"","",17,5,"",Block5,"","",K,trial_fix2,NR,549,"",0,J,red,10,"",790,"",""
573320,90,90,block_Testing,4,task_Testing,2,0,"","",18,5,"",Block5,"","",K,ITI,LR,408,"",0,K,green,13,"",790,"",""
573320,91,91,block_Testing,4,task_Testing,2,1,"","",1,6,"",Block6,"","",K,ITI,NR,392,"",0,K,red,11,"",790,"",""
573320,92,92,block_Testing,4,task_Testing,2,0,"","",2,6,"",Block6,"","",J,trial_fix2,HR,549,"",0,K,blue,10,"",790,"",""
573320,93,93,block_Testing,4,task_Testing,2,1,"","",3,6,"",Block6,"","",K,ITI,HR,209,"",0,K,blue,12,"",790,"",""
573320,94,94,block_Testing,4,task_Testing,2,1,"","",4,6,"",Block6,"","",K,ISI,NR,269,"",1,K,red,13,"",790,"",""
573320,95,95,block_Testing,4,task_Testing,2,0,"","",5,6,"",Block6,"","","","",HR,0,"",2,J,blue,9,"",790,"",""
573320,96,96,block_Testing,4,task_Testing,2,0,"","",6,6,"",Block6,"","",K,ISI,NR,726,"",3,J,red,12,"",790,"",""
573320,97,97,block_Testing,4,task_Testing,2,0,"","",7,6,"",Block6,"","",K,Stim13,NR,32,"",0,J,red,8,"",790,"",""
573320,98,98,block_Testing,4,task_Testing,2,0,"","",8,6,"",Block6,"","",J,Stim3,LR,93,"",0,K,green,11,"",790,"",""
573320,99,99,block_Testing,4,task_Testing,2,1,"","",9,6,"",Block6,"","",K,ITI,LR,258,"",0,K,green,9,"",790,"",""
573320,100,100,block_Testing,4,task_Testing,2,0,"","",10,6,"",Block6,"","",K,ISI,LR,459,"",1,J,green,10,"",790,"",""
573320,101,101,block_Testing,4,task_Testing,2,1,"","",11,6,"",Block6,"","",J,ISI,LR,375,"",2,J,green,12,"",790,"",""
573320,102,102,block_Testing,4,task_Testing,2,1,"","",12,6,"",Block6,"","",K,Stim14,NR,114,"",0,K,red,9,"",790,"",""
573320,103,103,block_Testing,4,task_Testing,2,0,"","",13,6,"",Block6,"","",K,Stim9,LR,73,"",0,J,green,8,"",790,"",""
573320,104,104,block_Testing,4,task_Testing,2,1,"","",14,6,"",Block6,"","",J,Stim8,HR,118,"",0,J,blue,11,"",790,"",""
573320,105,105,block_Testing,4,task_Testing,2,1,"","",15,6,"",Block6,"","",K,trial_fix2,HR,552,"",0,K,blue,8,"",790,"",""
573320,106,106,block_Testing,4,task_Testing,2,0,"","",16,6,"",Block6,"","",K,trial_fix1,HR,199,"",0,J,blue,13,"",790,"",""
573320,107,107,block_Testing,4,task_Testing,2,0,"","",17,6,"",Block6,"","",J,ITI,NR,171,"",0,J,red,10,"",790,"",""
573320,108,108,block_Testing,4,task_Testing,2,1,"","",18,6,"",Block6,"","",K,Stim14,LR,37,"",0,K,green,13,"",790,"",""
573320,109,109,block_Testing,4,task_Testing,2,0,"","",1,7,"",Block7,"","","","",NR,0,"",1,K,red,11,"",790,"",""
573320,110,110,block_Testing,4,task_Testing,2,1,"","",2,7,"",Block7,"","",K,Stim11,HR,48,"",0,K,blue,10,"",790,"",""
573320,111,111,block_Testing,4,task_Testing,2,0,"","",3,7,"",Block7,"","",J,Stim8,HR,34,"",0,K,blue,12,"",790,"",""
573320,112,112,block_Testing,4,task_Testing,2,0,"","",4,7,"",Block7,"","",J,Stim1,NR,116,"",0,K,red,13,"",790,"",""
573320,113,113,block_Testing,4,task_Testing,2,0,"","",5,7,"",Block7,"","",K,trial_fix1,HR,323,"",0,J,blue,9,"",790,"",""
573320,114,114,block_Testing,4,task_Testing,2,0,"","",6,7,"",Block7,"","",K,trial_fix1,NR,295,"",0,J,red,12,"",790,"",""
573320,115,115,block_Testing,4,task_Testing,2,0,"","",7,7,"",Block7,"","","","",NR,0,"",1,J,red,8,"",790,"",""
573320,116,116,block_Testing,4,task_Testing,2,0,"","",8,7,"",Block7,"","",J,Stim8,LR,43,"",0,K,green,11,"",790,"",""
573320,117,117,block_Testing,4,task_Testing,2,1,"","",9,7,"",Block7,"","",K,Stim11,LR,110,"",0,K,green,9,"",790,"",""
573320,118,118,block_Testing,4,task_Testing,2,1,"","",10,7,"",Block7,"","",J,Stim3,LR,9,"",0,J,green,10,"",790,"",""
573320,119,119,block_Testing,4,task_Testing,2,1,"","",11,7,"",Block7,"","",J,Stim14,LR,30,"",0,J,green,12,"",790,"",""
573320,120,120,block_Testing,4,task_Testing,2,0,"","",12,7,"",Block7,"","",J,trial_fix2,NR,17,"",0,K,red,9,"",790,"",""
573320,121,121,block_Testing,4,task_Testing,2,1,"","",13,7,"",Block7,"","",J,Stim4,LR,4,"",0,J,green,8,"",790,"",""
573320,122,122,block_Testing,4,task_Testing,2,0,"","",14,7,"",Block7,"","",K,Stim2,HR,23,"",0,J,blue,11,"",790,"",""
573320,123,123,block_Testing,4,task_Testing,2,0,"","",15,7,"",Block7,"","",J,trial_fix2,HR,354,"",0,K,blue,8,"",790,"",""
573320,124,124,block_Testing,4,task_Testing,2,0,"","",16,7,"",Block7,"","",K,ISI,HR,57,"",1,J,blue,13,"",790,"",""
573320,125,125,block_Testing,4,task_Testing,2,1,"","",17,7,"",Block7,"","",J,Stim13,NR,77,"",0,J,red,10,"",790,"",""
573320,126,126,block_Testing,4,task_Testing,2,1,"","",18,7,"",Block7,"","",K,Stim3,LR,38,"",0,K,green,13,"",790,"",""
573320,127,127,block_Testing,4,task_Testing,2,1,"","",1,8,"",Block8,"","",K,ISI,NR,109,"",1,K,red,11,"",790,"",""
573320,128,128,block_Testing,4,task_Testing,2,0,"","",2,8,"",Block8,"","",J,ISI,HR,201,"",2,K,blue,10,"",790,"",""
573320,129,129,block_Testing,4,task_Testing,2,0,"","",3,8,"",Block8,"","",J,ISI,HR,274,"",3,K,blue,12,"",790,"",""
573320,130,130,block_Testing,4,task_Testing,2,0,"","",4,8,"",Block8,"","",J,ISI,NR,314,"",4,K,red,13,"",790,"",""
573320,131,131,block_Testing,4,task_Testing,2,1,"","",5,8,"",Block8,"","",J,Stim16,HR,32,"",0,J,blue,9,"",790,"",""
573320,132,132,block_Testing,4,task_Testing,2,1,"","",6,8,"",Block8,"","",J,ISI,NR,418,"",1,J,red,12,"",790,"",""
573320,133,133,block_Testing,4,task_Testing,2,1,"","",7,8,"",Block8,"","",J,Stim15,NR,9,"",0,J,red,8,"",790,"",""
573320,134,134,block_Testing,4,task_Testing,2,1,"","",8,8,"",Block8,"","",K,ISI,LR,64,"",1,K,green,11,"",790,"",""
573320,135,135,block_Testing,4,task_Testing,2,0,"","",9,8,"",Block8,"","",J,Stim4,LR,76,"",0,K,green,9,"",790,"",""
573320,136,136,block_Testing,4,task_Testing,2,1,"","",10,8,"",Block8,"","",J,ITI,LR,388,"",0,J,green,10,"",790,"",""
573320,137,137,block_Testing,4,task_Testing,2,1,"","",11,8,"",Block8,"","",K,ITI,LR,474,"",0,J,green,12,"",790,"",""
573320,138,138,block_Testing,4,task_Testing,2,0,"","",12,8,"",Block8,"","",J,Stim7,NR,80,"",0,K,red,9,"",790,"",""
573320,139,139,block_Testing,4,task_Testing,2,0,"","",13,8,"",Block8,"","",K,Stim13,LR,39,"",0,J,green,8,"",790,"",""
573320,140,140,block_Testing,4,task_Testing,2,1,"","",14,8,"",Block8,"","",J,Stim10,HR,113,"",0,J,blue,11,"",790,"",""
573320,141,141,block_Testing,4,task_Testing,2,1,"","",15,8,"",Block8,"","",K,Stim15,HR,22,"",0,K,blue,8,"",790,"",""
573320,142,142,block_Testing,4,task_Testing,2,0,"","",16,8,"",Block8,"","",K,Stim14,HR,71,"",0,J,blue,13,"",790,"",""
573320,143,143,block_Testing,4,task_Testing,2,0,"","",17,8,"",Block8,"","","","",NR,0,"",1,J,red,10,"",790,"",""
573320,144,144,block_Testing,4,task_Testing,2,0,"","",18,8,"",Block8,"","",J,trial_fix1,LR,221,"",0,K,green,13,"",790,"",""
573320,145,145,block_Testing,4,task_Testing,2,0,"","",1,9,"",Block9,"","",J,Stim16,NR,83,"",0,K,red,11,"",790,"",""
573320,146,146,block_Testing,4,task_Testing,2,1,"","",2,9,"",Block9,"","",K,Stim11,HR,110,"",0,K,blue,10,"",790,"",""
573320,147,147,block_Testing,4,task_Testing,2,1,"","",3,9,"",Block9,"","",K,ISI,HR,637,"",1,K,blue,12,"",790,"",""
573320,148,148,block_Testing,4,task_Testing,2,0,"","",4,9,"",Block9,"","",J,Stim8,NR,95,"",0,K,red,13,"",790,"",""
573320,149,149,block_Testing,4,task_Testing,2,1,"","",5,9,"",Block9,"","",J,Stim16,HR,47,"",0,J,blue,9,"",790,"",""
573320,150,150,block_Testing,4,task_Testing,2,1,"","",6,9,"",Block9,"","",J,Stim14,NR,50,"",0,J,red,12,"",790,"",""
573320,151,151,block_Testing,4,task_Testing,2,0,"","",7,9,"",Block9,"","",K,ISI,NR,374,"",1,J,red,8,"",790,"",""
573320,152,152,block_Testing,4,task_Testing,2,1,"","",8,9,"",Block9,"","",J,ITI,LR,271,"",0,K,green,11,"",790,"",""
573320,153,153,block_Testing,4,task_Testing,2,1,"","",9,9,"",Block9,"","",K,Stim12,LR,54,"",0,K,green,9,"",790,"",""
573320,154,154,block_Testing,4,task_Testing,2,1,"","",10,9,"",Block9,"","",J,ISI,LR,22,"",1,J,green,10,"",790,"",""
573320,155,155,block_Testing,4,task_Testing,2,1,"","",11,9,"",Block9,"","",K,ITI,LR,161,"",0,J,green,12,"",790,"",""
573320,156,156,block_Testing,4,task_Testing,2,0,"","",12,9,"",Block9,"","",J,Stim16,NR,85,"",0,K,red,9,"",790,"",""
573320,157,157,block_Testing,4,task_Testing,2,1,"","",13,9,"",Block9,"","",J,ITI,LR,171,"",0,J,green,8,"",790,"",""
573320,158,158,block_Testing,4,task_Testing,2,1,"","",14,9,"",Block9,"","",J,Stim12,HR,0,"",0,J,blue,11,"",790,"",""
573320,159,159,block_Testing,4,task_Testing,2,0,"","",15,9,"",Block9,"","",K,ITI,HR,133,"",0,K,blue,8,"",790,"",""
573320,160,160,block_Testing,4,task_Testing,2,1,"","",16,9,"",Block9,"","",J,Stim13,HR,39,"",0,J,blue,13,"",790,"",""
573320,161,161,block_Testing,4,task_Testing,2,1,"","",17,9,"",Block9,"","",J,ITI,NR,13,"",0,J,red,10,"",790,"",""
573320,162,162,block_Testing,4,task_Testing,2,0,"","",18,9,"",Block9,"","",K,ITI,LR,332,"",0,K,green,13,"",790,"",""
573320,163,163,block_Testing,4,task_Testing,2,0,"","",1,10,"",Block10,"","",J,ITI,NR,13,"",0,K,red,11,"",790,"",""
573320,164,164,block_Testing,4,task_Testing,2,1,"","",2,10,"",Block10,"","",K,Stim16,HR,41,"",0,K,blue,10,"",790,"",""
573320,165,165,block_Testing,4,task_Testing,2,1,"","",3,10,"",Block10,"","",K,ISI,HR,119,"",1,K,blue,12,"",790,"",""
573320,166,166,block_Testing,4,task_Testing,2,1,"","",4,10,"",Block10,"","",K,Stim7,NR,14,"",0,K,red,13,"",790,"",""
573320,167,167,block_Testing,4,task_Testing,2,0,"","",5,10,"",Block10,"","",K,Stim7,HR,35,"",0,J,blue,9,"",790,"",""
573320,168,168,block_Testing,4,task_Testing,2,1,"","",6,10,"",Block10,"","",J,ITI,NR,292,"",0,J,red,12,"",790,"",""
573320,169,169,block_Testing,4,task_Testing,2,1,"","",7,10,"",Block10,"","",J,ITI,NR,156,"",0,J,red,8,"",790,"",""
573320,170,170,block_Testing,4,task_Testing,2,1,"","",8,10,"",Block10,"","",K,Stim15,LR,115,"",0,K,green,11,"",790,"",""
573320,171,171,block_Testing,4,task_Testing,2,1,"","",9,10,"",Block10,"","",K,Stim13,LR,92,"",0,K,green,9,"",790,"",""
573320,172,172,block_Testing,4,task_Testing,2,1,"","",10,10,"",Block10,"","",J,Stim16,LR,115,"",0,J,green,10,"",790,"",""
573320,173,173,block_Testing,4,task_Testing,2,1,"","",11,10,"",Block10,"","",J,Stim13,LR,106,"",0,J,green,12,"",790,"",""
573320,174,174,block_Testing,4,task_Testing,2,1,"","",12,10,"",Block10,"","",K,Stim15,NR,88,"",0,K,red,9,"",790,"",""
573320,175,175,block_Testing,4,task_Testing,2,0,"","",13,10,"",Block10,"","",K,Stim11,LR,22,"",0,J,green,8,"",790,"",""
573320,176,176,block_Testing,4,task_Testing,2,1,"","",14,10,"",Block10,"","",K,ITI,HR,449,"",0,J,blue,11,"",790,"",""
573320,177,177,block_Testing,4,task_Testing,2,1,"","",15,10,"",Block10,"","",K,ITI,HR,383,"",0,K,blue,8,"",790,"",""
573320,178,178,block_Testing,4,task_Testing,2,1,"","",16,10,"",Block10,"","",J,Stim15,HR,35,"",0,J,blue,13,"",790,"",""
573320,179,179,block_Testing,4,task_Testing,2,1,"","",17,10,"",Block10,"","",J,ISI,NR,107,"",1,J,red,10,"",790,"",""
573320,180,180,block_Testing,4,task_Testing,2,0,"","",18,10,"",Block10,"","",K,ITI,LR,165,"",0,K,green,13,"",790,"",""
573320,1,1,block_End,5,task_Demog_End,1,"","",36,"",1,"","","",interesting,"","","","",Male,"","","","","","","",""
