Rec_Session_Id,Trial_Nr,Trial_Id,Block_Name,Block_Nr,Task_Name,Task_Nr,ACC,ACC_Total_Prac,Age,BlkTrial_Nr,Condition_Id,Consent,Contact,copy_of_factor1_tg1_task2,Email,factor1_tg1_task2,Fdbck_Slow,Feedback,MatricNo,Name,PAYNOW,Recontact,RESP,RESP_Frame,Reward,RT_FromFramePress,Sex,SlowResp,Targ,TargCol,TargPos,Testing_BreakCount,Testing_Progress,TotalMoney,TotalPoints,TotalPoints_prac,Trial_Nr_prac,Trng_BreakCount,Trng_Progress
584090,1,1,block_TrngInstructions,1,task_Consent,1,"","","","",1,Yes,"","","","","","","","","","","","","","","","","","","","","","","","","","",""
584090,1,1,block_Practice,2,task_GetReady,1,"","","","",1,"","","","","","","","","","","","","","","","","","","","","","","","","","","",""
584090,1,1,block_Practice,2,task_Trng_Prac,2,0,0,"","",1,"","","","","","","","","","","",J,Stim11,Disallowed,3,"",0,K,green,11,"","","",0,0,"","",""
584090,2,2,block_Practice,2,task_Trng_Prac,2,1,1,"","",1,"","","","","","","","","","","",J,Stim10,Disallowed,36,"",0,J,green,9,"","","",0,0,"","",""
584090,3,3,block_Practice,2,task_Trng_Prac,2,0,1,"","",1,"","","","","","","","","","","",J,Stim8,Disallowed,96,"",0,K,red,8,"","","",0,0,"","",""
584090,4,4,block_Practice,2,task_Trng_Prac,2,1,2,"","",1,"","","","","","","","","","","",J,Stim12,Disallowed,18,"",0,J,blue,12,"","","",0,0,"","",""
584090,5,5,block_Practice,2,task_Trng_Prac,2,1,3,"","",1,"","","","","","","","","","","",J,Stim14,Disallowed,12,"",0,J,blue,13,"","","",0,0,"","",""
584090,6,6,block_Practice,2,task_Trng_Prac,2,0,0,"","",1,"","","","","","","","","","","",J,Stim11,Disallowed,49,"",0,K,red,10,"","","",0,0,"","",""
584090,1,1,block_Practice,2,task_GetReady,1,"","","","",1,"","","","","","","","","","","","","","","","","","","","","","","","","","","",""
584090,1,1,block_Practice,2,task_Trng_Prac,2,0,0,"","",1,"","","","","","","","","","","",J,Stim11,Disallowed,90,"",0,K,red,10,"","","",0,0,"","",""
584090,2,2,block_Practice,2,task_Trng_Prac,2,1,1,"","",1,"","","","","","","","","","","",J,Stim10,Disallowed,73,"",0,J,green,9,"","","",0,0,"","",""
584090,3,3,block_Practice,2,task_Trng_Prac,2,0,1,"","",1,"","","","","","","","","","","",J,Stim13,Disallowed,26,"",0,K,green,11,"","","",0,0,"","",""
584090,4,4,block_Practice,2,task_Trng_Prac,2,1,2,"","",1,"","","","","","","","","","","",J,Stim14,Disallowed,41,"",0,J,blue,12,"","","",0,0,"","",""
584090,5,5,block_Practice,2,task_Trng_Prac,2,0,2,"","",1,"","","","","","","","","","","",J,Stim10,Disallowed,64,"",0,K,red,8,"","","",0,0,"","",""
584090,6,6,block_Practice,2,task_Trng_Prac,2,1,0,"","",1,"","","","","","","","","","","",J,Stim13,Disallowed,57,"",0,J,blue,13,"","","",0,0,"","",""
584090,1,1,block_TrngInstructions,1,task_Trng_Instructions,2,"","","","",1,"","","","","","","","","","","","","","","","","","","","","","","","","","","",""
584090,1,1,block_Practice,2,task_GetReady,1,"","","","",1,"","","","","","","","","","","","","","","","","","","","","","","","","","","",""
584090,1,1,block_Practice,2,task_Trng_Prac,2,0,0,"","",1,"","","","","","","","","","","",K,Stim12,Disallowed,105,"",0,J,blue,12,"","","",0,0,"","",""
584090,2,2,block_Practice,2,task_Trng_Prac,2,1,1,"","",1,"","","","","","","","","","","",J,Stim13,Disallowed,117,"",0,J,blue,13,"","","",0,0,"","",""
584090,3,3,block_Practice,2,task_Trng_Prac,2,1,2,"","",1,"","","","","","","","","","","",K,Stim16,Disallowed,103,"",0,K,green,11,"","","",0,0,"","",""
584090,4,4,block_Practice,2,task_Trng_Prac,2,1,3,"","",1,"","","","","","","","","","","",J,Stim9,Disallowed,114,"",0,J,green,9,"","","",0,0,"","",""
584090,5,5,block_Practice,2,task_Trng_Prac,2,1,4,"","",1,"","","","","","","","","","","",K,Stim10,Disallowed,95,"",0,K,red,10,"","","",0,0,"","",""
584090,6,6,block_Practice,2,task_Trng_Prac,2,1,5,"","",1,"","","","","","","","","","","",K,Stim8,Disallowed,24,"",0,K,red,8,"","","",0,0,"","",""
584090,1,1,block_Trng,3,task_GetReady,1,"","","","",1,"","","","","","","","","","","","","","","","","","","","","","","","","","","",""
584090,1,1,block_Trng,3,task_Trng,2,0,"","",1,1,"","","","",Block1,"","","","","","",J,Stim11,NR,99,"",0,K,red,11,"","",0,0,"","",0,0.28
584090,2,2,block_Trng,3,task_Trng,2,1,"","",2,1,"","","","",Block1,"","","","","","",J,Stim13,HR,57,"",0,J,blue,13,"","",0,10,"","",0,0.56
584090,3,3,block_Trng,3,task_Trng,2,0,"","",3,1,"","","","",Block1,"","","","","","",J,Stim11,LR,101,"",0,K,green,11,"","",0,10,"","",0,0.83
584090,4,4,block_Trng,3,task_Trng,2,0,"","",4,1,"","","","",Block1,"","","","","","",K,Stim9,HR,62,"",0,J,blue,9,"","",0,10,"","",0,1.11
584090,5,5,block_Trng,3,task_Trng,2,0,"","",5,1,"","","","",Block1,"","","","","","",K,Stim11,NR,51,"",0,J,red,10,"","",0,10,"","",0,1.39
584090,6,6,block_Trng,3,task_Trng,2,0,"","",6,1,"","","","",Block1,"","","","","","",K,Stim8,LR,104,"",0,J,green,8,"","",0,10,"","",0,1.67
584090,7,7,block_Trng,3,task_Trng,2,1,"","",7,1,"","","","",Block1,"","","","","","",J,PreISI1,HR,157,"",0,J,blue,11,"","",0,20,"","",0,1.94
584090,8,8,block_Trng,3,task_Trng,2,1,"","",8,1,"","","","",Block1,"","","","","","",K,Stim16,HR,77,"",0,K,blue,10,"","",0,30,"","",0,2.22
584090,9,9,block_Trng,3,task_Trng,2,0,"","",9,1,"","","","",Block1,Slow!,"","","","","","","",LR,0,"",1,K,green,9,"","",0,30,"","",0,2.5
584090,10,10,block_Trng,3,task_Trng,2,0,"","",10,1,"","","","",Block1,"","","","","","",K,PreISI1,NR,226,"",0,J,red,8,"","",0,30,"","",0,2.78
584090,11,11,block_Trng,3,task_Trng,2,1,"","",11,1,"","","","",Block1,"","","","","","",K,PreISI1,LR,471,"",0,K,green,13,"","",0,32,"","",0,3.06
584090,12,12,block_Trng,3,task_Trng,2,1,"","",12,1,"","","","",Block1,"","","","","","",J,PreISI1,LR,283,"",0,J,green,10,"","",0,34,"","",0,3.33
584090,13,13,block_Trng,3,task_Trng,2,1,"","",13,1,"","","","",Block1,"","","","","","",K,Stim16,NR,112,"",0,K,red,9,"","",0,34,"","",0,3.61
584090,14,14,block_Trng,3,task_Trng,2,0,"","",14,1,"","","","",Block1,"","","","","","",J,PreISI1,NR,233,"",0,K,red,13,"","",0,34,"","",0,3.89
584090,15,15,block_Trng,3,task_Trng,2,1,"","",15,1,"","","","",Block1,"","","","","","",K,PreISI1,HR,176,"",0,K,blue,12,"","",0,44,"","",0,4.17
584090,16,16,block_Trng,3,task_Trng,2,1,"","",16,1,"","","","",Block1,"","","","","","",K,Stim15,HR,79,"",0,K,blue,8,"","",0,54,"","",0,4.44
584090,17,17,block_Trng,3,task_Trng,2,0,"","",17,1,"","","","",Block1,"","","","","","",K,PreISI1,NR,438,"",0,J,red,12,"","",0,54,"","",0,4.72
584090,18,18,block_Trng,3,task_Trng,2,1,"","",18,1,"","","","",Block1,Slow!,"","","","","",J,PreISI2,LR,738,"",1,J,green,12,"","",0,54,"","",0,5
584090,19,19,block_Trng,3,task_Trng,2,0,"","",1,2,"","","","",Block2,Slow!,"","","","","",K,PreISI2,LR,293,"",2,J,green,10,"","",0,54,"","",0,5.28
584090,20,20,block_Trng,3,task_Trng,2,0,"","",2,2,"","","","",Block2,"","","","","","",K,PreISI1,HR,29,"",0,J,blue,9,"","",0,54,"","",0,5.56
584090,21,21,block_Trng,3,task_Trng,2,0,"","",3,2,"","","","",Block2,Slow!,"","","","","",K,PreISI2,HR,132,"",1,J,blue,11,"","",0,54,"","",0,5.83
584090,22,22,block_Trng,3,task_Trng,2,1,"","",4,2,"","","","",Block2,Slow!,"","","","","",K,ISI,NR,643,"",2,K,red,13,"","",0,54,"","",0,6.11
584090,23,23,block_Trng,3,task_Trng,2,1,"","",5,2,"","","","",Block2,"","","","","","",J,PreISI1,NR,527,"",0,J,red,12,"","",0,54,"","",0,6.39
584090,24,24,block_Trng,3,task_Trng,2,1,"","",6,2,"","","","",Block2,"","","","","","",K,PreISI1,LR,367,"",0,K,green,11,"","",0,56,"","",0,6.67
584090,25,25,block_Trng,3,task_Trng,2,1,"","",7,2,"","","","",Block2,"","","","","","",K,PreISI1,NR,8,"",0,K,red,11,"","",0,56,"","",0,6.94
584090,26,26,block_Trng,3,task_Trng,2,0,"","",8,2,"","","","",Block2,"","","","","","",K,PreISI2,LR,1,"",0,J,green,12,"","",0,56,"","",0,7.22
584090,27,27,block_Trng,3,task_Trng,2,0,"","",9,2,"","","","",Block2,"","","","","","",J,Stim10,NR,104,"",0,K,red,9,"","",0,56,"","",0,7.5
584090,28,28,block_Trng,3,task_Trng,2,1,"","",10,2,"","","","",Block2,"","","","","","",K,Stim15,HR,100,"",0,K,blue,10,"","",0,66,"","",0,7.78
584090,29,29,block_Trng,3,task_Trng,2,1,"","",11,2,"","","","",Block2,"","","","","","",J,Stim13,HR,8,"",0,J,blue,13,"","",0,76,"","",0,8.06
584090,30,30,block_Trng,3,task_Trng,2,0,"","",12,2,"","","","",Block2,Slow!,"","","","","",J,PreISI2,LR,332,"",1,K,green,13,"","",0,76,"","",0,8.33
584090,31,31,block_Trng,3,task_Trng,2,1,"","",13,2,"","","","",Block2,"","","","","","",J,Stim10,NR,11,"",0,J,red,8,"","",0,76,"","",0,8.61
584090,32,32,block_Trng,3,task_Trng,2,0,"","",14,2,"","","","",Block2,Slow!,"","","","","",J,PreISI2,HR,1431,"",1,K,blue,12,"","",0,76,"","",0,8.89
584090,33,33,block_Trng,3,task_Trng,2,1,"","",15,2,"","","","",Block2,"","","","","","",K,Stim13,LR,99,"",0,K,green,9,"","",0,78,"","",0,9.17
584090,34,34,block_Trng,3,task_Trng,2,1,"","",16,2,"","","","",Block2,"","","","","","",K,Stim15,HR,49,"",0,K,blue,8,"","",0,88,"","",0,9.44
584090,35,35,block_Trng,3,task_Trng,2,1,"","",17,2,"","","","",Block2,"","","","","","",J,PreISI1,NR,124,"",0,J,red,10,"","",0,88,"","",0,9.72
584090,36,36,block_Trng,3,task_Trng,2,0,"","",18,2,"","","","",Block2,"","","","","","",K,Stim14,LR,5,"",0,J,green,8,"","",0,88,"","",0,10
584090,37,37,block_Trng,3,task_Trng,2,1,"","",1,3,"","","","",Block3,"","","","","","",K,PreISI1,LR,335,"",0,K,green,11,"","",0,90,"","",0,10.28
584090,38,38,block_Trng,3,task_Trng,2,1,"","",2,3,"","","","",Block3,"","","","","","",K,Stim16,HR,56,"",0,K,blue,8,"","",0,100,"","",0,10.56
584090,39,39,block_Trng,3,task_Trng,2,1,"","",3,3,"","","","",Block3,Slow!,"","","","","",J,PreISI2,HR,273,"",1,J,blue,13,"","",0,100,"","",0,10.83
584090,40,40,block_Trng,3,task_Trng,2,1,"","",4,3,"","","","",Block3,"","","","","","",K,Stim15,LR,10,"",0,K,green,9,"","",0,102,"","",0,11.11
584090,41,41,block_Trng,3,task_Trng,2,1,"","",5,3,"","","","",Block3,"","","","","","",J,PreISI1,NR,179,"",0,J,red,10,"","",0,102,"","",0,11.39
584090,42,42,block_Trng,3,task_Trng,2,1,"","",6,3,"","","","",Block3,"","","","","","",J,PreISI1,LR,327,"",0,J,green,12,"","",0,104,"","",0,11.67
584090,43,43,block_Trng,3,task_Trng,2,1,"","",7,3,"","","","",Block3,"","","","","","",K,Stim15,HR,110,"",0,K,blue,10,"","",0,114,"","",0,11.94
584090,44,44,block_Trng,3,task_Trng,2,0,"","",8,3,"","","","",Block3,"","","","","","",K,Stim13,NR,87,"",0,J,red,12,"","",0,114,"","",0,12.22
584090,45,45,block_Trng,3,task_Trng,2,0,"","",9,3,"","","","",Block3,"","","","","","",K,PreISI1,HR,270,"",0,J,blue,9,"","",0,114,"","",0,12.5
584090,46,46,block_Trng,3,task_Trng,2,1,"","",10,3,"","","","",Block3,"","","","","","",K,PreISI1,NR,109,"",0,K,red,11,"","",0,114,"","",0,12.78
584090,47,47,block_Trng,3,task_Trng,2,1,"","",11,3,"","","","",Block3,Slow!,"","","","","",K,PreISI2,NR,1191,"",1,K,red,13,"","",0,114,"","",0,13.06
584090,48,48,block_Trng,3,task_Trng,2,0,"","",12,3,"","","","",Block3,"","","","","","",J,Stim15,NR,57,"",0,K,red,9,"","",0,114,"","",0,13.33
584090,49,49,block_Trng,3,task_Trng,2,1,"","",13,3,"","","","",Block3,"","","","","","",J,Stim16,NR,15,"",0,J,red,8,"","",0,114,"","",0,13.61
584090,50,50,block_Trng,3,task_Trng,2,1,"","",14,3,"","","","",Block3,Slow!,"","","","","",J,PreISI2,HR,7,"",1,J,blue,11,"","",0,114,"","",0,13.89
584090,51,51,block_Trng,3,task_Trng,2,1,"","",15,3,"","","","",Block3,"","","","","","",K,Stim16,LR,105,"",0,K,green,13,"","",0,116,"","",0,14.17
584090,52,52,block_Trng,3,task_Trng,2,1,"","",16,3,"","","","",Block3,"","","","","","",J,PreISI1,LR,226,"",0,J,green,10,"","",0,118,"","",0,14.44
584090,53,53,block_Trng,3,task_Trng,2,0,"","",17,3,"","","","",Block3,"","","","","","",K,Stim15,LR,57,"",0,J,green,8,"","",0,118,"","",0,14.72
584090,54,54,block_Trng,3,task_Trng,2,1,"","",18,3,"","","","",Block3,"","","","","","",K,PreISI1,HR,177,"",0,K,blue,12,"","",0,128,"","",0,15
584090,55,55,block_Trng,3,task_Trng,2,0,"","",1,4,"","","","",Block4,"","","","","","",K,PreISI1,NR,86,"",0,J,red,8,"","",0,128,"","",0,15.28
584090,56,56,block_Trng,3,task_Trng,2,1,"","",2,4,"","","","",Block4,Slow!,"","","","","",J,PreISI2,NR,185,"",1,J,red,12,"","",0,128,"","",0,15.56
584090,57,57,block_Trng,3,task_Trng,2,0,"","",3,4,"","","","",Block4,Slow!,"","","","","",J,PreISI2,NR,814,"",2,K,red,9,"","",0,128,"","",0,15.83
584090,58,58,block_Trng,3,task_Trng,2,1,"","",4,4,"","","","",Block4,"","","","","","",K,PreISI1,HR,198,"",0,K,blue,10,"","",0,138,"","",0,16.11
584090,59,59,block_Trng,3,task_Trng,2,1,"","",5,4,"","","","",Block4,"","","","","","",K,PreISI1,NR,307,"",0,K,red,13,"","",0,138,"","",0,16.39
584090,60,60,block_Trng,3,task_Trng,2,0,"","",6,4,"","","","",Block4,"","","","","","",J,Stim15,LR,68,"",0,K,green,13,"","",0,138,"","",0,16.67
584090,61,61,block_Trng,3,task_Trng,2,0,"","",7,4,"","","","",Block4,"","","","","","",K,Stim15,LR,78,"",0,J,green,8,"","",0,138,"","",0,16.94
584090,62,62,block_Trng,3,task_Trng,2,1,"","",8,4,"","","","",Block4,"","","","","","",J,PreISI1,NR,515,"",0,J,red,10,"","",0,138,"","",0,17.22
584090,63,63,block_Trng,3,task_Trng,2,0,"","",9,4,"","","","",Block4,"","","","","","",K,PreISI1,LR,247,"",0,J,green,12,"","",0,138,"","",0,17.5
584090,64,64,block_Trng,3,task_Trng,2,1,"","",10,4,"","","","",Block4,"","","","","","",J,PreISI1,LR,14,"",0,J,green,10,"","",0,140,"","",0,17.78
584090,65,65,block_Trng,3,task_Trng,2,0,"","",11,4,"","","","",Block4,Slow!,"","","","","","","",HR,0,"",1,J,blue,11,"","",0,140,"","",0,18.06
584090,66,66,block_Trng,3,task_Trng,2,0,"","",12,4,"","","","",Block4,"","","","","","",K,Stim16,HR,109,"",0,J,blue,9,"","",0,140,"","",0,18.33
584090,67,67,block_Trng,3,task_Trng,2,1,"","",13,4,"","","","",Block4,"","","","","","",K,PreISI1,LR,128,"",0,K,green,11,"","",0,142,"","",0,18.61
584090,68,68,block_Trng,3,task_Trng,2,0,"","",14,4,"","","","",Block4,"","","","","","",K,PreISI1,HR,14,"",0,J,blue,13,"","",0,142,"","",0,18.89
584090,69,69,block_Trng,3,task_Trng,2,0,"","",15,4,"","","","",Block4,Slow!,"","","","","","","",NR,0,"",1,K,red,11,"","",0,142,"","",0,19.17
584090,70,70,block_Trng,3,task_Trng,2,0,"","",16,4,"","","","",Block4,"","","","","","",J,Stim10,LR,86,"",0,K,green,9,"","",0,142,"","",0,19.44
584090,71,71,block_Trng,3,task_Trng,2,0,"","",17,4,"","","","",Block4,"","","","","","",J,Stim12,HR,8,"",0,K,blue,12,"","",0,142,"","",0,19.72
584090,72,72,block_Trng,3,task_Trng,2,1,"","",18,4,"","","","",Block4,"","","","","","",K,Stim14,HR,17,"",0,K,blue,8,"","",0.52,152,"","",1,20
584090,73,73,block_Trng,3,task_Trng,2,1,"","",1,5,"","","","",Block5,"","","","","","",K,PreISI1,NR,113,"",0,K,red,11,"","",0.52,152,"","",1,20.28
584090,74,74,block_Trng,3,task_Trng,2,0,"","",2,5,"","","","",Block5,Slow!,"","","","","",K,PreISI2,LR,740,"",1,J,green,8,"","",0.52,152,"","",1,20.56
584090,75,75,block_Trng,3,task_Trng,2,1,"","",3,5,"","","","",Block5,"","","","","","",K,Stim15,LR,31,"",0,K,green,9,"","",0.52,154,"","",1,20.83
584090,76,76,block_Trng,3,task_Trng,2,0,"","",4,5,"","","","",Block5,Slow!,"","","","","",K,PreISI2,LR,113,"",1,J,green,10,"","",0.52,154,"","",1,21.11
584090,77,77,block_Trng,3,task_Trng,2,1,"","",5,5,"","","","",Block5,Slow!,"","","","","",K,PreISI2,NR,35,"",2,K,red,13,"","",0.52,154,"","",1,21.39
584090,78,78,block_Trng,3,task_Trng,2,1,"","",6,5,"","","","",Block5,"","","","","","",J,Stim15,NR,22,"",0,J,red,8,"","",0.52,154,"","",1,21.67
584090,79,79,block_Trng,3,task_Trng,2,0,"","",7,5,"","","","",Block5,"","","","","","",K,Stim13,NR,25,"",0,J,red,12,"","",0.52,154,"","",1,21.94
584090,80,80,block_Trng,3,task_Trng,2,1,"","",8,5,"","","","",Block5,"","","","","","",K,Stim16,LR,106,"",0,K,green,11,"","",0.52,156,"","",1,22.22
584090,81,81,block_Trng,3,task_Trng,2,0,"","",9,5,"","","","",Block5,"","","","","","",K,PreISI1,HR,485,"",0,J,blue,13,"","",0.52,156,"","",1,22.5
584090,82,82,block_Trng,3,task_Trng,2,1,"","",10,5,"","","","",Block5,"","","","","","",K,PreISI1,LR,308,"",0,K,green,13,"","",0.52,158,"","",1,22.78
584090,83,83,block_Trng,3,task_Trng,2,1,"","",11,5,"","","","",Block5,Slow!,"","","","","",J,PreISI2,LR,70,"",1,J,green,12,"","",0.52,158,"","",1,23.06
584090,84,84,block_Trng,3,task_Trng,2,1,"","",12,5,"","","","",Block5,Slow!,"","","","","",K,PreISI2,HR,125,"",2,K,blue,12,"","",0.52,158,"","",1,23.33
584090,85,85,block_Trng,3,task_Trng,2,1,"","",13,5,"","","","",Block5,"","","","","","",K,Stim12,NR,4,"",0,K,red,9,"","",0.52,158,"","",1,23.61
584090,86,86,block_Trng,3,task_Trng,2,1,"","",14,5,"","","","",Block5,"","","","","","",J,PreISI1,HR,217,"",0,J,blue,11,"","",0.52,168,"","",1,23.89
584090,87,87,block_Trng,3,task_Trng,2,1,"","",15,5,"","","","",Block5,"","","","","","",J,PreISI1,HR,110,"",0,J,blue,9,"","",0.52,178,"","",1,24.17
584090,88,88,block_Trng,3,task_Trng,2,1,"","",16,5,"","","","",Block5,"","","","","","",K,PreISI1,HR,7,"",0,K,blue,8,"","",0.52,188,"","",1,24.44
584090,89,89,block_Trng,3,task_Trng,2,1,"","",17,5,"","","","",Block5,"","","","","","",K,PreISI1,HR,107,"",0,K,blue,10,"","",0.52,198,"","",1,24.72
584090,90,90,block_Trng,3,task_Trng,2,1,"","",18,5,"","","","",Block5,"","","","","","",J,Stim16,NR,16,"",0,J,red,10,"","",0.52,198,"","",1,25
584090,91,91,block_Trng,3,task_Trng,2,0,"","",1,6,"","","","",Block6,"","","","","","",K,Stim14,NR,15,"",0,J,red,12,"","",0.52,198,"","",1,25.28
584090,92,92,block_Trng,3,task_Trng,2,1,"","",2,6,"","","","",Block6,"","","","","","",J,Stim14,HR,35,"",0,J,blue,13,"","",0.52,208,"","",1,25.56
584090,93,93,block_Trng,3,task_Trng,2,1,"","",3,6,"","","","",Block6,"","","","","","",J,PreISI1,HR,183,"",0,J,blue,11,"","",0.52,218,"","",1,25.83
584090,94,94,block_Trng,3,task_Trng,2,1,"","",4,6,"","","","",Block6,"","","","","","",K,Stim16,NR,13,"",0,K,red,9,"","",0.52,218,"","",1,26.11
584090,95,95,block_Trng,3,task_Trng,2,0,"","",5,6,"","","","",Block6,"","","","","","",K,Stim15,HR,9,"",0,J,blue,9,"","",0.52,218,"","",1,26.39
584090,96,96,block_Trng,3,task_Trng,2,1,"","",6,6,"","","","",Block6,"","","","","","",J,Stim16,LR,24,"",0,J,green,8,"","",0.52,220,"","",1,26.67
584090,97,97,block_Trng,3,task_Trng,2,1,"","",7,6,"","","","",Block6,"","","","","","",K,Stim16,NR,115,"",0,K,red,11,"","",0.52,220,"","",1,26.94
584090,98,98,block_Trng,3,task_Trng,2,1,"","",8,6,"","","","",Block6,"","","","","","",K,PreISI1,LR,89,"",0,K,green,11,"","",0.52,222,"","",1,27.22
584090,99,99,block_Trng,3,task_Trng,2,1,"","",9,6,"","","","",Block6,"","","","","","",J,Stim16,LR,49,"",0,J,green,10,"","",0.52,224,"","",1,27.5
584090,100,100,block_Trng,3,task_Trng,2,1,"","",10,6,"","","","",Block6,"","","","","","",K,Stim14,HR,53,"",0,K,blue,8,"","",0.52,234,"","",1,27.78
584090,101,101,block_Trng,3,task_Trng,2,0,"","",11,6,"","","","",Block6,Slow!,"","","","","","","",NR,0,"",1,J,red,8,"","",0.52,234,"","",1,28.06
584090,102,102,block_Trng,3,task_Trng,2,0,"","",12,6,"","","","",Block6,Slow!,"","","","","","","",HR,0,"",2,K,blue,12,"","",0.52,234,"","",1,28.33
584090,103,103,block_Trng,3,task_Trng,2,0,"","",13,6,"","","","",Block6,Slow!,"","","","","","","",HR,0,"",3,K,blue,10,"","",0.52,234,"","",1,28.61
584090,104,104,block_Trng,3,task_Trng,2,0,"","",14,6,"","","","",Block6,"","","","","","",K,PreISI1,LR,301,"",0,J,green,12,"","",0.52,234,"","",1,28.89
584090,105,105,block_Trng,3,task_Trng,2,1,"","",15,6,"","","","",Block6,"","","","","","",K,Stim15,LR,84,"",0,K,green,9,"","",0.52,236,"","",1,29.17
584090,106,106,block_Trng,3,task_Trng,2,1,"","",16,6,"","","","",Block6,"","","","","","",J,PreISI1,NR,294,"",0,J,red,10,"","",0.52,236,"","",1,29.44
584090,107,107,block_Trng,3,task_Trng,2,1,"","",17,6,"","","","",Block6,"","","","","","",K,PreISI1,LR,128,"",0,K,green,13,"","",0.52,238,"","",1,29.72
584090,108,108,block_Trng,3,task_Trng,2,1,"","",18,6,"","","","",Block6,"","","","","","",K,PreISI1,NR,530,"",0,K,red,13,"","",0.52,238,"","",1,30
584090,109,109,block_Trng,3,task_Trng,2,1,"","",1,7,"","","","",Block7,"","","","","","",K,PreISI1,NR,2,"",0,K,red,11,"","",0.52,238,"","",1,30.28
584090,110,110,block_Trng,3,task_Trng,2,0,"","",2,7,"","","","",Block7,"","","","","","",K,Stim14,LR,54,"",0,J,green,8,"","",0.52,238,"","",1,30.56
584090,111,111,block_Trng,3,task_Trng,2,1,"","",3,7,"","","","",Block7,"","","","","","",J,Stim16,LR,7,"",0,J,green,10,"","",0.52,240,"","",1,30.83
584090,112,112,block_Trng,3,task_Trng,2,1,"","",4,7,"","","","",Block7,"","","","","","",J,PreISI1,NR,496,"",0,J,red,8,"","",0.52,240,"","",1,31.11
584090,113,113,block_Trng,3,task_Trng,2,1,"","",5,7,"","","","",Block7,"","","","","","",J,PreISI1,HR,455,"",0,J,blue,13,"","",0.52,250,"","",1,31.39
584090,114,114,block_Trng,3,task_Trng,2,0,"","",6,7,"","","","",Block7,"","","","","","",K,PreISI1,HR,29,"",0,J,blue,11,"","",0.52,250,"","",1,31.67
584090,115,115,block_Trng,3,task_Trng,2,0,"","",7,7,"","","","",Block7,"","","","","","",K,PreISI1,LR,283,"",0,J,green,12,"","",0.52,250,"","",1,31.94
584090,116,116,block_Trng,3,task_Trng,2,1,"","",8,7,"","","","",Block7,"","","","","","",K,PreISI1,HR,104,"",0,K,blue,10,"","",0.52,260,"","",1,32.22
584090,117,117,block_Trng,3,task_Trng,2,0,"","",9,7,"","","","",Block7,"","","","","","",K,PreISI1,NR,260,"",0,J,red,10,"","",0.52,260,"","",1,32.5
584090,118,118,block_Trng,3,task_Trng,2,1,"","",10,7,"","","","",Block7,"","","","","","",K,PreISI1,LR,453,"",0,K,green,13,"","",0.52,262,"","",1,32.78
584090,119,119,block_Trng,3,task_Trng,2,1,"","",11,7,"","","","",Block7,"","","","","","",K,Stim14,HR,66,"",0,K,blue,8,"","",0.52,272,"","",1,33.06
584090,120,120,block_Trng,3,task_Trng,2,0,"","",12,7,"","","","",Block7,Slow!,"","","","","",J,PreISI2,NR,231,"",1,K,red,9,"","",0.52,272,"","",1,33.33
584090,121,121,block_Trng,3,task_Trng,2,1,"","",13,7,"","","","",Block7,"","","","","","",K,PreISI1,LR,157,"",0,K,green,11,"","",0.52,274,"","",1,33.61
584090,122,122,block_Trng,3,task_Trng,2,1,"","",14,7,"","","","",Block7,"","","","","","",J,Stim16,HR,103,"",0,J,blue,9,"","",0.52,284,"","",1,33.89
584090,123,123,block_Trng,3,task_Trng,2,1,"","",15,7,"","","","",Block7,"","","","","","",J,PreISI1,NR,245,"",0,J,red,12,"","",0.52,284,"","",1,34.17
584090,124,124,block_Trng,3,task_Trng,2,1,"","",16,7,"","","","",Block7,"","","","","","",K,Stim15,LR,16,"",0,K,green,9,"","",0.52,286,"","",1,34.44
584090,125,125,block_Trng,3,task_Trng,2,1,"","",17,7,"","","","",Block7,"","","","","","",K,PreISI1,HR,247,"",0,K,blue,12,"","",0.52,296,"","",1,34.72
584090,126,126,block_Trng,3,task_Trng,2,0,"","",18,7,"","","","",Block7,"","","","","","",J,PreISI1,NR,308,"",0,K,red,13,"","",0.52,296,"","",1,35
584090,127,127,block_Trng,3,task_Trng,2,1,"","",1,8,"","","","",Block8,Slow!,"","","","","",K,PreISI2,LR,123,"",1,K,green,13,"","",0.52,296,"","",1,35.28
584090,128,128,block_Trng,3,task_Trng,2,1,"","",2,8,"","","","",Block8,"","","","","","",K,PreISI1,NR,170,"",0,K,red,11,"","",0.52,296,"","",1,35.56
584090,129,129,block_Trng,3,task_Trng,2,0,"","",3,8,"","","","",Block8,"","","","","","",K,PreISI1,HR,84,"",0,J,blue,11,"","",0.52,296,"","",1,35.83
584090,130,130,block_Trng,3,task_Trng,2,1,"","",4,8,"","","","",Block8,"","","","","","",K,PreISI1,NR,435,"",0,K,red,13,"","",0.52,296,"","",1,36.11
584090,131,131,block_Trng,3,task_Trng,2,1,"","",5,8,"","","","",Block8,"","","","","","",K,Stim15,LR,107,"",0,K,green,9,"","",0.52,298,"","",1,36.39
584090,132,132,block_Trng,3,task_Trng,2,1,"","",6,8,"","","","",Block8,"","","","","","",J,PreISI1,NR,135,"",0,J,red,10,"","",0.52,298,"","",1,36.67
584090,133,133,block_Trng,3,task_Trng,2,0,"","",7,8,"","","","",Block8,"","","","","","",K,Stim16,LR,13,"",0,J,green,10,"","",0.52,298,"","",1,36.94
584090,134,134,block_Trng,3,task_Trng,2,0,"","",8,8,"","","","",Block8,"","","","","","",K,PreISI1,LR,390,"",0,J,green,12,"","",0.52,298,"","",1,37.22
584090,135,135,block_Trng,3,task_Trng,2,1,"","",9,8,"","","","",Block8,"","","","","","",K,Stim15,HR,15,"",0,K,blue,8,"","",0.52,308,"","",1,37.5
584090,136,136,block_Trng,3,task_Trng,2,1,"","",10,8,"","","","",Block8,"","","","","","",K,PreISI1,NR,524,"",0,K,red,9,"","",0.52,308,"","",1,37.78
584090,137,137,block_Trng,3,task_Trng,2,1,"","",11,8,"","","","",Block8,"","","","","","",J,Stim15,NR,74,"",0,J,red,8,"","",0.52,308,"","",1,38.06
584090,138,138,block_Trng,3,task_Trng,2,1,"","",12,8,"","","","",Block8,"","","","","","",K,Stim16,HR,15,"",0,K,blue,10,"","",0.52,318,"","",1,38.33
584090,139,139,block_Trng,3,task_Trng,2,0,"","",13,8,"","","","",Block8,"","","","","","",K,Stim13,HR,55,"",0,J,blue,9,"","",0.52,318,"","",1,38.61
584090,140,140,block_Trng,3,task_Trng,2,1,"","",14,8,"","","","",Block8,"","","","","","",K,PreISI1,LR,84,"",0,K,green,11,"","",0.52,320,"","",1,38.89
584090,141,141,block_Trng,3,task_Trng,2,1,"","",15,8,"","","","",Block8,"","","","","","",K,PreISI1,HR,382,"",0,K,blue,12,"","",0.52,330,"","",1,39.17
584090,142,142,block_Trng,3,task_Trng,2,1,"","",16,8,"","","","",Block8,"","","","","","",J,PreISI1,NR,170,"",0,J,red,12,"","",0.52,330,"","",1,39.44
584090,143,143,block_Trng,3,task_Trng,2,1,"","",17,8,"","","","",Block8,"","","","","","",J,PreISI2,HR,0,"",0,J,blue,13,"","",0.52,340,"","",1,39.72
584090,144,144,block_Trng,3,task_Trng,2,1,"","",18,8,"","","","",Block8,"","","","","","",J,PreISI1,LR,81,"",0,J,green,8,"","",1.16,342,"","",2,40
584090,145,145,block_Trng,3,task_Trng,2,0,"","",1,9,"","","","",Block9,"","","","","","",K,Stim15,NR,101,"",0,J,red,8,"","",1.16,342,"","",2,40.28
584090,146,146,block_Trng,3,task_Trng,2,1,"","",2,9,"","","","",Block9,"","","","","","",J,PreISI1,NR,164,"",0,J,red,12,"","",1.16,342,"","",2,40.56
584090,147,147,block_Trng,3,task_Trng,2,1,"","",3,9,"","","","",Block9,"","","","","","",K,Stim15,NR,85,"",0,K,red,11,"","",1.16,342,"","",2,40.83
584090,148,148,block_Trng,3,task_Trng,2,1,"","",4,9,"","","","",Block9,"","","","","","",K,Stim14,HR,51,"",0,K,blue,8,"","",1.16,352,"","",2,41.11
584090,149,149,block_Trng,3,task_Trng,2,0,"","",5,9,"","","","",Block9,"","","","","","",J,Stim15,LR,28,"",0,K,green,11,"","",1.16,352,"","",2,41.39
584090,150,150,block_Trng,3,task_Trng,2,0,"","",6,9,"","","","",Block9,"","","","","","",K,PreISI1,LR,423,"",0,J,green,8,"","",1.16,352,"","",2,41.67
584090,151,151,block_Trng,3,task_Trng,2,1,"","",7,9,"","","","",Block9,"","","","","","",J,Stim16,HR,48,"",0,J,blue,9,"","",1.16,362,"","",2,41.94
584090,152,152,block_Trng,3,task_Trng,2,1,"","",8,9,"","","","",Block9,"","","","","","",K,PreISI1,NR,473,"",0,K,red,13,"","",1.16,362,"","",2,42.22
584090,153,153,block_Trng,3,task_Trng,2,0,"","",9,9,"","","","",Block9,"","","","","","",J,PreISI1,LR,356,"",0,K,green,13,"","",1.16,362,"","",2,42.5
584090,154,154,block_Trng,3,task_Trng,2,1,"","",10,9,"","","","",Block9,"","","","","","",J,PreISI1,LR,390,"",0,J,green,10,"","",1.16,364,"","",2,42.78
584090,155,155,block_Trng,3,task_Trng,2,0,"","",11,9,"","","","",Block9,"","","","","","",K,Stim15,HR,27,"",0,J,blue,11,"","",1.16,364,"","",2,43.06
584090,156,156,block_Trng,3,task_Trng,2,0,"","",12,9,"","","","",Block9,"","","","","","",K,PreISI1,NR,152,"",0,J,red,10,"","",1.16,364,"","",2,43.33
584090,157,157,block_Trng,3,task_Trng,2,1,"","",13,9,"","","","",Block9,"","","","","","",J,PreISI1,LR,208,"",0,J,green,12,"","",1.16,366,"","",2,43.61
584090,158,158,block_Trng,3,task_Trng,2,1,"","",14,9,"","","","",Block9,"","","","","","",K,Stim15,NR,48,"",0,K,red,9,"","",1.16,366,"","",2,43.89
584090,159,159,block_Trng,3,task_Trng,2,1,"","",15,9,"","","","",Block9,"","","","","","",K,PreISI1,HR,342,"",0,K,blue,12,"","",1.16,376,"","",2,44.17
584090,160,160,block_Trng,3,task_Trng,2,0,"","",16,9,"","","","",Block9,Slow!,"","","","","","","",LR,0,"",1,K,green,9,"","",1.16,376,"","",2,44.44
584090,161,161,block_Trng,3,task_Trng,2,1,"","",17,9,"","","","",Block9,Slow!,"","","","","",K,PreISI2,HR,87,"",2,K,blue,10,"","",1.16,376,"","",2,44.72
584090,162,162,block_Trng,3,task_Trng,2,1,"","",18,9,"","","","",Block9,"","","","","","",J,PreISI1,HR,340,"",0,J,blue,13,"","",1.16,386,"","",2,45
584090,163,163,block_Trng,3,task_Trng,2,1,"","",1,10,"","","","",Block10,"","","","","","",K,PreISI1,NR,254,"",0,K,red,9,"","",1.16,386,"","",2,45.28
584090,164,164,block_Trng,3,task_Trng,2,0,"","",2,10,"","","","",Block10,"","","","","","",J,PreISI1,LR,249,"",0,K,green,13,"","",1.16,386,"","",2,45.56
584090,165,165,block_Trng,3,task_Trng,2,0,"","",3,10,"","","","",Block10,"","","","","","",J,PreISI1,NR,54,"",0,K,red,11,"","",1.16,386,"","",2,45.83
584090,166,166,block_Trng,3,task_Trng,2,1,"","",4,10,"","","","",Block10,"","","","","","",J,PreISI1,NR,366,"",0,J,red,12,"","",1.16,386,"","",2,46.11
584090,167,167,block_Trng,3,task_Trng,2,1,"","",5,10,"","","","",Block10,"","","","","","",J,PreISI1,HR,172,"",0,J,blue,11,"","",1.16,396,"","",2,46.39
584090,168,168,block_Trng,3,task_Trng,2,0,"","",6,10,"","","","",Block10,"","","","","","",K,PreISI1,LR,220,"",0,J,green,12,"","",1.16,396,"","",2,46.67
584090,169,169,block_Trng,3,task_Trng,2,0,"","",7,10,"","","","",Block10,"","","","","","",J,Stim16,HR,77,"",0,K,blue,10,"","",1.16,396,"","",2,46.94
584090,170,170,block_Trng,3,task_Trng,2,1,"","",8,10,"","","","",Block10,"","","","","","",J,Stim15,NR,63,"",0,J,red,10,"","",1.16,396,"","",2,47.22
584090,171,171,block_Trng,3,task_Trng,2,1,"","",9,10,"","","","",Block10,"","","","","","",K,PreISI1,HR,287,"",0,K,blue,12,"","",1.16,406,"","",2,47.5
584090,172,172,block_Trng,3,task_Trng,2,1,"","",10,10,"","","","",Block10,"","","","","","",K,PreISI1,HR,62,"",0,K,blue,8,"","",1.16,416,"","",2,47.78
584090,173,173,block_Trng,3,task_Trng,2,1,"","",11,10,"","","","",Block10,"","","","","","",K,PreISI1,NR,298,"",0,K,red,13,"","",1.16,416,"","",2,48.06
584090,174,174,block_Trng,3,task_Trng,2,1,"","",12,10,"","","","",Block10,"","","","","","",J,PreISI1,LR,78,"",0,J,green,10,"","",1.16,418,"","",2,48.33
584090,175,175,block_Trng,3,task_Trng,2,0,"","",13,10,"","","","",Block10,Slow!,"","","","","","","",HR,0,"",1,J,blue,9,"","",1.16,418,"","",2,48.61
584090,176,176,block_Trng,3,task_Trng,2,1,"","",14,10,"","","","",Block10,Slow!,"","","","","",J,PreISI2,HR,37,"",2,J,blue,13,"","",1.16,418,"","",2,48.89
584090,177,177,block_Trng,3,task_Trng,2,1,"","",15,10,"","","","",Block10,"","","","","","",K,Stim15,LR,63,"",0,K,green,9,"","",1.16,420,"","",2,49.17
584090,178,178,block_Trng,3,task_Trng,2,1,"","",16,10,"","","","",Block10,"","","","","","",J,Stim14,LR,93,"",0,J,green,8,"","",1.16,422,"","",2,49.44
584090,179,179,block_Trng,3,task_Trng,2,1,"","",17,10,"","","","",Block10,"","","","","","",K,PreISI1,LR,146,"",0,K,green,11,"","",1.16,424,"","",2,49.72
584090,180,180,block_Trng,3,task_Trng,2,1,"","",18,10,"","","","",Block10,"","","","","","",J,Stim14,NR,36,"",0,J,red,8,"","",1.16,424,"","",2,50
584090,181,181,block_Trng,3,task_Trng,2,0,"","",1,11,"","","","",Block11,"","","","","","",K,PreISI1,HR,278,"",0,J,blue,13,"","",1.16,424,"","",2,50.28
584090,182,182,block_Trng,3,task_Trng,2,1,"","",2,11,"","","","",Block11,Slow!,"","","","","",J,PreISI2,HR,524,"",1,J,blue,11,"","",1.16,424,"","",2,50.56
584090,183,183,block_Trng,3,task_Trng,2,0,"","",3,11,"","","","",Block11,"","","","","","",K,Stim8,NR,58,"",0,J,red,8,"","",1.16,424,"","",2,50.83
584090,184,184,block_Trng,3,task_Trng,2,1,"","",4,11,"","","","",Block11,"","","","","","",J,PreISI1,HR,506,"",0,J,blue,9,"","",1.16,434,"","",2,51.11
584090,185,185,block_Trng,3,task_Trng,2,0,"","",5,11,"","","","",Block11,"","","","","","",J,Stim14,NR,4,"",0,K,red,13,"","",1.16,434,"","",2,51.39
584090,186,186,block_Trng,3,task_Trng,2,1,"","",6,11,"","","","",Block11,"","","","","","",J,Stim16,LR,58,"",0,J,green,10,"","",1.16,436,"","",2,51.67
584090,187,187,block_Trng,3,task_Trng,2,1,"","",7,11,"","","","",Block11,"","","","","","",K,Stim15,NR,52,"",0,K,red,9,"","",1.16,436,"","",2,51.94
584090,188,188,block_Trng,3,task_Trng,2,1,"","",8,11,"","","","",Block11,"","","","","","",K,PreISI1,LR,30,"",0,K,green,13,"","",1.16,438,"","",2,52.22
584090,189,189,block_Trng,3,task_Trng,2,1,"","",9,11,"","","","",Block11,"","","","","","",K,PreISI1,HR,183,"",0,K,blue,12,"","",1.16,448,"","",2,52.5
584090,190,190,block_Trng,3,task_Trng,2,1,"","",10,11,"","","","",Block11,"","","","","","",K,PreISI1,LR,136,"",0,K,green,9,"","",1.16,450,"","",2,52.78
584090,191,191,block_Trng,3,task_Trng,2,0,"","",11,11,"","","","",Block11,"","","","","","",J,Stim14,HR,63,"",0,K,blue,8,"","",1.16,450,"","",2,53.06
584090,192,192,block_Trng,3,task_Trng,2,1,"","",12,11,"","","","",Block11,"","","","","","",K,PreISI1,NR,43,"",0,K,red,11,"","",1.16,450,"","",2,53.33
584090,193,193,block_Trng,3,task_Trng,2,1,"","",13,11,"","","","",Block11,Slow!,"","","","","",K,PreISI2,LR,284,"",1,K,green,11,"","",1.16,450,"","",2,53.61
584090,194,194,block_Trng,3,task_Trng,2,0,"","",14,11,"","","","",Block11,"","","","","","",J,Stim16,HR,27,"",0,K,blue,10,"","",1.16,450,"","",2,53.89
584090,195,195,block_Trng,3,task_Trng,2,1,"","",15,11,"","","","",Block11,Slow!,"","","","","",J,PreISI2,NR,26,"",1,J,red,12,"","",1.16,450,"","",2,54.17
584090,196,196,block_Trng,3,task_Trng,2,1,"","",16,11,"","","","",Block11,"","","","","","",J,PreISI1,NR,136,"",0,J,red,10,"","",1.16,450,"","",2,54.44
584090,197,197,block_Trng,3,task_Trng,2,1,"","",17,11,"","","","",Block11,"","","","","","",J,PreISI1,LR,163,"",0,J,green,8,"","",1.16,452,"","",2,54.72
584090,198,198,block_Trng,3,task_Trng,2,1,"","",18,11,"","","","",Block11,"","","","","","",J,PreISI1,LR,373,"",0,J,green,12,"","",1.16,454,"","",2,55
584090,199,199,block_Trng,3,task_Trng,2,1,"","",1,12,"","","","",Block12,"","","","","","",K,Stim14,HR,79,"",0,K,blue,8,"","",1.16,464,"","",2,55.28
584090,200,200,block_Trng,3,task_Trng,2,0,"","",2,12,"","","","",Block12,"","","","","","",J,PreISI1,HR,200,"",0,K,blue,12,"","",1.16,464,"","",2,55.56
584090,201,201,block_Trng,3,task_Trng,2,1,"","",3,12,"","","","",Block12,"","","","","","",J,PreISI1,HR,310,"",0,J,blue,13,"","",1.16,474,"","",2,55.83
584090,202,202,block_Trng,3,task_Trng,2,1,"","",4,12,"","","","",Block12,"","","","","","",K,PreISI1,HR,4,"",0,K,blue,10,"","",1.16,484,"","",2,56.11
584090,203,203,block_Trng,3,task_Trng,2,0,"","",5,12,"","","","",Block12,Slow!,"","","","","",J,PreISI2,NR,362,"",1,K,red,11,"","",1.16,484,"","",2,56.39
584090,204,204,block_Trng,3,task_Trng,2,0,"","",6,12,"","","","",Block12,Slow!,"","","","","","","",NR,0,"",2,J,red,8,"","",1.16,484,"","",2,56.67
584090,205,205,block_Trng,3,task_Trng,2,1,"","",7,12,"","","","",Block12,"","","","","","",K,Stim15,LR,99,"",0,K,green,9,"","",1.16,486,"","",2,56.94
584090,206,206,block_Trng,3,task_Trng,2,1,"","",8,12,"","","","",Block12,"","","","","","",K,PreISI1,NR,255,"",0,K,red,13,"","",1.16,486,"","",2,57.22
584090,207,207,block_Trng,3,task_Trng,2,1,"","",9,12,"","","","",Block12,"","","","","","",J,PreISI1,NR,17,"",0,J,red,10,"","",1.16,486,"","",2,57.5
584090,208,208,block_Trng,3,task_Trng,2,1,"","",10,12,"","","","",Block12,"","","","","","",K,PreISI1,LR,386,"",0,K,green,11,"","",1.16,488,"","",2,57.78
584090,209,209,block_Trng,3,task_Trng,2,1,"","",11,12,"","","","",Block12,"","","","","","",J,Stim15,HR,48,"",0,J,blue,9,"","",1.16,498,"","",2,58.06
584090,210,210,block_Trng,3,task_Trng,2,1,"","",12,12,"","","","",Block12,"","","","","","",K,PreISI1,LR,341,"",0,K,green,13,"","",1.16,500,"","",2,58.33
584090,211,211,block_Trng,3,task_Trng,2,1,"","",13,12,"","","","",Block12,"","","","","","",J,Stim15,LR,6,"",0,J,green,8,"","",1.16,502,"","",2,58.61
584090,212,212,block_Trng,3,task_Trng,2,0,"","",14,12,"","","","",Block12,"","","","","","",K,PreISI1,HR,15,"",0,J,blue,11,"","",1.16,502,"","",2,58.89
584090,213,213,block_Trng,3,task_Trng,2,1,"","",15,12,"","","","",Block12,"","","","","","",J,PreISI1,NR,303,"",0,J,red,12,"","",1.16,502,"","",2,59.17
584090,214,214,block_Trng,3,task_Trng,2,1,"","",16,12,"","","","",Block12,"","","","","","",K,Stim16,NR,53,"",0,K,red,9,"","",1.16,502,"","",2,59.44
584090,215,215,block_Trng,3,task_Trng,2,1,"","",17,12,"","","","",Block12,"","","","","","",J,PreISI1,LR,66,"",0,J,green,10,"","",1.16,504,"","",2,59.72
584090,216,216,block_Trng,3,task_Trng,2,1,"","",18,12,"","","","",Block12,"","","","","","",J,PreISI1,LR,263,"",0,J,green,12,"","",1.72,506,"","",3,60
584090,217,217,block_Trng,3,task_Trng,2,1,"","",1,13,"","","","",Block13,"","","","","","",K,Stim14,HR,48,"",0,K,blue,8,"","",1.72,516,"","",3,60.28
584090,218,218,block_Trng,3,task_Trng,2,1,"","",2,13,"","","","",Block13,"","","","","","",K,PreISI1,LR,455,"",0,K,green,13,"","",1.72,518,"","",3,60.56
584090,219,219,block_Trng,3,task_Trng,2,1,"","",3,13,"","","","",Block13,"","","","","","",J,Stim15,NR,34,"",0,J,red,8,"","",1.72,518,"","",3,60.83
584090,220,220,block_Trng,3,task_Trng,2,1,"","",4,13,"","","","",Block13,"","","","","","",J,Stim16,HR,77,"",0,J,blue,9,"","",1.72,528,"","",3,61.11
584090,221,221,block_Trng,3,task_Trng,2,1,"","",5,13,"","","","",Block13,"","","","","","",J,PreISI1,NR,320,"",0,J,red,12,"","",1.72,528,"","",3,61.39
584090,222,222,block_Trng,3,task_Trng,2,1,"","",6,13,"","","","",Block13,"","","","","","",J,PreISI1,NR,47,"",0,J,red,10,"","",1.72,528,"","",3,61.67
584090,223,223,block_Trng,3,task_Trng,2,0,"","",7,13,"","","","",Block13,"","","","","","",K,PreISI1,HR,249,"",0,J,blue,13,"","",1.72,528,"","",3,61.94
584090,224,224,block_Trng,3,task_Trng,2,1,"","",8,13,"","","","",Block13,"","","","","","",K,Stim15,LR,92,"",0,K,green,9,"","",1.72,530,"","",3,62.22
584090,225,225,block_Trng,3,task_Trng,2,1,"","",9,13,"","","","",Block13,"","","","","","",K,PreISI1,NR,431,"",0,K,red,13,"","",1.72,530,"","",3,62.5
584090,226,226,block_Trng,3,task_Trng,2,1,"","",10,13,"","","","",Block13,"","","","","","",K,PreISI1,LR,163,"",0,K,green,11,"","",1.72,532,"","",3,62.78
584090,227,227,block_Trng,3,task_Trng,2,1,"","",11,13,"","","","",Block13,"","","","","","",K,Stim16,NR,4,"",0,K,red,9,"","",1.72,532,"","",3,63.06
584090,228,228,block_Trng,3,task_Trng,2,1,"","",12,13,"","","","",Block13,"","","","","","",K,PreISI1,NR,99,"",0,K,red,11,"","",1.72,532,"","",3,63.33
584090,229,229,block_Trng,3,task_Trng,2,1,"","",13,13,"","","","",Block13,"","","","","","",J,PreISI1,HR,100,"",0,J,blue,11,"","",1.72,542,"","",3,63.61
584090,230,230,block_Trng,3,task_Trng,2,1,"","",14,13,"","","","",Block13,Slow!,"","","","","",J,PreISI2,LR,350,"",1,J,green,8,"","",1.72,542,"","",3,63.89
584090,231,231,block_Trng,3,task_Trng,2,1,"","",15,13,"","","","",Block13,"","","","","","",K,Stim16,HR,91,"",0,K,blue,12,"","",1.72,552,"","",3,64.17
584090,232,232,block_Trng,3,task_Trng,2,1,"","",16,13,"","","","",Block13,"","","","","","",J,PreISI1,LR,315,"",0,J,green,10,"","",1.72,554,"","",3,64.44
584090,233,233,block_Trng,3,task_Trng,2,1,"","",17,13,"","","","",Block13,"","","","","","",K,Stim16,HR,81,"",0,K,blue,10,"","",1.72,564,"","",3,64.72
584090,234,234,block_Trng,3,task_Trng,2,1,"","",18,13,"","","","",Block13,"","","","","","",J,PreISI1,LR,221,"",0,J,green,12,"","",1.72,566,"","",3,65
584090,235,235,block_Trng,3,task_Trng,2,1,"","",1,14,"","","","",Block14,"","","","","","",K,PreISI1,NR,338,"",0,K,red,13,"","",1.72,566,"","",3,65.28
584090,236,236,block_Trng,3,task_Trng,2,0,"","",2,14,"","","","",Block14,Slow!,"","","","","",J,PreISI2,NR,344,"",1,K,red,11,"","",1.72,566,"","",3,65.56
584090,237,237,block_Trng,3,task_Trng,2,0,"","",3,14,"","","","",Block14,"","","","","","",J,Stim16,LR,39,"",0,K,green,13,"","",1.72,566,"","",3,65.83
584090,238,238,block_Trng,3,task_Trng,2,1,"","",4,14,"","","","",Block14,"","","","","","",J,PreISI1,HR,334,"",0,J,blue,11,"","",1.72,576,"","",3,66.11
584090,239,239,block_Trng,3,task_Trng,2,0,"","",5,14,"","","","",Block14,"","","","","","",J,Stim16,HR,33,"",0,K,blue,12,"","",1.72,576,"","",3,66.39
584090,240,240,block_Trng,3,task_Trng,2,0,"","",6,14,"","","","",Block14,"","","","","","",K,PreISI1,NR,400,"",0,J,red,12,"","",1.72,576,"","",3,66.67
584090,241,241,block_Trng,3,task_Trng,2,1,"","",7,14,"","","","",Block14,"","","","","","",K,PreISI1,HR,86,"",0,K,blue,10,"","",1.72,586,"","",3,66.94
584090,242,242,block_Trng,3,task_Trng,2,0,"","",8,14,"","","","",Block14,"","","","","","",J,Stim16,LR,62,"",0,K,green,11,"","",1.72,586,"","",3,67.22
584090,243,243,block_Trng,3,task_Trng,2,1,"","",9,14,"","","","",Block14,"","","","","","",J,Stim15,HR,0,"",0,J,blue,13,"","",1.72,596,"","",3,67.5
584090,244,244,block_Trng,3,task_Trng,2,1,"","",10,14,"","","","",Block14,"","","","","","",J,Stim15,NR,106,"",0,J,red,10,"","",1.72,596,"","",3,67.78
584090,245,245,block_Trng,3,task_Trng,2,1,"","",11,14,"","","","",Block14,"","","","","","",J,Stim15,LR,85,"",0,J,green,10,"","",1.72,598,"","",3,68.06
584090,246,246,block_Trng,3,task_Trng,2,1,"","",12,14,"","","","",Block14,"","","","","","",J,Stim15,NR,82,"",0,J,red,8,"","",1.72,598,"","",3,68.33
584090,247,247,block_Trng,3,task_Trng,2,1,"","",13,14,"","","","",Block14,"","","","","","",K,Stim15,LR,13,"",0,K,green,9,"","",1.72,600,"","",3,68.61
584090,248,248,block_Trng,3,task_Trng,2,1,"","",14,14,"","","","",Block14,Slow!,"","","","","",J,ISI,LR,340,"",1,J,green,12,"","",1.72,600,"","",3,68.89
584090,249,249,block_Trng,3,task_Trng,2,1,"","",15,14,"","","","",Block14,"","","","","","",K,Stim14,HR,83,"",0,K,blue,8,"","",1.72,610,"","",3,69.17
584090,250,250,block_Trng,3,task_Trng,2,1,"","",16,14,"","","","",Block14,"","","","","","",J,PreISI1,HR,154,"",0,J,blue,9,"","",1.72,620,"","",3,69.44
584090,251,251,block_Trng,3,task_Trng,2,1,"","",17,14,"","","","",Block14,"","","","","","",K,Stim16,NR,14,"",0,K,red,9,"","",1.72,620,"","",3,69.72
584090,252,252,block_Trng,3,task_Trng,2,1,"","",18,14,"","","","",Block14,"","","","","","",J,Stim15,LR,113,"",0,J,green,8,"","",1.72,622,"","",3,70
584090,253,253,block_Trng,3,task_Trng,2,1,"","",1,15,"","","","",Block15,"","","","","","",J,Stim15,HR,17,"",0,J,blue,9,"","",1.72,632,"","",3,70.28
584090,254,254,block_Trng,3,task_Trng,2,1,"","",2,15,"","","","",Block15,"","","","","","",K,Stim16,NR,1,"",0,K,red,9,"","",1.72,632,"","",3,70.56
584090,255,255,block_Trng,3,task_Trng,2,1,"","",3,15,"","","","",Block15,"","","","","","",K,PreISI1,NR,304,"",0,K,red,13,"","",1.72,632,"","",3,70.83
584090,256,256,block_Trng,3,task_Trng,2,1,"","",4,15,"","","","",Block15,Slow!,"","","","","",K,ISI,HR,967,"",1,K,blue,8,"","",1.72,632,"","",3,71.11
584090,257,257,block_Trng,3,task_Trng,2,1,"","",5,15,"","","","",Block15,Slow!,"","","","","",J,PreISI2,HR,7,"",2,J,blue,13,"","",1.72,632,"","",3,71.39
584090,258,258,block_Trng,3,task_Trng,2,1,"","",6,15,"","","","",Block15,"","","","","","",K,PreISI1,NR,113,"",0,K,red,11,"","",1.72,632,"","",3,71.67
584090,259,259,block_Trng,3,task_Trng,2,1,"","",7,15,"","","","",Block15,"","","","","","",J,Stim16,NR,36,"",0,J,red,10,"","",1.72,632,"","",3,71.94
584090,260,260,block_Trng,3,task_Trng,2,0,"","",8,15,"","","","",Block15,"","","","","","",K,Stim15,LR,101,"",0,J,green,10,"","",1.72,632,"","",3,72.22
584090,261,261,block_Trng,3,task_Trng,2,1,"","",9,15,"","","","",Block15,"","","","","","",J,Stim15,NR,42,"",0,J,red,8,"","",1.72,632,"","",3,72.5
584090,262,262,block_Trng,3,task_Trng,2,1,"","",10,15,"","","","",Block15,"","","","","","",K,PreISI1,LR,409,"",0,K,green,13,"","",1.72,634,"","",3,72.78
584090,263,263,block_Trng,3,task_Trng,2,1,"","",11,15,"","","","",Block15,Slow!,"","","","","",J,PreISI2,NR,24,"",1,J,red,12,"","",1.72,634,"","",3,73.06
584090,264,264,block_Trng,3,task_Trng,2,0,"","",12,15,"","","","",Block15,"","","","","","",J,Stim14,LR,65,"",0,K,green,9,"","",1.72,634,"","",3,73.33
584090,265,265,block_Trng,3,task_Trng,2,1,"","",13,15,"","","","",Block15,"","","","","","",K,PreISI1,LR,10,"",0,K,green,11,"","",1.72,636,"","",3,73.61
584090,266,266,block_Trng,3,task_Trng,2,1,"","",14,15,"","","","",Block15,"","","","","","",K,PreISI1,HR,240,"",0,K,blue,12,"","",1.72,646,"","",3,73.89
584090,267,267,block_Trng,3,task_Trng,2,1,"","",15,15,"","","","",Block15,"","","","","","",J,PreISI1,LR,73,"",0,J,green,12,"","",1.72,648,"","",3,74.17
584090,268,268,block_Trng,3,task_Trng,2,1,"","",16,15,"","","","",Block15,"","","","","","",J,Stim15,LR,17,"",0,J,green,8,"","",1.72,650,"","",3,74.44
584090,269,269,block_Trng,3,task_Trng,2,1,"","",17,15,"","","","",Block15,"","","","","","",J,PreISI1,HR,300,"",0,J,blue,11,"","",1.72,660,"","",3,74.72
584090,270,270,block_Trng,3,task_Trng,2,1,"","",18,15,"","","","",Block15,"","","","","","",K,PreISI1,HR,89,"",0,K,blue,10,"","",1.72,670,"","",3,75
584090,271,271,block_Trng,3,task_Trng,2,1,"","",1,16,"","","","",Block16',"","","","","","",J,PreISI1,HR,62,"",0,J,blue,9,"","",1.72,680,"","",3,75.28
584090,272,272,block_Trng,3,task_Trng,2,1,"","",2,16,"","","","",Block16',"","","","","","",J,PreISI1,LR,42,"",0,J,green,10,"","",1.72,682,"","",3,75.56
584090,273,273,block_Trng,3,task_Trng,2,1,"","",3,16,"","","","",Block16',"","","","","","",K,PreISI1,LR,352,"",0,K,green,13,"","",1.72,684,"","",3,75.83
584090,274,274,block_Trng,3,task_Trng,2,1,"","",4,16,"","","","",Block16',"","","","","","",J,Stim15,LR,104,"",0,J,green,8,"","",1.72,686,"","",3,76.11
584090,275,275,block_Trng,3,task_Trng,2,1,"","",5,16,"","","","",Block16',"","","","","","",K,PreISI1,LR,172,"",0,K,green,11,"","",1.72,688,"","",3,76.39
584090,276,276,block_Trng,3,task_Trng,2,1,"","",6,16,"","","","",Block16',"","","","","","",K,Stim16,LR,27,"",0,K,green,9,"","",1.72,690,"","",3,76.67
584090,277,277,block_Trng,3,task_Trng,2,1,"","",7,16,"","","","",Block16',"","","","","","",J,PreISI1,HR,400,"",0,J,blue,13,"","",1.72,700,"","",3,76.94
584090,278,278,block_Trng,3,task_Trng,2,1,"","",8,16,"","","","",Block16',"","","","","","",K,PreISI1,HR,274,"",0,K,blue,12,"","",1.72,710,"","",3,77.22
584090,279,279,block_Trng,3,task_Trng,2,1,"","",9,16,"","","","",Block16',"","","","","","",K,Stim14,HR,71,"",0,K,blue,8,"","",1.72,720,"","",3,77.5
584090,280,280,block_Trng,3,task_Trng,2,1,"","",10,16,"","","","",Block16',"","","","","","",K,PreISI1,NR,400,"",0,K,red,13,"","",1.72,720,"","",3,77.78
584090,281,281,block_Trng,3,task_Trng,2,1,"","",11,16,"","","","",Block16',"","","","","","",J,PreISI1,HR,159,"",0,J,blue,11,"","",1.72,730,"","",3,78.06
584090,282,282,block_Trng,3,task_Trng,2,1,"","",12,16,"","","","",Block16',"","","","","","",K,PreISI1,HR,215,"",0,K,blue,10,"","",1.72,740,"","",3,78.33
584090,283,283,block_Trng,3,task_Trng,2,1,"","",13,16,"","","","",Block16',"","","","","","",J,Stim14,NR,82,"",0,J,red,10,"","",1.72,740,"","",3,78.61
584090,284,284,block_Trng,3,task_Trng,2,0,"","",14,16,"","","","",Block16',"","","","","","",K,Stim15,NR,94,"",0,J,red,8,"","",1.72,740,"","",3,78.89
584090,285,285,block_Trng,3,task_Trng,2,1,"","",15,16,"","","","",Block16',"","","","","","",J,PreISI1,LR,19,"",0,J,green,12,"","",1.72,742,"","",3,79.17
584090,286,286,block_Trng,3,task_Trng,2,1,"","",16,16,"","","","",Block16',"","","","","","",K,PreISI1,NR,57,"",0,K,red,11,"","",1.72,742,"","",3,79.44
584090,287,287,block_Trng,3,task_Trng,2,1,"","",17,16,"","","","",Block16',"","","","","","",J,PreISI1,NR,315,"",0,J,red,12,"","",1.72,742,"","",3,79.72
584090,288,288,block_Trng,3,task_Trng,2,1,"","",18,16,"","","","",Block16',"","","","","","",K,Stim15,NR,93,"",0,K,red,9,"","",2.52,742,"","",4,80
584090,289,289,block_Trng,3,task_Trng,2,0,"","",1,17,"","","","",Block17,"","","","","","",K,PreISI1,NR,137,"",0,J,red,12,"","",2.52,742,"","",4,80.28
584090,290,290,block_Trng,3,task_Trng,2,1,"","",2,17,"","","","",Block17,"","","","","","",J,Stim16,HR,112,"",0,J,blue,9,"","",2.52,752,"","",4,80.56
584090,291,291,block_Trng,3,task_Trng,2,1,"","",3,17,"","","","",Block17,"","","","","","",K,PreISI1,NR,279,"",0,K,red,13,"","",2.52,752,"","",4,80.83
584090,292,292,block_Trng,3,task_Trng,2,1,"","",4,17,"","","","",Block17,"","","","","","",J,Stim16,NR,49,"",0,J,red,10,"","",2.52,752,"","",4,81.11
584090,293,293,block_Trng,3,task_Trng,2,1,"","",5,17,"","","","",Block17,"","","","","","",K,PreISI1,HR,207,"",0,K,blue,12,"","",2.52,762,"","",4,81.39
584090,294,294,block_Trng,3,task_Trng,2,0,"","",6,17,"","","","",Block17,"","","","","","",J,PreISI1,LR,69,"",0,K,green,11,"","",2.52,762,"","",4,81.67
584090,295,295,block_Trng,3,task_Trng,2,0,"","",7,17,"","","","",Block17,"","","","","","",K,Stim16,HR,113,"",0,J,blue,11,"","",2.52,762,"","",4,81.94
584090,296,296,block_Trng,3,task_Trng,2,1,"","",8,17,"","","","",Block17,"","","","","","",K,Stim15,HR,105,"",0,K,blue,8,"","",2.52,772,"","",4,82.22
584090,297,297,block_Trng,3,task_Trng,2,1,"","",9,17,"","","","",Block17,"","","","","","",K,Stim16,NR,67,"",0,K,red,9,"","",2.52,772,"","",4,82.5
584090,298,298,block_Trng,3,task_Trng,2,1,"","",10,17,"","","","",Block17,"","","","","","",K,PreISI1,NR,142,"",0,K,red,11,"","",2.52,772,"","",4,82.78
584090,299,299,block_Trng,3,task_Trng,2,0,"","",11,17,"","","","",Block17,"","","","","","",J,Stim16,HR,4,"",0,K,blue,10,"","",2.52,772,"","",4,83.06
584090,300,300,block_Trng,3,task_Trng,2,1,"","",12,17,"","","","",Block17,"","","","","","",J,PreISI1,HR,297,"",0,J,blue,13,"","",2.52,782,"","",4,83.33
584090,301,301,block_Trng,3,task_Trng,2,1,"","",13,17,"","","","",Block17,"","","","","","",J,PreISI1,LR,119,"",0,J,green,10,"","",2.52,784,"","",4,83.61
584090,302,302,block_Trng,3,task_Trng,2,1,"","",14,17,"","","","",Block17,"","","","","","",K,PreISI1,LR,54,"",0,K,green,9,"","",2.52,786,"","",4,83.89
584090,303,303,block_Trng,3,task_Trng,2,1,"","",15,17,"","","","",Block17,"","","","","","",J,Stim16,LR,82,"",0,J,green,8,"","",2.52,788,"","",4,84.17
584090,304,304,block_Trng,3,task_Trng,2,1,"","",16,17,"","","","",Block17,"","","","","","",J,Stim16,NR,38,"",0,J,red,8,"","",2.52,788,"","",4,84.44
584090,305,305,block_Trng,3,task_Trng,2,1,"","",17,17,"","","","",Block17,"","","","","","",K,PreISI1,LR,458,"",0,K,green,13,"","",2.52,790,"","",4,84.72
584090,306,306,block_Trng,3,task_Trng,2,1,"","",18,17,"","","","",Block17,"","","","","","",J,PreISI1,LR,147,"",0,J,green,12,"","",2.52,792,"","",4,85
584090,307,307,block_Trng,3,task_Trng,2,1,"","",1,18,"","","","",Block18,"","","","","","",J,PreISI1,HR,162,"",0,J,blue,11,"","",2.52,802,"","",4,85.28
584090,308,308,block_Trng,3,task_Trng,2,1,"","",2,18,"","","","",Block18,"","","","","","",K,Stim16,HR,19,"",0,K,blue,8,"","",2.52,812,"","",4,85.56
584090,309,309,block_Trng,3,task_Trng,2,0,"","",3,18,"","","","",Block18,"","","","","","",J,Stim14,HR,34,"",0,K,blue,10,"","",2.52,812,"","",4,85.83
584090,310,310,block_Trng,3,task_Trng,2,1,"","",4,18,"","","","",Block18,"","","","","","",J,Stim15,HR,22,"",0,J,blue,9,"","",2.52,822,"","",4,86.11
584090,311,311,block_Trng,3,task_Trng,2,1,"","",5,18,"","","","",Block18,"","","","","","",J,PreISI1,HR,223,"",0,J,blue,13,"","",2.52,832,"","",4,86.39
584090,312,312,block_Trng,3,task_Trng,2,1,"","",6,18,"","","","",Block18,"","","","","","",K,PreISI1,NR,75,"",0,K,red,11,"","",2.52,832,"","",4,86.67
584090,313,313,block_Trng,3,task_Trng,2,1,"","",7,18,"","","","",Block18,"","","","","","",K,Stim15,LR,113,"",0,K,green,9,"","",2.52,834,"","",4,86.94
584090,314,314,block_Trng,3,task_Trng,2,1,"","",8,18,"","","","",Block18,"","","","","","",K,Stim15,NR,87,"",0,K,red,9,"","",2.52,834,"","",4,87.22
584090,315,315,block_Trng,3,task_Trng,2,1,"","",9,18,"","","","",Block18,"","","","","","",K,PreISI1,LR,307,"",0,K,green,13,"","",2.52,836,"","",4,87.5
584090,316,316,block_Trng,3,task_Trng,2,1,"","",10,18,"","","","",Block18,"","","","","","",J,PreISI1,LR,113,"",0,J,green,10,"","",2.52,838,"","",4,87.78
584090,317,317,block_Trng,3,task_Trng,2,1,"","",11,18,"","","","",Block18,"","","","","","",K,PreISI1,NR,424,"",0,K,red,13,"","",2.52,838,"","",4,88.06
584090,318,318,block_Trng,3,task_Trng,2,1,"","",12,18,"","","","",Block18,"","","","","","",J,PreISI1,NR,89,"",0,J,red,10,"","",2.52,838,"","",4,88.33
584090,319,319,block_Trng,3,task_Trng,2,1,"","",13,18,"","","","",Block18,"","","","","","",K,PreISI1,LR,331,"",0,K,green,11,"","",2.52,840,"","",4,88.61
584090,320,320,block_Trng,3,task_Trng,2,1,"","",14,18,"","","","",Block18,"","","","","","",J,PreISI1,LR,326,"",0,J,green,12,"","",2.52,842,"","",4,88.89
584090,321,321,block_Trng,3,task_Trng,2,1,"","",15,18,"","","","",Block18,"","","","","","",J,PreISI1,NR,420,"",0,J,red,12,"","",2.52,842,"","",4,89.17
584090,322,322,block_Trng,3,task_Trng,2,1,"","",16,18,"","","","",Block18,"","","","","","",J,Stim16,LR,114,"",0,J,green,8,"","",2.52,844,"","",4,89.44
584090,323,323,block_Trng,3,task_Trng,2,1,"","",17,18,"","","","",Block18,"","","","","","",J,PreISI1,NR,54,"",0,J,red,8,"","",2.52,844,"","",4,89.72
584090,324,324,block_Trng,3,task_Trng,2,1,"","",18,18,"","","","",Block18,"","","","","","",K,Stim15,HR,3,"",0,K,blue,12,"","",2.52,854,"","",4,90
584090,325,325,block_Trng,3,task_Trng,2,1,"","",1,19,"","","","",Block19,"","","","","","",K,PreISI1,NR,234,"",0,K,red,11,"","",2.52,854,"","",4,90.28
584090,326,326,block_Trng,3,task_Trng,2,1,"","",2,19,"","","","",Block19,Slow!,"","","","","",J,PreISI2,HR,46,"",1,J,blue,13,"","",2.52,854,"","",4,90.56
584090,327,327,block_Trng,3,task_Trng,2,1,"","",3,19,"","","","",Block19,"","","","","","",J,PreISI1,HR,110,"",0,J,blue,11,"","",2.52,864,"","",4,90.83
584090,328,328,block_Trng,3,task_Trng,2,1,"","",4,19,"","","","",Block19,"","","","","","",J,Stim16,HR,21,"",0,J,blue,9,"","",2.52,874,"","",4,91.11
584090,329,329,block_Trng,3,task_Trng,2,1,"","",5,19,"","","","",Block19,"","","","","","",J,PreISI1,LR,245,"",0,J,green,10,"","",2.52,876,"","",4,91.39
584090,330,330,block_Trng,3,task_Trng,2,1,"","",6,19,"","","","",Block19,"","","","","","",K,PreISI1,HR,14,"",0,K,blue,8,"","",2.52,886,"","",4,91.67
584090,331,331,block_Trng,3,task_Trng,2,1,"","",7,19,"","","","",Block19,"","","","","","",J,Stim16,NR,22,"",0,J,red,8,"","",2.52,886,"","",4,91.94
584090,332,332,block_Trng,3,task_Trng,2,1,"","",8,19,"","","","",Block19,"","","","","","",K,PreISI1,HR,249,"",0,K,blue,12,"","",2.52,896,"","",4,92.22
584090,333,333,block_Trng,3,task_Trng,2,1,"","",9,19,"","","","",Block19,"","","","","","",J,PreISI1,LR,339,"",0,J,green,12,"","",2.52,898,"","",4,92.5
584090,334,334,block_Trng,3,task_Trng,2,1,"","",10,19,"","","","",Block19,"","","","","","",K,Stim16,HR,106,"",0,K,blue,10,"","",2.52,908,"","",4,92.78
584090,335,335,block_Trng,3,task_Trng,2,1,"","",11,19,"","","","",Block19,Slow!,"","","","","",K,PreISI2,NR,6,"",1,K,red,9,"","",2.52,908,"","",4,93.06
584090,336,336,block_Trng,3,task_Trng,2,1,"","",12,19,"","","","",Block19,"","","","","","",J,PreISI1,NR,250,"",0,J,red,12,"","",2.52,908,"","",4,93.33
584090,337,337,block_Trng,3,task_Trng,2,1,"","",13,19,"","","","",Block19,Slow!,"","","","","",K,PreISI2,NR,1159,"",1,K,red,13,"","",2.52,908,"","",4,93.61
584090,338,338,block_Trng,3,task_Trng,2,0,"","",14,19,"","","","",Block19,"","","","","","",J,PreISI1,LR,57,"",0,K,green,11,"","",2.52,908,"","",4,93.89
584090,339,339,block_Trng,3,task_Trng,2,1,"","",15,19,"","","","",Block19,"","","","","","",K,Stim16,LR,23,"",0,K,green,9,"","",2.52,910,"","",4,94.17
584090,340,340,block_Trng,3,task_Trng,2,1,"","",16,19,"","","","",Block19,"","","","","","",J,Stim15,LR,40,"",0,J,green,8,"","",2.52,912,"","",4,94.44
584090,341,341,block_Trng,3,task_Trng,2,1,"","",17,19,"","","","",Block19,"","","","","","",J,PreISI1,NR,7,"",0,J,red,10,"","",2.52,912,"","",4,94.72
584090,342,342,block_Trng,3,task_Trng,2,1,"","",18,19,"","","","",Block19,Slow!,"","","","","",K,PreISI2,LR,891,"",1,K,green,13,"","",2.52,912,"","",4,95
584090,343,343,block_Trng,3,task_Trng,2,1,"","",1,20,"","","","",Block20,Slow!,"","","","","",J,PreISI2,HR,124,"",2,J,blue,9,"","",2.52,912,"","",4,95.28
584090,344,344,block_Trng,3,task_Trng,2,0,"","",2,20,"","","","",Block20,"","","","","","",J,Stim15,NR,81,"",0,K,red,13,"","",2.52,912,"","",4,95.56
584090,345,345,block_Trng,3,task_Trng,2,0,"","",3,20,"","","","",Block20,"","","","","","",K,Stim16,NR,11,"",0,J,red,10,"","",2.52,912,"","",4,95.83
584090,346,346,block_Trng,3,task_Trng,2,1,"","",4,20,"","","","",Block20,"","","","","","",K,PreISI1,HR,208,"",0,K,blue,12,"","",2.52,922,"","",4,96.11
584090,347,347,block_Trng,3,task_Trng,2,1,"","",5,20,"","","","",Block20,"","","","","","",K,Stim14,NR,59,"",0,K,red,11,"","",2.52,922,"","",4,96.39
584090,348,348,block_Trng,3,task_Trng,2,1,"","",6,20,"","","","",Block20,"","","","","","",K,PreISI1,LR,69,"",0,K,green,9,"","",2.52,924,"","",4,96.67
584090,349,349,block_Trng,3,task_Trng,2,1,"","",7,20,"","","","",Block20,"","","","","","",J,PreISI1,LR,181,"",0,J,green,12,"","",2.52,926,"","",4,96.94
584090,350,350,block_Trng,3,task_Trng,2,1,"","",8,20,"","","","",Block20,"","","","","","",K,Stim16,HR,98,"",0,K,blue,10,"","",2.52,936,"","",4,97.22
584090,351,351,block_Trng,3,task_Trng,2,1,"","",9,20,"","","","",Block20,"","","","","","",J,Stim14,NR,80,"",0,J,red,8,"","",2.52,936,"","",4,97.5
584090,352,352,block_Trng,3,task_Trng,2,1,"","",10,20,"","","","",Block20,"","","","","","",J,PreISI1,LR,13,"",0,J,green,10,"","",2.52,938,"","",4,97.78
584090,353,353,block_Trng,3,task_Trng,2,1,"","",11,20,"","","","",Block20,"","","","","","",K,Stim15,NR,101,"",0,K,red,9,"","",2.52,938,"","",4,98.06
584090,354,354,block_Trng,3,task_Trng,2,1,"","",12,20,"","","","",Block20,Slow!,"","","","","",J,PreISI2,NR,98,"",1,J,red,12,"","",2.52,938,"","",4,98.33
584090,355,355,block_Trng,3,task_Trng,2,1,"","",13,20,"","","","",Block20,"","","","","","",K,PreISI1,LR,107,"",0,K,green,11,"","",2.52,940,"","",4,98.61
584090,356,356,block_Trng,3,task_Trng,2,1,"","",14,20,"","","","",Block20,Slow!,"","","","","",K,PreISI2,LR,333,"",1,K,green,13,"","",2.52,940,"","",4,98.89
584090,357,357,block_Trng,3,task_Trng,2,0,"","",15,20,"","","","",Block20,Slow!,"","","","","",K,PreISI2,HR,513,"",2,J,blue,13,"","",2.52,940,"","",4,99.17
584090,358,358,block_Trng,3,task_Trng,2,1,"","",16,20,"","","","",Block20,"","","","","","",K,PreISI1,HR,220,"",0,K,blue,8,"","",2.52,950,"","",4,99.44
584090,359,359,block_Trng,3,task_Trng,2,0,"","",17,20,"","","","",Block20,"","","","","","",K,PreISI1,LR,384,"",0,J,green,8,"","",2.52,950,"","",4,99.72
584090,360,360,block_Trng,3,task_Trng,2,0,"","",18,20,"","","","",Block20,"","","","","","",K,Stim16,HR,44,"",0,J,blue,11,"","",2.52,950,"","",4,100
584090,1,1,block_Testing,4,task_Testing_Instructions,1,"","","","",1,"","","","","","","","","","","","","","","","","","","","","","","","","","","",""
584090,1,1,block_Testing,4,task_Testing,2,0,"","",1,1,"","",Block1,"","",Slow!,"","","","","","","",HR,0,"",1,K,blue,12,0,0.56,"",950,"","","",""
584090,2,2,block_Testing,4,task_Testing,2,0,"","",2,1,"","",Block1,"","","","","","","","",K,Stim11,HR,54,"",0,J,blue,11,0,1.11,"",950,"","","",""
584090,3,3,block_Testing,4,task_Testing,2,1,"","",3,1,"","",Block1,"","","","","","","","",K,Stim11,LR,46,"",0,K,green,11,0,1.67,"",950,"","","",""
584090,4,4,block_Testing,4,task_Testing,2,1,"","",4,1,"","",Block1,"","","","","","","","",K,Stim8,HR,44,"",0,K,blue,8,0,2.22,"",950,"","","",""
584090,5,5,block_Testing,4,task_Testing,2,1,"","",5,1,"","",Block1,"","","","","","","","",J,Stim11,NR,57,"",0,J,red,10,0,2.78,"",950,"","","",""
584090,6,6,block_Testing,4,task_Testing,2,1,"","",6,1,"","",Block1,"","","","","","","","",J,Stim12,NR,41,"",0,J,red,12,0,3.33,"",950,"","","",""
584090,7,7,block_Testing,4,task_Testing,2,1,"","",7,1,"","",Block1,"","","","","","","","",J,Stim8,NR,40,"",0,J,red,8,0,3.89,"",950,"","","",""
584090,8,8,block_Testing,4,task_Testing,2,0,"","",8,1,"","",Block1,"","","","","","","","",K,Stim9,LR,46,"",0,J,green,8,0,4.44,"",950,"","","",""
584090,9,9,block_Testing,4,task_Testing,2,0,"","",9,1,"","",Block1,"","","","","","","","",K,Stim11,LR,37,"",0,J,green,10,0,5,"",950,"","","",""
584090,10,10,block_Testing,4,task_Testing,2,0,"","",10,1,"","",Block1,"","","","","","","","",J,Stim10,LR,56,"",0,K,green,9,0,5.56,"",950,"","","",""
584090,11,11,block_Testing,4,task_Testing,2,1,"","",11,1,"","",Block1,"","","","","","","","",J,PreISI1,HR,242,"",0,J,blue,13,0,6.11,"",950,"","","",""
584090,12,12,block_Testing,4,task_Testing,2,0,"","",12,1,"","",Block1,"","","","","","","","",J,Stim12,NR,76,"",0,K,red,11,0,6.67,"",950,"","","",""
584090,13,13,block_Testing,4,task_Testing,2,1,"","",13,1,"","",Block1,"","","","","","","","",J,Stim9,HR,53,"",0,J,blue,9,0,7.22,"",950,"","","",""
584090,14,14,block_Testing,4,task_Testing,2,0,"","",14,1,"","",Block1,"","","","","","","","",J,Stim10,NR,88,"",0,K,red,9,0,7.78,"",950,"","","",""
584090,15,15,block_Testing,4,task_Testing,2,0,"","",15,1,"","",Block1,"","","","","","","","",J,Stim13,LR,51,"",0,K,green,13,0,8.33,"",950,"","","",""
584090,16,16,block_Testing,4,task_Testing,2,1,"","",16,1,"","",Block1,"","","","","","","","",J,PreISI1,LR,50,"",0,J,green,12,0,8.89,"",950,"","","",""
584090,17,17,block_Testing,4,task_Testing,2,0,"","",17,1,"","",Block1,"","","","","","","","",J,Stim10,HR,22,"",0,K,blue,10,0,9.44,"",950,"","","",""
584090,18,18,block_Testing,4,task_Testing,2,0,"","",18,1,"","",Block1,"","",Slow!,"","","","","","","",NR,0,"",1,K,red,13,0,10,"",950,"","","",""
584090,19,19,block_Testing,4,task_Testing,2,0,"","",1,2,"","",Block2,"","","","","","","","",J,Stim12,HR,95,"",0,K,blue,12,0,10.56,"",950,"","","",""
584090,20,20,block_Testing,4,task_Testing,2,1,"","",2,2,"","",Block2,"","","","","","","","",J,Stim8,NR,105,"",0,J,red,8,0,11.11,"",950,"","","",""
584090,21,21,block_Testing,4,task_Testing,2,1,"","",3,2,"","",Block2,"","","","","","","","",J,Stim12,LR,84,"",0,J,green,10,0,11.67,"",950,"","","",""
584090,22,22,block_Testing,4,task_Testing,2,1,"","",4,2,"","",Block2,"","","","","","","","",K,Stim13,LR,92,"",0,K,green,13,0,12.22,"",950,"","","",""
584090,23,23,block_Testing,4,task_Testing,2,0,"","",5,2,"","",Block2,"","","","","","","","",K,Stim9,HR,41,"",0,J,blue,9,0,12.78,"",950,"","","",""
584090,24,24,block_Testing,4,task_Testing,2,0,"","",6,2,"","",Block2,"","","","","","","","",J,Stim9,LR,109,"",0,K,green,9,0,13.33,"",950,"","","",""
584090,25,25,block_Testing,4,task_Testing,2,1,"","",7,2,"","",Block2,"","","","","","","","",K,Stim9,NR,52,"",0,K,red,9,0,13.89,"",950,"","","",""
584090,26,26,block_Testing,4,task_Testing,2,0,"","",8,2,"","",Block2,"","","","","","","","",K,Stim13,HR,12,"",0,J,blue,13,0,14.44,"",950,"","","",""
584090,27,27,block_Testing,4,task_Testing,2,1,"","",9,2,"","",Block2,"","","","","","","","",J,Stim10,NR,5,"",0,J,red,10,0,15,"",950,"","","",""
584090,28,28,block_Testing,4,task_Testing,2,1,"","",10,2,"","",Block2,"","","","","","","","",J,Stim9,LR,7,"",0,J,green,8,0,15.56,"",950,"","","",""
584090,29,29,block_Testing,4,task_Testing,2,1,"","",11,2,"","",Block2,"","","","","","","","",K,Stim13,NR,26,"",0,K,red,13,0,16.11,"",950,"","","",""
584090,30,30,block_Testing,4,task_Testing,2,0,"","",12,2,"","",Block2,"","","","","","","","",J,Stim11,LR,56,"",0,K,green,11,0,16.67,"",950,"","","",""
584090,31,31,block_Testing,4,task_Testing,2,1,"","",13,2,"","",Block2,"","","","","","","","",J,Stim11,HR,5,"",0,J,blue,11,0,17.22,"",950,"","","",""
584090,32,32,block_Testing,4,task_Testing,2,0,"","",14,2,"","",Block2,"","","","","","","","",K,Stim12,NR,23,"",0,J,red,12,0,17.78,"",950,"","","",""
584090,33,33,block_Testing,4,task_Testing,2,1,"","",15,2,"","",Block2,"","",Slow!,"","","","","",J,PreISI2,LR,1433,"",1,J,green,12,0,18.33,"",950,"","","",""
584090,34,34,block_Testing,4,task_Testing,2,0,"","",16,2,"","",Block2,"","","","","","","","",J,Stim8,HR,61,"",0,K,blue,8,0,18.89,"",950,"","","",""
584090,35,35,block_Testing,4,task_Testing,2,0,"","",17,2,"","",Block2,"","","","","","","","",J,Stim12,NR,9,"",0,K,red,11,0,19.44,"",950,"","","",""
584090,36,36,block_Testing,4,task_Testing,2,0,"","",18,2,"","",Block2,"","","","","","","","",J,Stim10,HR,2,"",0,K,blue,10,0,20,"",950,"","","",""
584090,37,37,block_Testing,4,task_Testing,2,1,"","",1,3,"","",Block3,"","","","","","","","",K,Stim9,NR,62,"",0,K,red,9,0,20.56,"",950,"","","",""
584090,38,38,block_Testing,4,task_Testing,2,1,"","",2,3,"","",Block3,"","","","","","","","",K,Stim11,HR,101,"",0,K,blue,8,0,21.11,"",950,"","","",""
584090,39,39,block_Testing,4,task_Testing,2,1,"","",3,3,"","",Block3,"","","","","","","","",K,Stim9,LR,8,"",0,K,green,9,0,21.67,"",950,"","","",""
584090,40,40,block_Testing,4,task_Testing,2,0,"","",4,3,"","",Block3,"","","","","","","","",K,Stim10,NR,82,"",0,J,red,10,0,22.22,"",950,"","","",""
584090,41,41,block_Testing,4,task_Testing,2,0,"","",5,3,"","",Block3,"","","","","","","","",J,Stim11,LR,66,"",0,K,green,11,0,22.78,"",950,"","","",""
584090,42,42,block_Testing,4,task_Testing,2,0,"","",6,3,"","",Block3,"","","","","","","","",K,Stim14,LR,27,"",0,J,green,12,0,23.33,"",950,"","","",""
584090,43,43,block_Testing,4,task_Testing,2,0,"","",7,3,"","",Block3,"","","","","","","","",J,Stim13,HR,109,"",0,K,blue,12,0,23.89,"",950,"","","",""
584090,44,44,block_Testing,4,task_Testing,2,1,"","",8,3,"","",Block3,"","","","","","","","",J,Stim8,LR,68,"",0,J,green,8,0,24.44,"",950,"","","",""
584090,45,45,block_Testing,4,task_Testing,2,0,"","",9,3,"","",Block3,"","","","","","","","",J,Stim14,LR,52,"",0,K,green,13,0,25,"",950,"","","",""
584090,46,46,block_Testing,4,task_Testing,2,0,"","",10,3,"","",Block3,"","","","","","","","",J,Stim15,NR,19,"",0,K,red,11,0,25.56,"",950,"","","",""
584090,47,47,block_Testing,4,task_Testing,2,1,"","",11,3,"","",Block3,"","","","","","","","",J,Stim11,NR,29,"",0,J,red,8,0,26.11,"",950,"","","",""
584090,48,48,block_Testing,4,task_Testing,2,0,"","",12,3,"","",Block3,"","","","","","","","",K,Stim10,LR,10,"",0,J,green,10,0,26.67,"",950,"","","",""
584090,49,49,block_Testing,4,task_Testing,2,0,"","",13,3,"","",Block3,"","","","","","","","",K,PreISI1,HR,23,"",0,J,blue,13,0,27.22,"",950,"","","",""
584090,50,50,block_Testing,4,task_Testing,2,1,"","",14,3,"","",Block3,"","","","","","","","",J,Stim9,HR,87,"",0,J,blue,9,0,27.78,"",950,"","","",""
584090,51,51,block_Testing,4,task_Testing,2,0,"","",15,3,"","",Block3,"","","","","","","","",J,Stim14,NR,53,"",0,K,red,13,0,28.33,"",950,"","","",""
584090,52,52,block_Testing,4,task_Testing,2,0,"","",16,3,"","",Block3,"","","","","","","","",J,Stim10,HR,91,"",0,K,blue,10,0,28.89,"",950,"","","",""
584090,53,53,block_Testing,4,task_Testing,2,1,"","",17,3,"","",Block3,"","","","","","","","",J,Stim11,HR,88,"",0,J,blue,11,0,29.44,"",950,"","","",""
584090,54,54,block_Testing,4,task_Testing,2,1,"","",18,3,"","",Block3,"","","","","","","","",J,Stim14,NR,28,"",0,J,red,12,1,30,"",950,"","","",""
584090,55,55,block_Testing,4,task_Testing,2,0,"","",1,4,"","",Block4,"","",Slow!,"","","","","",J,PreISI2,HR,606,"",1,K,blue,12,1,30.56,"",950,"","","",""
584090,56,56,block_Testing,4,task_Testing,2,1,"","",2,4,"","",Block4,"","","","","","","","",K,Stim9,NR,50,"",0,K,red,9,1,31.11,"",950,"","","",""
584090,57,57,block_Testing,4,task_Testing,2,0,"","",3,4,"","",Block4,"","","","","","","","",K,Stim11,NR,48,"",0,J,red,10,1,31.67,"",950,"","","",""
584090,58,58,block_Testing,4,task_Testing,2,0,"","",4,4,"","",Block4,"","","","","","","","",J,Stim9,LR,31,"",0,K,green,9,1,32.22,"",950,"","","",""
584090,59,59,block_Testing,4,task_Testing,2,0,"","",5,4,"","",Block4,"","","","","","","","",J,Stim11,LR,16,"",0,K,green,11,1,32.78,"",950,"","","",""
584090,60,60,block_Testing,4,task_Testing,2,0,"","",6,4,"","",Block4,"","","","","","","","",K,Stim13,HR,76,"",0,J,blue,13,1,33.33,"",950,"","","",""
584090,61,61,block_Testing,4,task_Testing,2,1,"","",7,4,"","",Block4,"","","","","","","","",K,Stim15,HR,89,"",0,K,blue,10,1,33.89,"",950,"","","",""
584090,62,62,block_Testing,4,task_Testing,2,0,"","",8,4,"","",Block4,"","",Slow!,"","","","","","","",HR,0,"",1,J,blue,11,1,34.44,"",950,"","","",""
584090,63,63,block_Testing,4,task_Testing,2,1,"","",9,4,"","",Block4,"","","","","","","","",J,Stim8,NR,5,"",0,J,red,8,1,35,"",950,"","","",""
584090,64,64,block_Testing,4,task_Testing,2,1,"","",10,4,"","",Block4,"","","","","","","","",J,Stim9,HR,111,"",0,J,blue,9,1,35.56,"",950,"","","",""
584090,65,65,block_Testing,4,task_Testing,2,0,"","",11,4,"","",Block4,"","",Slow!,"","","","","","","",LR,0,"",1,J,green,8,1,36.11,"",950,"","","",""
584090,66,66,block_Testing,4,task_Testing,2,1,"","",12,4,"","",Block4,"","","","","","","","",K,Stim13,LR,21,"",0,K,green,13,1,36.67,"",950,"","","",""
584090,67,67,block_Testing,4,task_Testing,2,0,"","",13,4,"","",Block4,"","","","","","","","",J,Stim8,HR,2,"",0,K,blue,8,1,37.22,"",950,"","","",""
584090,68,68,block_Testing,4,task_Testing,2,0,"","",14,4,"","",Block4,"","","","","","","","",K,Stim12,NR,33,"",0,J,red,12,1,37.78,"",950,"","","",""
584090,69,69,block_Testing,4,task_Testing,2,1,"","",15,4,"","",Block4,"","","","","","","","",J,Stim13,LR,49,"",0,J,green,10,1,38.33,"",950,"","","",""
584090,70,70,block_Testing,4,task_Testing,2,0,"","",16,4,"","",Block4,"","","","","","","","",K,PreISI1,LR,229,"",0,J,green,12,1,38.89,"",950,"","","",""
584090,71,71,block_Testing,4,task_Testing,2,1,"","",17,4,"","",Block4,"","",Slow!,"","","","","",K,PreISI2,NR,311,"",1,K,red,11,1,39.44,"",950,"","","",""
584090,72,72,block_Testing,4,task_Testing,2,0,"","",18,4,"","",Block4,"","","","","","","","",J,Stim13,NR,43,"",0,K,red,13,1,40,"",950,"","","",""
584090,73,73,block_Testing,4,task_Testing,2,0,"","",1,5,"","",Block5,"","","","","","","","",K,Stim10,HR,24,"",0,J,blue,9,1,40.56,"",950,"","","",""
584090,74,74,block_Testing,4,task_Testing,2,0,"","",2,5,"","",Block5,"","",Slow!,"","","","","","","",LR,0,"",1,K,green,13,1,41.11,"",950,"","","",""
584090,75,75,block_Testing,4,task_Testing,2,1,"","",3,5,"","",Block5,"","","","","","","","",J,Stim12,NR,40,"",0,J,red,12,1,41.67,"",950,"","","",""
584090,76,76,block_Testing,4,task_Testing,2,1,"","",4,5,"","",Block5,"","","","","","","","",K,Stim8,HR,72,"",0,K,blue,8,1,42.22,"",950,"","","",""
584090,77,77,block_Testing,4,task_Testing,2,0,"","",5,5,"","",Block5,"","","","","","","","",J,Stim11,LR,9,"",0,K,green,11,1,42.78,"",950,"","","",""
584090,78,78,block_Testing,4,task_Testing,2,1,"","",6,5,"","",Block5,"","","","","","","","",K,Stim12,HR,94,"",0,K,blue,12,1,43.33,"",950,"","","",""
584090,79,79,block_Testing,4,task_Testing,2,1,"","",7,5,"","",Block5,"","","","","","","","",J,Stim12,LR,105,"",0,J,green,12,1,43.89,"",950,"","","",""
584090,80,80,block_Testing,4,task_Testing,2,0,"","",8,5,"","",Block5,"","","","","","","","",J,Stim16,NR,92,"",0,K,red,11,1,44.44,"",950,"","","",""
584090,81,81,block_Testing,4,task_Testing,2,0,"","",9,5,"","",Block5,"","","","","","","","",J,Stim10,LR,70,"",0,K,green,9,1,45,"",950,"","","",""
584090,82,82,block_Testing,4,task_Testing,2,1,"","",10,5,"","",Block5,"","","","","","","","",J,Stim11,NR,86,"",0,J,red,10,1,45.56,"",950,"","","",""
584090,83,83,block_Testing,4,task_Testing,2,1,"","",11,5,"","",Block5,"","","","","","","","",J,Stim11,LR,36,"",0,J,green,10,1,46.11,"",950,"","","",""
584090,84,84,block_Testing,4,task_Testing,2,0,"","",12,5,"","",Block5,"","","","","","","","",K,Stim14,HR,81,"",0,J,blue,13,1,46.67,"",950,"","","",""
584090,85,85,block_Testing,4,task_Testing,2,1,"","",13,5,"","",Block5,"","","","","","","","",K,Stim11,NR,110,"",0,K,red,9,1,47.22,"",950,"","","",""
584090,86,86,block_Testing,4,task_Testing,2,1,"","",14,5,"","",Block5,"","","","","","","","",J,Stim10,LR,35,"",0,J,green,8,1,47.78,"",950,"","","",""
584090,87,87,block_Testing,4,task_Testing,2,1,"","",15,5,"","",Block5,"","","","","","","","",J,Stim9,NR,5,"",0,J,red,8,1,48.33,"",950,"","","",""
584090,88,88,block_Testing,4,task_Testing,2,0,"","",16,5,"","",Block5,"","","","","","","","",K,Stim12,HR,82,"",0,J,blue,11,1,48.89,"",950,"","","",""
584090,89,89,block_Testing,4,task_Testing,2,1,"","",17,5,"","",Block5,"","","","","","","","",K,Stim14,NR,8,"",0,K,red,13,1,49.44,"",950,"","","",""
584090,90,90,block_Testing,4,task_Testing,2,1,"","",18,5,"","",Block5,"","","","","","","","",K,Stim10,HR,26,"",0,K,blue,10,1,50,"",950,"","","",""
584090,91,91,block_Testing,4,task_Testing,2,0,"","",1,6,"","",Block6,"","","","","","","","",J,Stim10,HR,79,"",0,K,blue,10,1,50.56,"",950,"","","",""
584090,92,92,block_Testing,4,task_Testing,2,1,"","",2,6,"","",Block6,"","","","","","","","",J,Stim13,NR,54,"",0,J,red,12,1,51.11,"",950,"","","",""
584090,93,93,block_Testing,4,task_Testing,2,0,"","",3,6,"","",Block6,"","","","","","","","",J,PreISI1,LR,419,"",0,K,green,11,1,51.67,"",950,"","","",""
584090,94,94,block_Testing,4,task_Testing,2,1,"","",4,6,"","",Block6,"","","","","","","","",J,Stim14,HR,83,"",0,J,blue,13,1,52.22,"",950,"","","",""
584090,95,95,block_Testing,4,task_Testing,2,0,"","",5,6,"","",Block6,"","",Slow!,"","","","","","","",LR,0,"",1,J,green,12,1,52.78,"",950,"","","",""
584090,96,96,block_Testing,4,task_Testing,2,1,"","",6,6,"","",Block6,"","","","","","","","",J,Stim16,NR,104,"",0,J,red,10,1,53.33,"",950,"","","",""
584090,97,97,block_Testing,4,task_Testing,2,0,"","",7,6,"","",Block6,"","","","","","","","",J,Stim11,LR,22,"",0,K,green,9,1,53.89,"",950,"","","",""
584090,98,98,block_Testing,4,task_Testing,2,1,"","",8,6,"","",Block6,"","","","","","","","",K,PreISI1,HR,230,"",0,K,blue,8,1,54.44,"",950,"","","",""
584090,99,99,block_Testing,4,task_Testing,2,0,"","",9,6,"","",Block6,"","","","","","","","",K,Stim11,HR,41,"",0,J,blue,11,1,55,"",950,"","","",""
584090,100,100,block_Testing,4,task_Testing,2,1,"","",10,6,"","",Block6,"","","","","","","","",K,Stim16,LR,2,"",0,K,green,13,1,55.56,"",950,"","","",""
584090,101,101,block_Testing,4,task_Testing,2,1,"","",11,6,"","",Block6,"","","","","","","","",K,PreISI1,NR,451,"",0,K,red,13,1,56.11,"",950,"","","",""
584090,102,102,block_Testing,4,task_Testing,2,0,"","",12,6,"","",Block6,"","",Slow!,"","","","","","","",NR,0,"",1,K,red,11,1,56.67,"",950,"","","",""
584090,103,103,block_Testing,4,task_Testing,2,0,"","",13,6,"","",Block6,"","","","","","","","",J,Stim11,NR,93,"",0,K,red,9,1,57.22,"",950,"","","",""
584090,104,104,block_Testing,4,task_Testing,2,0,"","",14,6,"","",Block6,"","","","","","","","",K,Stim10,LR,64,"",0,J,green,10,1,57.78,"",950,"","","",""
584090,105,105,block_Testing,4,task_Testing,2,1,"","",15,6,"","",Block6,"","","","","","","","",J,Stim10,HR,29,"",0,J,blue,9,1,58.33,"",950,"","","",""
584090,106,106,block_Testing,4,task_Testing,2,0,"","",16,6,"","",Block6,"","","","","","","","",K,Stim8,LR,49,"",0,J,green,8,1,58.89,"",950,"","","",""
584090,107,107,block_Testing,4,task_Testing,2,1,"","",17,6,"","",Block6,"","","","","","","","",J,Stim16,NR,4,"",0,J,red,8,1,59.44,"",950,"","","",""
584090,108,108,block_Testing,4,task_Testing,2,0,"","",18,6,"","",Block6,"","","","","","","","",J,PreISI1,HR,375,"",0,K,blue,12,2,60,"",950,"","","",""
584090,109,109,block_Testing,4,task_Testing,2,1,"","",1,7,"","",Block7,"","","","","","","","",J,Stim13,HR,57,"",0,J,blue,11,2,60.56,"",950,"","","",""
584090,110,110,block_Testing,4,task_Testing,2,0,"","",2,7,"","",Block7,"","","","","","","","",J,Stim11,NR,70,"",0,K,red,11,2,61.11,"",950,"","","",""
584090,111,111,block_Testing,4,task_Testing,2,0,"","",3,7,"","",Block7,"","","","","","","","",K,Stim13,HR,98,"",0,J,blue,13,2,61.67,"",950,"","","",""
584090,112,112,block_Testing,4,task_Testing,2,1,"","",4,7,"","",Block7,"","","","","","","","",K,Stim15,HR,38,"",0,K,blue,12,2,62.22,"",950,"","","",""
584090,113,113,block_Testing,4,task_Testing,2,0,"","",5,7,"","",Block7,"","","","","","","","",J,Stim14,NR,32,"",0,K,red,13,2,62.78,"",950,"","","",""
584090,114,114,block_Testing,4,task_Testing,2,1,"","",6,7,"","",Block7,"","","","","","","","",J,Stim12,NR,1,"",0,J,red,12,2,63.33,"",950,"","","",""
584090,115,115,block_Testing,4,task_Testing,2,1,"","",7,7,"","",Block7,"","","","","","","","",J,Stim12,LR,12,"",0,J,green,10,2,63.89,"",950,"","","",""
584090,116,116,block_Testing,4,task_Testing,2,0,"","",8,7,"","",Block7,"","","","","","","","",J,Stim8,HR,31,"",0,K,blue,8,2,64.44,"",950,"","","",""
584090,117,117,block_Testing,4,task_Testing,2,0,"","",9,7,"","",Block7,"","","","","","","","",J,Stim9,LR,113,"",0,K,green,9,2,65,"",950,"","","",""
584090,118,118,block_Testing,4,task_Testing,2,1,"","",10,7,"","",Block7,"","","","","","","","",K,Stim13,LR,71,"",0,K,green,11,2,65.56,"",950,"","","",""
584090,119,119,block_Testing,4,task_Testing,2,1,"","",11,7,"","",Block7,"","","","","","","","",K,Stim13,NR,45,"",0,K,red,9,2,66.11,"",950,"","","",""
584090,120,120,block_Testing,4,task_Testing,2,0,"","",12,7,"","",Block7,"","",Slow!,"","","","","","","",HR,0,"",1,K,blue,10,2,66.67,"",950,"","","",""
584090,121,121,block_Testing,4,task_Testing,2,0,"","",13,7,"","",Block7,"","","","","","","","",K,Stim11,HR,31,"",0,J,blue,9,2,67.22,"",950,"","","",""
584090,122,122,block_Testing,4,task_Testing,2,0,"","",14,7,"","",Block7,"","","","","","","","",K,Stim12,NR,102,"",0,J,red,10,2,67.78,"",950,"","","",""
584090,123,123,block_Testing,4,task_Testing,2,0,"","",15,7,"","",Block7,"","","","","","","","",K,Stim14,LR,98,"",0,J,green,12,2,68.33,"",950,"","","",""
584090,124,124,block_Testing,4,task_Testing,2,1,"","",16,7,"","",Block7,"","","","","","","","",J,Stim13,NR,110,"",0,J,red,8,2,68.89,"",950,"","","",""
584090,125,125,block_Testing,4,task_Testing,2,0,"","",17,7,"","",Block7,"","","","","","","","",J,Stim15,LR,50,"",0,K,green,13,2,69.44,"",950,"","","",""
584090,126,126,block_Testing,4,task_Testing,2,1,"","",18,7,"","",Block7,"","","","","","","","",J,Stim9,LR,95,"",0,J,green,8,2,70,"",950,"","","",""
584090,127,127,block_Testing,4,task_Testing,2,0,"","",1,8,"","",Block8,"","","","","","","","",J,Stim12,LR,7,"",0,K,green,9,2,70.56,"",950,"","","",""
584090,128,128,block_Testing,4,task_Testing,2,0,"","",2,8,"","",Block8,"","","","","","","","",J,Stim9,NR,1,"",0,K,red,9,2,71.11,"",950,"","","",""
584090,129,129,block_Testing,4,task_Testing,2,1,"","",3,8,"","",Block8,"","","","","","","","",K,Stim13,NR,78,"",0,K,red,13,2,71.67,"",950,"","","",""
584090,130,130,block_Testing,4,task_Testing,2,1,"","",4,8,"","",Block8,"","","","","","","","",J,Stim12,NR,101,"",0,J,red,12,2,72.22,"",950,"","","",""
584090,131,131,block_Testing,4,task_Testing,2,0,"","",5,8,"","",Block8,"","","","","","","","",K,Stim10,HR,28,"",0,J,blue,9,2,72.78,"",950,"","","",""
584090,132,132,block_Testing,4,task_Testing,2,0,"","",6,8,"","",Block8,"","","","","","","","",J,Stim11,HR,95,"",0,K,blue,10,2,73.33,"",950,"","","",""
584090,133,133,block_Testing,4,task_Testing,2,0,"","",7,8,"","",Block8,"","","","","","","","",K,PreISI1,LR,159,"",0,J,green,12,2,73.89,"",950,"","","",""
584090,134,134,block_Testing,4,task_Testing,2,0,"","",8,8,"","",Block8,"","","","","","","","",K,Stim13,HR,73,"",0,J,blue,13,2,74.44,"",950,"","","",""
584090,135,135,block_Testing,4,task_Testing,2,0,"","",9,8,"","",Block8,"","","","","","","","",K,Stim12,NR,81,"",0,J,red,10,2,75,"",950,"","","",""
584090,136,136,block_Testing,4,task_Testing,2,0,"","",10,8,"","",Block8,"","","","","","","","",K,Stim8,NR,60,"",0,J,red,8,2,75.56,"",950,"","","",""
584090,137,137,block_Testing,4,task_Testing,2,1,"","",11,8,"","",Block8,"","","","","","","","",K,Stim16,LR,48,"",0,K,green,11,2,76.11,"",950,"","","",""
584090,138,138,block_Testing,4,task_Testing,2,1,"","",12,8,"","",Block8,"","","","","","","","",K,PreISI1,LR,82,"",0,K,green,13,2,76.67,"",950,"","","",""
584090,139,139,block_Testing,4,task_Testing,2,0,"","",13,8,"","",Block8,"","","","","","","","",J,Stim11,NR,73,"",0,K,red,11,2,77.22,"",950,"","","",""
584090,140,140,block_Testing,4,task_Testing,2,1,"","",14,8,"","",Block8,"","","","","","","","",K,Stim12,HR,105,"",0,K,blue,12,2,77.78,"",950,"","","",""
584090,141,141,block_Testing,4,task_Testing,2,1,"","",15,8,"","",Block8,"","","","","","","","",K,Stim9,HR,61,"",0,K,blue,8,2,78.33,"",950,"","","",""
584090,142,142,block_Testing,4,task_Testing,2,0,"","",16,8,"","",Block8,"","","","","","","","",K,Stim8,LR,57,"",0,J,green,8,2,78.89,"",950,"","","",""
584090,143,143,block_Testing,4,task_Testing,2,0,"","",17,8,"","",Block8,"","","","","","","","",K,Stim11,HR,25,"",0,J,blue,11,2,79.44,"",950,"","","",""
584090,144,144,block_Testing,4,task_Testing,2,0,"","",18,8,"","",Block8,"","","","","","","","",K,Stim10,LR,50,"",0,J,green,10,2,80,"",950,"","","",""
584090,145,145,block_Testing,4,task_Testing,2,0,"","",1,9,"","",Block9,"","",Slow!,"","","","","",K,PreISI2,LR,1385,"",1,J,green,12,2,80.56,"",950,"","","",""
584090,146,146,block_Testing,4,task_Testing,2,1,"","",2,9,"","",Block9,"","","","","","","","",K,Stim13,HR,3,"",0,K,blue,8,2,81.11,"",950,"","","",""
584090,147,147,block_Testing,4,task_Testing,2,1,"","",3,9,"","",Block9,"","","","","","","","",K,Stim10,NR,46,"",0,K,red,9,2,81.67,"",950,"","","",""
584090,148,148,block_Testing,4,task_Testing,2,0,"","",4,9,"","",Block9,"","","","","","","","",K,Stim9,HR,113,"",0,J,blue,9,2,82.22,"",950,"","","",""
584090,149,149,block_Testing,4,task_Testing,2,1,"","",5,9,"","",Block9,"","",Slow!,"","","","","",K,PreISI2,NR,213,"",1,K,red,13,2,82.78,"",950,"","","",""
584090,150,150,block_Testing,4,task_Testing,2,0,"","",6,9,"","",Block9,"","",Slow!,"","","","","","","",HR,0,"",2,J,blue,13,2,83.33,"",950,"","","",""
584090,151,151,block_Testing,4,task_Testing,2,1,"","",7,9,"","",Block9,"","","","","","","","",J,Stim10,LR,75,"",0,J,green,10,2,83.89,"",950,"","","",""
584090,152,152,block_Testing,4,task_Testing,2,1,"","",8,9,"","",Block9,"","","","","","","","",J,Stim9,NR,79,"",0,J,red,8,2,84.44,"",950,"","","",""
584090,153,153,block_Testing,4,task_Testing,2,1,"","",9,9,"","",Block9,"","","","","","","","",K,Stim12,LR,6,"",0,K,green,11,2,85,"",950,"","","",""
584090,154,154,block_Testing,4,task_Testing,2,1,"","",10,9,"","",Block9,"","","","","","","","",J,Stim8,LR,8,"",0,J,green,8,2,85.56,"",950,"","","",""
584090,155,155,block_Testing,4,task_Testing,2,1,"","",11,9,"","",Block9,"","","","","","","","",J,Stim13,HR,59,"",0,J,blue,11,2,86.11,"",950,"","","",""
584090,156,156,block_Testing,4,task_Testing,2,1,"","",12,9,"","",Block9,"","","","","","","","",J,PreISI1,NR,228,"",0,J,red,12,2,86.67,"",950,"","","",""
584090,157,157,block_Testing,4,task_Testing,2,0,"","",13,9,"","",Block9,"","","","","","","","",J,PreISI1,HR,430,"",0,K,blue,10,2,87.22,"",950,"","","",""
584090,158,158,block_Testing,4,task_Testing,2,1,"","",14,9,"","",Block9,"","","","","","","","",K,Stim13,LR,24,"",0,K,green,13,2,87.78,"",950,"","","",""
584090,159,159,block_Testing,4,task_Testing,2,0,"","",15,9,"","",Block9,"","","","","","","","",J,Stim14,NR,106,"",0,K,red,11,2,88.33,"",950,"","","",""
584090,160,160,block_Testing,4,task_Testing,2,1,"","",16,9,"","",Block9,"","","","","","","","",K,Stim13,HR,42,"",0,K,blue,12,2,88.89,"",950,"","","",""
584090,161,161,block_Testing,4,task_Testing,2,0,"","",17,9,"","",Block9,"","","","","","","","",J,Stim14,LR,24,"",0,K,green,9,2,89.44,"",950,"","","",""
584090,162,162,block_Testing,4,task_Testing,2,1,"","",18,9,"","",Block9,"","","","","","","","",J,Stim10,NR,59,"",0,J,red,10,2,90,"",950,"","","",""
584090,163,163,block_Testing,4,task_Testing,2,0,"","",1,10,"","",Block10,"","","","","","","","",J,Stim10,HR,10,"",0,K,blue,10,2,90.56,"",950,"","","",""
584090,164,164,block_Testing,4,task_Testing,2,1,"","",2,10,"","",Block10,"","",Slow!,"","","","","",J,ISI,LR,352,"",1,J,green,10,2,91.11,"",950,"","","",""
584090,165,165,block_Testing,4,task_Testing,2,1,"","",3,10,"","",Block10,"","",Slow!,"","","","","",J,ISI,HR,208,"",2,J,blue,13,2,91.67,"",950,"","","",""
584090,166,166,block_Testing,4,task_Testing,2,0,"","",4,10,"","",Block10,"","",Slow!,"","","","","","","",HR,0,"",3,J,blue,9,2,92.22,"",950,"","","",""
584090,167,167,block_Testing,4,task_Testing,2,0,"","",5,10,"","",Block10,"","",Slow!,"","","","","","","",NR,0,"",4,J,red,12,2,92.78,"",950,"","","",""
584090,168,168,block_Testing,4,task_Testing,2,0,"","",6,10,"","",Block10,"","","","","","","","",J,Stim12,HR,55,"",0,K,blue,12,2,93.33,"",950,"","","",""
584090,169,169,block_Testing,4,task_Testing,2,0,"","",7,10,"","",Block10,"","","","","","","","",J,Stim9,HR,27,"",0,K,blue,8,2,93.89,"",950,"","","",""
584090,170,170,block_Testing,4,task_Testing,2,0,"","",8,10,"","",Block10,"","","","","","","","",K,Stim10,NR,70,"",0,J,red,10,2,94.44,"",950,"","","",""
584090,171,171,block_Testing,4,task_Testing,2,1,"","",9,10,"","",Block10,"","","","","","","","",J,Stim12,HR,12,"",0,J,blue,11,2,95,"",950,"","","",""
584090,172,172,block_Testing,4,task_Testing,2,1,"","",10,10,"","",Block10,"","","","","","","","",J,Stim8,LR,55,"",0,J,green,8,2,95.56,"",950,"","","",""
584090,173,173,block_Testing,4,task_Testing,2,1,"","",11,10,"","",Block10,"","","","","","","","",K,Stim11,NR,11,"",0,K,red,9,2,96.11,"",950,"","","",""
584090,174,174,block_Testing,4,task_Testing,2,1,"","",12,10,"","",Block10,"","","","","","","","",J,Stim12,LR,63,"",0,J,green,12,2,96.67,"",950,"","","",""
584090,175,175,block_Testing,4,task_Testing,2,0,"","",13,10,"","",Block10,"","","","","","","","",J,Stim13,LR,89,"",0,K,green,11,2,97.22,"",950,"","","",""
584090,176,176,block_Testing,4,task_Testing,2,0,"","",14,10,"","",Block10,"","","","","","","","",J,Stim12,NR,50,"",0,K,red,11,2,97.78,"",950,"","","",""
584090,177,177,block_Testing,4,task_Testing,2,0,"","",15,10,"","",Block10,"","","","","","","","",J,Stim13,NR,31,"",0,K,red,13,2,98.33,"",950,"","","",""
584090,178,178,block_Testing,4,task_Testing,2,0,"","",16,10,"","",Block10,"","","","","","","","",J,Stim11,LR,85,"",0,K,green,9,2,98.89,"",950,"","","",""
584090,179,179,block_Testing,4,task_Testing,2,1,"","",17,10,"","",Block10,"","","","","","","","",J,Stim9,NR,40,"",0,J,red,8,2,99.44,"",950,"","","",""
584090,180,180,block_Testing,4,task_Testing,2,0,"","",18,10,"","",Block10,"","","","","","","","",J,Stim13,LR,64,"",0,K,green,13,2,100,"",950,"","","",""
584090,1,1,block_Trng,3,task_Trng_End,3,"","","","",1,"","","","","","","","","","","","","","","","","","","","","","",3.23,950,"","","",""
584090,1,1,block_End,5,task_Demog_End,1,"","",30,"",1,"","","","","","","","","","","","","","","",Male,"","","","","","","","","","","",""
