Rec_Session_Id,Trial_Nr,Trial_Id,Block_Name,Block_Nr,Task_Name,Task_Nr,ACC,ACC_Total_Prac,Age,BlkTrial_Nr,Condition_Id,Consent,Contact,copy_of_factor1_tg1_task2,Email,factor1_tg1_task2,Fdbck_Slow,Feedback,MatricNo,Name,PAYNOW,Recontact,RESP,RESP_Frame,Reward,RT_FromFramePress,Sex,SlowResp,Targ,TargCol,TargPos,Testing_BreakCount,Testing_Progress,TotalMoney,TotalPoints,TotalPoints_prac,Trial_Nr_prac,Trng_BreakCount,Trng_Progress
588960,1,1,block_TrngInstructions,1,task_Trng_Instructions,1,"","","","",1,"","","","","","","","","","","","","","","","","","","","","","","","","","","",""
588960,1,1,block_Practice,2,task_GetReady,1,"","","","",1,"","","","","","","","","","","","","","","","","","","","","","","","","","","",""
588960,1,1,block_Practice,2,task_Trng_Prac,2,0,0,"","",1,"","","","","","","","","","","",J,Stim11,Disallowed,89,"",0,K,red,10,"","","",0,0,"","",""
588960,2,2,block_Practice,2,task_Trng_Prac,2,0,0,"","",1,"","","","","",Slow!,"","","","","",J,PreISI2,Disallowed,1084,"",1,K,green,11,"","","",0,0,"","",""
588960,3,3,block_Practice,2,task_Trng_Prac,2,1,1,"","",1,"","","","","","","","","","","",J,Stim14,Disallowed,112,"",1,J,blue,13,"","","",0,0,"","",""
588960,4,4,block_Practice,2,task_Trng_Prac,2,0,1,"","",1,"","","","","","","","","","","",K,Stim9,Disallowed,34,"",1,J,green,9,"","","",0,0,"","",""
588960,5,5,block_Practice,2,task_Trng_Prac,2,1,2,"","",1,"","","","","","","","","","","",J,Stim15,Disallowed,114,"",1,J,blue,12,"","","",0,0,"","",""
588960,6,6,block_Practice,2,task_Trng_Prac,2,0,0,"","",1,"","","","","","","","","","","",J,Stim13,Disallowed,16,"",1,K,red,8,"","","",0,0,"","",""
588960,1,1,block_Practice,2,task_GetReady,1,"","","","",1,"","","","","","","","","","","","","","","","","","","","","","","","","","","",""
588960,1,1,block_Practice,2,task_Trng_Prac,2,1,1,"","",1,"","","","","","","","","","","",J,PreISI1,Disallowed,274,"",1,J,blue,13,"","","",0,0,"","",""
588960,2,2,block_Practice,2,task_Trng_Prac,2,0,0,"","",1,"","","","","",Slow!,"","","","","",J,PreISI2,Disallowed,526,"",2,K,red,10,"","","",0,0,"","",""
588960,3,3,block_Practice,2,task_Trng_Prac,2,0,0,"","",1,"","","","","",Slow!,"","","","","",K,PreISI2,Disallowed,549,"",3,J,green,9,"","","",0,0,"","",""
588960,4,4,block_Practice,2,task_Trng_Prac,2,0,0,"","",1,"","","","","",Slow!,"","","","","",J,PreISI2,Disallowed,542,"",4,K,green,11,"","","",0,0,"","",""
588960,5,5,block_Practice,2,task_Trng_Prac,2,1,0,"","",1,"","","","","",Slow!,"","","","","",K,PreISI2,Disallowed,758,"",5,K,red,8,"","","",0,0,"","",""
588960,6,6,block_Practice,2,task_Trng_Prac,2,0,0,"","",1,"","","","","","","","","","","",K,PreISI1,Disallowed,87,"",5,J,blue,12,"","","",0,0,"","",""
588960,1,1,block_Practice,2,task_GetReady,1,"","","","",1,"","","","","","","","","","","","","","","","","","","","","","","","","","","",""
588960,1,1,block_Practice,2,task_Trng_Prac,2,0,0,"","",1,"","","","","",Slow!,"","","","","",J,PreISI2,Disallowed,524,"",6,K,red,10,"","","",0,0,"","",""
588960,2,2,block_Practice,2,task_Trng_Prac,2,1,1,"","",1,"","","","","","","","","","","",J,Stim16,Disallowed,92,"",6,J,green,9,"","","",0,0,"","",""
588960,3,3,block_Practice,2,task_Trng_Prac,2,0,1,"","",1,"","","","","","","","","","","",K,Stim15,Disallowed,114,"",6,J,blue,13,"","","",0,0,"","",""
588960,4,4,block_Practice,2,task_Trng_Prac,2,1,2,"","",1,"","","","","","","","","","","",K,PreISI1,Disallowed,188,"",6,K,red,8,"","","",0,0,"","",""
588960,5,5,block_Practice,2,task_Trng_Prac,2,0,2,"","",1,"","","","","","","","","","","",J,PreISI1,Disallowed,77,"",6,K,green,11,"","","",0,0,"","",""
588960,6,6,block_Practice,2,task_Trng_Prac,2,1,0,"","",1,"","","","","",Slow!,"","","","","",J,PreISI2,Disallowed,24,"",7,J,blue,12,"","","",0,0,"","",""
588960,1,1,block_Practice,2,task_Trng_Prac,2,1,1,"","",1,"","","","","","","","","","","",J,Stim16,Disallowed,105,"",7,J,blue,12,"","","",0,0,"","",""
588960,2,2,block_Practice,2,task_Trng_Prac,2,0,1,"","",1,"","","","","","","","","","","",K,Stim10,Disallowed,109,"",7,J,green,9,"","","",0,0,"","",""
588960,3,3,block_Practice,2,task_Trng_Prac,2,0,1,"","",1,"","","","","","","","","","","",J,Stim15,Disallowed,34,"",7,K,red,10,"","","",0,0,"","",""
588960,4,4,block_Practice,2,task_Trng_Prac,2,1,2,"","",1,"","","","","","","","","","","",K,PreISI1,Disallowed,444,"",7,K,green,11,"","","",0,0,"","",""
588960,5,5,block_Practice,2,task_Trng_Prac,2,1,3,"","",1,"","","","","","","","","","","",K,Stim15,Disallowed,110,"",7,K,red,8,"","","",0,0,"","",""
588960,6,6,block_Practice,2,task_Trng_Prac,2,1,4,"","",1,"","","","","","","","","","","",J,PreISI1,Disallowed,56,"",7,J,blue,13,"","","",0,0,"","",""
588960,1,1,block_Practice,2,task_GetReady,1,"","","","",1,"","","","","","","","","","","","","","","","","","","","","","","","","","","",""
588960,1,1,block_Trng,3,task_GetReady,1,"","","","",1,"","","","","","","","","","","","","","","","","","","","","","","","","","","",""
588960,1,1,block_Trng,3,task_Trng,2,1,"","",1,1,"","","","",Block1,"","","","","","",K,PreISI2,NR,16,"",0,K,green,13,"","",0,0,"","",0,0.28
588960,2,2,block_Trng,3,task_Trng,2,1,"","",2,1,"","","","",Block1,"","","","","","",K,PreISI1,LR,116,"",0,K,blue,8,"","",0,2,"","",0,0.56
588960,3,3,block_Trng,3,task_Trng,2,1,"","",3,1,"","","","",Block1,Slow!,"","","","","",J,PreISI2,NR,261,"",1,J,green,8,"","",0,2,"","",0,0.83
588960,4,4,block_Trng,3,task_Trng,2,0,"","",4,1,"","","","",Block1,"","","","","","",K,Stim12,HR,23,"",0,J,red,10,"","",0,2,"","",0,1.11
588960,5,5,block_Trng,3,task_Trng,2,1,"","",5,1,"","","","",Block1,"","","","","","",J,PreISI1,NR,109,"",0,J,green,12,"","",0,2,"","",0,1.39
588960,6,6,block_Trng,3,task_Trng,2,0,"","",6,1,"","","","",Block1,Slow!,"","","","","",J,PreISI2,LR,314,"",1,K,blue,12,"","",0,2,"","",0,1.67
588960,7,7,block_Trng,3,task_Trng,2,0,"","",7,1,"","","","",Block1,"","","","","","",J,PreISI1,LR,20,"",0,K,blue,10,"","",0,2,"","",0,1.94
588960,8,8,block_Trng,3,task_Trng,2,1,"","",8,1,"","","","",Block1,"","","","","","",J,PreISI1,NR,243,"",0,J,green,10,"","",0,2,"","",0,2.22
588960,9,9,block_Trng,3,task_Trng,2,1,"","",9,1,"","","","",Block1,"","","","","","",J,PreISI1,HR,531,"",0,J,red,12,"","",0,12,"","",0,2.5
588960,10,10,block_Trng,3,task_Trng,2,1,"","",10,1,"","","","",Block1,Slow!,"","","","","",K,PreISI2,HR,446,"",1,K,red,13,"","",0,12,"","",0,2.78
588960,11,11,block_Trng,3,task_Trng,2,1,"","",11,1,"","","","",Block1,"","","","","","",J,PreISI1,LR,339,"",0,J,blue,11,"","",0,14,"","",0,3.06
588960,12,12,block_Trng,3,task_Trng,2,0,"","",12,1,"","","","",Block1,Slow!,"","","","","",J,PreISI2,HR,411,"",1,K,red,11,"","",0,14,"","",0,3.33
588960,13,13,block_Trng,3,task_Trng,2,1,"","",13,1,"","","","",Block1,"","","","","","",J,Stim16,HR,78,"",0,J,red,8,"","",0,24,"","",0,3.61
588960,14,14,block_Trng,3,task_Trng,2,0,"","",14,1,"","","","",Block1,Slow!,"","","","","",J,PreISI2,HR,270,"",1,K,red,9,"","",0,24,"","",0,3.89
588960,15,15,block_Trng,3,task_Trng,2,1,"","",15,1,"","","","",Block1,"","","","","","",J,PreISI1,LR,241,"",0,J,blue,9,"","",0,26,"","",0,4.17
588960,16,16,block_Trng,3,task_Trng,2,1,"","",16,1,"","","","",Block1,Slow!,"","","","","",K,PreISI2,NR,268,"",1,K,green,11,"","",0,26,"","",0,4.44
588960,17,17,block_Trng,3,task_Trng,2,0,"","",17,1,"","","","",Block1,Slow!,"","","","","",J,PreISI2,NR,524,"",2,K,green,9,"","",0,26,"","",0,4.72
588960,18,18,block_Trng,3,task_Trng,2,1,"","",18,1,"","","","",Block1,Slow!,"","","","","",J,PreISI2,LR,99,"",3,J,blue,13,"","",0,26,"","",0,5
588960,19,19,block_Trng,3,task_Trng,2,0,"","",1,2,"","","","",Block2,"","","","","","",J,Stim11,HR,126,"",0,K,red,9,"","",0,26,"","",0,5.28
588960,20,20,block_Trng,3,task_Trng,2,1,"","",2,2,"","","","",Block2,Slow!,"","","","","",J,PreISI2,NR,248,"",1,J,green,8,"","",0,26,"","",0,5.56
588960,21,21,block_Trng,3,task_Trng,2,0,"","",3,2,"","","","",Block2,"","","","","","",J,Stim16,NR,109,"",0,K,green,11,"","",0,26,"","",0,5.83
588960,22,22,block_Trng,3,task_Trng,2,0,"","",4,2,"","","","",Block2,"","","","","","",K,PreISI1,HR,31,"",0,J,red,8,"","",0,26,"","",0,6.11
588960,23,23,block_Trng,3,task_Trng,2,1,"","",5,2,"","","","",Block2,"","","","","","",J,PreISI1,LR,21,"",0,J,blue,11,"","",0,28,"","",0,6.39
588960,24,24,block_Trng,3,task_Trng,2,0,"","",6,2,"","","","",Block2,"","","","","","",J,Stim14,LR,43,"",0,K,blue,8,"","",0,28,"","",0,6.67
588960,25,25,block_Trng,3,task_Trng,2,0,"","",7,2,"","","","",Block2,"","","","","","",K,PreISI1,HR,232,"",0,J,red,10,"","",0,28,"","",0,6.94
588960,26,26,block_Trng,3,task_Trng,2,1,"","",8,2,"","","","",Block2,"","","","","","",K,PreISI2,LR,5,"",0,K,blue,12,"","",0,30,"","",0,7.22
588960,27,27,block_Trng,3,task_Trng,2,0,"","",9,2,"","","","",Block2,"","","","","","",J,PreISI1,NR,49,"",0,K,green,13,"","",0,30,"","",0,7.5
588960,28,28,block_Trng,3,task_Trng,2,1,"","",10,2,"","","","",Block2,"","","","","","",K,Stim12,NR,88,"",0,K,green,9,"","",0,30,"","",0,7.78
588960,29,29,block_Trng,3,task_Trng,2,0,"","",11,2,"","","","",Block2,"","","","","","",K,Stim16,HR,30,"",0,J,red,12,"","",0,30,"","",0,8.06
588960,30,30,block_Trng,3,task_Trng,2,0,"","",12,2,"","","","",Block2,"","","","","","",K,Stim16,NR,25,"",0,J,green,10,"","",0,30,"","",0,8.33
588960,31,31,block_Trng,3,task_Trng,2,1,"","",13,2,"","","","",Block2,"","","","","","",J,PreISI1,LR,34,"",0,J,blue,9,"","",0,32,"","",0,8.61
588960,32,32,block_Trng,3,task_Trng,2,1,"","",14,2,"","","","",Block2,"","","","","","",K,PreISI1,HR,204,"",0,K,red,13,"","",0,42,"","",0,8.89
588960,33,33,block_Trng,3,task_Trng,2,0,"","",15,2,"","","","",Block2,"","","","","","",J,Stim15,HR,19,"",0,K,red,11,"","",0,42,"","",0,9.17
588960,34,34,block_Trng,3,task_Trng,2,1,"","",16,2,"","","","",Block2,"","","","","","",J,PreISI1,NR,420,"",0,J,green,12,"","",0,42,"","",0,9.44
588960,35,35,block_Trng,3,task_Trng,2,1,"","",17,2,"","","","",Block2,"","","","","","",J,PreISI1,LR,467,"",0,J,blue,13,"","",0,44,"","",0,9.72
588960,36,36,block_Trng,3,task_Trng,2,1,"","",18,2,"","","","",Block2,"","","","","","",K,PreISI1,LR,74,"",0,K,blue,10,"","",0,46,"","",0,10
588960,37,37,block_Trng,3,task_Trng,2,1,"","",1,3,"","","","",Block3,"","","","","","",J,Stim13,HR,95,"",0,J,red,8,"","",0,56,"","",0,10.28
588960,38,38,block_Trng,3,task_Trng,2,1,"","",2,3,"","","","",Block3,"","","","","","",J,PreISI1,NR,36,"",0,J,green,12,"","",0,56,"","",0,10.56
588960,39,39,block_Trng,3,task_Trng,2,0,"","",3,3,"","","","",Block3,"","","","","","",K,Stim15,NR,77,"",0,J,green,10,"","",0,56,"","",0,10.83
588960,40,40,block_Trng,3,task_Trng,2,0,"","",4,3,"","","","",Block3,"","","","","","",J,Stim16,NR,23,"",0,K,green,9,"","",0,56,"","",0,11.11
588960,41,41,block_Trng,3,task_Trng,2,1,"","",5,3,"","","","",Block3,"","","","","","",J,Stim15,HR,17,"",0,J,red,10,"","",0,66,"","",0,11.39
588960,42,42,block_Trng,3,task_Trng,2,1,"","",6,3,"","","","",Block3,"","","","","","",J,PreISI1,HR,314,"",0,J,red,12,"","",0,76,"","",0,11.67
588960,43,43,block_Trng,3,task_Trng,2,0,"","",7,3,"","","","",Block3,"","","","","","",J,PreISI1,LR,109,"",0,K,blue,12,"","",0,76,"","",0,11.94
588960,44,44,block_Trng,3,task_Trng,2,0,"","",8,3,"","","","",Block3,Slow!,"","","","","",J,PreISI2,HR,372,"",1,K,red,11,"","",0,76,"","",0,12.22
588960,45,45,block_Trng,3,task_Trng,2,1,"","",9,3,"","","","",Block3,"","","","","","",K,Stim13,HR,16,"",0,K,red,9,"","",0,86,"","",0,12.5
588960,46,46,block_Trng,3,task_Trng,2,1,"","",10,3,"","","","",Block3,"","","","","","",J,PreISI1,LR,130,"",0,J,blue,13,"","",0,88,"","",0,12.78
588960,47,47,block_Trng,3,task_Trng,2,1,"","",11,3,"","","","",Block3,"","","","","","",K,Stim11,NR,30,"",0,K,green,11,"","",0,88,"","",0,13.06
588960,48,48,block_Trng,3,task_Trng,2,1,"","",12,3,"","","","",Block3,"","","","","","",J,Stim14,NR,67,"",0,J,green,8,"","",0,88,"","",0,13.33
588960,49,49,block_Trng,3,task_Trng,2,1,"","",13,3,"","","","",Block3,"","","","","","",K,PreISI1,NR,183,"",0,K,green,13,"","",0,88,"","",0,13.61
588960,50,50,block_Trng,3,task_Trng,2,0,"","",14,3,"","","","",Block3,"","","","","","",K,PreISI1,LR,476,"",0,J,blue,9,"","",0,88,"","",0,13.89
588960,51,51,block_Trng,3,task_Trng,2,0,"","",15,3,"","","","",Block3,"","","","","","",J,Stim14,HR,2,"",0,K,red,13,"","",0,88,"","",0,14.17
588960,52,52,block_Trng,3,task_Trng,2,1,"","",16,3,"","","","",Block3,"","","","","","",K,Stim15,LR,69,"",0,K,blue,8,"","",0,90,"","",0,14.44
588960,53,53,block_Trng,3,task_Trng,2,1,"","",17,3,"","","","",Block3,Slow!,"","","","","",K,PreISI2,LR,159,"",1,K,blue,10,"","",0,90,"","",0,14.72
588960,54,54,block_Trng,3,task_Trng,2,1,"","",18,3,"","","","",Block3,"","","","","","",J,Stim15,LR,85,"",0,J,blue,11,"","",0,92,"","",0,15
588960,55,55,block_Trng,3,task_Trng,2,1,"","",1,4,"","","","",Block4,"","","","","","",K,Stim14,HR,37,"",0,K,red,13,"","",0,102,"","",0,15.28
588960,56,56,block_Trng,3,task_Trng,2,1,"","",2,4,"","","","",Block4,"","","","","","",K,PreISI1,LR,221,"",0,K,blue,10,"","",0,104,"","",0,15.56
588960,57,57,block_Trng,3,task_Trng,2,1,"","",3,4,"","","","",Block4,"","","","","","",J,Stim16,HR,29,"",0,J,red,8,"","",0,114,"","",0,15.83
588960,58,58,block_Trng,3,task_Trng,2,1,"","",4,4,"","","","",Block4,"","","","","","",K,PreISI1,NR,103,"",0,K,green,11,"","",0,114,"","",0,16.11
588960,59,59,block_Trng,3,task_Trng,2,0,"","",5,4,"","","","",Block4,"","","","","","",K,Stim14,HR,92,"",0,J,red,12,"","",0,114,"","",0,16.39
588960,60,60,block_Trng,3,task_Trng,2,0,"","",6,4,"","","","",Block4,"","","","","","",K,PreISI1,NR,83,"",0,J,green,10,"","",0,114,"","",0,16.67
588960,61,61,block_Trng,3,task_Trng,2,1,"","",7,4,"","","","",Block4,"","","","","","",J,Stim15,NR,103,"",0,J,green,12,"","",0,114,"","",0,16.94
588960,62,62,block_Trng,3,task_Trng,2,0,"","",8,4,"","","","",Block4,"","","","","","",J,PreISI1,NR,135,"",0,K,green,13,"","",0,114,"","",0,17.22
588960,63,63,block_Trng,3,task_Trng,2,1,"","",9,4,"","","","",Block4,"","","","","","",K,PreISI1,NR,38,"",0,K,green,9,"","",0,114,"","",0,17.5
588960,64,64,block_Trng,3,task_Trng,2,1,"","",10,4,"","","","",Block4,"","","","","","",K,PreISI1,HR,456,"",0,K,red,9,"","",0,124,"","",0,17.78
588960,65,65,block_Trng,3,task_Trng,2,0,"","",11,4,"","","","",Block4,"","","","","","",J,PreISI1,LR,79,"",0,K,blue,12,"","",0,124,"","",0,18.06
588960,66,66,block_Trng,3,task_Trng,2,0,"","",12,4,"","","","",Block4,"","","","","","",K,Stim13,LR,24,"",0,J,blue,11,"","",0,124,"","",0,18.33
588960,67,67,block_Trng,3,task_Trng,2,1,"","",13,4,"","","","",Block4,"","","","","","",J,Stim16,HR,107,"",0,J,red,10,"","",0,134,"","",0,18.61
588960,68,68,block_Trng,3,task_Trng,2,1,"","",14,4,"","","","",Block4,"","","","","","",K,PreISI1,HR,72,"",0,K,red,11,"","",0,144,"","",0,18.89
588960,69,69,block_Trng,3,task_Trng,2,1,"","",15,4,"","","","",Block4,"","","","","","",J,PreISI1,LR,403,"",0,J,blue,13,"","",0,146,"","",0,19.17
588960,70,70,block_Trng,3,task_Trng,2,0,"","",16,4,"","","","",Block4,"","","","","","",K,Stim16,LR,76,"",0,J,blue,9,"","",0,146,"","",0,19.44
588960,71,71,block_Trng,3,task_Trng,2,0,"","",17,4,"","","","",Block4,"","","","","","",J,Stim13,LR,101,"",0,K,blue,8,"","",0,146,"","",0,19.72
588960,72,72,block_Trng,3,task_Trng,2,1,"","",18,4,"","","","",Block4,"","","","","","",J,Stim15,NR,91,"",0,J,green,8,"","",0.5,146,"","",1,20
588960,73,73,block_Trng,3,task_Trng,2,0,"","",1,5,"","","","",Block5,"","","","","","",J,PreISI1,HR,375,"",0,K,red,13,"","",0.5,146,"","",1,20.28
588960,74,74,block_Trng,3,task_Trng,2,1,"","",2,5,"","","","",Block5,"","","","","","",K,Stim14,HR,79,"",0,K,red,9,"","",0.5,156,"","",1,20.56
588960,75,75,block_Trng,3,task_Trng,2,1,"","",3,5,"","","","",Block5,"","","","","","",J,PreISI1,LR,98,"",0,J,blue,13,"","",0.5,158,"","",1,20.83
588960,76,76,block_Trng,3,task_Trng,2,0,"","",4,5,"","","","",Block5,"","","","","","",K,Stim12,HR,106,"",0,J,red,10,"","",0.5,158,"","",1,21.11
588960,77,77,block_Trng,3,task_Trng,2,1,"","",5,5,"","","","",Block5,"","","","","","",K,PreISI1,NR,131,"",0,K,green,11,"","",0.5,158,"","",1,21.39
588960,78,78,block_Trng,3,task_Trng,2,1,"","",6,5,"","","","",Block5,"","","","","","",K,PreISI1,LR,414,"",0,K,blue,12,"","",0.5,160,"","",1,21.67
588960,79,79,block_Trng,3,task_Trng,2,1,"","",7,5,"","","","",Block5,"","","","","","",J,PreISI1,HR,69,"",0,J,red,12,"","",0.5,170,"","",1,21.94
588960,80,80,block_Trng,3,task_Trng,2,1,"","",8,5,"","","","",Block5,Slow!,"","","","","",J,PreISI2,LR,31,"",1,J,blue,9,"","",0.5,170,"","",1,22.22
588960,81,81,block_Trng,3,task_Trng,2,1,"","",9,5,"","","","",Block5,"","","","","","",J,Stim16,HR,72,"",0,J,red,8,"","",0.5,180,"","",1,22.5
588960,82,82,block_Trng,3,task_Trng,2,1,"","",10,5,"","","","",Block5,"","","","","","",K,Stim16,HR,22,"",0,K,red,11,"","",0.5,190,"","",1,22.78
588960,83,83,block_Trng,3,task_Trng,2,1,"","",11,5,"","","","",Block5,"","","","","","",K,PreISI1,LR,27,"",0,K,blue,10,"","",0.5,192,"","",1,23.06
588960,84,84,block_Trng,3,task_Trng,2,1,"","",12,5,"","","","",Block5,"","","","","","",J,PreISI1,NR,128,"",0,J,green,12,"","",0.5,192,"","",1,23.33
588960,85,85,block_Trng,3,task_Trng,2,1,"","",13,5,"","","","",Block5,"","","","","","",J,Stim14,NR,55,"",0,J,green,8,"","",0.5,192,"","",1,23.61
588960,86,86,block_Trng,3,task_Trng,2,1,"","",14,5,"","","","",Block5,"","","","","","",K,PreISI1,NR,267,"",0,K,green,13,"","",0.5,192,"","",1,23.89
588960,87,87,block_Trng,3,task_Trng,2,1,"","",15,5,"","","","",Block5,"","","","","","",J,PreISI1,NR,174,"",0,J,green,10,"","",0.5,192,"","",1,24.17
588960,88,88,block_Trng,3,task_Trng,2,1,"","",16,5,"","","","",Block5,"","","","","","",K,Stim15,LR,107,"",0,K,blue,8,"","",0.5,194,"","",1,24.44
588960,89,89,block_Trng,3,task_Trng,2,0,"","",17,5,"","","","",Block5,"","","","","","",J,Stim11,NR,37,"",0,K,green,9,"","",0.5,194,"","",1,24.72
588960,90,90,block_Trng,3,task_Trng,2,1,"","",18,5,"","","","",Block5,"","","","","","",J,PreISI1,LR,142,"",0,J,blue,11,"","",0.5,196,"","",1,25
588960,91,91,block_Trng,3,task_Trng,2,0,"","",1,6,"","","","",Block6,Slow!,"","","","","",J,PreISI2,HR,218,"",1,K,red,9,"","",0.5,196,"","",1,25.28
588960,92,92,block_Trng,3,task_Trng,2,1,"","",2,6,"","","","",Block6,"","","","","","",J,PreISI1,NR,460,"",0,J,green,12,"","",0.5,196,"","",1,25.56
588960,93,93,block_Trng,3,task_Trng,2,1,"","",3,6,"","","","",Block6,Slow!,"","","","","",K,PreISI2,HR,131,"",1,K,red,11,"","",0.5,196,"","",1,25.83
588960,94,94,block_Trng,3,task_Trng,2,1,"","",4,6,"","","","",Block6,"","","","","","",J,Stim14,NR,20,"",0,J,green,10,"","",0.5,196,"","",1,26.11
588960,95,95,block_Trng,3,task_Trng,2,0,"","",5,6,"","","","",Block6,"","","","","","",J,Stim14,NR,82,"",0,K,green,13,"","",0.5,196,"","",1,26.39
588960,96,96,block_Trng,3,task_Trng,2,0,"","",6,6,"","","","",Block6,"","","","","","",K,Stim15,LR,39,"",0,J,blue,9,"","",0.5,196,"","",1,26.67
588960,97,97,block_Trng,3,task_Trng,2,1,"","",7,6,"","","","",Block6,"","","","","","",K,PreISI2,HR,4,"",0,K,red,13,"","",0.5,206,"","",1,26.94
588960,98,98,block_Trng,3,task_Trng,2,0,"","",8,6,"","","","",Block6,"","","","","","",K,Stim16,HR,111,"",0,J,red,10,"","",0.5,206,"","",1,27.22
588960,99,99,block_Trng,3,task_Trng,2,0,"","",9,6,"","","","",Block6,"","","","","","",J,Stim13,LR,117,"",0,K,blue,8,"","",0.5,206,"","",1,27.5
588960,100,100,block_Trng,3,task_Trng,2,0,"","",10,6,"","","","",Block6,"","","","","","",K,Stim16,LR,126,"",0,J,blue,13,"","",0.5,206,"","",1,27.78
588960,101,101,block_Trng,3,task_Trng,2,1,"","",11,6,"","","","",Block6,"","","","","","",K,PreISI1,LR,24,"",0,K,blue,10,"","",0.5,208,"","",1,28.06
588960,102,102,block_Trng,3,task_Trng,2,0,"","",12,6,"","","","",Block6,"","","","","","",J,Stim14,LR,32,"",0,K,blue,12,"","",0.5,208,"","",1,28.33
588960,103,103,block_Trng,3,task_Trng,2,1,"","",13,6,"","","","",Block6,"","","","","","",J,PreISI1,LR,165,"",0,J,blue,11,"","",0.5,210,"","",1,28.61
588960,104,104,block_Trng,3,task_Trng,2,0,"","",14,6,"","","","",Block6,"","","","","","",K,PreISI1,HR,539,"",0,J,red,12,"","",0.5,210,"","",1,28.89
588960,105,105,block_Trng,3,task_Trng,2,0,"","",15,6,"","","","",Block6,"","","","","","",J,PreISI1,NR,258,"",0,K,green,11,"","",0.5,210,"","",1,29.17
588960,106,106,block_Trng,3,task_Trng,2,0,"","",16,6,"","","","",Block6,"","","","","","",K,Stim13,NR,51,"",0,J,green,8,"","",0.5,210,"","",1,29.44
588960,107,107,block_Trng,3,task_Trng,2,1,"","",17,6,"","","","",Block6,"","","","","","",J,Stim14,HR,108,"",0,J,red,8,"","",0.5,220,"","",1,29.72
588960,108,108,block_Trng,3,task_Trng,2,1,"","",18,6,"","","","",Block6,"","","","","","",K,Stim16,NR,19,"",0,K,green,9,"","",0.5,220,"","",1,30
588960,109,109,block_Trng,3,task_Trng,2,1,"","",1,7,"","","","",Block7,"","","","","","",J,Stim14,NR,66,"",0,J,green,12,"","",0.5,220,"","",1,30.28
588960,110,110,block_Trng,3,task_Trng,2,1,"","",2,7,"","","","",Block7,"","","","","","",J,PreISI1,LR,478,"",0,J,blue,13,"","",0.5,222,"","",1,30.56
588960,111,111,block_Trng,3,task_Trng,2,0,"","",3,7,"","","","",Block7,"","","","","","",J,PreISI1,HR,58,"",0,K,red,9,"","",0.5,222,"","",1,30.83
588960,112,112,block_Trng,3,task_Trng,2,0,"","",4,7,"","","","",Block7,"","","","","","",K,Stim12,LR,124,"",0,J,blue,9,"","",0.5,222,"","",1,31.11
588960,113,113,block_Trng,3,task_Trng,2,1,"","",5,7,"","","","",Block7,"","","","","","",J,Stim13,LR,48,"",0,J,blue,11,"","",0.5,224,"","",1,31.39
588960,114,114,block_Trng,3,task_Trng,2,0,"","",6,7,"","","","",Block7,Slow!,"","","","","",J,ISI,NR,116,"",1,K,green,11,"","",0.5,224,"","",1,31.67
588960,115,115,block_Trng,3,task_Trng,2,0,"","",7,7,"","","","",Block7,"","","","","","",K,Stim15,HR,57,"",0,J,red,12,"","",0.5,224,"","",1,31.94
588960,116,116,block_Trng,3,task_Trng,2,1,"","",8,7,"","","","",Block7,"","","","","","",J,Stim14,NR,120,"",0,J,green,10,"","",0.5,224,"","",1,32.22
588960,117,117,block_Trng,3,task_Trng,2,1,"","",9,7,"","","","",Block7,"","","","","","",K,PreISI1,NR,352,"",0,K,green,13,"","",0.5,224,"","",1,32.5
588960,118,118,block_Trng,3,task_Trng,2,1,"","",10,7,"","","","",Block7,"","","","","","",J,Stim14,HR,95,"",0,J,red,8,"","",0.5,234,"","",1,32.78
588960,119,119,block_Trng,3,task_Trng,2,1,"","",11,7,"","","","",Block7,Slow!,"","","","","",J,PreISI2,HR,114,"",1,J,red,10,"","",0.5,234,"","",1,33.06
588960,120,120,block_Trng,3,task_Trng,2,1,"","",12,7,"","","","",Block7,"","","","","","",K,Stim15,LR,50,"",0,K,blue,8,"","",0.5,236,"","",1,33.33
588960,121,121,block_Trng,3,task_Trng,2,0,"","",13,7,"","","","",Block7,Slow!,"","","","","",J,PreISI2,LR,902,"",1,K,blue,12,"","",0.5,236,"","",1,33.61
588960,122,122,block_Trng,3,task_Trng,2,1,"","",14,7,"","","","",Block7,"","","","","","",K,Stim11,LR,119,"",0,K,blue,10,"","",0.5,238,"","",1,33.89
588960,123,123,block_Trng,3,task_Trng,2,0,"","",15,7,"","","","",Block7,"","","","","","",J,PreISI1,HR,280,"",0,K,red,11,"","",0.5,238,"","",1,34.17
588960,124,124,block_Trng,3,task_Trng,2,1,"","",16,7,"","","","",Block7,"","","","","","",K,PreISI1,HR,134,"",0,K,red,13,"","",0.5,248,"","",1,34.44
588960,125,125,block_Trng,3,task_Trng,2,1,"","",17,7,"","","","",Block7,"","","","","","",J,Stim14,NR,62,"",0,J,green,8,"","",0.5,248,"","",1,34.72
588960,126,126,block_Trng,3,task_Trng,2,1,"","",18,7,"","","","",Block7,"","","","","","",K,Stim14,NR,95,"",0,K,green,9,"","",0.5,248,"","",1,35
588960,127,127,block_Trng,3,task_Trng,2,1,"","",1,8,"","","","",Block8,"","","","","","",J,Stim15,NR,38,"",0,J,green,10,"","",0.5,248,"","",1,35.28
588960,128,128,block_Trng,3,task_Trng,2,1,"","",2,8,"","","","",Block8,"","","","","","",K,Stim14,HR,114,"",0,K,red,11,"","",0.5,258,"","",1,35.56
588960,129,129,block_Trng,3,task_Trng,2,1,"","",3,8,"","","","",Block8,"","","","","","",J,Stim14,LR,4,"",0,J,blue,13,"","",0.5,260,"","",1,35.83
588960,130,130,block_Trng,3,task_Trng,2,1,"","",4,8,"","","","",Block8,"","","","","","",K,Stim14,NR,38,"",0,K,green,9,"","",0.5,260,"","",1,36.11
588960,131,131,block_Trng,3,task_Trng,2,1,"","",5,8,"","","","",Block8,"","","","","","",K,PreISI1,NR,414,"",0,K,green,13,"","",0.5,260,"","",1,36.39
588960,132,132,block_Trng,3,task_Trng,2,1,"","",6,8,"","","","",Block8,"","","","","","",J,Stim13,NR,97,"",0,J,green,8,"","",0.5,260,"","",1,36.67
588960,133,133,block_Trng,3,task_Trng,2,0,"","",7,8,"","","","",Block8,"","","","","","",K,Stim11,LR,123,"",0,J,blue,9,"","",0.5,260,"","",1,36.94
588960,134,134,block_Trng,3,task_Trng,2,1,"","",8,8,"","","","",Block8,Slow!,"","","","","",K,ISI,HR,972,"",1,K,red,13,"","",0.5,260,"","",1,37.22
588960,135,135,block_Trng,3,task_Trng,2,1,"","",9,8,"","","","",Block8,"","","","","","",K,PreISI1,LR,210,"",0,K,blue,8,"","",0.5,262,"","",1,37.5
588960,136,136,block_Trng,3,task_Trng,2,1,"","",10,8,"","","","",Block8,"","","","","","",J,PreISI1,LR,108,"",0,J,blue,11,"","",0.5,264,"","",1,37.78
588960,137,137,block_Trng,3,task_Trng,2,1,"","",11,8,"","","","",Block8,"","","","","","",J,PreISI1,HR,183,"",0,J,red,12,"","",0.5,274,"","",1,38.06
588960,138,138,block_Trng,3,task_Trng,2,1,"","",12,8,"","","","",Block8,"","","","","","",J,Stim16,HR,51,"",0,J,red,10,"","",0.5,284,"","",1,38.33
588960,139,139,block_Trng,3,task_Trng,2,0,"","",13,8,"","","","",Block8,"","","","","","",J,PreISI1,NR,153,"",0,K,green,11,"","",0.5,284,"","",1,38.61
588960,140,140,block_Trng,3,task_Trng,2,0,"","",14,8,"","","","",Block8,"","","","","","",J,Stim13,HR,20,"",0,K,red,9,"","",0.5,284,"","",1,38.89
588960,141,141,block_Trng,3,task_Trng,2,0,"","",15,8,"","","","",Block8,Slow!,"","","","","",K,PreISI2,NR,164,"",1,J,green,12,"","",0.5,284,"","",1,39.17
588960,142,142,block_Trng,3,task_Trng,2,1,"","",16,8,"","","","",Block8,"","","","","","",K,Stim15,LR,67,"",0,K,blue,10,"","",0.5,286,"","",1,39.44
588960,143,143,block_Trng,3,task_Trng,2,1,"","",17,8,"","","","",Block8,"","","","","","",J,Stim14,HR,36,"",0,J,red,8,"","",0.5,296,"","",1,39.72
588960,144,144,block_Trng,3,task_Trng,2,1,"","",18,8,"","","","",Block8,"","","","","","",K,PreISI1,LR,74,"",0,K,blue,12,"","",1.01,298,"","",2,40
588960,145,145,block_Trng,3,task_Trng,2,0,"","",1,9,"","","","",Block9,"","","","","","",K,PreISI1,LR,460,"",0,J,blue,13,"","",1.01,298,"","",2,40.28
588960,146,146,block_Trng,3,task_Trng,2,0,"","",2,9,"","","","",Block9,"","","","","","",J,PreISI1,NR,316,"",0,K,green,9,"","",1.01,298,"","",2,40.56
588960,147,147,block_Trng,3,task_Trng,2,1,"","",3,9,"","","","",Block9,"","","","","","",K,PreISI1,NR,79,"",0,K,green,11,"","",1.01,298,"","",2,40.83
588960,148,148,block_Trng,3,task_Trng,2,1,"","",4,9,"","","","",Block9,"","","","","","",J,PreISI1,HR,275,"",0,J,red,12,"","",1.01,308,"","",2,41.11
588960,149,149,block_Trng,3,task_Trng,2,0,"","",5,9,"","","","",Block9,"","","","","","",K,Stim13,HR,54,"",0,J,red,8,"","",1.01,308,"","",2,41.39
588960,150,150,block_Trng,3,task_Trng,2,1,"","",6,9,"","","","",Block9,"","","","","","",J,Stim15,NR,70,"",0,J,green,8,"","",1.01,308,"","",2,41.67
588960,151,151,block_Trng,3,task_Trng,2,0,"","",7,9,"","","","",Block9,"","","","","","",J,PreISI1,HR,264,"",0,K,red,11,"","",1.01,308,"","",2,41.94
588960,152,152,block_Trng,3,task_Trng,2,1,"","",8,9,"","","","",Block9,Slow!,"","","","","",K,PreISI2,LR,73,"",1,K,blue,10,"","",1.01,308,"","",2,42.22
588960,153,153,block_Trng,3,task_Trng,2,1,"","",9,9,"","","","",Block9,"","","","","","",J,Stim15,NR,47,"",0,J,green,12,"","",1.01,308,"","",2,42.5
588960,154,154,block_Trng,3,task_Trng,2,0,"","",10,9,"","","","",Block9,"","","","","","",K,Stim13,LR,74,"",0,J,blue,9,"","",1.01,308,"","",2,42.78
588960,155,155,block_Trng,3,task_Trng,2,1,"","",11,9,"","","","",Block9,"","","","","","",J,Stim16,LR,77,"",0,J,blue,11,"","",1.01,310,"","",2,43.06
588960,156,156,block_Trng,3,task_Trng,2,0,"","",12,9,"","","","",Block9,"","","","","","",K,Stim13,NR,104,"",0,J,green,10,"","",1.01,310,"","",2,43.33
588960,157,157,block_Trng,3,task_Trng,2,0,"","",13,9,"","","","",Block9,"","","","","","",J,PreISI1,HR,488,"",0,K,red,9,"","",1.01,310,"","",2,43.61
588960,158,158,block_Trng,3,task_Trng,2,0,"","",14,9,"","","","",Block9,"","","","","","",K,Stim12,HR,22,"",0,J,red,10,"","",1.01,310,"","",2,43.89
588960,159,159,block_Trng,3,task_Trng,2,0,"","",15,9,"","","","",Block9,"","","","","","",J,Stim16,NR,59,"",0,K,green,13,"","",1.01,310,"","",2,44.17
588960,160,160,block_Trng,3,task_Trng,2,0,"","",16,9,"","","","",Block9,"","","","","","",J,Stim14,LR,117,"",0,K,blue,8,"","",1.01,310,"","",2,44.44
588960,161,161,block_Trng,3,task_Trng,2,0,"","",17,9,"","","","",Block9,"","","","","","",J,PreISI1,HR,323,"",0,K,red,13,"","",1.01,310,"","",2,44.72
588960,162,162,block_Trng,3,task_Trng,2,0,"","",18,9,"","","","",Block9,"","","","","","",J,PreISI1,LR,293,"",0,K,blue,12,"","",1.01,310,"","",2,45
588960,163,163,block_Trng,3,task_Trng,2,1,"","",1,10,"","","","",Block10,"","","","","","",J,Stim15,HR,100,"",0,J,red,8,"","",1.01,320,"","",2,45.28
588960,164,164,block_Trng,3,task_Trng,2,1,"","",2,10,"","","","",Block10,"","","","","","",K,Stim15,NR,25,"",0,K,green,9,"","",1.01,320,"","",2,45.56
588960,165,165,block_Trng,3,task_Trng,2,1,"","",3,10,"","","","",Block10,"","","","","","",J,PreISI1,NR,500,"",0,J,green,12,"","",1.01,320,"","",2,45.83
588960,166,166,block_Trng,3,task_Trng,2,1,"","",4,10,"","","","",Block10,"","","","","","",J,Stim16,LR,91,"",0,J,blue,9,"","",1.01,322,"","",2,46.11
588960,167,167,block_Trng,3,task_Trng,2,1,"","",5,10,"","","","",Block10,"","","","","","",K,Stim14,LR,72,"",0,K,blue,10,"","",1.01,324,"","",2,46.39
588960,168,168,block_Trng,3,task_Trng,2,0,"","",6,10,"","","","",Block10,"","","","","","",J,Stim15,HR,13,"",0,K,red,9,"","",1.01,324,"","",2,46.67
588960,169,169,block_Trng,3,task_Trng,2,1,"","",7,10,"","","","",Block10,"","","","","","",J,Stim16,HR,95,"",0,J,red,10,"","",1.01,334,"","",2,46.94
588960,170,170,block_Trng,3,task_Trng,2,0,"","",8,10,"","","","",Block10,Slow!,"","","","","",J,PreISI2,NR,20,"",1,K,green,13,"","",1.01,334,"","",2,47.22
588960,171,171,block_Trng,3,task_Trng,2,1,"","",9,10,"","","","",Block10,"","","","","","",K,Stim13,LR,22,"",0,K,blue,8,"","",1.01,336,"","",2,47.5
588960,172,172,block_Trng,3,task_Trng,2,0,"","",10,10,"","","","",Block10,"","","","","","",J,Stim13,LR,75,"",0,K,blue,12,"","",1.01,336,"","",2,47.78
588960,173,173,block_Trng,3,task_Trng,2,0,"","",11,10,"","","","",Block10,"","","","","","",J,Stim16,NR,50,"",0,K,green,11,"","",1.01,336,"","",2,48.06
588960,174,174,block_Trng,3,task_Trng,2,1,"","",12,10,"","","","",Block10,"","","","","","",J,PreISI1,HR,190,"",0,J,red,12,"","",1.01,346,"","",2,48.33
588960,175,175,block_Trng,3,task_Trng,2,1,"","",13,10,"","","","",Block10,"","","","","","",K,PreISI1,HR,43,"",0,K,red,11,"","",1.01,356,"","",2,48.61
588960,176,176,block_Trng,3,task_Trng,2,0,"","",14,10,"","","","",Block10,Slow!,"","","","","",K,PreISI2,LR,31,"",1,J,blue,11,"","",1.01,356,"","",2,48.89
588960,177,177,block_Trng,3,task_Trng,2,1,"","",15,10,"","","","",Block10,"","","","","","",J,PreISI1,LR,53,"",0,J,blue,13,"","",1.01,358,"","",2,49.17
588960,178,178,block_Trng,3,task_Trng,2,0,"","",16,10,"","","","",Block10,Slow!,"","","","","",K,PreISI2,NR,220,"",1,J,green,10,"","",1.01,358,"","",2,49.44
588960,179,179,block_Trng,3,task_Trng,2,0,"","",17,10,"","","","",Block10,"","","","","","",J,Stim16,HR,25,"",0,K,red,13,"","",1.01,358,"","",2,49.72
588960,180,180,block_Trng,3,task_Trng,2,1,"","",18,10,"","","","",Block10,"","","","","","",J,PreISI1,NR,197,"",0,J,green,8,"","",1.01,358,"","",2,50
588960,181,181,block_Trng,3,task_Trng,2,0,"","",1,11,"","","","",Block11,"","","","","","",K,Stim15,NR,68,"",0,J,green,10,"","",1.01,358,"","",2,50.28
588960,182,182,block_Trng,3,task_Trng,2,1,"","",2,11,"","","","",Block11,"","","","","","",J,PreISI1,LR,26,"",0,J,blue,11,"","",1.01,360,"","",2,50.56
588960,183,183,block_Trng,3,task_Trng,2,0,"","",3,11,"","","","",Block11,"","","","","","",J,Stim15,NR,81,"",0,K,green,9,"","",1.01,360,"","",2,50.83
588960,184,184,block_Trng,3,task_Trng,2,1,"","",4,11,"","","","",Block11,Slow!,"","","","","",J,PreISI2,HR,267,"",1,J,red,10,"","",1.01,360,"","",2,51.11
588960,185,185,block_Trng,3,task_Trng,2,0,"","",5,11,"","","","",Block11,"","","","","","",K,Stim15,NR,105,"",0,J,green,8,"","",1.01,360,"","",2,51.39
588960,186,186,block_Trng,3,task_Trng,2,1,"","",6,11,"","","","",Block11,"","","","","","",K,Stim14,LR,35,"",0,K,blue,8,"","",1.01,362,"","",2,51.67
588960,187,187,block_Trng,3,task_Trng,2,1,"","",7,11,"","","","",Block11,"","","","","","",J,Stim15,HR,93,"",0,J,red,8,"","",1.01,372,"","",2,51.94
588960,188,188,block_Trng,3,task_Trng,2,1,"","",8,11,"","","","",Block11,Slow!,"","","","","",K,PreISI2,HR,48,"",1,K,red,11,"","",1.01,372,"","",2,52.22
588960,189,189,block_Trng,3,task_Trng,2,0,"","",9,11,"","","","",Block11,"","","","","","",J,Stim13,NR,32,"",0,K,green,13,"","",1.01,372,"","",2,52.5
588960,190,190,block_Trng,3,task_Trng,2,1,"","",10,11,"","","","",Block11,"","","","","","",J,Stim15,LR,24,"",0,J,blue,9,"","",1.01,374,"","",2,52.78
588960,191,191,block_Trng,3,task_Trng,2,1,"","",11,11,"","","","",Block11,"","","","","","",J,PreISI1,LR,325,"",0,J,blue,13,"","",1.01,376,"","",2,53.06
588960,192,192,block_Trng,3,task_Trng,2,1,"","",12,11,"","","","",Block11,"","","","","","",K,PreISI1,HR,535,"",0,K,red,9,"","",1.01,386,"","",2,53.33
588960,193,193,block_Trng,3,task_Trng,2,1,"","",13,11,"","","","",Block11,"","","","","","",K,PreISI1,LR,65,"",0,K,blue,10,"","",1.01,388,"","",2,53.61
588960,194,194,block_Trng,3,task_Trng,2,0,"","",14,11,"","","","",Block11,"","","","","","",J,PreISI1,NR,408,"",0,K,green,11,"","",1.01,388,"","",2,53.89
588960,195,195,block_Trng,3,task_Trng,2,0,"","",15,11,"","","","",Block11,Slow!,"","","","","",K,PreISI2,NR,180,"",1,J,green,12,"","",1.01,388,"","",2,54.17
588960,196,196,block_Trng,3,task_Trng,2,0,"","",16,11,"","","","",Block11,"","","","","","",J,Stim16,HR,46,"",0,K,red,13,"","",1.01,388,"","",2,54.44
588960,197,197,block_Trng,3,task_Trng,2,1,"","",17,11,"","","","",Block11,"","","","","","",J,Stim15,HR,34,"",0,J,red,12,"","",1.01,398,"","",2,54.72
588960,198,198,block_Trng,3,task_Trng,2,1,"","",18,11,"","","","",Block11,"","","","","","",K,Stim16,LR,60,"",0,K,blue,12,"","",1.01,400,"","",2,55
588960,199,199,block_Trng,3,task_Trng,2,1,"","",1,12,"","","","",Block12,"","","","","","",J,PreISI1,LR,311,"",0,J,blue,11,"","",1.01,402,"","",2,55.28
588960,200,200,block_Trng,3,task_Trng,2,1,"","",2,12,"","","","",Block12,"","","","","","",K,Stim14,LR,79,"",0,K,blue,12,"","",1.01,404,"","",2,55.56
588960,201,201,block_Trng,3,task_Trng,2,0,"","",3,12,"","","","",Block12,"","","","","","",J,PreISI1,HR,135,"",0,K,red,11,"","",1.01,404,"","",2,55.83
588960,202,202,block_Trng,3,task_Trng,2,1,"","",4,12,"","","","",Block12,"","","","","","",K,Stim16,LR,111,"",0,K,blue,10,"","",1.01,406,"","",2,56.11
588960,203,203,block_Trng,3,task_Trng,2,0,"","",5,12,"","","","",Block12,"","","","","","",J,PreISI1,NR,199,"",0,K,green,9,"","",1.01,406,"","",2,56.39
588960,204,204,block_Trng,3,task_Trng,2,1,"","",6,12,"","","","",Block12,"","","","","","",J,Stim16,HR,22,"",0,J,red,12,"","",1.01,416,"","",2,56.67
588960,205,205,block_Trng,3,task_Trng,2,1,"","",7,12,"","","","",Block12,"","","","","","",K,Stim14,LR,17,"",0,K,blue,8,"","",1.01,418,"","",2,56.94
588960,206,206,block_Trng,3,task_Trng,2,0,"","",8,12,"","","","",Block12,"","","","","","",K,PreISI1,NR,32,"",0,J,green,10,"","",1.01,418,"","",2,57.22
588960,207,207,block_Trng,3,task_Trng,2,1,"","",9,12,"","","","",Block12,"","","","","","",J,PreISI1,NR,130,"",0,J,green,12,"","",1.01,418,"","",2,57.5
588960,208,208,block_Trng,3,task_Trng,2,1,"","",10,12,"","","","",Block12,"","","","","","",J,PreISI1,HR,314,"",0,J,red,10,"","",1.01,428,"","",2,57.78
588960,209,209,block_Trng,3,task_Trng,2,1,"","",11,12,"","","","",Block12,"","","","","","",J,Stim14,NR,115,"",0,J,green,8,"","",1.01,428,"","",2,58.06
588960,210,210,block_Trng,3,task_Trng,2,0,"","",12,12,"","","","",Block12,"","","","","","",J,Stim16,HR,39,"",0,K,red,13,"","",1.01,428,"","",2,58.33
588960,211,211,block_Trng,3,task_Trng,2,1,"","",13,12,"","","","",Block12,"","","","","","",K,Stim15,NR,69,"",0,K,green,13,"","",1.01,428,"","",2,58.61
588960,212,212,block_Trng,3,task_Trng,2,1,"","",14,12,"","","","",Block12,"","","","","","",K,Stim16,HR,120,"",0,K,red,9,"","",1.01,438,"","",2,58.89
588960,213,213,block_Trng,3,task_Trng,2,1,"","",15,12,"","","","",Block12,"","","","","","",J,PreISI1,LR,285,"",0,J,blue,13,"","",1.01,440,"","",2,59.17
588960,214,214,block_Trng,3,task_Trng,2,1,"","",16,12,"","","","",Block12,"","","","","","",J,Stim14,HR,54,"",0,J,red,8,"","",1.01,450,"","",2,59.44
588960,215,215,block_Trng,3,task_Trng,2,1,"","",17,12,"","","","",Block12,"","","","","","",K,PreISI1,NR,72,"",0,K,green,11,"","",1.01,450,"","",2,59.72
588960,216,216,block_Trng,3,task_Trng,2,0,"","",18,12,"","","","",Block12,"","","","","","",K,Stim15,LR,20,"",0,J,blue,9,"","",1.53,450,"","",3,60
588960,217,217,block_Trng,3,task_Trng,2,0,"","",1,13,"","","","",Block13,"","","","","","",J,Stim13,NR,99,"",0,K,green,9,"","",1.53,450,"","",3,60.28
588960,218,218,block_Trng,3,task_Trng,2,1,"","",2,13,"","","","",Block13,"","","","","","",K,PreISI1,NR,229,"",0,K,green,13,"","",1.53,450,"","",3,60.56
588960,219,219,block_Trng,3,task_Trng,2,1,"","",3,13,"","","","",Block13,"","","","","","",K,PreISI1,NR,273,"",0,K,green,11,"","",1.53,450,"","",3,60.83
588960,220,220,block_Trng,3,task_Trng,2,1,"","",4,13,"","","","",Block13,"","","","","","",K,PreISI1,LR,253,"",0,K,blue,8,"","",1.53,452,"","",3,61.11
588960,221,221,block_Trng,3,task_Trng,2,1,"","",5,13,"","","","",Block13,"","","","","","",K,PreISI1,LR,333,"",0,K,blue,10,"","",1.53,454,"","",3,61.39
588960,222,222,block_Trng,3,task_Trng,2,1,"","",6,13,"","","","",Block13,"","","","","","",K,Stim14,HR,3,"",0,K,red,9,"","",1.53,464,"","",3,61.67
588960,223,223,block_Trng,3,task_Trng,2,0,"","",7,13,"","","","",Block13,"","","","","","",J,Stim16,HR,41,"",0,K,red,11,"","",1.53,464,"","",3,61.94
588960,224,224,block_Trng,3,task_Trng,2,0,"","",8,13,"","","","",Block13,"","","","","","",K,PreISI1,LR,222,"",0,J,blue,11,"","",1.53,464,"","",3,62.22
588960,225,225,block_Trng,3,task_Trng,2,1,"","",9,13,"","","","",Block13,"","","","","","",J,PreISI1,HR,384,"",0,J,red,12,"","",1.53,474,"","",3,62.5
588960,226,226,block_Trng,3,task_Trng,2,1,"","",10,13,"","","","",Block13,Slow!,"","","","","",K,PreISI2,HR,198,"",1,K,red,13,"","",1.53,474,"","",3,62.78
588960,227,227,block_Trng,3,task_Trng,2,1,"","",11,13,"","","","",Block13,"","","","","","",J,Stim15,LR,80,"",0,J,blue,9,"","",1.53,476,"","",3,63.06
588960,228,228,block_Trng,3,task_Trng,2,0,"","",12,13,"","","","",Block13,"","","","","","",K,Stim16,LR,98,"",0,J,blue,13,"","",1.53,476,"","",3,63.33
588960,229,229,block_Trng,3,task_Trng,2,1,"","",13,13,"","","","",Block13,"","","","","","",J,PreISI1,NR,26,"",0,J,green,10,"","",1.53,476,"","",3,63.61
588960,230,230,block_Trng,3,task_Trng,2,1,"","",14,13,"","","","",Block13,"","","","","","",J,Stim15,HR,20,"",0,J,red,8,"","",1.53,486,"","",3,63.89
588960,231,231,block_Trng,3,task_Trng,2,1,"","",15,13,"","","","",Block13,"","","","","","",J,Stim15,NR,28,"",0,J,green,8,"","",1.53,486,"","",3,64.17
588960,232,232,block_Trng,3,task_Trng,2,1,"","",16,13,"","","","",Block13,"","","","","","",J,Stim14,NR,125,"",0,J,green,12,"","",1.53,486,"","",3,64.44
588960,233,233,block_Trng,3,task_Trng,2,1,"","",17,13,"","","","",Block13,"","","","","","",J,Stim13,HR,26,"",0,J,red,10,"","",1.53,496,"","",3,64.72
588960,234,234,block_Trng,3,task_Trng,2,0,"","",18,13,"","","","",Block13,"","","","","","",J,PreISI1,LR,56,"",0,K,blue,12,"","",1.53,496,"","",3,65
588960,235,235,block_Trng,3,task_Trng,2,1,"","",1,14,"","","","",Block14,"","","","","","",K,PreISI1,HR,335,"",0,K,red,13,"","",1.53,506,"","",3,65.28
588960,236,236,block_Trng,3,task_Trng,2,0,"","",2,14,"","","","",Block14,Slow!,"","","","","",J,PreISI2,HR,265,"",1,K,red,9,"","",1.53,506,"","",3,65.56
588960,237,237,block_Trng,3,task_Trng,2,1,"","",3,14,"","","","",Block14,"","","","","","",J,Stim16,HR,124,"",0,J,red,10,"","",1.53,516,"","",3,65.83
588960,238,238,block_Trng,3,task_Trng,2,1,"","",4,14,"","","","",Block14,"","","","","","",K,Stim16,NR,69,"",0,K,green,13,"","",1.53,516,"","",3,66.11
588960,239,239,block_Trng,3,task_Trng,2,0,"","",5,14,"","","","",Block14,"","","","","","",K,PreISI1,NR,142,"",0,J,green,12,"","",1.53,516,"","",3,66.39
588960,240,240,block_Trng,3,task_Trng,2,0,"","",6,14,"","","","",Block14,"","","","","","",J,Stim14,HR,98,"",0,K,red,11,"","",1.53,516,"","",3,66.67
588960,241,241,block_Trng,3,task_Trng,2,1,"","",7,14,"","","","",Block14,"","","","","","",J,PreISI1,LR,267,"",0,J,blue,13,"","",1.53,518,"","",3,66.94
588960,242,242,block_Trng,3,task_Trng,2,0,"","",8,14,"","","","",Block14,"","","","","","",J,Stim16,LR,108,"",0,K,blue,10,"","",1.53,518,"","",3,67.22
588960,243,243,block_Trng,3,task_Trng,2,1,"","",9,14,"","","","",Block14,"","","","","","",J,PreISI1,NR,302,"",0,J,green,8,"","",1.53,518,"","",3,67.5
588960,244,244,block_Trng,3,task_Trng,2,1,"","",10,14,"","","","",Block14,"","","","","","",K,PreISI1,LR,105,"",0,K,blue,8,"","",1.53,520,"","",3,67.78
588960,245,245,block_Trng,3,task_Trng,2,1,"","",11,14,"","","","",Block14,"","","","","","",K,Stim14,NR,93,"",0,K,green,9,"","",1.53,520,"","",3,68.06
588960,246,246,block_Trng,3,task_Trng,2,1,"","",12,14,"","","","",Block14,"","","","","","",J,Stim14,LR,8,"",0,J,blue,11,"","",1.53,522,"","",3,68.33
588960,247,247,block_Trng,3,task_Trng,2,1,"","",13,14,"","","","",Block14,"","","","","","",J,PreISI2,HR,21,"",0,J,red,8,"","",1.53,532,"","",3,68.61
588960,248,248,block_Trng,3,task_Trng,2,1,"","",14,14,"","","","",Block14,"","","","","","",J,Stim16,LR,29,"",0,J,blue,9,"","",1.53,534,"","",3,68.89
588960,249,249,block_Trng,3,task_Trng,2,0,"","",15,14,"","","","",Block14,"","","","","","",J,PreISI1,NR,220,"",0,K,green,11,"","",1.53,534,"","",3,69.17
588960,250,250,block_Trng,3,task_Trng,2,1,"","",16,14,"","","","",Block14,"","","","","","",K,PreISI1,LR,68,"",0,K,blue,12,"","",1.53,536,"","",3,69.44
588960,251,251,block_Trng,3,task_Trng,2,1,"","",17,14,"","","","",Block14,Slow!,"","","","","",J,PreISI2,HR,441,"",1,J,red,12,"","",1.53,536,"","",3,69.72
588960,252,252,block_Trng,3,task_Trng,2,0,"","",18,14,"","","","",Block14,"","","","","","",K,Stim16,NR,93,"",0,J,green,10,"","",1.53,536,"","",3,70
588960,253,253,block_Trng,3,task_Trng,2,0,"","",1,15,"","","","",Block15,"","","","","","",J,Stim15,NR,20,"",0,K,green,9,"","",1.53,536,"","",3,70.28
588960,254,254,block_Trng,3,task_Trng,2,1,"","",2,15,"","","","",Block15,"","","","","","",J,Stim15,HR,115,"",0,J,red,12,"","",1.53,546,"","",3,70.56
588960,255,255,block_Trng,3,task_Trng,2,1,"","",3,15,"","","","",Block15,"","","","","","",K,Stim15,LR,113,"",0,K,blue,8,"","",1.53,548,"","",3,70.83
588960,256,256,block_Trng,3,task_Trng,2,0,"","",4,15,"","","","",Block15,"","","","","","",K,Stim14,HR,78,"",0,J,red,8,"","",1.53,548,"","",3,71.11
588960,257,257,block_Trng,3,task_Trng,2,0,"","",5,15,"","","","",Block15,"","","","","","",J,Stim16,HR,49,"",0,K,red,9,"","",1.53,548,"","",3,71.39
588960,258,258,block_Trng,3,task_Trng,2,0,"","",6,15,"","","","",Block15,"","","","","","",J,Stim14,LR,86,"",0,K,blue,10,"","",1.53,548,"","",3,71.67
588960,259,259,block_Trng,3,task_Trng,2,0,"","",7,15,"","","","",Block15,"","","","","","",K,PreISI1,NR,33,"",0,J,green,8,"","",1.53,548,"","",3,71.94
588960,260,260,block_Trng,3,task_Trng,2,0,"","",8,15,"","","","",Block15,"","","","","","",J,Stim16,NR,118,"",0,K,green,13,"","",1.53,548,"","",3,72.22
588960,261,261,block_Trng,3,task_Trng,2,1,"","",9,15,"","","","",Block15,"","","","","","",J,Stim16,LR,39,"",0,J,blue,9,"","",1.53,550,"","",3,72.5
588960,262,262,block_Trng,3,task_Trng,2,1,"","",10,15,"","","","",Block15,"","","","","","",J,PreISI1,LR,24,"",0,J,blue,13,"","",1.53,552,"","",3,72.78
588960,263,263,block_Trng,3,task_Trng,2,1,"","",11,15,"","","","",Block15,Slow!,"","","","","",K,PreISI2,NR,188,"",1,K,green,11,"","",1.53,552,"","",3,73.06
588960,264,264,block_Trng,3,task_Trng,2,1,"","",12,15,"","","","",Block15,"","","","","","",J,Stim16,HR,107,"",0,J,red,10,"","",1.53,562,"","",3,73.33
588960,265,265,block_Trng,3,task_Trng,2,1,"","",13,15,"","","","",Block15,"","","","","","",J,PreISI1,NR,262,"",0,J,green,12,"","",1.53,562,"","",3,73.61
588960,266,266,block_Trng,3,task_Trng,2,1,"","",14,15,"","","","",Block15,"","","","","","",K,Stim15,LR,284,"",0,K,blue,12,"","",1.53,564,"","",3,73.89
588960,267,267,block_Trng,3,task_Trng,2,0,"","",15,15,"","","","",Block15,"","","","","","",K,PreISI1,LR,86,"",0,J,blue,11,"","",1.53,564,"","",3,74.17
588960,268,268,block_Trng,3,task_Trng,2,0,"","",16,15,"","","","",Block15,Slow!,"","","","","",J,PreISI2,HR,59,"",1,K,red,11,"","",1.53,564,"","",3,74.44
588960,269,269,block_Trng,3,task_Trng,2,0,"","",17,15,"","","","",Block15,"","","","","","",J,Stim16,HR,53,"",0,K,red,13,"","",1.53,564,"","",3,74.72
588960,270,270,block_Trng,3,task_Trng,2,1,"","",18,15,"","","","",Block15,"","","","","","",J,Stim16,NR,38,"",0,J,green,10,"","",1.53,564,"","",3,75
588960,271,271,block_Trng,3,task_Trng,2,1,"","",1,16,"","","","",Block16',"","","","","","",J,PreISI1,HR,56,"",0,J,red,10,"","",1.53,574,"","",3,75.28
588960,272,272,block_Trng,3,task_Trng,2,0,"","",2,16,"","","","",Block16',"","","","","","",K,Stim16,LR,124,"",0,J,blue,13,"","",1.53,574,"","",3,75.56
588960,273,273,block_Trng,3,task_Trng,2,1,"","",3,16,"","","","",Block16',Slow!,"","","","","",K,PreISI2,HR,291,"",1,K,red,13,"","",1.53,574,"","",3,75.83
588960,274,274,block_Trng,3,task_Trng,2,1,"","",4,16,"","","","",Block16',"","","","","","",K,PreISI1,LR,62,"",0,K,blue,10,"","",1.53,576,"","",3,76.11
588960,275,275,block_Trng,3,task_Trng,2,1,"","",5,16,"","","","",Block16',"","","","","","",J,Stim16,LR,63,"",0,J,blue,11,"","",1.53,578,"","",3,76.39
588960,276,276,block_Trng,3,task_Trng,2,0,"","",6,16,"","","","",Block16',"","","","","","",K,PreISI1,HR,63,"",0,J,red,12,"","",1.53,578,"","",3,76.67
588960,277,277,block_Trng,3,task_Trng,2,1,"","",7,16,"","","","",Block16',"","","","","","",J,Stim15,LR,33,"",0,J,blue,9,"","",1.53,580,"","",3,76.94
588960,278,278,block_Trng,3,task_Trng,2,1,"","",8,16,"","","","",Block16',"","","","","","",K,Stim15,NR,43,"",0,K,green,9,"","",1.53,580,"","",3,77.22
588960,279,279,block_Trng,3,task_Trng,2,0,"","",9,16,"","","","",Block16',"","","","","","",J,Stim14,NR,99,"",0,K,green,11,"","",1.53,580,"","",3,77.5
588960,280,280,block_Trng,3,task_Trng,2,1,"","",10,16,"","","","",Block16',"","","","","","",K,Stim14,HR,111,"",0,K,red,9,"","",1.53,590,"","",3,77.78
588960,281,281,block_Trng,3,task_Trng,2,0,"","",11,16,"","","","",Block16',"","","","","","",J,PreISI1,NR,149,"",0,K,green,13,"","",1.53,590,"","",3,78.06
588960,282,282,block_Trng,3,task_Trng,2,1,"","",12,16,"","","","",Block16',"","","","","","",J,PreISI1,NR,94,"",0,J,green,12,"","",1.53,590,"","",3,78.33
588960,283,283,block_Trng,3,task_Trng,2,1,"","",13,16,"","","","",Block16',"","","","","","",J,Stim15,NR,8,"",0,J,green,8,"","",1.53,590,"","",3,78.61
588960,284,284,block_Trng,3,task_Trng,2,1,"","",14,16,"","","","",Block16',"","","","","","",K,Stim16,HR,33,"",0,K,red,11,"","",1.53,600,"","",3,78.89
588960,285,285,block_Trng,3,task_Trng,2,0,"","",15,16,"","","","",Block16',"","","","","","",J,PreISI1,LR,32,"",0,K,blue,8,"","",1.53,600,"","",3,79.17
588960,286,286,block_Trng,3,task_Trng,2,1,"","",16,16,"","","","",Block16',"","","","","","",J,PreISI2,HR,8,"",0,J,red,8,"","",1.53,610,"","",3,79.44
588960,287,287,block_Trng,3,task_Trng,2,1,"","",17,16,"","","","",Block16',"","","","","","",J,Stim16,NR,5,"",0,J,green,10,"","",1.53,610,"","",3,79.72
588960,288,288,block_Trng,3,task_Trng,2,0,"","",18,16,"","","","",Block16',"","","","","","",J,PreISI1,LR,240,"",0,K,blue,12,"","",2.07,610,"","",4,80
588960,289,289,block_Trng,3,task_Trng,2,0,"","",1,17,"","","","",Block17,"","","","","","",K,PreISI1,LR,107,"",0,J,blue,9,"","",2.07,610,"","",4,80.28
588960,290,290,block_Trng,3,task_Trng,2,1,"","",2,17,"","","","",Block17,"","","","","","",K,Stim15,NR,79,"",0,K,green,9,"","",2.07,610,"","",4,80.56
588960,291,291,block_Trng,3,task_Trng,2,0,"","",3,17,"","","","",Block17,"","","","","","",J,Stim13,HR,35,"",0,K,red,13,"","",2.07,610,"","",4,80.83
588960,292,292,block_Trng,3,task_Trng,2,1,"","",4,17,"","","","",Block17,"","","","","","",K,PreISI1,NR,20,"",0,K,green,11,"","",2.07,610,"","",4,81.11
588960,293,293,block_Trng,3,task_Trng,2,1,"","",5,17,"","","","",Block17,"","","","","","",J,Stim16,NR,18,"",0,J,green,10,"","",2.07,610,"","",4,81.39
588960,294,294,block_Trng,3,task_Trng,2,0,"","",6,17,"","","","",Block17,"","","","","","",K,PreISI1,LR,192,"",0,J,blue,13,"","",2.07,610,"","",4,81.67
588960,295,295,block_Trng,3,task_Trng,2,1,"","",7,17,"","","","",Block17,"","","","","","",J,Stim16,LR,99,"",0,J,blue,11,"","",2.07,612,"","",4,81.94
588960,296,296,block_Trng,3,task_Trng,2,1,"","",8,17,"","","","",Block17,Slow!,"","","","","",K,PreISI2,LR,170,"",1,K,blue,12,"","",2.07,612,"","",4,82.22
588960,297,297,block_Trng,3,task_Trng,2,1,"","",9,17,"","","","",Block17,"","","","","","",K,PreISI1,LR,30,"",0,K,blue,10,"","",2.07,614,"","",4,82.5
588960,298,298,block_Trng,3,task_Trng,2,1,"","",10,17,"","","","",Block17,"","","","","","",K,Stim16,LR,107,"",0,K,blue,8,"","",2.07,616,"","",4,82.78
588960,299,299,block_Trng,3,task_Trng,2,1,"","",11,17,"","","","",Block17,Slow!,"","","","","",J,PreISI2,NR,94,"",1,J,green,12,"","",2.07,616,"","",4,83.06
588960,300,300,block_Trng,3,task_Trng,2,1,"","",12,17,"","","","",Block17,"","","","","","",J,Stim15,HR,83,"",0,J,red,10,"","",2.07,626,"","",4,83.33
588960,301,301,block_Trng,3,task_Trng,2,1,"","",13,17,"","","","",Block17,"","","","","","",J,Stim16,HR,19,"",0,J,red,8,"","",2.07,636,"","",4,83.61
588960,302,302,block_Trng,3,task_Trng,2,1,"","",14,17,"","","","",Block17,"","","","","","",K,PreISI1,HR,185,"",0,K,red,11,"","",2.07,646,"","",4,83.89
588960,303,303,block_Trng,3,task_Trng,2,0,"","",15,17,"","","","",Block17,"","","","","","",J,PreISI1,NR,166,"",0,K,green,13,"","",2.07,646,"","",4,84.17
588960,304,304,block_Trng,3,task_Trng,2,0,"","",16,17,"","","","",Block17,"","","","","","",K,PreISI1,HR,85,"",0,J,red,12,"","",2.07,646,"","",4,84.44
588960,305,305,block_Trng,3,task_Trng,2,0,"","",17,17,"","","","",Block17,"","","","","","",J,Stim15,HR,119,"",0,K,red,9,"","",2.07,646,"","",4,84.72
588960,306,306,block_Trng,3,task_Trng,2,1,"","",18,17,"","","","",Block17,"","","","","","",J,Stim15,NR,66,"",0,J,green,8,"","",2.07,646,"","",4,85
588960,307,307,block_Trng,3,task_Trng,2,1,"","",1,18,"","","","",Block18,"","","","","","",J,Stim15,LR,48,"",0,J,blue,9,"","",2.07,648,"","",4,85.28
588960,308,308,block_Trng,3,task_Trng,2,0,"","",2,18,"","","","",Block18,"","","","","","",J,Stim15,HR,43,"",0,K,red,11,"","",2.07,648,"","",4,85.56
588960,309,309,block_Trng,3,task_Trng,2,1,"","",3,18,"","","","",Block18,"","","","","","",J,Stim16,LR,113,"",0,J,blue,13,"","",2.07,650,"","",4,85.83
588960,310,310,block_Trng,3,task_Trng,2,0,"","",4,18,"","","","",Block18,"","","","","","",J,PreISI1,HR,346,"",0,K,red,13,"","",2.07,650,"","",4,86.11
588960,311,311,block_Trng,3,task_Trng,2,1,"","",5,18,"","","","",Block18,"","","","","","",K,Stim15,LR,111,"",0,K,blue,8,"","",2.07,652,"","",4,86.39
588960,312,312,block_Trng,3,task_Trng,2,0,"","",6,18,"","","","",Block18,"","","","","","",J,PreISI1,LR,52,"",0,K,blue,12,"","",2.07,652,"","",4,86.67
588960,313,313,block_Trng,3,task_Trng,2,1,"","",7,18,"","","","",Block18,Slow!,"","","","","",J,PreISI2,NR,108,"",1,J,green,10,"","",2.07,652,"","",4,86.94
588960,314,314,block_Trng,3,task_Trng,2,1,"","",8,18,"","","","",Block18,"","","","","","",K,PreISI1,HR,140,"",0,K,red,9,"","",2.07,662,"","",4,87.22
588960,315,315,block_Trng,3,task_Trng,2,0,"","",9,18,"","","","",Block18,"","","","","","",J,PreISI1,NR,336,"",0,K,green,11,"","",2.07,662,"","",4,87.5
588960,316,316,block_Trng,3,task_Trng,2,0,"","",10,18,"","","","",Block18,"","","","","","",J,Stim13,NR,43,"",0,K,green,13,"","",2.07,662,"","",4,87.78
588960,317,317,block_Trng,3,task_Trng,2,1,"","",11,18,"","","","",Block18,"","","","","","",K,Stim15,NR,93,"",0,K,green,9,"","",2.07,662,"","",4,88.06
588960,318,318,block_Trng,3,task_Trng,2,1,"","",12,18,"","","","",Block18,"","","","","","",J,PreISI1,NR,151,"",0,J,green,12,"","",2.07,662,"","",4,88.33
588960,319,319,block_Trng,3,task_Trng,2,0,"","",13,18,"","","","",Block18,"","","","","","",K,Stim14,HR,61,"",0,J,red,12,"","",2.07,662,"","",4,88.61
588960,320,320,block_Trng,3,task_Trng,2,1,"","",14,18,"","","","",Block18,"","","","","","",J,PreISI1,HR,26,"",0,J,red,10,"","",2.07,672,"","",4,88.89
588960,321,321,block_Trng,3,task_Trng,2,1,"","",15,18,"","","","",Block18,"","","","","","",K,Stim16,LR,122,"",0,K,blue,10,"","",2.07,674,"","",4,89.17
588960,322,322,block_Trng,3,task_Trng,2,1,"","",16,18,"","","","",Block18,Slow!,"","","","","",J,PreISI2,LR,366,"",1,J,blue,11,"","",2.07,674,"","",4,89.44
588960,323,323,block_Trng,3,task_Trng,2,0,"","",17,18,"","","","",Block18,"","","","","","",K,Stim14,HR,9,"",0,J,red,8,"","",2.07,674,"","",4,89.72
588960,324,324,block_Trng,3,task_Trng,2,1,"","",18,18,"","","","",Block18,"","","","","","",J,Stim15,NR,34,"",0,J,green,8,"","",2.07,674,"","",4,90
588960,325,325,block_Trng,3,task_Trng,2,1,"","",1,19,"","","","",Block19,"","","","","","",K,PreISI2,NR,17,"",0,K,green,13,"","",2.07,674,"","",4,90.28
588960,326,326,block_Trng,3,task_Trng,2,0,"","",2,19,"","","","",Block19,"","","","","","",J,Stim13,LR,81,"",0,K,blue,10,"","",2.07,674,"","",4,90.56
588960,327,327,block_Trng,3,task_Trng,2,1,"","",3,19,"","","","",Block19,"","","","","","",J,Stim13,HR,18,"",0,J,red,8,"","",2.07,684,"","",4,90.83
588960,328,328,block_Trng,3,task_Trng,2,0,"","",4,19,"","","","",Block19,"","","","","","",K,Stim14,LR,31,"",0,J,blue,9,"","",2.07,684,"","",4,91.11
588960,329,329,block_Trng,3,task_Trng,2,1,"","",5,19,"","","","",Block19,"","","","","","",J,Stim15,HR,6,"",0,J,red,10,"","",2.07,694,"","",4,91.39
588960,330,330,block_Trng,3,task_Trng,2,0,"","",6,19,"","","","",Block19,"","","","","","",J,Stim13,HR,76,"",0,K,red,9,"","",2.07,694,"","",4,91.67
588960,331,331,block_Trng,3,task_Trng,2,0,"","",7,19,"","","","",Block19,"","","","","","",J,Stim16,NR,24,"",0,K,green,9,"","",2.07,694,"","",4,91.94
588960,332,332,block_Trng,3,task_Trng,2,0,"","",8,19,"","","","",Block19,"","","","","","",J,Stim16,LR,66,"",0,K,blue,12,"","",2.07,694,"","",4,92.22
588960,333,333,block_Trng,3,task_Trng,2,1,"","",9,19,"","","","",Block19,"","","","","","",J,Stim14,NR,123,"",0,J,green,8,"","",2.07,694,"","",4,92.5
588960,334,334,block_Trng,3,task_Trng,2,1,"","",10,19,"","","","",Block19,"","","","","","",K,PreISI1,HR,296,"",0,K,red,13,"","",2.07,704,"","",4,92.78
588960,335,335,block_Trng,3,task_Trng,2,1,"","",11,19,"","","","",Block19,"","","","","","",J,PreISI1,LR,186,"",0,J,blue,11,"","",2.07,706,"","",4,93.06
588960,336,336,block_Trng,3,task_Trng,2,1,"","",12,19,"","","","",Block19,"","","","","","",K,Stim14,LR,128,"",0,K,blue,8,"","",2.07,708,"","",4,93.33
588960,337,337,block_Trng,3,task_Trng,2,0,"","",13,19,"","","","",Block19,"","","","","","",J,Stim16,NR,11,"",0,K,green,11,"","",2.07,708,"","",4,93.61
588960,338,338,block_Trng,3,task_Trng,2,1,"","",14,19,"","","","",Block19,"","","","","","",K,PreISI1,HR,46,"",0,K,red,11,"","",2.07,718,"","",4,93.89
588960,339,339,block_Trng,3,task_Trng,2,1,"","",15,19,"","","","",Block19,"","","","","","",J,PreISI1,NR,191,"",0,J,green,10,"","",2.07,718,"","",4,94.17
588960,340,340,block_Trng,3,task_Trng,2,0,"","",16,19,"","","","",Block19,"","","","","","",K,PreISI1,LR,258,"",0,J,blue,13,"","",2.07,718,"","",4,94.44
588960,341,341,block_Trng,3,task_Trng,2,0,"","",17,19,"","","","",Block19,"","","","","","",K,PreISI1,NR,115,"",0,J,green,12,"","",2.07,718,"","",4,94.72
588960,342,342,block_Trng,3,task_Trng,2,1,"","",18,19,"","","","",Block19,"","","","","","",J,PreISI1,HR,280,"",0,J,red,12,"","",2.07,728,"","",4,95
588960,343,343,block_Trng,3,task_Trng,2,1,"","",1,20,"","","","",Block20,"","","","","","",J,PreISI1,NR,81,"",0,J,green,12,"","",2.07,728,"","",4,95.28
588960,344,344,block_Trng,3,task_Trng,2,1,"","",2,20,"","","","",Block20,"","","","","","",J,Stim15,LR,114,"",0,J,blue,9,"","",2.07,730,"","",4,95.56
588960,345,345,block_Trng,3,task_Trng,2,0,"","",3,20,"","","","",Block20,"","","","","","",J,Stim15,HR,25,"",0,K,red,9,"","",2.07,730,"","",4,95.83
588960,346,346,block_Trng,3,task_Trng,2,1,"","",4,20,"","","","",Block20,"","","","","","",J,PreISI1,NR,30,"",0,J,green,10,"","",2.07,730,"","",4,96.11
588960,347,347,block_Trng,3,task_Trng,2,1,"","",5,20,"","","","",Block20,"","","","","","",K,Stim15,LR,21,"",0,K,blue,8,"","",2.07,732,"","",4,96.39
588960,348,348,block_Trng,3,task_Trng,2,1,"","",6,20,"","","","",Block20,"","","","","","",J,PreISI1,HR,417,"",0,J,red,12,"","",2.07,742,"","",4,96.67
588960,349,349,block_Trng,3,task_Trng,2,0,"","",7,20,"","","","",Block20,"","","","","","",K,Stim15,HR,116,"",0,J,red,10,"","",2.07,742,"","",4,96.94
588960,350,350,block_Trng,3,task_Trng,2,1,"","",8,20,"","","","",Block20,"","","","","","",K,PreISI1,LR,359,"",0,K,blue,12,"","",2.07,744,"","",4,97.22
588960,351,351,block_Trng,3,task_Trng,2,0,"","",9,20,"","","","",Block20,"","","","","","",J,Stim16,HR,102,"",0,K,red,13,"","",2.07,744,"","",4,97.5
588960,352,352,block_Trng,3,task_Trng,2,1,"","",10,20,"","","","",Block20,"","","","","","",J,PreISI1,LR,1,"",0,J,blue,11,"","",2.07,746,"","",4,97.78
588960,353,353,block_Trng,3,task_Trng,2,1,"","",11,20,"","","","",Block20,"","","","","","",K,PreISI1,NR,442,"",0,K,green,13,"","",2.07,746,"","",4,98.06
588960,354,354,block_Trng,3,task_Trng,2,1,"","",12,20,"","","","",Block20,"","","","","","",K,Stim15,NR,65,"",0,K,green,9,"","",2.07,746,"","",4,98.33
588960,355,355,block_Trng,3,task_Trng,2,1,"","",13,20,"","","","",Block20,Slow!,"","","","","",K,PreISI2,LR,70,"",1,K,blue,10,"","",2.07,746,"","",4,98.61
588960,356,356,block_Trng,3,task_Trng,2,1,"","",14,20,"","","","",Block20,Slow!,"","","","","",J,PreISI2,NR,154,"",2,J,green,8,"","",2.07,746,"","",4,98.89
588960,357,357,block_Trng,3,task_Trng,2,1,"","",15,20,"","","","",Block20,"","","","","","",K,Stim14,NR,32,"",0,K,green,11,"","",2.07,746,"","",4,99.17
588960,358,358,block_Trng,3,task_Trng,2,0,"","",16,20,"","","","",Block20,"","","","","","",K,PreISI1,LR,307,"",0,J,blue,13,"","",2.07,746,"","",4,99.44
588960,359,359,block_Trng,3,task_Trng,2,1,"","",17,20,"","","","",Block20,"","","","","","",J,PreISI1,HR,328,"",0,J,red,8,"","",2.07,756,"","",4,99.72
588960,360,360,block_Trng,3,task_Trng,2,1,"","",18,20,"","","","",Block20,"","","","","","",K,Stim13,HR,93,"",0,K,red,11,"","",2.07,766,"","",4,100
588960,1,1,block_Trng,3,task_Trng_End,3,"","","","",1,"","","","","","","","","","","","","","","","","","","","","","",2.6,766,"","","",""
588960,1,1,block_Testing,4,task_Testing_Instructions,1,"","","","",1,"","","","","","","","","","","","","","","","","","","","","","","","","","","",""
588960,1,1,block_Testing,4,task_Testing,2,1,"","",1,1,"","",Block1,"","",Slow!,"","","","","",J,PreISI2,NR,196,"",1,J,green,10,0,0.56,"",766,"","","",""
588960,2,2,block_Testing,4,task_Testing,2,1,"","",2,1,"","",Block1,"","",Slow!,"","","","","",J,PreISI2,LR,242,"",2,J,blue,9,0,1.11,"",766,"","","",""
588960,3,3,block_Testing,4,task_Testing,2,1,"","",3,1,"","",Block1,"","","","","","","","",K,Stim12,LR,28,"",0,K,blue,12,0,1.67,"",766,"","","",""
588960,4,4,block_Testing,4,task_Testing,2,1,"","",4,1,"","",Block1,"","","","","","","","",J,Stim15,HR,71,"",0,J,red,8,0,2.22,"",766,"","","",""
588960,5,5,block_Testing,4,task_Testing,2,0,"","",5,1,"","",Block1,"","","","","","","","",J,Stim15,NR,49,"",0,K,green,11,0,2.78,"",766,"","","",""
588960,6,6,block_Testing,4,task_Testing,2,1,"","",6,1,"","",Block1,"","","","","","","","",J,Stim13,LR,101,"",0,J,blue,11,0,3.33,"",766,"","","",""
588960,7,7,block_Testing,4,task_Testing,2,1,"","",7,1,"","",Block1,"","","","","","","","",K,Stim14,NR,74,"",0,K,green,9,0,3.89,"",766,"","","",""
588960,8,8,block_Testing,4,task_Testing,2,1,"","",8,1,"","",Block1,"","","","","","","","",J,PreISI1,LR,378,"",0,J,blue,13,0,4.44,"",766,"","","",""
588960,9,9,block_Testing,4,task_Testing,2,0,"","",9,1,"","",Block1,"","",Slow!,"","","","","",K,PreISI2,HR,244,"",1,J,red,10,0,5,"",766,"","","",""
588960,10,10,block_Testing,4,task_Testing,2,1,"","",10,1,"","",Block1,"","","","","","","","",J,Stim14,NR,117,"",0,J,green,12,0,5.56,"",766,"","","",""
588960,11,11,block_Testing,4,task_Testing,2,0,"","",11,1,"","",Block1,"","","","","","","","",J,PreISI1,HR,122,"",0,K,red,11,0,6.11,"",766,"","","",""
588960,12,12,block_Testing,4,task_Testing,2,1,"","",12,1,"","",Block1,"","","","","","","","",K,Stim15,LR,16,"",0,K,blue,8,0,6.67,"",766,"","","",""
588960,13,13,block_Testing,4,task_Testing,2,0,"","",13,1,"","",Block1,"","","","","","","","",J,PreISI1,NR,461,"",0,K,green,13,0,7.22,"",766,"","","",""
588960,14,14,block_Testing,4,task_Testing,2,1,"","",14,1,"","",Block1,"","","","","","","","",K,PreISI1,HR,252,"",0,K,red,13,0,7.78,"",766,"","","",""
588960,15,15,block_Testing,4,task_Testing,2,0,"","",15,1,"","",Block1,"","","","","","","","",J,Stim15,LR,125,"",0,K,blue,10,0,8.33,"",766,"","","",""
588960,16,16,block_Testing,4,task_Testing,2,1,"","",16,1,"","",Block1,"","","","","","","","",J,PreISI1,HR,244,"",0,J,red,12,0,8.89,"",766,"","","",""
588960,17,17,block_Testing,4,task_Testing,2,1,"","",17,1,"","",Block1,"","","","","","","","",J,Stim15,NR,16,"",0,J,green,8,0,9.44,"",766,"","","",""
588960,18,18,block_Testing,4,task_Testing,2,1,"","",18,1,"","",Block1,"","","","","","","","",K,Stim15,HR,64,"",0,K,red,9,0,10,"",766,"","","",""
588960,19,19,block_Testing,4,task_Testing,2,0,"","",1,2,"","",Block2,"","",Slow!,"","","","","",J,PreISI2,NR,271,"",1,K,green,13,0,10.56,"",766,"","","",""
588960,20,20,block_Testing,4,task_Testing,2,1,"","",2,2,"","",Block2,"","","","","","","","",K,PreISI1,NR,12,"",0,K,green,9,0,11.11,"",766,"","","",""
588960,21,21,block_Testing,4,task_Testing,2,1,"","",3,2,"","",Block2,"","","","","","","","",J,Stim14,LR,124,"",0,J,blue,9,0,11.67,"",766,"","","",""
588960,22,22,block_Testing,4,task_Testing,2,0,"","",4,2,"","",Block2,"","","","","","","","",K,Stim13,NR,116,"",0,J,green,10,0,12.22,"",766,"","","",""
588960,23,23,block_Testing,4,task_Testing,2,1,"","",5,2,"","",Block2,"","","","","","","","",J,PreISI1,HR,264,"",0,J,red,12,0,12.78,"",766,"","","",""
588960,24,24,block_Testing,4,task_Testing,2,0,"","",6,2,"","",Block2,"","","","","","","","",K,PreISI1,LR,313,"",0,J,blue,11,0,13.33,"",766,"","","",""
588960,25,25,block_Testing,4,task_Testing,2,1,"","",7,2,"","",Block2,"","","","","","","","",J,Stim15,NR,21,"",0,J,green,8,0,13.89,"",766,"","","",""
588960,26,26,block_Testing,4,task_Testing,2,1,"","",8,2,"","",Block2,"","","","","","","","",K,PreISI1,HR,15,"",0,K,red,9,0,14.44,"",766,"","","",""
588960,27,27,block_Testing,4,task_Testing,2,1,"","",9,2,"","",Block2,"","","","","","","","",J,PreISI1,LR,43,"",0,J,blue,13,0,15,"",766,"","","",""
588960,28,28,block_Testing,4,task_Testing,2,1,"","",10,2,"","",Block2,"","","","","","","","",K,Stim14,HR,32,"",0,K,red,13,0,15.56,"",766,"","","",""
588960,29,29,block_Testing,4,task_Testing,2,0,"","",11,2,"","",Block2,"","",Slow!,"","","","","",J,PreISI2,HR,1240,"",1,K,red,11,0,16.11,"",766,"","","",""
588960,30,30,block_Testing,4,task_Testing,2,1,"","",12,2,"","",Block2,"","","","","","","","",J,Stim15,HR,18,"",0,J,red,8,0,16.67,"",766,"","","",""
588960,31,31,block_Testing,4,task_Testing,2,1,"","",13,2,"","",Block2,"","","","","","","","",K,PreISI1,NR,214,"",0,K,green,11,0,17.22,"",766,"","","",""
588960,32,32,block_Testing,4,task_Testing,2,1,"","",14,2,"","",Block2,"","","","","","","","",J,PreISI1,HR,23,"",0,J,red,10,0,17.78,"",766,"","","",""
588960,33,33,block_Testing,4,task_Testing,2,1,"","",15,2,"","",Block2,"","","","","","","","",K,Stim15,LR,6,"",0,K,blue,8,0,18.33,"",766,"","","",""
588960,34,34,block_Testing,4,task_Testing,2,1,"","",16,2,"","",Block2,"","",Slow!,"","","","","",K,PreISI2,LR,890,"",1,K,blue,12,0,18.89,"",766,"","","",""
588960,35,35,block_Testing,4,task_Testing,2,1,"","",17,2,"","",Block2,"","","","","","","","",J,PreISI1,NR,226,"",0,J,green,12,0,19.44,"",766,"","","",""
588960,36,36,block_Testing,4,task_Testing,2,1,"","",18,2,"","",Block2,"","","","","","","","",K,Stim14,LR,49,"",0,K,blue,10,0,20,"",766,"","","",""
588960,37,37,block_Testing,4,task_Testing,2,1,"","",1,3,"","",Block3,"","","","","","","","",J,Stim13,HR,112,"",0,J,red,12,0,20.56,"",766,"","","",""
588960,38,38,block_Testing,4,task_Testing,2,1,"","",2,3,"","",Block3,"","","","","","","","",J,Stim15,LR,100,"",0,J,blue,11,0,21.11,"",766,"","","",""
588960,39,39,block_Testing,4,task_Testing,2,1,"","",3,3,"","",Block3,"","","","","","","","",K,Stim15,LR,38,"",0,K,blue,10,0,21.67,"",766,"","","",""
588960,40,40,block_Testing,4,task_Testing,2,0,"","",4,3,"","",Block3,"","","","","","","","",J,Stim13,LR,29,"",0,K,blue,12,0,22.22,"",766,"","","",""
588960,41,41,block_Testing,4,task_Testing,2,1,"","",5,3,"","",Block3,"","","","","","","","",K,PreISI1,NR,29,"",0,K,green,11,0,22.78,"",766,"","","",""
588960,42,42,block_Testing,4,task_Testing,2,1,"","",6,3,"","",Block3,"","",Slow!,"","","","","",K,PreISI2,HR,274,"",1,K,red,11,0,23.33,"",766,"","","",""
588960,43,43,block_Testing,4,task_Testing,2,1,"","",7,3,"","",Block3,"","","","","","","","",J,Stim15,NR,48,"",0,J,green,10,0,23.89,"",766,"","","",""
588960,44,44,block_Testing,4,task_Testing,2,1,"","",8,3,"","",Block3,"","","","","","","","",K,Stim15,HR,30,"",0,K,red,13,0,24.44,"",766,"","","",""
588960,45,45,block_Testing,4,task_Testing,2,1,"","",9,3,"","",Block3,"","","","","","","","",J,PreISI1,HR,50,"",0,J,red,8,0,25,"",766,"","","",""
588960,46,46,block_Testing,4,task_Testing,2,1,"","",10,3,"","",Block3,"","","","","","","","",K,Stim12,LR,108,"",0,K,blue,8,0,25.56,"",766,"","","",""
588960,47,47,block_Testing,4,task_Testing,2,0,"","",11,3,"","",Block3,"","","","","","","","",J,Stim16,NR,47,"",0,K,green,9,0,26.11,"",766,"","","",""
588960,48,48,block_Testing,4,task_Testing,2,1,"","",12,3,"","",Block3,"","","","","","","","",K,Stim13,NR,31,"",0,K,green,13,0,26.67,"",766,"","","",""
588960,49,49,block_Testing,4,task_Testing,2,1,"","",13,3,"","",Block3,"","","","","","","","",J,Stim15,NR,56,"",0,J,green,8,0,27.22,"",766,"","","",""
588960,50,50,block_Testing,4,task_Testing,2,1,"","",14,3,"","",Block3,"","","","","","","","",K,Stim14,HR,88,"",0,K,red,9,0,27.78,"",766,"","","",""
588960,51,51,block_Testing,4,task_Testing,2,0,"","",15,3,"","",Block3,"","","","","","","","",K,Stim15,HR,82,"",0,J,red,10,0,28.33,"",766,"","","",""
588960,52,52,block_Testing,4,task_Testing,2,1,"","",16,3,"","",Block3,"","",Slow!,"","","","","",J,PreISI2,LR,511,"",1,J,blue,9,0,28.89,"",766,"","","",""
588960,53,53,block_Testing,4,task_Testing,2,0,"","",17,3,"","",Block3,"","","","","","","","",K,PreISI1,LR,510,"",0,J,blue,13,0,29.44,"",766,"","","",""
588960,54,54,block_Testing,4,task_Testing,2,1,"","",18,3,"","",Block3,"","","","","","","","",J,PreISI1,NR,120,"",0,J,green,12,1,30,"",766,"","","",""
588960,55,55,block_Testing,4,task_Testing,2,0,"","",1,4,"","",Block4,"","","","","","","","",K,PreISI1,NR,354,"",0,J,green,8,1,30.56,"",766,"","","",""
588960,56,56,block_Testing,4,task_Testing,2,1,"","",2,4,"","",Block4,"","","","","","","","",J,Stim13,LR,118,"",0,J,blue,9,1,31.11,"",766,"","","",""
588960,57,57,block_Testing,4,task_Testing,2,1,"","",3,4,"","",Block4,"","","","","","","","",K,Stim15,LR,114,"",0,K,blue,8,1,31.67,"",766,"","","",""
588960,58,58,block_Testing,4,task_Testing,2,1,"","",4,4,"","",Block4,"","","","","","","","",K,Stim14,LR,37,"",0,K,blue,10,1,32.22,"",766,"","","",""
588960,59,59,block_Testing,4,task_Testing,2,0,"","",5,4,"","",Block4,"","","","","","","","",J,Stim14,NR,122,"",0,K,green,11,1,32.78,"",766,"","","",""
588960,60,60,block_Testing,4,task_Testing,2,1,"","",6,4,"","",Block4,"","","","","","","","",K,Stim14,LR,107,"",0,K,blue,12,1,33.33,"",766,"","","",""
588960,61,61,block_Testing,4,task_Testing,2,1,"","",7,4,"","",Block4,"","","","","","","","",J,Stim16,HR,30,"",0,J,red,8,1,33.89,"",766,"","","",""
588960,62,62,block_Testing,4,task_Testing,2,0,"","",8,4,"","",Block4,"","","","","","","","",J,Stim15,NR,65,"",0,K,green,9,1,34.44,"",766,"","","",""
588960,63,63,block_Testing,4,task_Testing,2,0,"","",9,4,"","",Block4,"","","","","","","","",K,Stim16,LR,19,"",0,J,blue,13,1,35,"",766,"","","",""
588960,64,64,block_Testing,4,task_Testing,2,1,"","",10,4,"","",Block4,"","","","","","","","",J,Stim15,NR,60,"",0,J,green,12,1,35.56,"",766,"","","",""
588960,65,65,block_Testing,4,task_Testing,2,0,"","",11,4,"","",Block4,"","","","","","","","",K,PreISI1,LR,20,"",0,J,blue,11,1,36.11,"",766,"","","",""
588960,66,66,block_Testing,4,task_Testing,2,1,"","",12,4,"","",Block4,"","","","","","","","",J,PreISI1,HR,24,"",0,J,red,10,1,36.67,"",766,"","","",""
588960,67,67,block_Testing,4,task_Testing,2,1,"","",13,4,"","",Block4,"","","","","","","","",K,PreISI1,NR,84,"",0,K,green,13,1,37.22,"",766,"","","",""
588960,68,68,block_Testing,4,task_Testing,2,0,"","",14,4,"","",Block4,"","","","","","","","",K,PreISI1,HR,503,"",0,J,red,12,1,37.78,"",766,"","","",""
588960,69,69,block_Testing,4,task_Testing,2,0,"","",15,4,"","",Block4,"","","","","","","","",J,Stim13,HR,114,"",0,K,red,13,1,38.33,"",766,"","","",""
588960,70,70,block_Testing,4,task_Testing,2,1,"","",16,4,"","",Block4,"","","","","","","","",K,PreISI1,HR,118,"",0,K,red,11,1,38.89,"",766,"","","",""
588960,71,71,block_Testing,4,task_Testing,2,1,"","",17,4,"","",Block4,"","","","","","","","",J,Stim16,NR,60,"",0,J,green,10,1,39.44,"",766,"","","",""
588960,72,72,block_Testing,4,task_Testing,2,1,"","",18,4,"","",Block4,"","","","","","","","",K,Stim15,HR,24,"",0,K,red,9,1,40,"",766,"","","",""
588960,73,73,block_Testing,4,task_Testing,2,1,"","",1,5,"","",Block5,"","","","","","","","",J,Stim14,NR,120,"",0,J,green,8,1,40.56,"",766,"","","",""
588960,74,74,block_Testing,4,task_Testing,2,0,"","",2,5,"","",Block5,"","","","","","","","",K,PreISI1,NR,304,"",0,J,green,12,1,41.11,"",766,"","","",""
588960,75,75,block_Testing,4,task_Testing,2,1,"","",3,5,"","",Block5,"","","","","","","","",J,PreISI1,NR,33,"",0,J,green,10,1,41.67,"",766,"","","",""
588960,76,76,block_Testing,4,task_Testing,2,0,"","",4,5,"","",Block5,"","","","","","","","",J,PreISI1,NR,100,"",0,K,green,13,1,42.22,"",766,"","","",""
588960,77,77,block_Testing,4,task_Testing,2,1,"","",5,5,"","",Block5,"","","","","","","","",K,PreISI1,LR,223,"",0,K,blue,12,1,42.78,"",766,"","","",""
588960,78,78,block_Testing,4,task_Testing,2,1,"","",6,5,"","",Block5,"","","","","","","","",K,PreISI1,NR,35,"",0,K,green,9,1,43.33,"",766,"","","",""
588960,79,79,block_Testing,4,task_Testing,2,0,"","",7,5,"","",Block5,"","",Slow!,"","","","","",K,PreISI2,LR,241,"",1,J,blue,11,1,43.89,"",766,"","","",""
588960,80,80,block_Testing,4,task_Testing,2,0,"","",8,5,"","",Block5,"","","","","","","","",J,Stim16,LR,73,"",0,K,blue,10,1,44.44,"",766,"","","",""
588960,81,81,block_Testing,4,task_Testing,2,1,"","",9,5,"","",Block5,"","","","","","","","",K,Stim16,HR,122,"",0,K,red,13,1,45,"",766,"","","",""
588960,82,82,block_Testing,4,task_Testing,2,1,"","",10,5,"","",Block5,"","","","","","","","",J,Stim16,HR,101,"",0,J,red,10,1,45.56,"",766,"","","",""
588960,83,83,block_Testing,4,task_Testing,2,1,"","",11,5,"","",Block5,"","","","","","","","",J,PreISI1,LR,205,"",0,J,blue,9,1,46.11,"",766,"","","",""
588960,84,84,block_Testing,4,task_Testing,2,1,"","",12,5,"","",Block5,"","","","","","","","",K,PreISI1,HR,340,"",0,K,red,11,1,46.67,"",766,"","","",""
588960,85,85,block_Testing,4,task_Testing,2,1,"","",13,5,"","",Block5,"","","","","","","","",J,PreISI1,LR,125,"",0,J,blue,13,1,47.22,"",766,"","","",""
588960,86,86,block_Testing,4,task_Testing,2,1,"","",14,5,"","",Block5,"","","","","","","","",K,PreISI1,NR,227,"",0,K,green,11,1,47.78,"",766,"","","",""
588960,87,87,block_Testing,4,task_Testing,2,1,"","",15,5,"","",Block5,"","","","","","","","",J,PreISI1,HR,180,"",0,J,red,12,1,48.33,"",766,"","","",""
588960,88,88,block_Testing,4,task_Testing,2,1,"","",16,5,"","",Block5,"","","","","","","","",K,Stim15,HR,5,"",0,K,red,9,1,48.89,"",766,"","","",""
588960,89,89,block_Testing,4,task_Testing,2,0,"","",17,5,"","",Block5,"","","","","","","","",J,Stim15,LR,21,"",0,K,blue,8,1,49.44,"",766,"","","",""
588960,90,90,block_Testing,4,task_Testing,2,0,"","",18,5,"","",Block5,"","","","","","","","",K,Stim16,HR,84,"",0,J,red,8,1,50,"",766,"","","",""
588960,91,91,block_Testing,4,task_Testing,2,1,"","",1,6,"","",Block6,"","","","","","","","",J,Stim15,NR,113,"",0,J,green,10,1,50.56,"",766,"","","",""
588960,92,92,block_Testing,4,task_Testing,2,1,"","",2,6,"","",Block6,"","","","","","","","",J,Stim15,LR,15,"",0,J,blue,9,1,51.11,"",766,"","","",""
588960,93,93,block_Testing,4,task_Testing,2,1,"","",3,6,"","",Block6,"","","","","","","","",K,Stim14,NR,108,"",0,K,green,11,1,51.67,"",766,"","","",""
588960,94,94,block_Testing,4,task_Testing,2,0,"","",4,6,"","",Block6,"","","","","","","","",J,PreISI1,LR,265,"",0,K,blue,10,1,52.22,"",766,"","","",""
588960,95,95,block_Testing,4,task_Testing,2,1,"","",5,6,"","",Block6,"","","","","","","","",K,Stim14,HR,40,"",0,K,red,13,1,52.78,"",766,"","","",""
588960,96,96,block_Testing,4,task_Testing,2,1,"","",6,6,"","",Block6,"","","","","","","","",J,Stim14,HR,2,"",0,J,red,8,1,53.33,"",766,"","","",""
588960,97,97,block_Testing,4,task_Testing,2,1,"","",7,6,"","",Block6,"","","","","","","","",K,Stim14,HR,69,"",0,K,red,11,1,53.89,"",766,"","","",""
588960,98,98,block_Testing,4,task_Testing,2,1,"","",8,6,"","",Block6,"","","","","","","","",J,PreISI1,NR,34,"",0,J,green,12,1,54.44,"",766,"","","",""
588960,99,99,block_Testing,4,task_Testing,2,1,"","",9,6,"","",Block6,"","",Slow!,"","","","","",K,PreISI2,NR,160,"",1,K,green,13,1,55,"",766,"","","",""
588960,100,100,block_Testing,4,task_Testing,2,1,"","",10,6,"","",Block6,"","","","","","","","",J,PreISI1,HR,69,"",0,J,red,10,1,55.56,"",766,"","","",""
588960,101,101,block_Testing,4,task_Testing,2,1,"","",11,6,"","",Block6,"","","","","","","","",J,PreISI1,LR,381,"",0,J,blue,13,1,56.11,"",766,"","","",""
588960,102,102,block_Testing,4,task_Testing,2,1,"","",12,6,"","",Block6,"","","","","","","","",K,PreISI1,LR,249,"",0,K,blue,12,1,56.67,"",766,"","","",""
588960,103,103,block_Testing,4,task_Testing,2,1,"","",13,6,"","",Block6,"","","","","","","","",K,Stim14,LR,95,"",0,K,blue,8,1,57.22,"",766,"","","",""
588960,104,104,block_Testing,4,task_Testing,2,0,"","",14,6,"","",Block6,"","","","","","","","",J,Stim16,HR,20,"",0,K,red,9,1,57.78,"",766,"","","",""
588960,105,105,block_Testing,4,task_Testing,2,1,"","",15,6,"","",Block6,"","","","","","","","",J,Stim16,NR,42,"",0,J,green,8,1,58.33,"",766,"","","",""
588960,106,106,block_Testing,4,task_Testing,2,1,"","",16,6,"","",Block6,"","","","","","","","",K,PreISI1,NR,205,"",0,K,green,9,1,58.89,"",766,"","","",""
588960,107,107,block_Testing,4,task_Testing,2,1,"","",17,6,"","",Block6,"","","","","","","","",J,PreISI1,HR,47,"",0,J,red,12,1,59.44,"",766,"","","",""
588960,108,108,block_Testing,4,task_Testing,2,1,"","",18,6,"","",Block6,"","","","","","","","",J,PreISI1,LR,79,"",0,J,blue,11,2,60,"",766,"","","",""
588960,109,109,block_Testing,4,task_Testing,2,1,"","",1,7,"","",Block7,"","","","","","","","",J,Stim15,HR,25,"",0,J,red,8,2,60.56,"",766,"","","",""
588960,110,110,block_Testing,4,task_Testing,2,1,"","",2,7,"","",Block7,"","","","","","","","",J,PreISI1,NR,91,"",0,J,green,10,2,61.11,"",766,"","","",""
588960,111,111,block_Testing,4,task_Testing,2,0,"","",3,7,"","",Block7,"","","","","","","","",J,Stim15,LR,19,"",0,K,blue,12,2,61.67,"",766,"","","",""
588960,112,112,block_Testing,4,task_Testing,2,1,"","",4,7,"","",Block7,"","","","","","","","",J,PreISI1,LR,274,"",0,J,blue,13,2,62.22,"",766,"","","",""
588960,113,113,block_Testing,4,task_Testing,2,1,"","",5,7,"","",Block7,"","","","","","","","",K,Stim16,LR,74,"",0,K,blue,8,2,62.78,"",766,"","","",""
588960,114,114,block_Testing,4,task_Testing,2,1,"","",6,7,"","",Block7,"","","","","","","","",J,Stim15,LR,65,"",0,J,blue,11,2,63.33,"",766,"","","",""
588960,115,115,block_Testing,4,task_Testing,2,1,"","",7,7,"","",Block7,"","","","","","","","",K,PreISI1,HR,290,"",0,K,red,13,2,63.89,"",766,"","","",""
588960,116,116,block_Testing,4,task_Testing,2,1,"","",8,7,"","",Block7,"","","","","","","","",K,PreISI1,LR,138,"",0,K,blue,10,2,64.44,"",766,"","","",""
588960,117,117,block_Testing,4,task_Testing,2,1,"","",9,7,"","",Block7,"","",Slow!,"","","","","",K,PreISI2,NR,24,"",1,K,green,9,2,65,"",766,"","","",""
588960,118,118,block_Testing,4,task_Testing,2,1,"","",10,7,"","",Block7,"","","","","","","","",J,Stim14,NR,94,"",0,J,green,8,2,65.56,"",766,"","","",""
588960,119,119,block_Testing,4,task_Testing,2,1,"","",11,7,"","",Block7,"","","","","","","","",J,PreISI1,NR,230,"",0,J,green,12,2,66.11,"",766,"","","",""
588960,120,120,block_Testing,4,task_Testing,2,1,"","",12,7,"","",Block7,"","","","","","","","",K,Stim15,NR,24,"",0,K,green,11,2,66.67,"",766,"","","",""
588960,121,121,block_Testing,4,task_Testing,2,0,"","",13,7,"","",Block7,"","","","","","","","",J,PreISI1,NR,25,"",0,K,green,13,2,67.22,"",766,"","","",""
588960,122,122,block_Testing,4,task_Testing,2,1,"","",14,7,"","",Block7,"","","","","","","","",J,Stim14,LR,88,"",0,J,blue,9,2,67.78,"",766,"","","",""
588960,123,123,block_Testing,4,task_Testing,2,1,"","",15,7,"","",Block7,"","","","","","","","",K,Stim15,HR,124,"",0,K,red,11,2,68.33,"",766,"","","",""
588960,124,124,block_Testing,4,task_Testing,2,0,"","",16,7,"","",Block7,"","","","","","","","",J,PreISI1,HR,69,"",0,K,red,9,2,68.89,"",766,"","","",""
588960,125,125,block_Testing,4,task_Testing,2,1,"","",17,7,"","",Block7,"","","","","","","","",J,PreISI1,HR,300,"",0,J,red,12,2,69.44,"",766,"","","",""
588960,126,126,block_Testing,4,task_Testing,2,1,"","",18,7,"","",Block7,"","","","","","","","",J,PreISI1,HR,32,"",0,J,red,10,2,70,"",766,"","","",""
588960,127,127,block_Testing,4,task_Testing,2,0,"","",1,8,"","",Block8,"","","","","","","","",K,PreISI1,LR,138,"",0,J,blue,13,2,70.56,"",766,"","","",""
588960,128,128,block_Testing,4,task_Testing,2,0,"","",2,8,"","",Block8,"","",Slow!,"","","","","",J,PreISI2,NR,592,"",1,K,green,13,2,71.11,"",766,"","","",""
588960,129,129,block_Testing,4,task_Testing,2,1,"","",3,8,"","",Block8,"","","","","","","","",K,PreISI1,HR,229,"",0,K,red,11,2,71.67,"",766,"","","",""
588960,130,130,block_Testing,4,task_Testing,2,0,"","",4,8,"","",Block8,"","","","","","","","",J,PreISI1,LR,378,"",0,K,blue,12,2,72.22,"",766,"","","",""
588960,131,131,block_Testing,4,task_Testing,2,1,"","",5,8,"","",Block8,"","","","","","","","",K,PreISI1,HR,357,"",0,K,red,9,2,72.78,"",766,"","","",""
588960,132,132,block_Testing,4,task_Testing,2,1,"","",6,8,"","",Block8,"","","","","","","","",J,PreISI1,HR,74,"",0,J,red,12,2,73.33,"",766,"","","",""
588960,133,133,block_Testing,4,task_Testing,2,1,"","",7,8,"","",Block8,"","","","","","","","",K,PreISI1,NR,197,"",0,K,green,11,2,73.89,"",766,"","","",""
588960,134,134,block_Testing,4,task_Testing,2,1,"","",8,8,"","",Block8,"","","","","","","","",J,Stim15,LR,29,"",0,J,blue,9,2,74.44,"",766,"","","",""
588960,135,135,block_Testing,4,task_Testing,2,0,"","",9,8,"","",Block8,"","","","","","","","",J,PreISI1,LR,171,"",0,K,blue,8,2,75,"",766,"","","",""
588960,136,136,block_Testing,4,task_Testing,2,0,"","",10,8,"","",Block8,"","","","","","","","",J,PreISI2,HR,28,"",0,K,red,13,2,75.56,"",766,"","","",""
588960,137,137,block_Testing,4,task_Testing,2,0,"","",11,8,"","",Block8,"","","","","","","","",K,Stim15,LR,39,"",0,J,blue,11,2,76.11,"",766,"","","",""
588960,138,138,block_Testing,4,task_Testing,2,0,"","",12,8,"","",Block8,"","",Slow!,"","","","","",K,PreISI2,HR,300,"",1,J,red,10,2,76.67,"",766,"","","",""
588960,139,139,block_Testing,4,task_Testing,2,1,"","",13,8,"","",Block8,"","","","","","","","",J,Stim15,HR,47,"",0,J,red,8,2,77.22,"",766,"","","",""
588960,140,140,block_Testing,4,task_Testing,2,1,"","",14,8,"","",Block8,"","","","","","","","",K,PreISI1,NR,52,"",0,K,green,9,2,77.78,"",766,"","","",""
588960,141,141,block_Testing,4,task_Testing,2,1,"","",15,8,"","",Block8,"","","","","","","","",J,Stim16,NR,72,"",0,J,green,12,2,78.33,"",766,"","","",""
588960,142,142,block_Testing,4,task_Testing,2,1,"","",16,8,"","",Block8,"","","","","","","","",K,Stim16,LR,29,"",0,K,blue,10,2,78.89,"",766,"","","",""
588960,143,143,block_Testing,4,task_Testing,2,1,"","",17,8,"","",Block8,"","","","","","","","",J,PreISI1,NR,30,"",0,J,green,10,2,79.44,"",766,"","","",""
588960,144,144,block_Testing,4,task_Testing,2,1,"","",18,8,"","",Block8,"","","","","","","","",J,PreISI1,NR,285,"",0,J,green,8,2,80,"",766,"","","",""
588960,145,145,block_Testing,4,task_Testing,2,0,"","",1,9,"","",Block9,"","","","","","","","",K,Stim16,HR,44,"",0,J,red,12,2,80.56,"",766,"","","",""
588960,146,146,block_Testing,4,task_Testing,2,1,"","",2,9,"","",Block9,"","","","","","","","",J,Stim16,LR,118,"",0,J,blue,9,2,81.11,"",766,"","","",""
588960,147,147,block_Testing,4,task_Testing,2,0,"","",3,9,"","",Block9,"","","","","","","","",K,Stim15,LR,79,"",0,J,blue,11,2,81.67,"",766,"","","",""
588960,148,148,block_Testing,4,task_Testing,2,1,"","",4,9,"","",Block9,"","",Slow!,"","","","","",K,PreISI2,NR,1453,"",1,K,green,11,2,82.22,"",766,"","","",""
588960,149,149,block_Testing,4,task_Testing,2,1,"","",5,9,"","",Block9,"","","","","","","","",K,PreISI1,NR,416,"",0,K,green,13,2,82.78,"",766,"","","",""
588960,150,150,block_Testing,4,task_Testing,2,1,"","",6,9,"","",Block9,"","",Slow!,"","","","","",J,PreISI2,NR,66,"",1,J,green,8,2,83.33,"",766,"","","",""
588960,151,151,block_Testing,4,task_Testing,2,1,"","",7,9,"","",Block9,"","","","","","","","",J,Stim15,HR,75,"",0,J,red,8,2,83.89,"",766,"","","",""
588960,152,152,block_Testing,4,task_Testing,2,1,"","",8,9,"","",Block9,"","","","","","","","",K,Stim15,HR,44,"",0,K,red,9,2,84.44,"",766,"","","",""
588960,153,153,block_Testing,4,task_Testing,2,1,"","",9,9,"","",Block9,"","","","","","","","",J,Stim16,NR,21,"",0,J,green,10,2,85,"",766,"","","",""
588960,154,154,block_Testing,4,task_Testing,2,1,"","",10,9,"","",Block9,"","","","","","","","",J,PreISI1,LR,70,"",0,J,blue,13,2,85.56,"",766,"","","",""
588960,155,155,block_Testing,4,task_Testing,2,1,"","",11,9,"","",Block9,"","","","","","","","",K,PreISI1,LR,361,"",0,K,blue,12,2,86.11,"",766,"","","",""
588960,156,156,block_Testing,4,task_Testing,2,1,"","",12,9,"","",Block9,"","","","","","","","",K,PreISI1,LR,144,"",0,K,blue,10,2,86.67,"",766,"","","",""
588960,157,157,block_Testing,4,task_Testing,2,1,"","",13,9,"","",Block9,"","","","","","","","",K,Stim15,LR,25,"",0,K,blue,8,2,87.22,"",766,"","","",""
588960,158,158,block_Testing,4,task_Testing,2,1,"","",14,9,"","",Block9,"","","","","","","","",J,PreISI1,NR,333,"",0,J,green,12,2,87.78,"",766,"","","",""
588960,159,159,block_Testing,4,task_Testing,2,1,"","",15,9,"","",Block9,"","","","","","","","",J,Stim16,HR,55,"",0,J,red,10,2,88.33,"",766,"","","",""
588960,160,160,block_Testing,4,task_Testing,2,1,"","",16,9,"","",Block9,"","",Slow!,"","","","","",K,PreISI2,HR,29,"",1,K,red,13,2,88.89,"",766,"","","",""
588960,161,161,block_Testing,4,task_Testing,2,1,"","",17,9,"","",Block9,"","","","","","","","",K,PreISI1,HR,283,"",0,K,red,11,2,89.44,"",766,"","","",""
588960,162,162,block_Testing,4,task_Testing,2,0,"","",18,9,"","",Block9,"","","","","","","","",J,PreISI1,NR,176,"",0,K,green,9,2,90,"",766,"","","",""
588960,163,163,block_Testing,4,task_Testing,2,1,"","",1,10,"","",Block10,"","","","","","","","",K,PreISI1,HR,285,"",0,K,red,13,2,90.56,"",766,"","","",""
588960,164,164,block_Testing,4,task_Testing,2,0,"","",2,10,"","",Block10,"","",Slow!,"","","","","",J,PreISI2,LR,334,"",1,K,blue,8,2,91.11,"",766,"","","",""
588960,165,165,block_Testing,4,task_Testing,2,0,"","",3,10,"","",Block10,"","",Slow!,"","","","","",J,ISI,LR,186,"",2,K,blue,12,2,91.67,"",766,"","","",""
588960,166,166,block_Testing,4,task_Testing,2,1,"","",4,10,"","",Block10,"","","","","","","","",K,Stim15,HR,37,"",0,K,red,9,2,92.22,"",766,"","","",""
588960,167,167,block_Testing,4,task_Testing,2,1,"","",5,10,"","",Block10,"","",Slow!,"","","","","",K,PreISI2,NR,272,"",1,K,green,13,2,92.78,"",766,"","","",""
588960,168,168,block_Testing,4,task_Testing,2,1,"","",6,10,"","",Block10,"","","","","","","","",J,Stim16,HR,22,"",0,J,red,10,2,93.33,"",766,"","","",""
588960,169,169,block_Testing,4,task_Testing,2,1,"","",7,10,"","",Block10,"","","","","","","","",J,Stim15,HR,124,"",0,J,red,8,2,93.89,"",766,"","","",""
588960,170,170,block_Testing,4,task_Testing,2,1,"","",8,10,"","",Block10,"","","","","","","","",K,PreISI1,NR,117,"",0,K,green,11,2,94.44,"",766,"","","",""
588960,171,171,block_Testing,4,task_Testing,2,1,"","",9,10,"","",Block10,"","","","","","","","",J,PreISI1,NR,351,"",0,J,green,12,2,95,"",766,"","","",""
588960,172,172,block_Testing,4,task_Testing,2,1,"","",10,10,"","",Block10,"","","","","","","","",K,Stim16,NR,53,"",0,K,green,9,2,95.56,"",766,"","","",""
588960,173,173,block_Testing,4,task_Testing,2,1,"","",11,10,"","",Block10,"","","","","","","","",J,PreISI1,LR,533,"",0,J,blue,13,2,96.11,"",766,"","","",""
588960,174,174,block_Testing,4,task_Testing,2,1,"","",12,10,"","",Block10,"","","","","","","","",J,PreISI1,NR,98,"",0,J,green,10,2,96.67,"",766,"","","",""
588960,175,175,block_Testing,4,task_Testing,2,1,"","",13,10,"","",Block10,"","","","","","","","",J,PreISI1,NR,415,"",0,J,green,8,2,97.22,"",766,"","","",""
588960,176,176,block_Testing,4,task_Testing,2,0,"","",14,10,"","",Block10,"","","","","","","","",K,PreISI1,LR,186,"",0,J,blue,11,2,97.78,"",766,"","","",""
588960,177,177,block_Testing,4,task_Testing,2,1,"","",15,10,"","",Block10,"","","","","","","","",K,Stim16,LR,96,"",0,K,blue,10,2,98.33,"",766,"","","",""
588960,178,178,block_Testing,4,task_Testing,2,1,"","",16,10,"","",Block10,"","","","","","","","",J,PreISI1,HR,290,"",0,J,red,12,2,98.89,"",766,"","","",""
588960,179,179,block_Testing,4,task_Testing,2,0,"","",17,10,"","",Block10,"","","","","","","","",K,PreISI1,LR,45,"",0,J,blue,9,2,99.44,"",766,"","","",""
588960,180,180,block_Testing,4,task_Testing,2,1,"","",18,10,"","",Block10,"","","","","","","","",K,PreISI1,HR,96,"",0,K,red,11,2,100,"",766,"","","",""
588960,1,1,block_End,5,task_Demog_End,1,"","",25,"",1,"","","","","","","","","","","","","","","",Male,"","","","","","","","","","","",""
