Rec_Session_Id,Trial_Nr,Trial_Id,Block_Name,Block_Nr,Task_Name,Task_Nr,ACC,ACC_Total_Prac,Age,BlkTrial_Nr,Condition_Id,Consent,Contact,copy_of_factor1_tg1_task2,Email,factor1_tg1_task2,Fdbck_Slow,Feedback,MatricNo,Name,PAYNOW,Recontact,RESP,RESP_Frame,Reward,RT_FromFramePress,Sex,SlowResp,Targ,TargCol,TargPos,Testing_BreakCount,Testing_Progress,TotalMoney,TotalPoints,TotalPoints_prac,Trial_Nr_prac,Trng_BreakCount,Trng_Progress
600109,1,1,block_TrngInstructions,1,task_Trng_Instructions,1,"","","","",1,"","","","","","","","","","","","","","","","","","","","","","","","","","","",""
600109,1,1,block_Practice,2,task_Trng_Prac,2,0,0,"","",1,"","","","","",Slow!,"","","","","","","",Disallowed,0,"",1,J,green,9,"","","",0,0,"","",""
600109,2,2,block_Practice,2,task_Trng_Prac,2,1,1,"","",1,"","","","","","","","","","","",J,Stim16,Disallowed,107,"",1,J,blue,12,"","","",0,0,"","",""
600109,3,3,block_Practice,2,task_Trng_Prac,2,1,2,"","",1,"","","","","","","","","","","",J,PreISI1,Disallowed,16,"",1,J,blue,13,"","","",0,0,"","",""
600109,4,4,block_Practice,2,task_Trng_Prac,2,1,3,"","",1,"","","","","","","","","","","",K,Stim11,Disallowed,89,"",1,K,red,8,"","","",0,0,"","",""
600109,5,5,block_Practice,2,task_Trng_Prac,2,1,4,"","",1,"","","","","","","","","","","",K,Stim14,Disallowed,69,"",1,K,green,11,"","","",0,0,"","",""
600109,6,6,block_Practice,2,task_Trng_Prac,2,1,5,"","",1,"","","","","","","","","","","",K,Stim14,Disallowed,6,"",1,K,red,10,"","","",0,0,"","",""
600109,1,1,block_Practice,2,task_GetReady,1,"","","","",1,"","","","","","","","","","","","","","","","","","","","","","","","","","","",""
600109,1,1,block_Trng,3,task_GetReady,1,"","","","",1,"","","","","","","","","","","","","","","","","","","","","","","","","","","",""
600109,1,1,block_Trng,3,task_Trng,2,1,"","",1,1,"","","","",Block1,"","","","","","",J,Stim13,LR,119,"",0,J,green,10,"","",0,2,"","",0,0.28
600109,2,2,block_Trng,3,task_Trng,2,1,"","",2,1,"","","","",Block1,"","","","","","",J,Stim16,HR,118,"",0,J,blue,13,"","",0,12,"","",0,0.56
600109,3,3,block_Trng,3,task_Trng,2,1,"","",3,1,"","","","",Block1,"","","","","","",K,Stim16,HR,87,"",0,K,blue,12,"","",0,22,"","",0,0.83
600109,4,4,block_Trng,3,task_Trng,2,1,"","",4,1,"","","","",Block1,"","","","","","",J,Stim12,NR,16,"",0,J,red,8,"","",0,22,"","",0,1.11
600109,5,5,block_Trng,3,task_Trng,2,1,"","",5,1,"","","","",Block1,"","","","","","",J,Stim12,HR,34,"",0,J,blue,9,"","",0,32,"","",0,1.39
600109,6,6,block_Trng,3,task_Trng,2,1,"","",6,1,"","","","",Block1,"","","","","","",J,Stim11,LR,62,"",0,J,green,8,"","",0,34,"","",0,1.67
600109,7,7,block_Trng,3,task_Trng,2,1,"","",7,1,"","","","",Block1,"","","","","","",J,Stim15,NR,29,"",0,J,red,12,"","",0,34,"","",0,1.94
600109,8,8,block_Trng,3,task_Trng,2,1,"","",8,1,"","","","",Block1,"","","","","","",K,Stim10,HR,116,"",0,K,blue,8,"","",0,44,"","",0,2.22
600109,9,9,block_Trng,3,task_Trng,2,1,"","",9,1,"","","","",Block1,"","","","","","",J,Stim14,LR,63,"",0,J,green,12,"","",0,46,"","",0,2.5
600109,10,10,block_Trng,3,task_Trng,2,1,"","",10,1,"","","","",Block1,"","","","","","",K,Stim14,LR,7,"",0,K,green,11,"","",0,48,"","",0,2.78
600109,11,11,block_Trng,3,task_Trng,2,1,"","",11,1,"","","","",Block1,"","","","","","",K,Stim16,LR,16,"",0,K,green,13,"","",0,50,"","",0,3.06
600109,12,12,block_Trng,3,task_Trng,2,1,"","",12,1,"","","","",Block1,"","","","","","",K,Stim13,HR,10,"",0,K,blue,10,"","",0,60,"","",0,3.33
600109,13,13,block_Trng,3,task_Trng,2,1,"","",13,1,"","","","",Block1,"","","","","","",K,Stim12,LR,19,"",0,K,green,9,"","",0,62,"","",0,3.61
600109,14,14,block_Trng,3,task_Trng,2,1,"","",14,1,"","","","",Block1,"","","","","","",K,Stim12,NR,6,"",0,K,red,9,"","",0,62,"","",0,3.89
600109,15,15,block_Trng,3,task_Trng,2,1,"","",15,1,"","","","",Block1,"","","","","","",K,Stim14,NR,15,"",0,K,red,11,"","",0,62,"","",0,4.17
600109,16,16,block_Trng,3,task_Trng,2,0,"","",16,1,"","","","",Block1,"","","","","","",K,Stim14,HR,7,"",0,J,blue,11,"","",0,62,"","",0,4.44
600109,17,17,block_Trng,3,task_Trng,2,1,"","",17,1,"","","","",Block1,"","","","","","",J,Stim13,NR,101,"",0,J,red,10,"","",0,62,"","",0,4.72
600109,18,18,block_Trng,3,task_Trng,2,1,"","",18,1,"","","","",Block1,"","","","","","",K,Stim16,NR,18,"",0,K,red,13,"","",0,62,"","",0,5
600109,19,19,block_Trng,3,task_Trng,2,1,"","",1,2,"","","","",Block2,"","","","","","",J,Stim14,HR,30,"",0,J,blue,11,"","",0,72,"","",0,5.28
600109,20,20,block_Trng,3,task_Trng,2,0,"","",2,2,"","","","",Block2,"","","","","","",K,Stim10,LR,82,"",0,J,green,8,"","",0,72,"","",0,5.56
600109,21,21,block_Trng,3,task_Trng,2,1,"","",3,2,"","","","",Block2,"","","","","","",J,Stim15,NR,16,"",0,J,red,12,"","",0,72,"","",0,5.83
600109,22,22,block_Trng,3,task_Trng,2,1,"","",4,2,"","","","",Block2,"","","","","","",K,Stim11,HR,22,"",0,K,blue,8,"","",0,82,"","",0,6.11
600109,23,23,block_Trng,3,task_Trng,2,1,"","",5,2,"","","","",Block2,"","","","","","",J,Stim15,HR,101,"",0,J,blue,13,"","",0,92,"","",0,6.39
600109,24,24,block_Trng,3,task_Trng,2,1,"","",6,2,"","","","",Block2,"","","","","","",K,Stim11,NR,38,"",0,K,red,9,"","",0,92,"","",0,6.67
600109,25,25,block_Trng,3,task_Trng,2,1,"","",7,2,"","","","",Block2,"","","","","","",K,Stim13,HR,76,"",0,K,blue,10,"","",0,102,"","",0,6.94
600109,26,26,block_Trng,3,task_Trng,2,1,"","",8,2,"","","","",Block2,"","","","","","",K,Stim12,LR,80,"",0,K,green,9,"","",0,104,"","",0,7.22
600109,27,27,block_Trng,3,task_Trng,2,1,"","",9,2,"","","","",Block2,"","","","","","",J,Stim11,NR,46,"",0,J,red,8,"","",0,104,"","",0,7.5
600109,28,28,block_Trng,3,task_Trng,2,0,"","",10,2,"","","","",Block2,"","","","","","",J,Stim15,HR,7,"",0,K,blue,12,"","",0,104,"","",0,7.78
600109,29,29,block_Trng,3,task_Trng,2,1,"","",11,2,"","","","",Block2,"","","","","","",K,Stim14,LR,10,"",0,K,green,11,"","",0,106,"","",0,8.06
600109,30,30,block_Trng,3,task_Trng,2,1,"","",12,2,"","","","",Block2,"","","","","","",J,Stim14,LR,16,"",0,J,green,10,"","",0,108,"","",0,8.33
600109,31,31,block_Trng,3,task_Trng,2,1,"","",13,2,"","","","",Block2,"","","","","","",J,Stim12,HR,82,"",0,J,blue,9,"","",0,118,"","",0,8.61
600109,32,32,block_Trng,3,task_Trng,2,1,"","",14,2,"","","","",Block2,"","","","","","",J,Stim16,LR,7,"",0,J,green,12,"","",0,120,"","",0,8.89
600109,33,33,block_Trng,3,task_Trng,2,1,"","",15,2,"","","","",Block2,"","","","","","",J,Stim13,NR,85,"",0,J,red,10,"","",0,120,"","",0,9.17
600109,34,34,block_Trng,3,task_Trng,2,1,"","",16,2,"","","","",Block2,"","","","","","",K,Stim16,LR,114,"",0,K,green,13,"","",0,122,"","",0,9.44
600109,35,35,block_Trng,3,task_Trng,2,1,"","",17,2,"","","","",Block2,"","","","","","",K,Stim14,NR,56,"",0,K,red,11,"","",0,122,"","",0,9.72
600109,36,36,block_Trng,3,task_Trng,2,1,"","",18,2,"","","","",Block2,"","","","","","",K,Stim16,NR,64,"",0,K,red,13,"","",0,122,"","",0,10
600109,37,37,block_Trng,3,task_Trng,2,1,"","",1,3,"","","","",Block3,"","","","","","",K,Stim16,NR,46,"",0,K,red,13,"","",0,122,"","",0,10.28
600109,38,38,block_Trng,3,task_Trng,2,1,"","",2,3,"","","","",Block3,"","","","","","",K,Stim15,HR,104,"",0,K,blue,12,"","",0,132,"","",0,10.56
600109,39,39,block_Trng,3,task_Trng,2,1,"","",3,3,"","","","",Block3,"","","","","","",K,Stim12,NR,91,"",0,K,red,9,"","",0,132,"","",0,10.83
600109,40,40,block_Trng,3,task_Trng,2,1,"","",4,3,"","","","",Block3,"","","","","","",J,Stim13,NR,24,"",0,J,red,10,"","",0,132,"","",0,11.11
600109,41,41,block_Trng,3,task_Trng,2,1,"","",5,3,"","","","",Block3,"","","","","","",J,Stim12,NR,96,"",0,J,red,8,"","",0,132,"","",0,11.39
600109,42,42,block_Trng,3,task_Trng,2,1,"","",6,3,"","","","",Block3,"","","","","","",J,Stim12,HR,47,"",0,J,blue,9,"","",0,142,"","",0,11.67
600109,43,43,block_Trng,3,task_Trng,2,0,"","",7,3,"","","","",Block3,"","","","","","",K,Stim14,HR,2,"",0,J,blue,11,"","",0,142,"","",0,11.94
600109,44,44,block_Trng,3,task_Trng,2,1,"","",8,3,"","","","",Block3,"","","","","","",J,Stim11,LR,34,"",0,J,green,8,"","",0,144,"","",0,12.22
600109,45,45,block_Trng,3,task_Trng,2,1,"","",9,3,"","","","",Block3,"","","","","","",K,Stim13,HR,90,"",0,K,blue,10,"","",0,154,"","",0,12.5
600109,46,46,block_Trng,3,task_Trng,2,1,"","",10,3,"","","","",Block3,"","","","","","",K,Stim11,HR,74,"",0,K,blue,8,"","",0,164,"","",0,12.78
600109,47,47,block_Trng,3,task_Trng,2,1,"","",11,3,"","","","",Block3,"","","","","","",J,Stim15,NR,56,"",0,J,red,12,"","",0,164,"","",0,13.06
600109,48,48,block_Trng,3,task_Trng,2,1,"","",12,3,"","","","",Block3,"","","","","","",J,Stim14,LR,12,"",0,J,green,10,"","",0,166,"","",0,13.33
600109,49,49,block_Trng,3,task_Trng,2,1,"","",13,3,"","","","",Block3,"","","","","","",K,Stim12,LR,23,"",0,K,green,9,"","",0,168,"","",0,13.61
600109,50,50,block_Trng,3,task_Trng,2,1,"","",14,3,"","","","",Block3,"","","","","","",K,Stim15,LR,28,"",0,K,green,11,"","",0,170,"","",0,13.89
600109,51,51,block_Trng,3,task_Trng,2,1,"","",15,3,"","","","",Block3,"","","","","","",K,Stim14,NR,36,"",0,K,red,11,"","",0,170,"","",0,14.17
600109,52,52,block_Trng,3,task_Trng,2,1,"","",16,3,"","","","",Block3,"","","","","","",J,Stim14,LR,121,"",0,J,green,12,"","",0,172,"","",0,14.44
600109,53,53,block_Trng,3,task_Trng,2,1,"","",17,3,"","","","",Block3,"","","","","","",J,Stim16,HR,66,"",0,J,blue,13,"","",0,182,"","",0,14.72
600109,54,54,block_Trng,3,task_Trng,2,1,"","",18,3,"","","","",Block3,"","","","","","",K,PreISI1,LR,78,"",0,K,green,13,"","",0,184,"","",0,15
600109,55,55,block_Trng,3,task_Trng,2,1,"","",1,4,"","","","",Block4,"","","","","","",J,Stim15,NR,90,"",0,J,red,12,"","",0,184,"","",0,15.28
600109,56,56,block_Trng,3,task_Trng,2,1,"","",2,4,"","","","",Block4,"","","","","","",J,Stim15,LR,48,"",0,J,green,12,"","",0,186,"","",0,15.56
600109,57,57,block_Trng,3,task_Trng,2,1,"","",3,4,"","","","",Block4,"","","","","","",J,Stim13,LR,100,"",0,J,green,10,"","",0,188,"","",0,15.83
600109,58,58,block_Trng,3,task_Trng,2,1,"","",4,4,"","","","",Block4,"","","","","","",J,Stim13,NR,83,"",0,J,red,10,"","",0,188,"","",0,16.11
600109,59,59,block_Trng,3,task_Trng,2,1,"","",5,4,"","","","",Block4,"","","","","","",K,Stim12,NR,6,"",0,K,red,9,"","",0,188,"","",0,16.39
600109,60,60,block_Trng,3,task_Trng,2,1,"","",6,4,"","","","",Block4,"","","","","","",J,Stim11,LR,7,"",0,J,green,8,"","",0,190,"","",0,16.67
600109,61,61,block_Trng,3,task_Trng,2,1,"","",7,4,"","","","",Block4,"","","","","","",K,Stim11,HR,84,"",0,K,blue,8,"","",0,200,"","",0,16.94
600109,62,62,block_Trng,3,task_Trng,2,1,"","",8,4,"","","","",Block4,"","","","","","",K,Stim12,LR,79,"",0,K,green,9,"","",0,202,"","",0,17.22
600109,63,63,block_Trng,3,task_Trng,2,1,"","",9,4,"","","","",Block4,"","","","","","",K,Stim14,LR,100,"",0,K,green,11,"","",0,204,"","",0,17.5
600109,64,64,block_Trng,3,task_Trng,2,1,"","",10,4,"","","","",Block4,"","","","","","",J,Stim16,HR,109,"",0,J,blue,13,"","",0,214,"","",0,17.78
600109,65,65,block_Trng,3,task_Trng,2,1,"","",11,4,"","","","",Block4,"","","","","","",K,Stim13,HR,75,"",0,K,blue,10,"","",0,224,"","",0,18.06
600109,66,66,block_Trng,3,task_Trng,2,1,"","",12,4,"","","","",Block4,"","","","","","",K,Stim16,NR,97,"",0,K,red,13,"","",0,224,"","",0,18.33
600109,67,67,block_Trng,3,task_Trng,2,1,"","",13,4,"","","","",Block4,"","","","","","",K,Stim16,LR,30,"",0,K,green,13,"","",0,226,"","",0,18.61
600109,68,68,block_Trng,3,task_Trng,2,1,"","",14,4,"","","","",Block4,"","","","","","",K,Stim15,HR,15,"",0,K,blue,12,"","",0,236,"","",0,18.89
600109,69,69,block_Trng,3,task_Trng,2,1,"","",15,4,"","","","",Block4,"","","","","","",J,Stim12,HR,49,"",0,J,blue,9,"","",0,246,"","",0,19.17
600109,70,70,block_Trng,3,task_Trng,2,1,"","",16,4,"","","","",Block4,"","","","","","",J,Stim11,NR,102,"",0,J,red,8,"","",0,246,"","",0,19.44
600109,71,71,block_Trng,3,task_Trng,2,1,"","",17,4,"","","","",Block4,"","","","","","",J,Stim14,HR,77,"",0,J,blue,11,"","",0,256,"","",0,19.72
600109,72,72,block_Trng,3,task_Trng,2,1,"","",18,4,"","","","",Block4,"","","","","","",K,Stim14,NR,16,"",0,K,red,11,"","",0.87,256,"","",1,20
600109,73,73,block_Trng,3,task_Trng,2,1,"","",1,5,"","","","",Block5,"","","","","","",K,Stim15,NR,100,"",0,K,red,13,"","",0.87,256,"","",1,20.28
600109,74,74,block_Trng,3,task_Trng,2,0,"","",2,5,"","","","",Block5,"","","","","","",J,Stim12,HR,25,"",0,K,blue,10,"","",0.87,256,"","",1,20.56
600109,75,75,block_Trng,3,task_Trng,2,1,"","",3,5,"","","","",Block5,"","","","","","",K,Stim11,NR,48,"",0,K,red,9,"","",0.87,256,"","",1,20.83
600109,76,76,block_Trng,3,task_Trng,2,0,"","",4,5,"","","","",Block5,"","","","","","",J,Stim14,LR,3,"",0,K,green,11,"","",0.87,256,"","",1,21.11
600109,77,77,block_Trng,3,task_Trng,2,1,"","",5,5,"","","","",Block5,"","","","","","",K,Stim11,LR,116,"",0,K,green,9,"","",0.87,258,"","",1,21.39
600109,78,78,block_Trng,3,task_Trng,2,0,"","",6,5,"","","","",Block5,"","","","","","",K,Stim15,NR,17,"",0,J,red,12,"","",0.87,258,"","",1,21.67
600109,79,79,block_Trng,3,task_Trng,2,1,"","",7,5,"","","","",Block5,"","","","","","",J,Stim11,NR,6,"",0,J,red,8,"","",0.87,258,"","",1,21.94
600109,80,80,block_Trng,3,task_Trng,2,1,"","",8,5,"","","","",Block5,"","","","","","",K,Stim14,HR,79,"",0,K,blue,12,"","",0.87,268,"","",1,22.22
600109,81,81,block_Trng,3,task_Trng,2,1,"","",9,5,"","","","",Block5,"","","","","","",J,Stim13,NR,39,"",0,J,red,10,"","",0.87,268,"","",1,22.5
600109,82,82,block_Trng,3,task_Trng,2,1,"","",10,5,"","","","",Block5,"","","","","","",J,Stim13,HR,72,"",0,J,blue,11,"","",0.87,278,"","",1,22.78
600109,83,83,block_Trng,3,task_Trng,2,1,"","",11,5,"","","","",Block5,"","","","","","",K,Stim15,LR,95,"",0,K,green,13,"","",0.87,280,"","",1,23.06
600109,84,84,block_Trng,3,task_Trng,2,1,"","",12,5,"","","","",Block5,"","","","","","",J,Stim12,HR,64,"",0,J,blue,9,"","",0.87,290,"","",1,23.33
600109,85,85,block_Trng,3,task_Trng,2,1,"","",13,5,"","","","",Block5,"","","","","","",K,Stim11,HR,70,"",0,K,blue,8,"","",0.87,300,"","",1,23.61
600109,86,86,block_Trng,3,task_Trng,2,1,"","",14,5,"","","","",Block5,"","","","","","",J,Stim15,HR,103,"",0,J,blue,13,"","",0.87,310,"","",1,23.89
600109,87,87,block_Trng,3,task_Trng,2,1,"","",15,5,"","","","",Block5,"","","","","","",K,Stim14,NR,19,"",0,K,red,11,"","",0.87,310,"","",1,24.17
600109,88,88,block_Trng,3,task_Trng,2,1,"","",16,5,"","","","",Block5,"","","","","","",J,Stim11,LR,42,"",0,J,green,8,"","",0.87,312,"","",1,24.44
600109,89,89,block_Trng,3,task_Trng,2,1,"","",17,5,"","","","",Block5,"","","","","","",J,Stim13,LR,11,"",0,J,green,10,"","",0.87,314,"","",1,24.72
600109,90,90,block_Trng,3,task_Trng,2,1,"","",18,5,"","","","",Block5,"","","","","","",J,Stim15,LR,6,"",0,J,green,12,"","",0.87,316,"","",1,25
600109,91,91,block_Trng,3,task_Trng,2,0,"","",1,6,"","","","",Block6,"","","","","","",K,Stim12,NR,12,"",0,J,red,8,"","",0.87,316,"","",1,25.28
600109,92,92,block_Trng,3,task_Trng,2,1,"","",2,6,"","","","",Block6,"","","","","","",K,Stim15,NR,110,"",0,K,red,13,"","",0.87,316,"","",1,25.56
600109,93,93,block_Trng,3,task_Trng,2,1,"","",3,6,"","","","",Block6,"","","","","","",K,Stim16,HR,14,"",0,K,blue,12,"","",0.87,326,"","",1,25.83
600109,94,94,block_Trng,3,task_Trng,2,0,"","",4,6,"","","","",Block6,"","","","","","",J,Stim14,NR,15,"",0,K,red,11,"","",0.87,326,"","",1,26.11
600109,95,95,block_Trng,3,task_Trng,2,1,"","",5,6,"","","","",Block6,"","","","","","",J,Stim15,NR,34,"",0,J,red,12,"","",0.87,326,"","",1,26.39
600109,96,96,block_Trng,3,task_Trng,2,1,"","",6,6,"","","","",Block6,"","","","","","",J,Stim13,LR,28,"",0,J,green,10,"","",0.87,328,"","",1,26.67
600109,97,97,block_Trng,3,task_Trng,2,1,"","",7,6,"","","","",Block6,"","","","","","",J,Stim16,HR,111,"",0,J,blue,13,"","",0.87,338,"","",1,26.94
600109,98,98,block_Trng,3,task_Trng,2,1,"","",8,6,"","","","",Block6,"","","","","","",K,Stim13,HR,55,"",0,K,blue,10,"","",0.87,348,"","",1,27.22
600109,99,99,block_Trng,3,task_Trng,2,0,"","",9,6,"","","","",Block6,"","","","","","",J,Stim13,NR,58,"",0,K,red,9,"","",0.87,348,"","",1,27.5
600109,100,100,block_Trng,3,task_Trng,2,0,"","",10,6,"","","","",Block6,"","","","","","",J,Stim16,LR,67,"",0,K,green,13,"","",0.87,348,"","",1,27.78
600109,101,101,block_Trng,3,task_Trng,2,1,"","",11,6,"","","","",Block6,"","","","","","",K,Stim11,HR,87,"",0,K,blue,8,"","",0.87,358,"","",1,28.06
600109,102,102,block_Trng,3,task_Trng,2,1,"","",12,6,"","","","",Block6,"","","","","","",J,Stim14,HR,61,"",0,J,blue,11,"","",0.87,368,"","",1,28.33
600109,103,103,block_Trng,3,task_Trng,2,1,"","",13,6,"","","","",Block6,"","","","","","",J,Stim11,LR,110,"",0,J,green,8,"","",0.87,370,"","",1,28.61
600109,104,104,block_Trng,3,task_Trng,2,1,"","",14,6,"","","","",Block6,"","","","","","",J,Stim12,HR,100,"",0,J,blue,9,"","",0.87,380,"","",1,28.89
600109,105,105,block_Trng,3,task_Trng,2,0,"","",15,6,"","","","",Block6,"","","","","","",K,Stim13,NR,6,"",0,J,red,10,"","",0.87,380,"","",1,29.17
600109,106,106,block_Trng,3,task_Trng,2,1,"","",16,6,"","","","",Block6,"","","","","","",J,PreISI1,LR,179,"",0,J,green,12,"","",0.87,382,"","",1,29.44
600109,107,107,block_Trng,3,task_Trng,2,1,"","",17,6,"","","","",Block6,"","","","","","",K,Stim14,LR,33,"",0,K,green,11,"","",0.87,384,"","",1,29.72
600109,108,108,block_Trng,3,task_Trng,2,0,"","",18,6,"","","","",Block6,Slow!,"","","","","","","",LR,0,"",1,K,green,9,"","",0.87,384,"","",1,30
600109,109,109,block_Trng,3,task_Trng,2,1,"","",1,7,"","","","",Block7,"","","","","","",J,Stim11,LR,89,"",0,J,green,8,"","",0.87,386,"","",1,30.28
600109,110,110,block_Trng,3,task_Trng,2,1,"","",2,7,"","","","",Block7,"","","","","","",J,Stim13,LR,98,"",0,J,green,10,"","",0.87,388,"","",1,30.56
600109,111,111,block_Trng,3,task_Trng,2,1,"","",3,7,"","","","",Block7,"","","","","","",K,Stim11,HR,53,"",0,K,blue,8,"","",0.87,398,"","",1,30.83
600109,112,112,block_Trng,3,task_Trng,2,1,"","",4,7,"","","","",Block7,"","","","","","",J,Stim15,LR,51,"",0,J,green,12,"","",0.87,400,"","",1,31.11
600109,113,113,block_Trng,3,task_Trng,2,1,"","",5,7,"","","","",Block7,"","","","","","",K,Stim15,LR,38,"",0,K,green,11,"","",0.87,402,"","",1,31.39
600109,114,114,block_Trng,3,task_Trng,2,1,"","",6,7,"","","","",Block7,"","","","","","",K,Stim14,NR,125,"",0,K,red,11,"","",0.87,402,"","",1,31.67
600109,115,115,block_Trng,3,task_Trng,2,1,"","",7,7,"","","","",Block7,"","","","","","",K,Stim12,LR,88,"",0,K,green,9,"","",0.87,404,"","",1,31.94
600109,116,116,block_Trng,3,task_Trng,2,1,"","",8,7,"","","","",Block7,"","","","","","",K,Stim15,HR,60,"",0,K,blue,12,"","",0.87,414,"","",1,32.22
600109,117,117,block_Trng,3,task_Trng,2,1,"","",9,7,"","","","",Block7,"","","","","","",K,Stim16,LR,59,"",0,K,green,13,"","",0.87,416,"","",1,32.5
600109,118,118,block_Trng,3,task_Trng,2,1,"","",10,7,"","","","",Block7,"","","","","","",J,Stim13,NR,38,"",0,J,red,10,"","",0.87,416,"","",1,32.78
600109,119,119,block_Trng,3,task_Trng,2,1,"","",11,7,"","","","",Block7,"","","","","","",K,Stim13,HR,8,"",0,K,blue,10,"","",0.87,426,"","",1,33.06
600109,120,120,block_Trng,3,task_Trng,2,1,"","",12,7,"","","","",Block7,"","","","","","",K,Stim16,NR,52,"",0,K,red,13,"","",0.87,426,"","",1,33.33
600109,121,121,block_Trng,3,task_Trng,2,1,"","",13,7,"","","","",Block7,"","","","","","",J,Stim14,HR,102,"",0,J,blue,11,"","",0.87,436,"","",1,33.61
600109,122,122,block_Trng,3,task_Trng,2,1,"","",14,7,"","","","",Block7,"","","","","","",J,Stim12,HR,99,"",0,J,blue,9,"","",0.87,446,"","",1,33.89
600109,123,123,block_Trng,3,task_Trng,2,0,"","",15,7,"","","","",Block7,"","","","","","",K,Stim15,NR,58,"",0,J,red,12,"","",0.87,446,"","",1,34.17
600109,124,124,block_Trng,3,task_Trng,2,1,"","",16,7,"","","","",Block7,"","","","","","",J,Stim11,NR,89,"",0,J,red,8,"","",0.87,446,"","",1,34.44
600109,125,125,block_Trng,3,task_Trng,2,1,"","",17,7,"","","","",Block7,"","","","","","",K,Stim13,NR,12,"",0,K,red,9,"","",0.87,446,"","",1,34.72
600109,126,126,block_Trng,3,task_Trng,2,1,"","",18,7,"","","","",Block7,"","","","","","",J,Stim16,HR,99,"",0,J,blue,13,"","",0.87,456,"","",1,35
600109,127,127,block_Trng,3,task_Trng,2,1,"","",1,8,"","","","",Block8,"","","","","","",J,Stim15,LR,78,"",0,J,green,12,"","",0.87,458,"","",1,35.28
600109,128,128,block_Trng,3,task_Trng,2,1,"","",2,8,"","","","",Block8,"","","","","","",K,Stim11,HR,123,"",0,K,blue,8,"","",0.87,468,"","",1,35.56
600109,129,129,block_Trng,3,task_Trng,2,1,"","",3,8,"","","","",Block8,"","","","","","",K,Stim12,LR,88,"",0,K,green,9,"","",0.87,470,"","",1,35.83
600109,130,130,block_Trng,3,task_Trng,2,1,"","",4,8,"","","","",Block8,"","","","","","",K,Stim16,NR,77,"",0,K,red,13,"","",0.87,470,"","",1,36.11
600109,131,131,block_Trng,3,task_Trng,2,1,"","",5,8,"","","","",Block8,"","","","","","",K,Stim16,LR,117,"",0,K,green,13,"","",0.87,472,"","",1,36.39
600109,132,132,block_Trng,3,task_Trng,2,1,"","",6,8,"","","","",Block8,"","","","","","",J,Stim12,HR,101,"",0,J,blue,9,"","",0.87,482,"","",1,36.67
600109,133,133,block_Trng,3,task_Trng,2,1,"","",7,8,"","","","",Block8,"","","","","","",J,Stim16,HR,82,"",0,J,blue,13,"","",0.87,492,"","",1,36.94
600109,134,134,block_Trng,3,task_Trng,2,1,"","",8,8,"","","","",Block8,"","","","","","",J,Stim11,LR,109,"",0,J,green,8,"","",0.87,494,"","",1,37.22
600109,135,135,block_Trng,3,task_Trng,2,1,"","",9,8,"","","","",Block8,"","","","","","",K,Stim15,HR,60,"",0,K,blue,12,"","",0.87,504,"","",1,37.5
600109,136,136,block_Trng,3,task_Trng,2,1,"","",10,8,"","","","",Block8,"","","","","","",K,Stim13,HR,107,"",0,K,blue,10,"","",0.87,514,"","",1,37.78
600109,137,137,block_Trng,3,task_Trng,2,0,"","",11,8,"","","","",Block8,"","","","","","",J,Stim15,LR,96,"",0,K,green,11,"","",0.87,514,"","",1,38.06
600109,138,138,block_Trng,3,task_Trng,2,1,"","",12,8,"","","","",Block8,"","","","","","",K,Stim12,NR,36,"",0,K,red,9,"","",0.87,514,"","",1,38.33
600109,139,139,block_Trng,3,task_Trng,2,1,"","",13,8,"","","","",Block8,"","","","","","",J,Stim14,NR,25,"",0,J,red,10,"","",0.87,514,"","",1,38.61
600109,140,140,block_Trng,3,task_Trng,2,1,"","",14,8,"","","","",Block8,"","","","","","",K,Stim14,NR,109,"",0,K,red,11,"","",0.87,514,"","",1,38.89
600109,141,141,block_Trng,3,task_Trng,2,1,"","",15,8,"","","","",Block8,"","","","","","",J,Stim11,NR,91,"",0,J,red,8,"","",0.87,514,"","",1,39.17
600109,142,142,block_Trng,3,task_Trng,2,1,"","",16,8,"","","","",Block8,"","","","","","",J,Stim13,LR,57,"",0,J,green,10,"","",0.87,516,"","",1,39.44
600109,143,143,block_Trng,3,task_Trng,2,1,"","",17,8,"","","","",Block8,"","","","","","",J,Stim14,HR,41,"",0,J,blue,11,"","",0.87,526,"","",1,39.72
600109,144,144,block_Trng,3,task_Trng,2,1,"","",18,8,"","","","",Block8,"","","","","","",J,Stim16,NR,6,"",0,J,red,12,"","",1.79,526,"","",2,40
600109,145,145,block_Trng,3,task_Trng,2,1,"","",1,9,"","","","",Block9,"","","","","","",K,Stim16,NR,42,"",0,K,red,13,"","",1.79,526,"","",2,40.28
600109,146,146,block_Trng,3,task_Trng,2,1,"","",2,9,"","","","",Block9,"","","","","","",J,Stim16,HR,19,"",0,J,blue,13,"","",1.79,536,"","",2,40.56
600109,147,147,block_Trng,3,task_Trng,2,1,"","",3,9,"","","","",Block9,"","","","","","",J,Stim16,NR,48,"",0,J,red,12,"","",1.79,536,"","",2,40.83
600109,148,148,block_Trng,3,task_Trng,2,1,"","",4,9,"","","","",Block9,"","","","","","",K,Stim14,NR,6,"",0,K,red,11,"","",1.79,536,"","",2,41.11
600109,149,149,block_Trng,3,task_Trng,2,1,"","",5,9,"","","","",Block9,"","","","","","",J,Stim14,HR,14,"",0,J,blue,11,"","",1.79,546,"","",2,41.39
600109,150,150,block_Trng,3,task_Trng,2,1,"","",6,9,"","","","",Block9,"","","","","","",K,Stim13,LR,121,"",0,K,green,11,"","",1.79,548,"","",2,41.67
600109,151,151,block_Trng,3,task_Trng,2,1,"","",7,9,"","","","",Block9,"","","","","","",J,Stim11,NR,74,"",0,J,red,8,"","",1.79,548,"","",2,41.94
600109,152,152,block_Trng,3,task_Trng,2,1,"","",8,9,"","","","",Block9,"","","","","","",J,Stim13,HR,22,"",0,J,blue,9,"","",1.79,558,"","",2,42.22
600109,153,153,block_Trng,3,task_Trng,2,1,"","",9,9,"","","","",Block9,"","","","","","",K,Stim13,NR,38,"",0,K,red,9,"","",1.79,558,"","",2,42.5
600109,154,154,block_Trng,3,task_Trng,2,1,"","",10,9,"","","","",Block9,"","","","","","",J,Stim15,LR,17,"",0,J,green,12,"","",1.79,560,"","",2,42.78
600109,155,155,block_Trng,3,task_Trng,2,1,"","",11,9,"","","","",Block9,"","","","","","",J,Stim13,NR,55,"",0,J,red,10,"","",1.79,560,"","",2,43.06
600109,156,156,block_Trng,3,task_Trng,2,1,"","",12,9,"","","","",Block9,"","","","","","",K,Stim12,HR,6,"",0,K,blue,8,"","",1.79,570,"","",2,43.33
600109,157,157,block_Trng,3,task_Trng,2,1,"","",13,9,"","","","",Block9,"","","","","","",K,Stim16,HR,72,"",0,K,blue,12,"","",1.79,580,"","",2,43.61
600109,158,158,block_Trng,3,task_Trng,2,1,"","",14,9,"","","","",Block9,"","","","","","",K,PreISI1,LR,7,"",0,K,green,13,"","",1.79,582,"","",2,43.89
600109,159,159,block_Trng,3,task_Trng,2,1,"","",15,9,"","","","",Block9,"","","","","","",J,Stim14,LR,26,"",0,J,green,10,"","",1.79,584,"","",2,44.17
600109,160,160,block_Trng,3,task_Trng,2,1,"","",16,9,"","","","",Block9,"","","","","","",J,Stim12,LR,47,"",0,J,green,8,"","",1.79,586,"","",2,44.44
600109,161,161,block_Trng,3,task_Trng,2,1,"","",17,9,"","","","",Block9,"","","","","","",K,Stim13,HR,116,"",0,K,blue,10,"","",1.79,596,"","",2,44.72
600109,162,162,block_Trng,3,task_Trng,2,1,"","",18,9,"","","","",Block9,"","","","","","",K,Stim12,LR,115,"",0,K,green,9,"","",1.79,598,"","",2,45
600109,163,163,block_Trng,3,task_Trng,2,1,"","",1,10,"","","","",Block10,"","","","","","",K,Stim13,HR,12,"",0,K,blue,10,"","",1.79,608,"","",2,45.28
600109,164,164,block_Trng,3,task_Trng,2,1,"","",2,10,"","","","",Block10,"","","","","","",K,Stim15,NR,6,"",0,K,red,11,"","",1.79,608,"","",2,45.56
600109,165,165,block_Trng,3,task_Trng,2,1,"","",3,10,"","","","",Block10,"","","","","","",J,Stim14,HR,38,"",0,J,blue,11,"","",1.79,618,"","",2,45.83
600109,166,166,block_Trng,3,task_Trng,2,1,"","",4,10,"","","","",Block10,"","","","","","",J,Stim11,LR,87,"",0,J,green,8,"","",1.79,620,"","",2,46.11
600109,167,167,block_Trng,3,task_Trng,2,1,"","",5,10,"","","","",Block10,"","","","","","",K,Stim16,LR,50,"",0,K,green,13,"","",1.79,622,"","",2,46.39
600109,168,168,block_Trng,3,task_Trng,2,1,"","",6,10,"","","","",Block10,"","","","","","",K,Stim14,LR,83,"",0,K,green,11,"","",1.79,624,"","",2,46.67
600109,169,169,block_Trng,3,task_Trng,2,1,"","",7,10,"","","","",Block10,"","","","","","",K,Stim11,HR,59,"",0,K,blue,8,"","",1.79,634,"","",2,46.94
600109,170,170,block_Trng,3,task_Trng,2,1,"","",8,10,"","","","",Block10,"","","","","","",K,Stim12,LR,77,"",0,K,green,9,"","",1.79,636,"","",2,47.22
600109,171,171,block_Trng,3,task_Trng,2,1,"","",9,10,"","","","",Block10,"","","","","","",J,Stim13,NR,41,"",0,J,red,10,"","",1.79,636,"","",2,47.5
600109,172,172,block_Trng,3,task_Trng,2,1,"","",10,10,"","","","",Block10,"","","","","","",J,Stim16,LR,34,"",0,J,green,12,"","",1.79,638,"","",2,47.78
600109,173,173,block_Trng,3,task_Trng,2,1,"","",11,10,"","","","",Block10,"","","","","","",J,Stim11,NR,93,"",0,J,red,8,"","",1.79,638,"","",2,48.06
600109,174,174,block_Trng,3,task_Trng,2,1,"","",12,10,"","","","",Block10,"","","","","","",J,PreISI1,HR,38,"",0,J,blue,13,"","",1.79,648,"","",2,48.33
600109,175,175,block_Trng,3,task_Trng,2,1,"","",13,10,"","","","",Block10,"","","","","","",K,Stim16,NR,100,"",0,K,red,13,"","",1.79,648,"","",2,48.61
600109,176,176,block_Trng,3,task_Trng,2,1,"","",14,10,"","","","",Block10,"","","","","","",K,Stim15,HR,69,"",0,K,blue,12,"","",1.79,658,"","",2,48.89
600109,177,177,block_Trng,3,task_Trng,2,1,"","",15,10,"","","","",Block10,"","","","","","",K,Stim12,NR,72,"",0,K,red,9,"","",1.79,658,"","",2,49.17
600109,178,178,block_Trng,3,task_Trng,2,1,"","",16,10,"","","","",Block10,"","","","","","",J,Stim15,NR,14,"",0,J,red,12,"","",1.79,658,"","",2,49.44
600109,179,179,block_Trng,3,task_Trng,2,1,"","",17,10,"","","","",Block10,"","","","","","",J,Stim13,LR,86,"",0,J,green,10,"","",1.79,660,"","",2,49.72
600109,180,180,block_Trng,3,task_Trng,2,1,"","",18,10,"","","","",Block10,"","","","","","",J,Stim12,HR,65,"",0,J,blue,9,"","",1.79,670,"","",2,50
600109,181,181,block_Trng,3,task_Trng,2,1,"","",1,11,"","","","",Block11,"","","","","","",J,Stim13,LR,76,"",0,J,green,10,"","",1.79,672,"","",2,50.28
600109,182,182,block_Trng,3,task_Trng,2,1,"","",2,11,"","","","",Block11,"","","","","","",J,Stim12,LR,5,"",0,J,green,8,"","",1.79,674,"","",2,50.56
600109,183,183,block_Trng,3,task_Trng,2,1,"","",3,11,"","","","",Block11,"","","","","","",K,Stim12,NR,17,"",0,K,red,9,"","",1.79,674,"","",2,50.83
600109,184,184,block_Trng,3,task_Trng,2,1,"","",4,11,"","","","",Block11,"","","","","","",K,PreISI1,LR,26,"",0,K,green,13,"","",1.79,676,"","",2,51.11
600109,185,185,block_Trng,3,task_Trng,2,1,"","",5,11,"","","","",Block11,"","","","","","",K,Stim16,NR,43,"",0,K,red,13,"","",1.79,676,"","",2,51.39
600109,186,186,block_Trng,3,task_Trng,2,1,"","",6,11,"","","","",Block11,"","","","","","",J,Stim13,NR,60,"",0,J,red,10,"","",1.79,676,"","",2,51.67
600109,187,187,block_Trng,3,task_Trng,2,1,"","",7,11,"","","","",Block11,"","","","","","",K,Stim13,HR,46,"",0,K,blue,10,"","",1.79,686,"","",2,51.94
600109,188,188,block_Trng,3,task_Trng,2,1,"","",8,11,"","","","",Block11,"","","","","","",K,Stim15,HR,32,"",0,K,blue,12,"","",1.79,696,"","",2,52.22
600109,189,189,block_Trng,3,task_Trng,2,1,"","",9,11,"","","","",Block11,"","","","","","",J,PreISI1,HR,15,"",0,J,blue,13,"","",1.79,706,"","",2,52.5
600109,190,190,block_Trng,3,task_Trng,2,1,"","",10,11,"","","","",Block11,"","","","","","",J,Stim15,NR,124,"",0,J,red,12,"","",1.79,706,"","",2,52.78
600109,191,191,block_Trng,3,task_Trng,2,1,"","",11,11,"","","","",Block11,"","","","","","",J,Stim14,HR,50,"",0,J,blue,11,"","",1.79,716,"","",2,53.06
600109,192,192,block_Trng,3,task_Trng,2,1,"","",12,11,"","","","",Block11,"","","","","","",K,Stim14,LR,59,"",0,K,green,11,"","",1.79,718,"","",2,53.33
600109,193,193,block_Trng,3,task_Trng,2,1,"","",13,11,"","","","",Block11,"","","","","","",J,Stim12,HR,7,"",0,J,blue,9,"","",1.79,728,"","",2,53.61
600109,194,194,block_Trng,3,task_Trng,2,1,"","",14,11,"","","","",Block11,Slow!,"","","","","",J,ISI,NR,607,"",1,J,red,8,"","",1.79,728,"","",2,53.89
600109,195,195,block_Trng,3,task_Trng,2,1,"","",15,11,"","","","",Block11,"","","","","","",K,Stim14,NR,92,"",0,K,red,11,"","",1.79,728,"","",2,54.17
600109,196,196,block_Trng,3,task_Trng,2,1,"","",16,11,"","","","",Block11,"","","","","","",K,Stim12,LR,91,"",0,K,green,9,"","",1.79,730,"","",2,54.44
600109,197,197,block_Trng,3,task_Trng,2,1,"","",17,11,"","","","",Block11,"","","","","","",K,Stim11,HR,99,"",0,K,blue,8,"","",1.79,740,"","",2,54.72
600109,198,198,block_Trng,3,task_Trng,2,1,"","",18,11,"","","","",Block11,"","","","","","",J,Stim15,LR,39,"",0,J,green,12,"","",1.79,742,"","",2,55
600109,199,199,block_Trng,3,task_Trng,2,0,"","",1,12,"","","","",Block12,"","","","","","",J,Stim14,LR,61,"",0,K,green,11,"","",1.79,742,"","",2,55.28
600109,200,200,block_Trng,3,task_Trng,2,1,"","",2,12,"","","","",Block12,"","","","","","",J,Stim12,HR,69,"",0,J,blue,9,"","",1.79,752,"","",2,55.56
600109,201,201,block_Trng,3,task_Trng,2,1,"","",3,12,"","","","",Block12,"","","","","","",K,Stim15,LR,122,"",0,K,green,13,"","",1.79,754,"","",2,55.83
600109,202,202,block_Trng,3,task_Trng,2,1,"","",4,12,"","","","",Block12,"","","","","","",J,Stim14,HR,38,"",0,J,blue,11,"","",1.79,764,"","",2,56.11
600109,203,203,block_Trng,3,task_Trng,2,1,"","",5,12,"","","","",Block12,"","","","","","",K,Stim12,NR,112,"",0,K,red,9,"","",1.79,764,"","",2,56.39
600109,204,204,block_Trng,3,task_Trng,2,1,"","",6,12,"","","","",Block12,"","","","","","",J,Stim13,LR,57,"",0,J,green,10,"","",1.79,766,"","",2,56.67
600109,205,205,block_Trng,3,task_Trng,2,1,"","",7,12,"","","","",Block12,"","","","","","",K,Stim11,HR,12,"",0,K,blue,8,"","",1.79,776,"","",2,56.94
600109,206,206,block_Trng,3,task_Trng,2,1,"","",8,12,"","","","",Block12,"","","","","","",K,Stim13,HR,90,"",0,K,blue,10,"","",1.79,786,"","",2,57.22
600109,207,207,block_Trng,3,task_Trng,2,1,"","",9,12,"","","","",Block12,"","","","","","",K,Stim14,NR,49,"",0,K,red,11,"","",1.79,786,"","",2,57.5
600109,208,208,block_Trng,3,task_Trng,2,1,"","",10,12,"","","","",Block12,"","","","","","",K,Stim15,HR,89,"",0,K,blue,12,"","",1.79,796,"","",2,57.78
600109,209,209,block_Trng,3,task_Trng,2,1,"","",11,12,"","","","",Block12,"","","","","","",J,PreISI1,HR,116,"",0,J,blue,13,"","",1.79,806,"","",2,58.06
600109,210,210,block_Trng,3,task_Trng,2,1,"","",12,12,"","","","",Block12,"","","","","","",J,Stim13,NR,59,"",0,J,red,10,"","",1.79,806,"","",2,58.33
600109,211,211,block_Trng,3,task_Trng,2,1,"","",13,12,"","","","",Block12,"","","","","","",J,Stim11,LR,36,"",0,J,green,8,"","",1.79,808,"","",2,58.61
600109,212,212,block_Trng,3,task_Trng,2,1,"","",14,12,"","","","",Block12,"","","","","","",K,Stim15,NR,113,"",0,K,red,13,"","",1.79,808,"","",2,58.89
600109,213,213,block_Trng,3,task_Trng,2,1,"","",15,12,"","","","",Block12,"","","","","","",J,Stim15,NR,64,"",0,J,red,12,"","",1.79,808,"","",2,59.17
600109,214,214,block_Trng,3,task_Trng,2,0,"","",16,12,"","","","",Block12,"","","","","","",K,Stim11,NR,116,"",0,J,red,8,"","",1.79,808,"","",2,59.44
600109,215,215,block_Trng,3,task_Trng,2,1,"","",17,12,"","","","",Block12,"","","","","","",K,Stim12,LR,95,"",0,K,green,9,"","",1.79,810,"","",2,59.72
600109,216,216,block_Trng,3,task_Trng,2,1,"","",18,12,"","","","",Block12,"","","","","","",J,Stim15,LR,15,"",0,J,green,12,"","",2.76,812,"","",3,60
600109,217,217,block_Trng,3,task_Trng,2,0,"","",1,13,"","","","",Block13,"","","","","","",J,Stim13,HR,116,"",0,K,blue,10,"","",2.76,812,"","",3,60.28
600109,218,218,block_Trng,3,task_Trng,2,1,"","",2,13,"","","","",Block13,"","","","","","",J,Stim11,LR,23,"",0,J,green,8,"","",2.76,814,"","",3,60.56
600109,219,219,block_Trng,3,task_Trng,2,1,"","",3,13,"","","","",Block13,"","","","","","",J,Stim14,HR,86,"",0,J,blue,11,"","",2.76,824,"","",3,60.83
600109,220,220,block_Trng,3,task_Trng,2,1,"","",4,13,"","","","",Block13,"","","","","","",K,Stim14,LR,57,"",0,K,green,11,"","",2.76,826,"","",3,61.11
600109,221,221,block_Trng,3,task_Trng,2,1,"","",5,13,"","","","",Block13,"","","","","","",J,Stim16,HR,35,"",0,J,blue,13,"","",2.76,836,"","",3,61.39
600109,222,222,block_Trng,3,task_Trng,2,1,"","",6,13,"","","","",Block13,"","","","","","",J,Stim15,LR,93,"",0,J,green,12,"","",2.76,838,"","",3,61.67
600109,223,223,block_Trng,3,task_Trng,2,1,"","",7,13,"","","","",Block13,"","","","","","",J,Stim13,NR,60,"",0,J,red,10,"","",2.76,838,"","",3,61.94
600109,224,224,block_Trng,3,task_Trng,2,1,"","",8,13,"","","","",Block13,"","","","","","",K,Stim14,NR,74,"",0,K,red,11,"","",2.76,838,"","",3,62.22
600109,225,225,block_Trng,3,task_Trng,2,1,"","",9,13,"","","","",Block13,"","","","","","",J,Stim13,LR,101,"",0,J,green,10,"","",2.76,840,"","",3,62.5
600109,226,226,block_Trng,3,task_Trng,2,1,"","",10,13,"","","","",Block13,"","","","","","",K,Stim11,HR,68,"",0,K,blue,8,"","",2.76,850,"","",3,62.78
600109,227,227,block_Trng,3,task_Trng,2,0,"","",11,13,"","","","",Block13,"","","","","","",J,Stim12,NR,51,"",0,K,red,9,"","",2.76,850,"","",3,63.06
600109,228,228,block_Trng,3,task_Trng,2,1,"","",12,13,"","","","",Block13,"","","","","","",K,Stim15,NR,122,"",0,K,red,13,"","",2.76,850,"","",3,63.33
600109,229,229,block_Trng,3,task_Trng,2,1,"","",13,13,"","","","",Block13,"","","","","","",J,Stim15,NR,57,"",0,J,red,12,"","",2.76,850,"","",3,63.61
600109,230,230,block_Trng,3,task_Trng,2,1,"","",14,13,"","","","",Block13,"","","","","","",J,Stim11,NR,116,"",0,J,red,8,"","",2.76,850,"","",3,63.89
600109,231,231,block_Trng,3,task_Trng,2,1,"","",15,13,"","","","",Block13,"","","","","","",K,Stim16,LR,46,"",0,K,green,13,"","",2.76,852,"","",3,64.17
600109,232,232,block_Trng,3,task_Trng,2,1,"","",16,13,"","","","",Block13,"","","","","","",J,Stim12,HR,114,"",0,J,blue,9,"","",2.76,862,"","",3,64.44
600109,233,233,block_Trng,3,task_Trng,2,1,"","",17,13,"","","","",Block13,"","","","","","",K,Stim15,HR,42,"",0,K,blue,12,"","",2.76,872,"","",3,64.72
600109,234,234,block_Trng,3,task_Trng,2,1,"","",18,13,"","","","",Block13,"","","","","","",K,Stim12,LR,84,"",0,K,green,9,"","",2.76,874,"","",3,65
600109,235,235,block_Trng,3,task_Trng,2,1,"","",1,14,"","","","",Block14,"","","","","","",K,PreISI1,NR,10,"",0,K,red,13,"","",2.76,874,"","",3,65.28
600109,236,236,block_Trng,3,task_Trng,2,1,"","",2,14,"","","","",Block14,"","","","","","",K,Stim12,HR,3,"",0,K,blue,8,"","",2.76,884,"","",3,65.56
600109,237,237,block_Trng,3,task_Trng,2,1,"","",3,14,"","","","",Block14,"","","","","","",J,Stim15,LR,55,"",0,J,green,12,"","",2.76,886,"","",3,65.83
600109,238,238,block_Trng,3,task_Trng,2,1,"","",4,14,"","","","",Block14,"","","","","","",K,Stim14,LR,31,"",0,K,green,11,"","",2.76,888,"","",3,66.11
600109,239,239,block_Trng,3,task_Trng,2,1,"","",5,14,"","","","",Block14,"","","","","","",K,Stim15,HR,84,"",0,K,blue,12,"","",2.76,898,"","",3,66.39
600109,240,240,block_Trng,3,task_Trng,2,1,"","",6,14,"","","","",Block14,"","","","","","",K,Stim14,NR,85,"",0,K,red,11,"","",2.76,898,"","",3,66.67
600109,241,241,block_Trng,3,task_Trng,2,1,"","",7,14,"","","","",Block14,"","","","","","",K,Stim13,HR,105,"",0,K,blue,10,"","",2.76,908,"","",3,66.94
600109,242,242,block_Trng,3,task_Trng,2,1,"","",8,14,"","","","",Block14,"","","","","","",K,Stim16,LR,106,"",0,K,green,13,"","",2.76,910,"","",3,67.22
600109,243,243,block_Trng,3,task_Trng,2,1,"","",9,14,"","","","",Block14,"","","","","","",J,Stim11,LR,105,"",0,J,green,8,"","",2.76,912,"","",3,67.5
600109,244,244,block_Trng,3,task_Trng,2,1,"","",10,14,"","","","",Block14,"","","","","","",J,Stim12,HR,84,"",0,J,blue,9,"","",2.76,922,"","",3,67.78
600109,245,245,block_Trng,3,task_Trng,2,1,"","",11,14,"","","","",Block14,"","","","","","",J,Stim11,NR,103,"",0,J,red,8,"","",2.76,922,"","",3,68.06
600109,246,246,block_Trng,3,task_Trng,2,1,"","",12,14,"","","","",Block14,"","","","","","",K,Stim12,NR,50,"",0,K,red,9,"","",2.76,922,"","",3,68.33
600109,247,247,block_Trng,3,task_Trng,2,1,"","",13,14,"","","","",Block14,"","","","","","",J,Stim13,NR,34,"",0,J,red,10,"","",2.76,922,"","",3,68.61
600109,248,248,block_Trng,3,task_Trng,2,1,"","",14,14,"","","","",Block14,"","","","","","",J,Stim14,HR,108,"",0,J,blue,11,"","",2.76,932,"","",3,68.89
600109,249,249,block_Trng,3,task_Trng,2,1,"","",15,14,"","","","",Block14,"","","","","","",J,PreISI1,HR,33,"",0,J,blue,13,"","",2.76,942,"","",3,69.17
600109,250,250,block_Trng,3,task_Trng,2,1,"","",16,14,"","","","",Block14,"","","","","","",J,Stim14,LR,24,"",0,J,green,10,"","",2.76,944,"","",3,69.44
600109,251,251,block_Trng,3,task_Trng,2,1,"","",17,14,"","","","",Block14,"","","","","","",J,Stim15,NR,86,"",0,J,red,12,"","",2.76,944,"","",3,69.72
600109,252,252,block_Trng,3,task_Trng,2,1,"","",18,14,"","","","",Block14,"","","","","","",K,Stim16,LR,62,"",0,K,green,9,"","",2.76,946,"","",3,70
600109,253,253,block_Trng,3,task_Trng,2,1,"","",1,15,"","","","",Block15,"","","","","","",J,Stim12,HR,92,"",0,J,blue,9,"","",2.76,956,"","",3,70.28
600109,254,254,block_Trng,3,task_Trng,2,1,"","",2,15,"","","","",Block15,"","","","","","",J,Stim15,NR,75,"",0,J,red,12,"","",2.76,956,"","",3,70.56
600109,255,255,block_Trng,3,task_Trng,2,1,"","",3,15,"","","","",Block15,"","","","","","",K,Stim12,LR,95,"",0,K,green,9,"","",2.76,958,"","",3,70.83
600109,256,256,block_Trng,3,task_Trng,2,1,"","",4,15,"","","","",Block15,"","","","","","",J,Stim11,LR,73,"",0,J,green,8,"","",2.76,960,"","",3,71.11
600109,257,257,block_Trng,3,task_Trng,2,1,"","",5,15,"","","","",Block15,"","","","","","",K,Stim13,HR,101,"",0,K,blue,10,"","",2.76,970,"","",3,71.39
600109,258,258,block_Trng,3,task_Trng,2,1,"","",6,15,"","","","",Block15,"","","","","","",K,Stim15,LR,15,"",0,K,green,11,"","",2.76,972,"","",3,71.67
600109,259,259,block_Trng,3,task_Trng,2,1,"","",7,15,"","","","",Block15,"","","","","","",J,Stim14,NR,23,"",0,J,red,8,"","",2.76,972,"","",3,71.94
600109,260,260,block_Trng,3,task_Trng,2,1,"","",8,15,"","","","",Block15,"","","","","","",J,Stim14,HR,57,"",0,J,blue,11,"","",2.76,982,"","",3,72.22
600109,261,261,block_Trng,3,task_Trng,2,1,"","",9,15,"","","","",Block15,"","","","","","",K,Stim12,NR,82,"",0,K,red,9,"","",2.76,982,"","",3,72.5
600109,262,262,block_Trng,3,task_Trng,2,1,"","",10,15,"","","","",Block15,"","","","","","",K,Stim16,NR,106,"",0,K,red,13,"","",2.76,982,"","",3,72.78
600109,263,263,block_Trng,3,task_Trng,2,1,"","",11,15,"","","","",Block15,"","","","","","",J,Stim16,HR,28,"",0,J,blue,13,"","",2.76,992,"","",3,73.06
600109,264,264,block_Trng,3,task_Trng,2,1,"","",12,15,"","","","",Block15,"","","","","","",J,Stim13,NR,68,"",0,J,red,10,"","",2.76,992,"","",3,73.33
600109,265,265,block_Trng,3,task_Trng,2,1,"","",13,15,"","","","",Block15,"","","","","","",J,Stim15,LR,122,"",0,J,green,12,"","",2.76,994,"","",3,73.61
600109,266,266,block_Trng,3,task_Trng,2,1,"","",14,15,"","","","",Block15,"","","","","","",K,Stim12,HR,107,"",0,K,blue,8,"","",2.76,1004,"","",3,73.89
600109,267,267,block_Trng,3,task_Trng,2,1,"","",15,15,"","","","",Block15,"","","","","","",K,Stim15,HR,116,"",0,K,blue,12,"","",2.76,1014,"","",3,74.17
600109,268,268,block_Trng,3,task_Trng,2,1,"","",16,15,"","","","",Block15,"","","","","","",J,Stim13,LR,71,"",0,J,green,10,"","",2.76,1016,"","",3,74.44
600109,269,269,block_Trng,3,task_Trng,2,1,"","",17,15,"","","","",Block15,"","","","","","",K,Stim16,LR,28,"",0,K,green,13,"","",2.76,1018,"","",3,74.72
600109,270,270,block_Trng,3,task_Trng,2,1,"","",18,15,"","","","",Block15,"","","","","","",K,Stim14,NR,51,"",0,K,red,11,"","",2.76,1018,"","",3,75
600109,271,271,block_Trng,3,task_Trng,2,1,"","",1,16,"","","","",Block16',"","","","","","",K,Stim11,HR,85,"",0,K,blue,8,"","",2.76,1028,"","",3,75.28
600109,272,272,block_Trng,3,task_Trng,2,1,"","",2,16,"","","","",Block16',"","","","","","",J,Stim11,NR,103,"",0,J,red,8,"","",2.76,1028,"","",3,75.56
600109,273,273,block_Trng,3,task_Trng,2,1,"","",3,16,"","","","",Block16',"","","","","","",K,Stim14,NR,35,"",0,K,red,11,"","",2.76,1028,"","",3,75.83
600109,274,274,block_Trng,3,task_Trng,2,1,"","",4,16,"","","","",Block16',"","","","","","",K,Stim15,HR,81,"",0,K,blue,12,"","",2.76,1038,"","",3,76.11
600109,275,275,block_Trng,3,task_Trng,2,1,"","",5,16,"","","","",Block16',"","","","","","",J,Stim14,LR,67,"",0,J,green,10,"","",2.76,1040,"","",3,76.39
600109,276,276,block_Trng,3,task_Trng,2,1,"","",6,16,"","","","",Block16',"","","","","","",J,Stim11,LR,117,"",0,J,green,8,"","",2.76,1042,"","",3,76.67
600109,277,277,block_Trng,3,task_Trng,2,1,"","",7,16,"","","","",Block16',"","","","","","",K,Stim13,HR,49,"",0,K,blue,10,"","",2.76,1052,"","",3,76.94
600109,278,278,block_Trng,3,task_Trng,2,1,"","",8,16,"","","","",Block16',"","","","","","",J,Stim15,LR,86,"",0,J,green,12,"","",2.76,1054,"","",3,77.22
600109,279,279,block_Trng,3,task_Trng,2,1,"","",9,16,"","","","",Block16',"","","","","","",K,Stim16,LR,100,"",0,K,green,13,"","",2.76,1056,"","",3,77.5
600109,280,280,block_Trng,3,task_Trng,2,1,"","",10,16,"","","","",Block16',"","","","","","",K,Stim15,LR,28,"",0,K,green,11,"","",2.76,1058,"","",3,77.78
600109,281,281,block_Trng,3,task_Trng,2,1,"","",11,16,"","","","",Block16',"","","","","","",J,Stim15,NR,42,"",0,J,red,12,"","",2.76,1058,"","",3,78.06
600109,282,282,block_Trng,3,task_Trng,2,1,"","",12,16,"","","","",Block16',"","","","","","",K,Stim12,NR,12,"",0,K,red,9,"","",2.76,1058,"","",3,78.33
600109,283,283,block_Trng,3,task_Trng,2,1,"","",13,16,"","","","",Block16',"","","","","","",J,Stim14,HR,38,"",0,J,blue,11,"","",2.76,1068,"","",3,78.61
600109,284,284,block_Trng,3,task_Trng,2,1,"","",14,16,"","","","",Block16',"","","","","","",J,Stim16,HR,108,"",0,J,blue,13,"","",2.76,1078,"","",3,78.89
600109,285,285,block_Trng,3,task_Trng,2,1,"","",15,16,"","","","",Block16',"","","","","","",J,Stim12,HR,96,"",0,J,blue,9,"","",2.76,1088,"","",3,79.17
600109,286,286,block_Trng,3,task_Trng,2,1,"","",16,16,"","","","",Block16',"","","","","","",K,Stim12,LR,5,"",0,K,green,9,"","",2.76,1090,"","",3,79.44
600109,287,287,block_Trng,3,task_Trng,2,1,"","",17,16,"","","","",Block16',"","","","","","",J,Stim13,NR,43,"",0,J,red,10,"","",2.76,1090,"","",3,79.72
600109,288,288,block_Trng,3,task_Trng,2,1,"","",18,16,"","","","",Block16',"","","","","","",K,Stim16,NR,99,"",0,K,red,13,"","",3.71,1090,"","",4,80
600109,289,289,block_Trng,3,task_Trng,2,1,"","",1,17,"","","","",Block17,"","","","","","",J,Stim13,NR,53,"",0,J,red,10,"","",3.71,1090,"","",4,80.28
600109,290,290,block_Trng,3,task_Trng,2,1,"","",2,17,"","","","",Block17,"","","","","","",K,Stim15,HR,30,"",0,K,blue,12,"","",3.71,1100,"","",4,80.56
600109,291,291,block_Trng,3,task_Trng,2,0,"","",3,17,"","","","",Block17,"","","","","","",K,Stim12,LR,65,"",0,J,green,8,"","",3.71,1100,"","",4,80.83
600109,292,292,block_Trng,3,task_Trng,2,1,"","",4,17,"","","","",Block17,"","","","","","",J,Stim11,NR,22,"",0,J,red,8,"","",3.71,1100,"","",4,81.11
600109,293,293,block_Trng,3,task_Trng,2,1,"","",5,17,"","","","",Block17,"","","","","","",J,Stim13,HR,119,"",0,J,blue,9,"","",3.71,1110,"","",4,81.39
600109,294,294,block_Trng,3,task_Trng,2,1,"","",6,17,"","","","",Block17,"","","","","","",J,Stim14,HR,64,"",0,J,blue,11,"","",3.71,1120,"","",4,81.67
600109,295,295,block_Trng,3,task_Trng,2,1,"","",7,17,"","","","",Block17,"","","","","","",J,Stim16,HR,106,"",0,J,blue,13,"","",3.71,1130,"","",4,81.94
600109,296,296,block_Trng,3,task_Trng,2,1,"","",8,17,"","","","",Block17,"","","","","","",K,Stim12,NR,90,"",0,K,red,9,"","",3.71,1130,"","",4,82.22
600109,297,297,block_Trng,3,task_Trng,2,1,"","",9,17,"","","","",Block17,"","","","","","",K,Stim15,NR,8,"",0,K,red,11,"","",3.71,1130,"","",4,82.5
600109,298,298,block_Trng,3,task_Trng,2,1,"","",10,17,"","","","",Block17,"","","","","","",K,Stim12,LR,104,"",0,K,green,9,"","",3.71,1132,"","",4,82.78
600109,299,299,block_Trng,3,task_Trng,2,1,"","",11,17,"","","","",Block17,"","","","","","",K,Stim13,HR,14,"",0,K,blue,10,"","",3.71,1142,"","",4,83.06
600109,300,300,block_Trng,3,task_Trng,2,1,"","",12,17,"","","","",Block17,"","","","","","",K,Stim14,LR,55,"",0,K,green,11,"","",3.71,1144,"","",4,83.33
600109,301,301,block_Trng,3,task_Trng,2,1,"","",13,17,"","","","",Block17,"","","","","","",K,Stim16,NR,105,"",0,K,red,13,"","",3.71,1144,"","",4,83.61
600109,302,302,block_Trng,3,task_Trng,2,1,"","",14,17,"","","","",Block17,"","","","","","",J,Stim15,NR,45,"",0,J,red,12,"","",3.71,1144,"","",4,83.89
600109,303,303,block_Trng,3,task_Trng,2,1,"","",15,17,"","","","",Block17,"","","","","","",J,Stim15,LR,89,"",0,J,green,12,"","",3.71,1146,"","",4,84.17
600109,304,304,block_Trng,3,task_Trng,2,1,"","",16,17,"","","","",Block17,"","","","","","",K,Stim11,HR,96,"",0,K,blue,8,"","",3.71,1156,"","",4,84.44
600109,305,305,block_Trng,3,task_Trng,2,1,"","",17,17,"","","","",Block17,"","","","","","",J,Stim13,LR,54,"",0,J,green,10,"","",3.71,1158,"","",4,84.72
600109,306,306,block_Trng,3,task_Trng,2,1,"","",18,17,"","","","",Block17,"","","","","","",K,Stim16,LR,4,"",0,K,green,13,"","",3.71,1160,"","",4,85
600109,307,307,block_Trng,3,task_Trng,2,1,"","",1,18,"","","","",Block18,"","","","","","",J,Stim13,LR,41,"",0,J,green,10,"","",3.71,1162,"","",4,85.28
600109,308,308,block_Trng,3,task_Trng,2,1,"","",2,18,"","","","",Block18,"","","","","","",K,Stim14,HR,18,"",0,K,blue,10,"","",3.71,1172,"","",4,85.56
600109,309,309,block_Trng,3,task_Trng,2,1,"","",3,18,"","","","",Block18,"","","","","","",J,Stim16,HR,56,"",0,J,blue,13,"","",3.71,1182,"","",4,85.83
600109,310,310,block_Trng,3,task_Trng,2,1,"","",4,18,"","","","",Block18,"","","","","","",J,Stim15,NR,57,"",0,J,red,12,"","",3.71,1182,"","",4,86.11
600109,311,311,block_Trng,3,task_Trng,2,1,"","",5,18,"","","","",Block18,"","","","","","",K,Stim15,HR,41,"",0,K,blue,12,"","",3.71,1192,"","",4,86.39
600109,312,312,block_Trng,3,task_Trng,2,1,"","",6,18,"","","","",Block18,"","","","","","",J,Stim12,NR,6,"",0,J,red,8,"","",3.71,1192,"","",4,86.67
600109,313,313,block_Trng,3,task_Trng,2,1,"","",7,18,"","","","",Block18,"","","","","","",K,Stim11,HR,33,"",0,K,blue,8,"","",3.71,1202,"","",4,86.94
600109,314,314,block_Trng,3,task_Trng,2,0,"","",8,18,"","","","",Block18,"","","","","","",J,Stim13,NR,6,"",0,K,red,9,"","",3.71,1202,"","",4,87.22
600109,315,315,block_Trng,3,task_Trng,2,1,"","",9,18,"","","","",Block18,"","","","","","",J,Stim15,NR,13,"",0,J,red,10,"","",3.71,1202,"","",4,87.5
600109,316,316,block_Trng,3,task_Trng,2,1,"","",10,18,"","","","",Block18,"","","","","","",J,Stim11,LR,60,"",0,J,green,8,"","",3.71,1204,"","",4,87.78
600109,317,317,block_Trng,3,task_Trng,2,1,"","",11,18,"","","","",Block18,"","","","","","",K,PreISI1,LR,11,"",0,K,green,13,"","",3.71,1206,"","",4,88.06
600109,318,318,block_Trng,3,task_Trng,2,1,"","",12,18,"","","","",Block18,"","","","","","",K,PreISI1,NR,5,"",0,K,red,13,"","",3.71,1206,"","",4,88.33
600109,319,319,block_Trng,3,task_Trng,2,1,"","",13,18,"","","","",Block18,"","","","","","",J,Stim14,HR,38,"",0,J,blue,11,"","",3.71,1216,"","",4,88.61
600109,320,320,block_Trng,3,task_Trng,2,1,"","",14,18,"","","","",Block18,"","","","","","",J,Stim16,LR,17,"",0,J,green,12,"","",3.71,1218,"","",4,88.89
600109,321,321,block_Trng,3,task_Trng,2,0,"","",15,18,"","","","",Block18,"","","","","","",J,Stim15,LR,32,"",0,K,green,11,"","",3.71,1218,"","",4,89.17
600109,322,322,block_Trng,3,task_Trng,2,1,"","",16,18,"","","","",Block18,"","","","","","",K,Stim14,NR,38,"",0,K,red,11,"","",3.71,1218,"","",4,89.44
600109,323,323,block_Trng,3,task_Trng,2,1,"","",17,18,"","","","",Block18,"","","","","","",K,Stim12,LR,94,"",0,K,green,9,"","",3.71,1220,"","",4,89.72
600109,324,324,block_Trng,3,task_Trng,2,1,"","",18,18,"","","","",Block18,"","","","","","",J,Stim13,HR,86,"",0,J,blue,9,"","",3.71,1230,"","",4,90
600109,325,325,block_Trng,3,task_Trng,2,1,"","",1,19,"","","","",Block19,"","","","","","",J,Stim12,NR,96,"",0,J,red,8,"","",3.71,1230,"","",4,90.28
600109,326,326,block_Trng,3,task_Trng,2,1,"","",2,19,"","","","",Block19,"","","","","","",J,Stim15,NR,71,"",0,J,red,12,"","",3.71,1230,"","",4,90.56
600109,327,327,block_Trng,3,task_Trng,2,1,"","",3,19,"","","","",Block19,"","","","","","",J,Stim16,HR,30,"",0,J,blue,11,"","",3.71,1240,"","",4,90.83
600109,328,328,block_Trng,3,task_Trng,2,1,"","",4,19,"","","","",Block19,"","","","","","",J,Stim13,NR,91,"",0,J,red,10,"","",3.71,1240,"","",4,91.11
600109,329,329,block_Trng,3,task_Trng,2,1,"","",5,19,"","","","",Block19,"","","","","","",K,Stim15,NR,16,"",0,K,red,11,"","",3.71,1240,"","",4,91.39
600109,330,330,block_Trng,3,task_Trng,2,1,"","",6,19,"","","","",Block19,"","","","","","",J,Stim12,LR,17,"",0,J,green,8,"","",3.71,1242,"","",4,91.67
600109,331,331,block_Trng,3,task_Trng,2,1,"","",7,19,"","","","",Block19,"","","","","","",K,Stim13,NR,89,"",0,K,red,9,"","",3.71,1242,"","",4,91.94
600109,332,332,block_Trng,3,task_Trng,2,1,"","",8,19,"","","","",Block19,"","","","","","",J,Stim15,LR,59,"",0,J,green,12,"","",3.71,1244,"","",4,92.22
600109,333,333,block_Trng,3,task_Trng,2,1,"","",9,19,"","","","",Block19,"","","","","","",J,Stim13,HR,49,"",0,J,blue,9,"","",3.71,1254,"","",4,92.5
600109,334,334,block_Trng,3,task_Trng,2,1,"","",10,19,"","","","",Block19,"","","","","","",K,Stim15,LR,55,"",0,K,green,11,"","",3.71,1256,"","",4,92.78
600109,335,335,block_Trng,3,task_Trng,2,1,"","",11,19,"","","","",Block19,"","","","","","",K,PreISI1,LR,8,"",0,K,green,13,"","",3.71,1258,"","",4,93.06
600109,336,336,block_Trng,3,task_Trng,2,1,"","",12,19,"","","","",Block19,"","","","","","",K,Stim11,HR,103,"",0,K,blue,8,"","",3.71,1268,"","",4,93.33
600109,337,337,block_Trng,3,task_Trng,2,1,"","",13,19,"","","","",Block19,"","","","","","",K,Stim16,NR,58,"",0,K,red,13,"","",3.71,1268,"","",4,93.61
600109,338,338,block_Trng,3,task_Trng,2,1,"","",14,19,"","","","",Block19,"","","","","","",J,Stim16,HR,121,"",0,J,blue,13,"","",3.71,1278,"","",4,93.89
600109,339,339,block_Trng,3,task_Trng,2,1,"","",15,19,"","","","",Block19,"","","","","","",K,Stim15,HR,112,"",0,K,blue,12,"","",3.71,1288,"","",4,94.17
600109,340,340,block_Trng,3,task_Trng,2,1,"","",16,19,"","","","",Block19,"","","","","","",J,Stim13,LR,55,"",0,J,green,10,"","",3.71,1290,"","",4,94.44
600109,341,341,block_Trng,3,task_Trng,2,1,"","",17,19,"","","","",Block19,"","","","","","",K,Stim13,HR,85,"",0,K,blue,10,"","",3.71,1300,"","",4,94.72
600109,342,342,block_Trng,3,task_Trng,2,1,"","",18,19,"","","","",Block19,"","","","","","",K,Stim12,LR,89,"",0,K,green,9,"","",3.71,1302,"","",4,95
600109,343,343,block_Trng,3,task_Trng,2,0,"","",1,20,"","","","",Block20,"","","","","","",K,Stim13,HR,66,"",0,J,blue,9,"","",3.71,1302,"","",4,95.28
600109,344,344,block_Trng,3,task_Trng,2,1,"","",2,20,"","","","",Block20,"","","","","","",J,Stim13,LR,83,"",0,J,green,10,"","",3.71,1304,"","",4,95.56
600109,345,345,block_Trng,3,task_Trng,2,1,"","",3,20,"","","","",Block20,"","","","","","",K,Stim12,NR,54,"",0,K,red,9,"","",3.71,1304,"","",4,95.83
600109,346,346,block_Trng,3,task_Trng,2,1,"","",4,20,"","","","",Block20,"","","","","","",K,Stim16,LR,46,"",0,K,green,13,"","",3.71,1306,"","",4,96.11
600109,347,347,block_Trng,3,task_Trng,2,1,"","",5,20,"","","","",Block20,"","","","","","",K,Stim13,LR,7,"",0,K,green,9,"","",3.71,1308,"","",4,96.39
600109,348,348,block_Trng,3,task_Trng,2,1,"","",6,20,"","","","",Block20,"","","","","","",K,PreISI1,NR,6,"",0,K,red,13,"","",3.71,1308,"","",4,96.67
600109,349,349,block_Trng,3,task_Trng,2,1,"","",7,20,"","","","",Block20,"","","","","","",J,Stim15,NR,109,"",0,J,red,12,"","",3.71,1308,"","",4,96.94
600109,350,350,block_Trng,3,task_Trng,2,1,"","",8,20,"","","","",Block20,"","","","","","",J,Stim12,NR,43,"",0,J,red,8,"","",3.71,1308,"","",4,97.22
600109,351,351,block_Trng,3,task_Trng,2,1,"","",9,20,"","","","",Block20,"","","","","","",K,Stim15,HR,52,"",0,K,blue,10,"","",3.71,1318,"","",4,97.5
600109,352,352,block_Trng,3,task_Trng,2,1,"","",10,20,"","","","",Block20,"","","","","","",K,Stim14,NR,74,"",0,K,red,11,"","",3.71,1318,"","",4,97.78
600109,353,353,block_Trng,3,task_Trng,2,1,"","",11,20,"","","","",Block20,"","","","","","",J,Stim14,HR,123,"",0,J,blue,11,"","",3.71,1328,"","",4,98.06
600109,354,354,block_Trng,3,task_Trng,2,1,"","",12,20,"","","","",Block20,"","","","","","",K,Stim15,LR,88,"",0,K,green,11,"","",3.71,1330,"","",4,98.33
600109,355,355,block_Trng,3,task_Trng,2,1,"","",13,20,"","","","",Block20,"","","","","","",J,Stim13,NR,114,"",0,J,red,10,"","",3.71,1330,"","",4,98.61
600109,356,356,block_Trng,3,task_Trng,2,1,"","",14,20,"","","","",Block20,"","","","","","",J,Stim11,LR,47,"",0,J,green,8,"","",3.71,1332,"","",4,98.89
600109,357,357,block_Trng,3,task_Trng,2,0,"","",15,20,"","","","",Block20,"","","","","","",K,Stim16,HR,18,"",0,J,blue,13,"","",3.71,1332,"","",4,99.17
600109,358,358,block_Trng,3,task_Trng,2,1,"","",16,20,"","","","",Block20,"","","","","","",K,Stim16,HR,17,"",0,K,blue,12,"","",3.71,1342,"","",4,99.44
600109,359,359,block_Trng,3,task_Trng,2,1,"","",17,20,"","","","",Block20,"","","","","","",K,Stim12,HR,42,"",0,K,blue,8,"","",3.71,1352,"","",4,99.72
600109,360,360,block_Trng,3,task_Trng,2,1,"","",18,20,"","","","",Block20,"","","","","","",J,Stim15,LR,70,"",0,J,green,12,"","",3.71,1354,"","",4,100
600109,1,1,block_Trng,3,task_Trng_End,3,"","","","",1,"","","","","","","","","","","","","","","","","","","","","","",4.6,1354,"","","",""
600109,1,1,block_Testing,4,task_Testing_Instructions,1,"","","","",1,"","","","","","","","","","","","","","","","","","","","","","","","","","","",""
600109,1,1,block_Testing,4,task_Testing,2,1,"","",1,1,"","",Block1,"","","","","","","","",J,Stim12,LR,38,"",0,J,green,8,0,0.56,"",1354,"","","",""
600109,2,2,block_Testing,4,task_Testing,2,1,"","",2,1,"","",Block1,"","","","","","","","",J,Stim16,HR,80,"",0,J,blue,13,0,1.11,"",1354,"","","",""
600109,3,3,block_Testing,4,task_Testing,2,0,"","",3,1,"","",Block1,"","","","","","","","",J,Stim16,NR,58,"",0,K,red,13,0,1.67,"",1354,"","","",""
600109,4,4,block_Testing,4,task_Testing,2,1,"","",4,1,"","",Block1,"","","","","","","","",K,Stim13,HR,39,"",0,K,blue,10,0,2.22,"",1354,"","","",""
600109,5,5,block_Testing,4,task_Testing,2,1,"","",5,1,"","",Block1,"","","","","","","","",J,Stim14,HR,40,"",0,J,blue,11,0,2.78,"",1354,"","","",""
600109,6,6,block_Testing,4,task_Testing,2,1,"","",6,1,"","",Block1,"","","","","","","","",K,Stim13,LR,37,"",0,K,green,9,0,3.33,"",1354,"","","",""
600109,7,7,block_Testing,4,task_Testing,2,1,"","",7,1,"","",Block1,"","","","","","","","",K,Stim12,HR,22,"",0,K,blue,8,0,3.89,"",1354,"","","",""
600109,8,8,block_Testing,4,task_Testing,2,1,"","",8,1,"","",Block1,"","","","","","","","",K,Stim14,LR,87,"",0,K,green,11,0,4.44,"",1354,"","","",""
600109,9,9,block_Testing,4,task_Testing,2,1,"","",9,1,"","",Block1,"","","","","","","","",J,Stim15,NR,77,"",0,J,red,12,0,5,"",1354,"","","",""
600109,10,10,block_Testing,4,task_Testing,2,1,"","",10,1,"","",Block1,"","","","","","","","",J,Stim13,HR,5,"",0,J,blue,9,0,5.56,"",1354,"","","",""
600109,11,11,block_Testing,4,task_Testing,2,1,"","",11,1,"","",Block1,"","","","","","","","",K,Stim14,HR,100,"",0,K,blue,12,0,6.11,"",1354,"","","",""
600109,12,12,block_Testing,4,task_Testing,2,1,"","",12,1,"","",Block1,"","","","","","","","",K,Stim15,NR,11,"",0,K,red,11,0,6.67,"",1354,"","","",""
600109,13,13,block_Testing,4,task_Testing,2,1,"","",13,1,"","",Block1,"","","","","","","","",K,Stim16,LR,111,"",0,K,green,13,0,7.22,"",1354,"","","",""
600109,14,14,block_Testing,4,task_Testing,2,1,"","",14,1,"","",Block1,"","","","","","","","",J,Stim13,LR,108,"",0,J,green,10,0,7.78,"",1354,"","","",""
600109,15,15,block_Testing,4,task_Testing,2,0,"","",15,1,"","",Block1,"","","","","","","","",K,Stim12,NR,15,"",0,J,red,8,0,8.33,"",1354,"","","",""
600109,16,16,block_Testing,4,task_Testing,2,1,"","",16,1,"","",Block1,"","","","","","","","",K,Stim12,NR,113,"",0,K,red,9,0,8.89,"",1354,"","","",""
600109,17,17,block_Testing,4,task_Testing,2,1,"","",17,1,"","",Block1,"","","","","","","","",J,Stim13,NR,52,"",0,J,red,10,0,9.44,"",1354,"","","",""
600109,18,18,block_Testing,4,task_Testing,2,1,"","",18,1,"","",Block1,"","","","","","","","",J,Stim15,LR,56,"",0,J,green,12,0,10,"",1354,"","","",""
600109,19,19,block_Testing,4,task_Testing,2,1,"","",1,2,"","",Block2,"","","","","","","","",J,Stim13,LR,81,"",0,J,green,10,0,10.56,"",1354,"","","",""
600109,20,20,block_Testing,4,task_Testing,2,1,"","",2,2,"","",Block2,"","","","","","","","",J,Stim16,HR,79,"",0,J,blue,13,0,11.11,"",1354,"","","",""
600109,21,21,block_Testing,4,task_Testing,2,1,"","",3,2,"","",Block2,"","","","","","","","",J,Stim13,NR,81,"",0,J,red,10,0,11.67,"",1354,"","","",""
600109,22,22,block_Testing,4,task_Testing,2,1,"","",4,2,"","",Block2,"","","","","","","","",K,Stim16,NR,66,"",0,K,red,13,0,12.22,"",1354,"","","",""
600109,23,23,block_Testing,4,task_Testing,2,1,"","",5,2,"","",Block2,"","","","","","","","",K,Stim15,HR,120,"",0,K,blue,12,0,12.78,"",1354,"","","",""
600109,24,24,block_Testing,4,task_Testing,2,1,"","",6,2,"","",Block2,"","",Slow!,"","","","","",K,ISI,NR,603,"",1,K,red,9,0,13.33,"",1354,"","","",""
600109,25,25,block_Testing,4,task_Testing,2,1,"","",7,2,"","",Block2,"","","","","","","","",K,Stim12,LR,98,"",0,K,green,9,0,13.89,"",1354,"","","",""
600109,26,26,block_Testing,4,task_Testing,2,1,"","",8,2,"","",Block2,"","","","","","","","",J,Stim15,NR,85,"",0,J,red,12,0,14.44,"",1354,"","","",""
600109,27,27,block_Testing,4,task_Testing,2,1,"","",9,2,"","",Block2,"","","","","","","","",J,Stim15,LR,81,"",0,J,green,12,0,15,"",1354,"","","",""
600109,28,28,block_Testing,4,task_Testing,2,1,"","",10,2,"","",Block2,"","","","","","","","",K,PreISI1,LR,17,"",0,K,green,13,0,15.56,"",1354,"","","",""
600109,29,29,block_Testing,4,task_Testing,2,1,"","",11,2,"","",Block2,"","","","","","","","",K,Stim14,LR,31,"",0,K,green,11,0,16.11,"",1354,"","","",""
600109,30,30,block_Testing,4,task_Testing,2,1,"","",12,2,"","",Block2,"","","","","","","","",K,Stim13,HR,46,"",0,K,blue,10,0,16.67,"",1354,"","","",""
600109,31,31,block_Testing,4,task_Testing,2,1,"","",13,2,"","",Block2,"","","","","","","","",K,Stim13,NR,106,"",0,K,red,11,0,17.22,"",1354,"","","",""
600109,32,32,block_Testing,4,task_Testing,2,1,"","",14,2,"","",Block2,"","","","","","","","",K,Stim11,HR,53,"",0,K,blue,8,0,17.78,"",1354,"","","",""
600109,33,33,block_Testing,4,task_Testing,2,1,"","",15,2,"","",Block2,"","","","","","","","",J,Stim11,NR,51,"",0,J,red,8,0,18.33,"",1354,"","","",""
600109,34,34,block_Testing,4,task_Testing,2,1,"","",16,2,"","",Block2,"","","","","","","","",J,Stim15,HR,35,"",0,J,blue,11,0,18.89,"",1354,"","","",""
600109,35,35,block_Testing,4,task_Testing,2,1,"","",17,2,"","",Block2,"","","","","","","","",J,Stim13,HR,13,"",0,J,blue,9,0,19.44,"",1354,"","","",""
600109,36,36,block_Testing,4,task_Testing,2,1,"","",18,2,"","",Block2,"","","","","","","","",J,Stim11,LR,56,"",0,J,green,8,0,20,"",1354,"","","",""
600109,37,37,block_Testing,4,task_Testing,2,1,"","",1,3,"","",Block3,"","","","","","","","",K,Stim15,HR,26,"",0,K,blue,12,0,20.56,"",1354,"","","",""
600109,38,38,block_Testing,4,task_Testing,2,1,"","",2,3,"","",Block3,"","","","","","","","",J,Stim13,NR,18,"",0,J,red,10,0,21.11,"",1354,"","","",""
600109,39,39,block_Testing,4,task_Testing,2,1,"","",3,3,"","",Block3,"","","","","","","","",J,Stim13,NR,6,"",0,J,red,8,0,21.67,"",1354,"","","",""
600109,40,40,block_Testing,4,task_Testing,2,1,"","",4,3,"","",Block3,"","","","","","","","",J,Stim15,LR,7,"",0,J,green,12,0,22.22,"",1354,"","","",""
600109,41,41,block_Testing,4,task_Testing,2,0,"","",5,3,"","",Block3,"","","","","","","","",J,Stim13,HR,68,"",0,K,blue,10,0,22.78,"",1354,"","","",""
600109,42,42,block_Testing,4,task_Testing,2,1,"","",6,3,"","",Block3,"","","","","","","","",K,Stim12,LR,9,"",0,K,green,9,0,23.33,"",1354,"","","",""
600109,43,43,block_Testing,4,task_Testing,2,1,"","",7,3,"","",Block3,"","","","","","","","",K,Stim11,HR,85,"",0,K,blue,8,0,23.89,"",1354,"","","",""
600109,44,44,block_Testing,4,task_Testing,2,1,"","",8,3,"","",Block3,"","","","","","","","",K,Stim15,LR,54,"",0,K,green,11,0,24.44,"",1354,"","","",""
600109,45,45,block_Testing,4,task_Testing,2,1,"","",9,3,"","",Block3,"","","","","","","","",J,Stim15,NR,22,"",0,J,red,12,0,25,"",1354,"","","",""
600109,46,46,block_Testing,4,task_Testing,2,1,"","",10,3,"","",Block3,"","","","","","","","",J,Stim14,HR,72,"",0,J,blue,11,0,25.56,"",1354,"","","",""
600109,47,47,block_Testing,4,task_Testing,2,1,"","",11,3,"","",Block3,"","","","","","","","",J,PreISI1,HR,45,"",0,J,blue,13,0,26.11,"",1354,"","","",""
600109,48,48,block_Testing,4,task_Testing,2,1,"","",12,3,"","",Block3,"","","","","","","","",K,Stim15,NR,59,"",0,K,red,13,0,26.67,"",1354,"","","",""
600109,49,49,block_Testing,4,task_Testing,2,1,"","",13,3,"","",Block3,"","","","","","","","",K,Stim12,NR,51,"",0,K,red,9,0,27.22,"",1354,"","","",""
600109,50,50,block_Testing,4,task_Testing,2,1,"","",14,3,"","",Block3,"","","","","","","","",J,Stim12,HR,96,"",0,J,blue,9,0,27.78,"",1354,"","","",""
600109,51,51,block_Testing,4,task_Testing,2,1,"","",15,3,"","",Block3,"","","","","","","","",K,Stim13,NR,112,"",0,K,red,11,0,28.33,"",1354,"","","",""
600109,52,52,block_Testing,4,task_Testing,2,1,"","",16,3,"","",Block3,"","","","","","","","",K,Stim16,LR,109,"",0,K,green,13,0,28.89,"",1354,"","","",""
600109,53,53,block_Testing,4,task_Testing,2,1,"","",17,3,"","",Block3,"","","","","","","","",J,Stim13,LR,45,"",0,J,green,10,0,29.44,"",1354,"","","",""
600109,54,54,block_Testing,4,task_Testing,2,1,"","",18,3,"","",Block3,"","","","","","","","",J,Stim11,LR,93,"",0,J,green,8,1,30,"",1354,"","","",""
600109,55,55,block_Testing,4,task_Testing,2,1,"","",1,4,"","",Block4,"","","","","","","","",K,Stim16,LR,45,"",0,K,green,13,1,30.56,"",1354,"","","",""
600109,56,56,block_Testing,4,task_Testing,2,1,"","",2,4,"","",Block4,"","","","","","","","",K,Stim14,NR,33,"",0,K,red,11,1,31.11,"",1354,"","","",""
600109,57,57,block_Testing,4,task_Testing,2,1,"","",3,4,"","",Block4,"","","","","","","","",K,Stim11,HR,59,"",0,K,blue,8,1,31.67,"",1354,"","","",""
600109,58,58,block_Testing,4,task_Testing,2,1,"","",4,4,"","",Block4,"","","","","","","","",J,Stim15,HR,113,"",0,J,blue,13,1,32.22,"",1354,"","","",""
600109,59,59,block_Testing,4,task_Testing,2,1,"","",5,4,"","",Block4,"","",Slow!,"","","","","",J,ISI,NR,741,"",1,J,red,12,1,32.78,"",1354,"","","",""
600109,60,60,block_Testing,4,task_Testing,2,1,"","",6,4,"","",Block4,"","","","","","","","",K,PreISI1,NR,33,"",0,K,red,13,1,33.33,"",1354,"","","",""
600109,61,61,block_Testing,4,task_Testing,2,1,"","",7,4,"","",Block4,"","","","","","","","",K,Stim15,HR,101,"",0,K,blue,12,1,33.89,"",1354,"","","",""
600109,62,62,block_Testing,4,task_Testing,2,1,"","",8,4,"","",Block4,"","","","","","","","",K,Stim13,HR,41,"",0,K,blue,10,1,34.44,"",1354,"","","",""
600109,63,63,block_Testing,4,task_Testing,2,1,"","",9,4,"","",Block4,"","","","","","","","",K,Stim12,LR,94,"",0,K,green,9,1,35,"",1354,"","","",""
600109,64,64,block_Testing,4,task_Testing,2,1,"","",10,4,"","",Block4,"","","","","","","","",K,Stim12,NR,98,"",0,K,red,9,1,35.56,"",1354,"","","",""
600109,65,65,block_Testing,4,task_Testing,2,1,"","",11,4,"","",Block4,"","","","","","","","",J,Stim13,NR,79,"",0,J,red,10,1,36.11,"",1354,"","","",""
600109,66,66,block_Testing,4,task_Testing,2,1,"","",12,4,"","",Block4,"","","","","","","","",J,Stim13,LR,94,"",0,J,green,10,1,36.67,"",1354,"","","",""
600109,67,67,block_Testing,4,task_Testing,2,1,"","",13,4,"","",Block4,"","","","","","","","",J,Stim11,NR,77,"",0,J,red,8,1,37.22,"",1354,"","","",""
600109,68,68,block_Testing,4,task_Testing,2,1,"","",14,4,"","",Block4,"","","","","","","","",J,Stim14,HR,44,"",0,J,blue,11,1,37.78,"",1354,"","","",""
600109,69,69,block_Testing,4,task_Testing,2,1,"","",15,4,"","",Block4,"","","","","","","","",K,Stim14,LR,7,"",0,K,green,11,1,38.33,"",1354,"","","",""
600109,70,70,block_Testing,4,task_Testing,2,1,"","",16,4,"","",Block4,"","","","","","","","",J,Stim15,LR,32,"",0,J,green,12,1,38.89,"",1354,"","","",""
600109,71,71,block_Testing,4,task_Testing,2,1,"","",17,4,"","",Block4,"","","","","","","","",J,Stim11,LR,57,"",0,J,green,8,1,39.44,"",1354,"","","",""
600109,72,72,block_Testing,4,task_Testing,2,1,"","",18,4,"","",Block4,"","","","","","","","",J,Stim13,HR,60,"",0,J,blue,9,1,40,"",1354,"","","",""
600109,73,73,block_Testing,4,task_Testing,2,1,"","",1,5,"","",Block5,"","","","","","","","",J,Stim11,LR,103,"",0,J,green,8,1,40.56,"",1354,"","","",""
600109,74,74,block_Testing,4,task_Testing,2,1,"","",2,5,"","",Block5,"","","","","","","","",J,Stim11,NR,70,"",0,J,red,8,1,41.11,"",1354,"","","",""
600109,75,75,block_Testing,4,task_Testing,2,1,"","",3,5,"","",Block5,"","","","","","","","",J,Stim13,NR,74,"",0,J,red,10,1,41.67,"",1354,"","","",""
600109,76,76,block_Testing,4,task_Testing,2,1,"","",4,5,"","",Block5,"","","","","","","","",K,PreISI1,NR,34,"",0,K,red,13,1,42.22,"",1354,"","","",""
600109,77,77,block_Testing,4,task_Testing,2,1,"","",5,5,"","",Block5,"","","","","","","","",K,Stim16,LR,69,"",0,K,green,13,1,42.78,"",1354,"","","",""
600109,78,78,block_Testing,4,task_Testing,2,1,"","",6,5,"","",Block5,"","","","","","","","",K,Stim14,NR,62,"",0,K,red,11,1,43.33,"",1354,"","","",""
600109,79,79,block_Testing,4,task_Testing,2,1,"","",7,5,"","",Block5,"","","","","","","","",J,Stim14,HR,8,"",0,J,blue,11,1,43.89,"",1354,"","","",""
600109,80,80,block_Testing,4,task_Testing,2,1,"","",8,5,"","",Block5,"","","","","","","","",K,Stim13,HR,47,"",0,K,blue,10,1,44.44,"",1354,"","","",""
600109,81,81,block_Testing,4,task_Testing,2,1,"","",9,5,"","",Block5,"","","","","","","","",J,Stim12,HR,15,"",0,J,blue,9,1,45,"",1354,"","","",""
600109,82,82,block_Testing,4,task_Testing,2,1,"","",10,5,"","",Block5,"","","","","","","","",J,Stim15,NR,112,"",0,J,red,12,1,45.56,"",1354,"","","",""
600109,83,83,block_Testing,4,task_Testing,2,1,"","",11,5,"","",Block5,"","","","","","","","",K,Stim12,NR,34,"",0,K,red,9,1,46.11,"",1354,"","","",""
600109,84,84,block_Testing,4,task_Testing,2,1,"","",12,5,"","",Block5,"","","","","","","","",J,Stim16,HR,93,"",0,J,blue,13,1,46.67,"",1354,"","","",""
600109,85,85,block_Testing,4,task_Testing,2,1,"","",13,5,"","",Block5,"","","","","","","","",J,Stim13,LR,75,"",0,J,green,10,1,47.22,"",1354,"","","",""
600109,86,86,block_Testing,4,task_Testing,2,1,"","",14,5,"","",Block5,"","","","","","","","",K,Stim14,HR,124,"",0,K,blue,12,1,47.78,"",1354,"","","",""
600109,87,87,block_Testing,4,task_Testing,2,1,"","",15,5,"","",Block5,"","","","","","","","",K,Stim13,LR,22,"",0,K,green,9,1,48.33,"",1354,"","","",""
600109,88,88,block_Testing,4,task_Testing,2,1,"","",16,5,"","",Block5,"","","","","","","","",K,Stim14,LR,8,"",0,K,green,11,1,48.89,"",1354,"","","",""
600109,89,89,block_Testing,4,task_Testing,2,0,"","",17,5,"","",Block5,"","","","","","","","",K,Stim15,LR,49,"",0,J,green,12,1,49.44,"",1354,"","","",""
600109,90,90,block_Testing,4,task_Testing,2,1,"","",18,5,"","",Block5,"","","","","","","","",K,Stim11,HR,70,"",0,K,blue,8,1,50,"",1354,"","","",""
600109,91,91,block_Testing,4,task_Testing,2,1,"","",1,6,"","",Block6,"","","","","","","","",K,Stim14,LR,7,"",0,K,green,11,1,50.56,"",1354,"","","",""
600109,92,92,block_Testing,4,task_Testing,2,1,"","",2,6,"","",Block6,"","","","","","","","",J,Stim12,LR,3,"",0,J,green,8,1,51.11,"",1354,"","","",""
600109,93,93,block_Testing,4,task_Testing,2,1,"","",3,6,"","",Block6,"","","","","","","","",J,Stim13,NR,46,"",0,J,red,10,1,51.67,"",1354,"","","",""
600109,94,94,block_Testing,4,task_Testing,2,1,"","",4,6,"","",Block6,"","","","","","","","",K,Stim11,LR,92,"",0,K,green,9,1,52.22,"",1354,"","","",""
600109,95,95,block_Testing,4,task_Testing,2,1,"","",5,6,"","",Block6,"","","","","","","","",J,Stim11,NR,51,"",0,J,red,8,1,52.78,"",1354,"","","",""
600109,96,96,block_Testing,4,task_Testing,2,1,"","",6,6,"","",Block6,"","","","","","","","",K,Stim11,HR,12,"",0,K,blue,8,1,53.33,"",1354,"","","",""
600109,97,97,block_Testing,4,task_Testing,2,1,"","",7,6,"","",Block6,"","","","","","","","",J,Stim13,LR,3,"",0,J,green,10,1,53.89,"",1354,"","","",""
600109,98,98,block_Testing,4,task_Testing,2,1,"","",8,6,"","",Block6,"","","","","","","","",K,Stim13,HR,6,"",0,K,blue,10,1,54.44,"",1354,"","","",""
600109,99,99,block_Testing,4,task_Testing,2,1,"","",9,6,"","",Block6,"","","","","","","","",K,Stim15,HR,36,"",0,K,blue,12,1,55,"",1354,"","","",""
600109,100,100,block_Testing,4,task_Testing,2,1,"","",10,6,"","",Block6,"","","","","","","","",J,Stim15,LR,104,"",0,J,green,12,1,55.56,"",1354,"","","",""
600109,101,101,block_Testing,4,task_Testing,2,1,"","",11,6,"","",Block6,"","","","","","","","",J,Stim16,HR,15,"",0,J,blue,13,1,56.11,"",1354,"","","",""
600109,102,102,block_Testing,4,task_Testing,2,1,"","",12,6,"","",Block6,"","","","","","","","",K,Stim15,NR,7,"",0,K,red,11,1,56.67,"",1354,"","","",""
600109,103,103,block_Testing,4,task_Testing,2,1,"","",13,6,"","",Block6,"","","","","","","","",K,Stim16,NR,58,"",0,K,red,13,1,57.22,"",1354,"","","",""
600109,104,104,block_Testing,4,task_Testing,2,1,"","",14,6,"","",Block6,"","","","","","","","",K,PreISI1,LR,14,"",0,K,green,13,1,57.78,"",1354,"","","",""
600109,105,105,block_Testing,4,task_Testing,2,1,"","",15,6,"","",Block6,"","","","","","","","",K,Stim12,NR,65,"",0,K,red,9,1,58.33,"",1354,"","","",""
600109,106,106,block_Testing,4,task_Testing,2,1,"","",16,6,"","",Block6,"","","","","","","","",J,Stim14,HR,26,"",0,J,blue,11,1,58.89,"",1354,"","","",""
600109,107,107,block_Testing,4,task_Testing,2,1,"","",17,6,"","",Block6,"","","","","","","","",J,Stim15,NR,58,"",0,J,red,12,1,59.44,"",1354,"","","",""
600109,108,108,block_Testing,4,task_Testing,2,1,"","",18,6,"","",Block6,"","","","","","","","",J,Stim12,HR,99,"",0,J,blue,9,2,60,"",1354,"","","",""
600109,109,109,block_Testing,4,task_Testing,2,1,"","",1,7,"","",Block7,"","","","","","","","",K,Stim15,HR,10,"",0,K,blue,12,2,60.56,"",1354,"","","",""
600109,110,110,block_Testing,4,task_Testing,2,1,"","",2,7,"","",Block7,"","","","","","","","",J,Stim15,NR,11,"",0,J,red,12,2,61.11,"",1354,"","","",""
600109,111,111,block_Testing,4,task_Testing,2,1,"","",3,7,"","",Block7,"","","","","","","","",K,Stim12,HR,107,"",0,K,blue,10,2,61.67,"",1354,"","","",""
600109,112,112,block_Testing,4,task_Testing,2,1,"","",4,7,"","",Block7,"","","","","","","","",K,Stim14,NR,14,"",0,K,red,11,2,62.22,"",1354,"","","",""
600109,113,113,block_Testing,4,task_Testing,2,1,"","",5,7,"","",Block7,"","","","","","","","",J,Stim12,HR,16,"",0,J,blue,9,2,62.78,"",1354,"","","",""
600109,114,114,block_Testing,4,task_Testing,2,1,"","",6,7,"","",Block7,"","","","","","","","",K,Stim12,LR,19,"",0,K,green,9,2,63.33,"",1354,"","","",""
600109,115,115,block_Testing,4,task_Testing,2,1,"","",7,7,"","",Block7,"","","","","","","","",K,Stim12,NR,6,"",0,K,red,9,2,63.89,"",1354,"","","",""
600109,116,116,block_Testing,4,task_Testing,2,1,"","",8,7,"","",Block7,"","","","","","","","",J,Stim13,LR,6,"",0,J,green,10,2,64.44,"",1354,"","","",""
600109,117,117,block_Testing,4,task_Testing,2,1,"","",9,7,"","",Block7,"","","","","","","","",K,Stim13,LR,99,"",0,K,green,11,2,65,"",1354,"","","",""
600109,118,118,block_Testing,4,task_Testing,2,1,"","",10,7,"","",Block7,"","","","","","","","",J,Stim11,NR,4,"",0,J,red,8,2,65.56,"",1354,"","","",""
600109,119,119,block_Testing,4,task_Testing,2,1,"","",11,7,"","",Block7,"","",Slow!,"","","","","",J,ISI,HR,613,"",1,J,blue,13,2,66.11,"",1354,"","","",""
600109,120,120,block_Testing,4,task_Testing,2,1,"","",12,7,"","",Block7,"","","","","","","","",K,Stim15,LR,109,"",0,K,green,13,2,66.67,"",1354,"","","",""
600109,121,121,block_Testing,4,task_Testing,2,1,"","",13,7,"","",Block7,"","","","","","","","",K,Stim16,NR,25,"",0,K,red,13,2,67.22,"",1354,"","","",""
600109,122,122,block_Testing,4,task_Testing,2,1,"","",14,7,"","",Block7,"","","","","","","","",K,Stim11,HR,116,"",0,K,blue,8,2,67.78,"",1354,"","","",""
600109,123,123,block_Testing,4,task_Testing,2,1,"","",15,7,"","",Block7,"","","","","","","","",J,Stim14,HR,37,"",0,J,blue,11,2,68.33,"",1354,"","","",""
600109,124,124,block_Testing,4,task_Testing,2,1,"","",16,7,"","",Block7,"","","","","","","","",J,Stim13,NR,45,"",0,J,red,10,2,68.89,"",1354,"","","",""
600109,125,125,block_Testing,4,task_Testing,2,0,"","",17,7,"","",Block7,"","","","","","","","",K,Stim14,LR,42,"",0,J,green,12,2,69.44,"",1354,"","","",""
600109,126,126,block_Testing,4,task_Testing,2,1,"","",18,7,"","",Block7,"","","","","","","","",J,Stim11,LR,26,"",0,J,green,8,2,70,"",1354,"","","",""
600109,127,127,block_Testing,4,task_Testing,2,1,"","",1,8,"","",Block8,"","","","","","","","",K,Stim13,HR,67,"",0,K,blue,10,2,70.56,"",1354,"","","",""
600109,128,128,block_Testing,4,task_Testing,2,1,"","",2,8,"","",Block8,"","","","","","","","",K,Stim13,LR,65,"",0,K,green,9,2,71.11,"",1354,"","","",""
600109,129,129,block_Testing,4,task_Testing,2,1,"","",3,8,"","",Block8,"","","","","","","","",J,Stim11,LR,36,"",0,J,green,8,2,71.67,"",1354,"","","",""
600109,130,130,block_Testing,4,task_Testing,2,1,"","",4,8,"","",Block8,"","","","","","","","",K,Stim14,LR,28,"",0,K,green,11,2,72.22,"",1354,"","","",""
600109,131,131,block_Testing,4,task_Testing,2,1,"","",5,8,"","",Block8,"","","","","","","","",K,Stim12,NR,75,"",0,K,red,9,2,72.78,"",1354,"","","",""
600109,132,132,block_Testing,4,task_Testing,2,1,"","",6,8,"","",Block8,"","","","","","","","",J,Stim15,LR,80,"",0,J,green,12,2,73.33,"",1354,"","","",""
600109,133,133,block_Testing,4,task_Testing,2,1,"","",7,8,"","",Block8,"","","","","","","","",J,Stim13,LR,106,"",0,J,green,10,2,73.89,"",1354,"","","",""
600109,134,134,block_Testing,4,task_Testing,2,1,"","",8,8,"","",Block8,"","","","","","","","",K,Stim14,HR,85,"",0,K,blue,12,2,74.44,"",1354,"","","",""
600109,135,135,block_Testing,4,task_Testing,2,1,"","",9,8,"","",Block8,"","","","","","","","",K,Stim11,HR,88,"",0,K,blue,8,2,75,"",1354,"","","",""
600109,136,136,block_Testing,4,task_Testing,2,1,"","",10,8,"","",Block8,"","","","","","","","",J,Stim14,HR,47,"",0,J,blue,11,2,75.56,"",1354,"","","",""
600109,137,137,block_Testing,4,task_Testing,2,1,"","",11,8,"","",Block8,"","","","","","","","",J,Stim12,HR,32,"",0,J,blue,9,2,76.11,"",1354,"","","",""
600109,138,138,block_Testing,4,task_Testing,2,1,"","",12,8,"","",Block8,"","","","","","","","",J,Stim13,NR,14,"",0,J,red,10,2,76.67,"",1354,"","","",""
600109,139,139,block_Testing,4,task_Testing,2,1,"","",13,8,"","",Block8,"","","","","","","","",K,Stim16,NR,17,"",0,K,red,13,2,77.22,"",1354,"","","",""
600109,140,140,block_Testing,4,task_Testing,2,1,"","",14,8,"","",Block8,"","","","","","","","",J,Stim16,HR,82,"",0,J,blue,13,2,77.78,"",1354,"","","",""
600109,141,141,block_Testing,4,task_Testing,2,1,"","",15,8,"","",Block8,"","","","","","","","",J,Stim15,NR,8,"",0,J,red,12,2,78.33,"",1354,"","","",""
600109,142,142,block_Testing,4,task_Testing,2,1,"","",16,8,"","",Block8,"","","","","","","","",K,Stim15,LR,109,"",0,K,green,13,2,78.89,"",1354,"","","",""
600109,143,143,block_Testing,4,task_Testing,2,1,"","",17,8,"","",Block8,"","","","","","","","",J,Stim11,NR,5,"",0,J,red,8,2,79.44,"",1354,"","","",""
600109,144,144,block_Testing,4,task_Testing,2,1,"","",18,8,"","",Block8,"","","","","","","","",K,Stim14,NR,4,"",0,K,red,11,2,80,"",1354,"","","",""
600109,145,145,block_Testing,4,task_Testing,2,0,"","",1,9,"","",Block9,"","","","","","","","",J,Stim14,NR,27,"",0,K,red,11,2,80.56,"",1354,"","","",""
600109,146,146,block_Testing,4,task_Testing,2,1,"","",2,9,"","",Block9,"","","","","","","","",K,Stim12,HR,87,"",0,K,blue,10,2,81.11,"",1354,"","","",""
600109,147,147,block_Testing,4,task_Testing,2,1,"","",3,9,"","",Block9,"","","","","","","","",J,Stim13,LR,6,"",0,J,green,10,2,81.67,"",1354,"","","",""
600109,148,148,block_Testing,4,task_Testing,2,1,"","",4,9,"","",Block9,"","","","","","","","",K,Stim14,LR,17,"",0,K,green,11,2,82.22,"",1354,"","","",""
600109,149,149,block_Testing,4,task_Testing,2,1,"","",5,9,"","",Block9,"","","","","","","","",J,Stim15,HR,89,"",0,J,blue,13,2,82.78,"",1354,"","","",""
600109,150,150,block_Testing,4,task_Testing,2,1,"","",6,9,"","",Block9,"","","","","","","","",J,Stim12,HR,88,"",0,J,blue,9,2,83.33,"",1354,"","","",""
600109,151,151,block_Testing,4,task_Testing,2,1,"","",7,9,"","",Block9,"","","","","","","","",J,Stim15,NR,39,"",0,J,red,12,2,83.89,"",1354,"","","",""
600109,152,152,block_Testing,4,task_Testing,2,1,"","",8,9,"","",Block9,"","","","","","","","",J,Stim13,NR,65,"",0,J,red,10,2,84.44,"",1354,"","","",""
600109,153,153,block_Testing,4,task_Testing,2,1,"","",9,9,"","",Block9,"","","","","","","","",K,Stim15,HR,124,"",0,K,blue,12,2,85,"",1354,"","","",""
600109,154,154,block_Testing,4,task_Testing,2,1,"","",10,9,"","",Block9,"","","","","","","","",J,Stim15,LR,61,"",0,J,green,12,2,85.56,"",1354,"","","",""
600109,155,155,block_Testing,4,task_Testing,2,1,"","",11,9,"","",Block9,"","","","","","","","",K,Stim12,HR,14,"",0,K,blue,8,2,86.11,"",1354,"","","",""
600109,156,156,block_Testing,4,task_Testing,2,1,"","",12,9,"","",Block9,"","","","","","","","",J,Stim13,LR,65,"",0,J,green,8,2,86.67,"",1354,"","","",""
600109,157,157,block_Testing,4,task_Testing,2,1,"","",13,9,"","",Block9,"","","","","","","","",K,Stim12,LR,72,"",0,K,green,9,2,87.22,"",1354,"","","",""
600109,158,158,block_Testing,4,task_Testing,2,0,"","",14,9,"","",Block9,"","","","","","","","",J,Stim11,NR,50,"",0,K,red,9,2,87.78,"",1354,"","","",""
600109,159,159,block_Testing,4,task_Testing,2,1,"","",15,9,"","",Block9,"","","","","","","","",J,Stim11,NR,63,"",0,J,red,8,2,88.33,"",1354,"","","",""
600109,160,160,block_Testing,4,task_Testing,2,1,"","",16,9,"","",Block9,"","","","","","","","",K,Stim16,NR,22,"",0,K,red,13,2,88.89,"",1354,"","","",""
600109,161,161,block_Testing,4,task_Testing,2,1,"","",17,9,"","",Block9,"","","","","","","","",J,Stim14,HR,19,"",0,J,blue,11,2,89.44,"",1354,"","","",""
600109,162,162,block_Testing,4,task_Testing,2,1,"","",18,9,"","",Block9,"","","","","","","","",K,Stim16,LR,26,"",0,K,green,13,2,90,"",1354,"","","",""
600109,163,163,block_Testing,4,task_Testing,2,1,"","",1,10,"","",Block10,"","","","","","","","",K,Stim12,LR,66,"",0,K,green,9,2,90.56,"",1354,"","","",""
600109,164,164,block_Testing,4,task_Testing,2,1,"","",2,10,"","",Block10,"","","","","","","","",J,Stim12,NR,5,"",0,J,red,8,2,91.11,"",1354,"","","",""
600109,165,165,block_Testing,4,task_Testing,2,1,"","",3,10,"","",Block10,"","","","","","","","",K,Stim13,NR,10,"",0,K,red,9,2,91.67,"",1354,"","","",""
600109,166,166,block_Testing,4,task_Testing,2,1,"","",4,10,"","",Block10,"","","","","","","","",J,Stim13,LR,42,"",0,J,green,10,2,92.22,"",1354,"","","",""
600109,167,167,block_Testing,4,task_Testing,2,1,"","",5,10,"","",Block10,"","","","","","","","",K,Stim14,HR,70,"",0,K,blue,12,2,92.78,"",1354,"","","",""
600109,168,168,block_Testing,4,task_Testing,2,0,"","",6,10,"","",Block10,"","","","","","","","",K,Stim14,LR,71,"",0,J,green,12,2,93.33,"",1354,"","","",""
600109,169,169,block_Testing,4,task_Testing,2,1,"","",7,10,"","",Block10,"","","","","","","","",J,Stim12,HR,7,"",0,J,blue,9,2,93.89,"",1354,"","","",""
600109,170,170,block_Testing,4,task_Testing,2,0,"","",8,10,"","",Block10,"","","","","","","","",K,Stim10,LR,102,"",0,J,green,8,2,94.44,"",1354,"","","",""
600109,171,171,block_Testing,4,task_Testing,2,1,"","",9,10,"","",Block10,"","","","","","","","",K,Stim13,HR,21,"",0,K,blue,10,2,95,"",1354,"","","",""
600109,172,172,block_Testing,4,task_Testing,2,1,"","",10,10,"","",Block10,"","","","","","","","",K,Stim16,NR,38,"",0,K,red,13,2,95.56,"",1354,"","","",""
600109,173,173,block_Testing,4,task_Testing,2,1,"","",11,10,"","",Block10,"","","","","","","","",J,PreISI1,HR,76,"",0,J,blue,13,2,96.11,"",1354,"","","",""
600109,174,174,block_Testing,4,task_Testing,2,1,"","",12,10,"","",Block10,"","","","","","","","",K,Stim16,LR,92,"",0,K,green,13,2,96.67,"",1354,"","","",""
600109,175,175,block_Testing,4,task_Testing,2,1,"","",13,10,"","",Block10,"","","","","","","","",J,Stim14,HR,22,"",0,J,blue,11,2,97.22,"",1354,"","","",""
600109,176,176,block_Testing,4,task_Testing,2,1,"","",14,10,"","",Block10,"","","","","","","","",K,Stim11,HR,55,"",0,K,blue,8,2,97.78,"",1354,"","","",""
600109,177,177,block_Testing,4,task_Testing,2,1,"","",15,10,"","",Block10,"","","","","","","","",K,Stim14,LR,25,"",0,K,green,11,2,98.33,"",1354,"","","",""
600109,178,178,block_Testing,4,task_Testing,2,1,"","",16,10,"","",Block10,"","","","","","","","",K,Stim14,NR,88,"",0,K,red,11,2,98.89,"",1354,"","","",""
600109,179,179,block_Testing,4,task_Testing,2,1,"","",17,10,"","",Block10,"","","","","","","","",J,Stim13,NR,52,"",0,J,red,10,2,99.44,"",1354,"","","",""
600109,180,180,block_Testing,4,task_Testing,2,1,"","",18,10,"","",Block10,"","","","","","","","",J,Stim16,NR,41,"",0,J,red,12,2,100,"",1354,"","","",""
600109,1,1,block_End,5,task_Demog_End,1,"","",37,"",1,"","","","","","","","","","","","","","","",Male,"","","","","","","","","","","",""
