Rec_Session_Id,Trial_Nr,Trial_Id,Block_Name,Block_Nr,Task_Name,Task_Nr,ACC,ACC_Total_Prac,Age,BlkTrial_Nr,Condition_Id,Consent,Contact,copy_of_factor1_tg1_task2,Email,factor1_tg1_task2,Fdbck_Slow,Feedback,MatricNo,Name,PAYNOW,Recontact,RESP,RESP_Frame,Reward,RT_FromFramePress,Sex,SlowResp,Targ,TargCol,TargPos,Testing_BreakCount,Testing_Progress,TotalMoney,TotalPoints,TotalPoints_prac,Trial_Nr_prac,Trng_BreakCount,Trng_Progress
586399,1,1,block_TrngInstructions,1,task_Trng_Instructions,1,"","","","",1,"","","","","","","","","","","","","","","","","","","","","","","","","","","",""
586399,1,1,block_Practice,2,task_GetReady,1,"","","","",1,"","","","","","","","","","","","","","","","","","","","","","","","","","","",""
586399,1,1,block_Practice,2,task_Trng_Prac,2,1,0,"","",1,"","","","","",Slow!,"","","","","",J,ISI,Disallowed,873,"",7,J,blue,12,"","","",0,0,"","",""
586399,2,2,block_Practice,2,task_Trng_Prac,2,1,0,"","",1,"","","","","",Slow!,"","","","","",J,ISI,Disallowed,646,"",8,J,blue,13,"","","",0,0,"","",""
586399,3,3,block_Practice,2,task_Trng_Prac,2,0,0,"","",1,"","","","","",Slow!,"","","","","",J,PreISI2,Disallowed,778,"",9,K,green,11,"","","",0,0,"","",""
586399,4,4,block_Practice,2,task_Trng_Prac,2,1,0,"","",1,"","","","","",Slow!,"","","","","",K,PreISI2,Disallowed,994,"",10,K,red,10,"","","",0,0,"","",""
586399,5,5,block_Practice,2,task_Trng_Prac,2,1,0,"","",1,"","","","","",Slow!,"","","","","",J,ISI,Disallowed,48,"",11,J,green,9,"","","",0,0,"","",""
586399,6,6,block_Practice,2,task_Trng_Prac,2,1,0,"","",1,"","","","","",Slow!,"","","","","",K,PreISI2,Disallowed,841,"",12,K,red,8,"","","",0,0,"","",""
586399,1,1,block_Practice,2,task_GetReady,1,"","","","",1,"","","","","","","","","","","","","","","","","","","","","","","","","","","",""
586399,1,1,block_Practice,2,task_Trng_Prac,2,1,1,"","",1,"","","","","","","","","","","",J,PreISI2,Disallowed,11,"",12,J,blue,13,"","","",0,0,"","",""
586399,2,2,block_Practice,2,task_Trng_Prac,2,1,2,"","",1,"","","","","","","","","","","",J,PreISI1,Disallowed,480,"",12,J,blue,12,"","","",0,0,"","",""
586399,3,3,block_Practice,2,task_Trng_Prac,2,1,0,"","",1,"","","","","",Slow!,"","","","","",K,PreISI2,Disallowed,936,"",13,K,green,11,"","","",0,0,"","",""
586399,4,4,block_Practice,2,task_Trng_Prac,2,1,1,"","",1,"","","","","","","","","","","",K,PreISI1,Disallowed,209,"",13,K,red,10,"","","",0,0,"","",""
586399,5,5,block_Practice,2,task_Trng_Prac,2,1,2,"","",1,"","","","","","","","","","","",K,Stim16,Disallowed,23,"",13,K,red,8,"","","",0,0,"","",""
586399,6,6,block_Practice,2,task_Trng_Prac,2,0,0,"","",1,"","","","","",Slow!,"","","","","",K,PreISI2,Disallowed,1403,"",14,J,green,9,"","","",0,0,"","",""
586399,1,1,block_Practice,2,task_GetReady,1,"","","","",1,"","","","","","","","","","","","","","","","","","","","","","","","","","","",""
586399,1,1,block_Practice,2,task_Trng_Prac,2,1,1,"","",1,"","","","","","","","","","","",J,PreISI1,Disallowed,467,"",14,J,blue,12,"","","",0,0,"","",""
586399,2,2,block_Practice,2,task_Trng_Prac,2,1,2,"","",1,"","","","","","","","","","","",J,PreISI1,Disallowed,378,"",14,J,green,9,"","","",0,0,"","",""
586399,3,3,block_Practice,2,task_Trng_Prac,2,1,3,"","",1,"","","","","","","","","","","",K,Stim15,Disallowed,113,"",14,K,red,8,"","","",0,0,"","",""
586399,4,4,block_Practice,2,task_Trng_Prac,2,1,4,"","",1,"","","","","","","","","","","",K,Stim15,Disallowed,40,"",14,K,red,10,"","","",0,0,"","",""
586399,5,5,block_Practice,2,task_Trng_Prac,2,0,4,"","",1,"","","","","","","","","","","",J,PreISI1,Disallowed,110,"",14,K,green,11,"","","",0,0,"","",""
586399,6,6,block_Practice,2,task_Trng_Prac,2,1,5,"","",1,"","","","","","","","","","","",J,PreISI1,Disallowed,248,"",14,J,blue,13,"","","",0,0,"","",""
586399,1,1,block_Practice,2,task_GetReady,1,"","","","",1,"","","","","","","","","","","","","","","","","","","","","","","","","","","",""
586399,1,1,block_Practice,2,task_Trng_Prac,2,0,0,"","",1,"","","","","",Slow!,"","","","","","","",Disallowed,0,"",1,K,green,11,"","","",0,0,"","",""
586399,2,2,block_Practice,2,task_Trng_Prac,2,0,0,"","",1,"","","","","",Slow!,"","","","","",K,ISI,Disallowed,449,"",2,J,green,9,"","","",0,0,"","",""
586399,3,3,block_Practice,2,task_Trng_Prac,2,1,0,"","",1,"","","","","",Slow!,"","","","","",K,ISI,Disallowed,491,"",3,K,red,10,"","","",0,0,"","",""
586399,4,4,block_Practice,2,task_Trng_Prac,2,1,0,"","",1,"","","","","",Slow!,"","","","","",J,ISI,Disallowed,456,"",4,J,blue,12,"","","",0,0,"","",""
586399,5,5,block_Practice,2,task_Trng_Prac,2,1,0,"","",1,"","","","","",Slow!,"","","","","",K,ISI,Disallowed,39,"",5,K,red,8,"","","",0,0,"","",""
586399,6,6,block_Practice,2,task_Trng_Prac,2,1,0,"","",1,"","","","","",Slow!,"","","","","",J,ISI,Disallowed,490,"",6,J,blue,13,"","","",0,0,"","",""
586399,1,1,block_Trng,3,task_GetReady,1,"","","","",1,"","","","","","","","","","","","","","","","","","","","","","","","","","","",""
586399,1,1,block_Trng,3,task_Trng,2,1,"","",1,1,"","","","",Block1,Slow!,"","","","","",K,PreISI2,LR,500,"",15,K,blue,8,"","",0,0,"","",0,0.28
586399,2,2,block_Trng,3,task_Trng,2,0,"","",2,1,"","","","",Block1,Slow!,"","","","","",J,PreISI2,LR,479,"",16,K,blue,12,"","",0,0,"","",0,0.56
586399,3,3,block_Trng,3,task_Trng,2,1,"","",3,1,"","","","",Block1,"","","","","","",J,PreISI1,NR,79,"",0,J,green,10,"","",0,0,"","",0,0.83
586399,4,4,block_Trng,3,task_Trng,2,0,"","",4,1,"","","","",Block1,"","","","","","",K,Stim14,HR,99,"",0,J,red,8,"","",0,0,"","",0,1.11
586399,5,5,block_Trng,3,task_Trng,2,1,"","",5,1,"","","","",Block1,"","","","","","",K,PreISI1,HR,404,"",0,K,red,11,"","",0,10,"","",0,1.39
586399,6,6,block_Trng,3,task_Trng,2,0,"","",6,1,"","","","",Block1,Slow!,"","","","","",J,PreISI2,NR,144,"",1,K,green,9,"","",0,10,"","",0,1.67
586399,7,7,block_Trng,3,task_Trng,2,1,"","",7,1,"","","","",Block1,Slow!,"","","","","",K,PreISI2,LR,186,"",2,K,blue,10,"","",0,10,"","",0,1.94
586399,8,8,block_Trng,3,task_Trng,2,0,"","",8,1,"","","","",Block1,"","","","","","",K,PreISI1,HR,240,"",0,J,red,12,"","",0,10,"","",0,2.22
586399,9,9,block_Trng,3,task_Trng,2,0,"","",9,1,"","","","",Block1,"","","","","","",J,PreISI1,NR,271,"",0,K,green,11,"","",0,10,"","",0,2.5
586399,10,10,block_Trng,3,task_Trng,2,0,"","",10,1,"","","","",Block1,"","","","","","",K,Stim15,LR,18,"",0,J,blue,9,"","",0,10,"","",0,2.78
586399,11,11,block_Trng,3,task_Trng,2,1,"","",11,1,"","","","",Block1,"","","","","","",J,Stim13,NR,109,"",0,J,green,8,"","",0,10,"","",0,3.06
586399,12,12,block_Trng,3,task_Trng,2,0,"","",12,1,"","","","",Block1,"","","","","","",J,PreISI1,NR,179,"",0,K,green,13,"","",0,10,"","",0,3.33
586399,13,13,block_Trng,3,task_Trng,2,0,"","",13,1,"","","","",Block1,"","","","","","",K,PreISI1,NR,463,"",0,J,green,12,"","",0,10,"","",0,3.61
586399,14,14,block_Trng,3,task_Trng,2,0,"","",14,1,"","","","",Block1,"","","","","","",K,PreISI1,LR,455,"",0,J,blue,11,"","",0,10,"","",0,3.89
586399,15,15,block_Trng,3,task_Trng,2,1,"","",15,1,"","","","",Block1,"","","","","","",K,PreISI1,HR,161,"",0,K,red,9,"","",0,20,"","",0,4.17
586399,16,16,block_Trng,3,task_Trng,2,1,"","",16,1,"","","","",Block1,"","","","","","",K,PreISI1,HR,395,"",0,K,red,13,"","",0,30,"","",0,4.44
586399,17,17,block_Trng,3,task_Trng,2,1,"","",17,1,"","","","",Block1,Slow!,"","","","","",J,PreISI2,LR,139,"",1,J,blue,13,"","",0,30,"","",0,4.72
586399,18,18,block_Trng,3,task_Trng,2,0,"","",18,1,"","","","",Block1,"","","","","","",K,PreISI1,HR,354,"",0,J,red,10,"","",0,30,"","",0,5
586399,19,19,block_Trng,3,task_Trng,2,0,"","",1,2,"","","","",Block2,"","","","","","",K,PreISI1,LR,489,"",0,J,blue,11,"","",0,30,"","",0,5.28
586399,20,20,block_Trng,3,task_Trng,2,1,"","",2,2,"","","","",Block2,"","","","","","",K,PreISI1,LR,408,"",0,K,blue,8,"","",0,32,"","",0,5.56
586399,21,21,block_Trng,3,task_Trng,2,1,"","",3,2,"","","","",Block2,"","","","","","",J,PreISI1,LR,423,"",0,J,blue,13,"","",0,34,"","",0,5.83
586399,22,22,block_Trng,3,task_Trng,2,0,"","",4,2,"","","","",Block2,"","","","","","",K,Stim13,LR,12,"",0,J,blue,9,"","",0,34,"","",0,6.11
586399,23,23,block_Trng,3,task_Trng,2,0,"","",5,2,"","","","",Block2,"","","","","","",K,Stim14,HR,51,"",0,J,red,8,"","",0,34,"","",0,6.39
586399,24,24,block_Trng,3,task_Trng,2,0,"","",6,2,"","","","",Block2,Slow!,"","","","","",K,PreISI2,HR,28,"",1,J,red,10,"","",0,34,"","",0,6.67
586399,25,25,block_Trng,3,task_Trng,2,0,"","",7,2,"","","","",Block2,"","","","","","",J,PreISI1,LR,468,"",0,K,blue,10,"","",0,34,"","",0,6.94
586399,26,26,block_Trng,3,task_Trng,2,1,"","",8,2,"","","","",Block2,"","","","","","",J,PreISI1,NR,527,"",0,J,green,8,"","",0,34,"","",0,7.22
586399,27,27,block_Trng,3,task_Trng,2,0,"","",9,2,"","","","",Block2,"","","","","","",J,PreISI1,NR,36,"",0,K,green,11,"","",0,34,"","",0,7.5
586399,28,28,block_Trng,3,task_Trng,2,0,"","",10,2,"","","","",Block2,"","","","","","",J,PreISI1,NR,20,"",0,K,green,9,"","",0,34,"","",0,7.78
586399,29,29,block_Trng,3,task_Trng,2,1,"","",11,2,"","","","",Block2,Slow!,"","","","","",J,PreISI2,NR,53,"",1,J,green,10,"","",0,34,"","",0,8.06
586399,30,30,block_Trng,3,task_Trng,2,1,"","",12,2,"","","","",Block2,"","","","","","",J,PreISI1,NR,505,"",0,J,green,12,"","",0,34,"","",0,8.33
586399,31,31,block_Trng,3,task_Trng,2,1,"","",13,2,"","","","",Block2,Slow!,"","","","","",K,PreISI2,LR,1266,"",1,K,blue,12,"","",0,34,"","",0,8.61
586399,32,32,block_Trng,3,task_Trng,2,0,"","",14,2,"","","","",Block2,"","","","","","",J,PreISI1,NR,420,"",0,K,green,13,"","",0,34,"","",0,8.89
586399,33,33,block_Trng,3,task_Trng,2,0,"","",15,2,"","","","",Block2,"","","","","","",K,PreISI1,HR,419,"",0,J,red,12,"","",0,34,"","",0,9.17
586399,34,34,block_Trng,3,task_Trng,2,1,"","",16,2,"","","","",Block2,"","","","","","",K,PreISI1,HR,329,"",0,K,red,9,"","",0,44,"","",0,9.44
586399,35,35,block_Trng,3,task_Trng,2,0,"","",17,2,"","","","",Block2,"","","","","","",J,PreISI1,HR,486,"",0,K,red,13,"","",0,44,"","",0,9.72
586399,36,36,block_Trng,3,task_Trng,2,1,"","",18,2,"","","","",Block2,"","","","","","",K,PreISI1,HR,84,"",0,K,red,11,"","",0,54,"","",0,10
586399,37,37,block_Trng,3,task_Trng,2,0,"","",1,3,"","","","",Block3,"","","","","","",J,Stim15,LR,86,"",0,K,blue,8,"","",0,54,"","",0,10.28
586399,38,38,block_Trng,3,task_Trng,2,0,"","",2,3,"","","","",Block3,"","","","","","",J,PreISI1,LR,492,"",0,K,blue,10,"","",0,54,"","",0,10.56
586399,39,39,block_Trng,3,task_Trng,2,1,"","",3,3,"","","","",Block3,"","","","","","",J,Stim13,NR,118,"",0,J,green,8,"","",0,54,"","",0,10.83
586399,40,40,block_Trng,3,task_Trng,2,1,"","",4,3,"","","","",Block3,Slow!,"","","","","",J,PreISI2,LR,13,"",1,J,blue,13,"","",0,54,"","",0,11.11
586399,41,41,block_Trng,3,task_Trng,2,1,"","",5,3,"","","","",Block3,"","","","","","",K,Stim14,HR,24,"",0,K,red,9,"","",0,64,"","",0,11.39
586399,42,42,block_Trng,3,task_Trng,2,0,"","",6,3,"","","","",Block3,"","","","","","",K,PreISI1,NR,507,"",0,J,green,12,"","",0,64,"","",0,11.67
586399,43,43,block_Trng,3,task_Trng,2,0,"","",7,3,"","","","",Block3,"","","","","","",K,Stim13,HR,17,"",0,J,red,8,"","",0,64,"","",0,11.94
586399,44,44,block_Trng,3,task_Trng,2,0,"","",8,3,"","","","",Block3,"","","","","","",J,PreISI1,NR,532,"",0,K,green,11,"","",0,64,"","",0,12.22
586399,45,45,block_Trng,3,task_Trng,2,0,"","",9,3,"","","","",Block3,Slow!,"","","","","",K,PreISI2,HR,106,"",1,J,red,12,"","",0,64,"","",0,12.5
586399,46,46,block_Trng,3,task_Trng,2,1,"","",10,3,"","","","",Block3,"","","","","","",K,Stim10,NR,61,"",0,K,green,9,"","",0,64,"","",0,12.78
586399,47,47,block_Trng,3,task_Trng,2,0,"","",11,3,"","","","",Block3,"","","","","","",K,Stim12,NR,18,"",0,J,green,10,"","",0,64,"","",0,13.06
586399,48,48,block_Trng,3,task_Trng,2,1,"","",12,3,"","","","",Block3,"","","","","","",J,Stim11,LR,36,"",0,J,blue,9,"","",0,66,"","",0,13.33
586399,49,49,block_Trng,3,task_Trng,2,1,"","",13,3,"","","","",Block3,"","","","","","",J,Stim11,LR,66,"",0,J,blue,11,"","",0,68,"","",0,13.61
586399,50,50,block_Trng,3,task_Trng,2,1,"","",14,3,"","","","",Block3,"","","","","","",K,Stim14,NR,29,"",0,K,green,13,"","",0,68,"","",0,13.89
586399,51,51,block_Trng,3,task_Trng,2,1,"","",15,3,"","","","",Block3,"","","","","","",J,Stim10,HR,105,"",0,J,red,10,"","",0,78,"","",0,14.17
586399,52,52,block_Trng,3,task_Trng,2,1,"","",16,3,"","","","",Block3,"","","","","","",K,Stim14,HR,25,"",0,K,red,13,"","",0,88,"","",0,14.44
586399,53,53,block_Trng,3,task_Trng,2,0,"","",17,3,"","","","",Block3,"","","","","","",J,Stim12,HR,29,"",0,K,red,11,"","",0,88,"","",0,14.72
586399,54,54,block_Trng,3,task_Trng,2,1,"","",18,3,"","","","",Block3,"","","","","","",K,Stim12,LR,41,"",0,K,blue,12,"","",0,90,"","",0,15
586399,55,55,block_Trng,3,task_Trng,2,1,"","",1,4,"","","","",Block4,"","","","","","",K,Stim9,LR,50,"",0,K,blue,8,"","",0,92,"","",0,15.28
586399,56,56,block_Trng,3,task_Trng,2,1,"","",2,4,"","","","",Block4,"","","","","","",K,Stim12,LR,30,"",0,K,blue,12,"","",0,94,"","",0,15.56
586399,57,57,block_Trng,3,task_Trng,2,0,"","",3,4,"","","","",Block4,"","","","","","",K,Stim13,NR,22,"",0,J,green,12,"","",0,94,"","",0,15.83
586399,58,58,block_Trng,3,task_Trng,2,0,"","",4,4,"","","","",Block4,"","","","","","",K,Stim12,LR,41,"",0,J,blue,11,"","",0,94,"","",0,16.11
586399,59,59,block_Trng,3,task_Trng,2,1,"","",5,4,"","","","",Block4,"","","","","","",J,Stim8,HR,66,"",0,J,red,8,"","",0,104,"","",0,16.39
586399,60,60,block_Trng,3,task_Trng,2,0,"","",6,4,"","","","",Block4,"","","","","","",J,Stim13,HR,20,"",0,K,red,13,"","",0,104,"","",0,16.67
586399,61,61,block_Trng,3,task_Trng,2,1,"","",7,4,"","","","",Block4,"","","","","","",K,Stim10,LR,15,"",0,K,blue,10,"","",0,106,"","",0,16.94
586399,62,62,block_Trng,3,task_Trng,2,1,"","",8,4,"","","","",Block4,"","","","","","",K,Stim11,HR,110,"",0,K,red,11,"","",0,116,"","",0,17.22
586399,63,63,block_Trng,3,task_Trng,2,0,"","",9,4,"","","","",Block4,"","","","","","",K,Stim13,LR,115,"",0,J,blue,13,"","",0,116,"","",0,17.5
586399,64,64,block_Trng,3,task_Trng,2,0,"","",10,4,"","","","",Block4,"","","","","","",J,Stim11,NR,1,"",0,K,green,11,"","",0,116,"","",0,17.78
586399,65,65,block_Trng,3,task_Trng,2,0,"","",11,4,"","","","",Block4,"","","","","","",K,Stim15,HR,14,"",0,J,red,12,"","",0,116,"","",0,18.06
586399,66,66,block_Trng,3,task_Trng,2,1,"","",12,4,"","","","",Block4,"","","","","","",K,Stim9,HR,110,"",0,K,red,9,"","",0,126,"","",0,18.33
586399,67,67,block_Trng,3,task_Trng,2,1,"","",13,4,"","","","",Block4,"","","","","","",K,Stim9,NR,37,"",0,K,green,9,"","",0,126,"","",0,18.61
586399,68,68,block_Trng,3,task_Trng,2,1,"","",14,4,"","","","",Block4,"","","","","","",J,Stim10,HR,22,"",0,J,red,10,"","",0,136,"","",0,18.89
586399,69,69,block_Trng,3,task_Trng,2,0,"","",15,4,"","","","",Block4,"","","","","","",K,Stim8,NR,23,"",0,J,green,8,"","",0,136,"","",0,19.17
586399,70,70,block_Trng,3,task_Trng,2,0,"","",16,4,"","","","",Block4,"","","","","","",J,Stim13,NR,108,"",0,K,green,13,"","",0,136,"","",0,19.44
586399,71,71,block_Trng,3,task_Trng,2,1,"","",17,4,"","","","",Block4,"","","","","","",J,Stim11,NR,6,"",0,J,green,10,"","",0,136,"","",0,19.72
586399,72,72,block_Trng,3,task_Trng,2,0,"","",18,4,"","","","",Block4,"","","","","","",K,Stim9,LR,69,"",0,J,blue,9,"","",0.46,136,"","",1,20
586399,73,73,block_Trng,3,task_Trng,2,0,"","",1,5,"","","","",Block5,"","","","","","",K,Stim9,HR,28,"",0,J,red,8,"","",0.46,136,"","",1,20.28
586399,74,74,block_Trng,3,task_Trng,2,1,"","",2,5,"","","","",Block5,"","","","","","",J,Stim10,LR,39,"",0,J,blue,9,"","",0.46,138,"","",1,20.56
586399,75,75,block_Trng,3,task_Trng,2,1,"","",3,5,"","","","",Block5,"","","","","","",K,Stim13,LR,1,"",0,K,blue,10,"","",0.46,140,"","",1,20.83
586399,76,76,block_Trng,3,task_Trng,2,1,"","",4,5,"","","","",Block5,"","","","","","",J,Stim13,LR,36,"",0,J,blue,13,"","",0.46,142,"","",1,21.11
586399,77,77,block_Trng,3,task_Trng,2,1,"","",5,5,"","","","",Block5,"","","","","","",K,Stim12,LR,4,"",0,K,blue,12,"","",0.46,144,"","",1,21.39
586399,78,78,block_Trng,3,task_Trng,2,1,"","",6,5,"","","","",Block5,"","","","","","",K,Stim9,HR,34,"",0,K,red,9,"","",0.46,154,"","",1,21.67
586399,79,79,block_Trng,3,task_Trng,2,1,"","",7,5,"","","","",Block5,"","","","","","",J,Stim12,NR,50,"",0,J,green,12,"","",0.46,154,"","",1,21.94
586399,80,80,block_Trng,3,task_Trng,2,0,"","",8,5,"","","","",Block5,"","","","","","",J,Stim11,NR,7,"",0,K,green,11,"","",0.46,154,"","",1,22.22
586399,81,81,block_Trng,3,task_Trng,2,1,"","",9,5,"","","","",Block5,"","","","","","",J,Stim9,NR,83,"",0,J,green,8,"","",0.46,154,"","",1,22.5
586399,82,82,block_Trng,3,task_Trng,2,1,"","",10,5,"","","","",Block5,"","","","","","",J,Stim11,LR,43,"",0,J,blue,11,"","",0.46,156,"","",1,22.78
586399,83,83,block_Trng,3,task_Trng,2,1,"","",11,5,"","","","",Block5,"","","","","","",K,Stim13,HR,35,"",0,K,red,13,"","",0.46,166,"","",1,23.06
586399,84,84,block_Trng,3,task_Trng,2,0,"","",12,5,"","","","",Block5,"","","","","","",J,Stim9,NR,59,"",0,K,green,9,"","",0.46,166,"","",1,23.33
586399,85,85,block_Trng,3,task_Trng,2,1,"","",13,5,"","","","",Block5,"","","","","","",K,Stim8,LR,50,"",0,K,blue,8,"","",0.46,168,"","",1,23.61
586399,86,86,block_Trng,3,task_Trng,2,1,"","",14,5,"","","","",Block5,"","","","","","",J,Stim11,HR,42,"",0,J,red,10,"","",0.46,178,"","",1,23.89
586399,87,87,block_Trng,3,task_Trng,2,1,"","",15,5,"","","","",Block5,"","","","","","",J,Stim12,HR,96,"",0,J,red,12,"","",0.46,188,"","",1,24.17
586399,88,88,block_Trng,3,task_Trng,2,1,"","",16,5,"","","","",Block5,"","","","","","",K,Stim13,NR,22,"",0,K,green,13,"","",0.46,188,"","",1,24.44
586399,89,89,block_Trng,3,task_Trng,2,0,"","",17,5,"","","","",Block5,"","","","","","",J,Stim11,HR,6,"",0,K,red,11,"","",0.46,188,"","",1,24.72
586399,90,90,block_Trng,3,task_Trng,2,0,"","",18,5,"","","","",Block5,"","","","","","",K,Stim10,NR,71,"",0,J,green,10,"","",0.46,188,"","",1,25
586399,91,91,block_Trng,3,task_Trng,2,1,"","",1,6,"","","","",Block6,"","","","","","",J,Stim9,HR,40,"",0,J,red,8,"","",0.46,198,"","",1,25.28
586399,92,92,block_Trng,3,task_Trng,2,0,"","",2,6,"","","","",Block6,"","","","","","",K,Stim12,HR,63,"",0,J,red,12,"","",0.46,198,"","",1,25.56
586399,93,93,block_Trng,3,task_Trng,2,1,"","",3,6,"","","","",Block6,"","","","","","",J,Stim11,LR,68,"",0,J,blue,11,"","",0.46,200,"","",1,25.83
586399,94,94,block_Trng,3,task_Trng,2,0,"","",4,6,"","","","",Block6,"","","","","","",K,Stim9,LR,37,"",0,J,blue,9,"","",0.46,200,"","",1,26.11
586399,95,95,block_Trng,3,task_Trng,2,1,"","",5,6,"","","","",Block6,"","","","","","",K,Stim12,LR,66,"",0,K,blue,12,"","",0.46,202,"","",1,26.39
586399,96,96,block_Trng,3,task_Trng,2,0,"","",6,6,"","","","",Block6,"","","","","","",J,Stim11,NR,85,"",0,K,green,11,"","",0.46,202,"","",1,26.67
586399,97,97,block_Trng,3,task_Trng,2,1,"","",7,6,"","","","",Block6,"","","","","","",J,Stim8,NR,49,"",0,J,green,8,"","",0.46,202,"","",1,26.94
586399,98,98,block_Trng,3,task_Trng,2,1,"","",8,6,"","","","",Block6,"","","","","","",J,Stim14,LR,19,"",0,J,blue,13,"","",0.46,204,"","",1,27.22
586399,99,99,block_Trng,3,task_Trng,2,0,"","",9,6,"","","","",Block6,"","","","","","",J,Stim9,HR,85,"",0,K,red,9,"","",0.46,204,"","",1,27.5
586399,100,100,block_Trng,3,task_Trng,2,1,"","",10,6,"","","","",Block6,"","","","","","",J,Stim11,HR,67,"",0,J,red,10,"","",0.46,214,"","",1,27.78
586399,101,101,block_Trng,3,task_Trng,2,0,"","",11,6,"","","","",Block6,"","","","","","",J,Stim13,NR,29,"",0,K,green,13,"","",0.46,214,"","",1,28.06
586399,102,102,block_Trng,3,task_Trng,2,0,"","",12,6,"","","","",Block6,"","","","","","",J,Stim9,NR,36,"",0,K,green,9,"","",0.46,214,"","",1,28.33
586399,103,103,block_Trng,3,task_Trng,2,1,"","",13,6,"","","","",Block6,"","","","","","",K,Stim12,HR,38,"",0,K,red,11,"","",0.46,224,"","",1,28.61
586399,104,104,block_Trng,3,task_Trng,2,0,"","",14,6,"","","","",Block6,"","","","","","",J,Stim11,LR,62,"",0,K,blue,10,"","",0.46,224,"","",1,28.89
586399,105,105,block_Trng,3,task_Trng,2,1,"","",15,6,"","","","",Block6,"","","","","","",J,Stim13,NR,4,"",0,J,green,12,"","",0.46,224,"","",1,29.17
586399,106,106,block_Trng,3,task_Trng,2,0,"","",16,6,"","","","",Block6,"","","","","","",J,Stim9,LR,20,"",0,K,blue,8,"","",0.46,224,"","",1,29.44
586399,107,107,block_Trng,3,task_Trng,2,0,"","",17,6,"","","","",Block6,"","","","","","",K,Stim10,NR,67,"",0,J,green,10,"","",0.46,224,"","",1,29.72
586399,108,108,block_Trng,3,task_Trng,2,1,"","",18,6,"","","","",Block6,"","","","","","",K,Stim13,HR,22,"",0,K,red,13,"","",0.46,234,"","",1,30
586399,109,109,block_Trng,3,task_Trng,2,1,"","",1,7,"","","","",Block7,"","","","","","",K,Stim12,HR,61,"",0,K,red,11,"","",0.46,244,"","",1,30.28
586399,110,110,block_Trng,3,task_Trng,2,1,"","",2,7,"","","","",Block7,"","","","","","",J,Stim13,LR,43,"",0,J,blue,13,"","",0.46,246,"","",1,30.56
586399,111,111,block_Trng,3,task_Trng,2,0,"","",3,7,"","","","",Block7,"","","","","","",K,Stim10,NR,81,"",0,J,green,10,"","",0.46,246,"","",1,30.83
586399,112,112,block_Trng,3,task_Trng,2,0,"","",4,7,"","","","",Block7,"","","","","","",J,Stim13,HR,71,"",0,K,red,13,"","",0.46,246,"","",1,31.11
586399,113,113,block_Trng,3,task_Trng,2,0,"","",5,7,"","","","",Block7,"","","","","","",K,Stim8,NR,105,"",0,J,green,8,"","",0.46,246,"","",1,31.39
586399,114,114,block_Trng,3,task_Trng,2,1,"","",6,7,"","","","",Block7,"","","","","","",J,Stim11,HR,23,"",0,J,red,10,"","",0.46,256,"","",1,31.67
586399,115,115,block_Trng,3,task_Trng,2,0,"","",7,7,"","","","",Block7,"","","","","","",J,Stim11,LR,71,"",0,K,blue,10,"","",0.46,256,"","",1,31.94
586399,116,116,block_Trng,3,task_Trng,2,0,"","",8,7,"","","","",Block7,"","","","","","",J,Stim12,NR,89,"",0,K,green,11,"","",0.46,256,"","",1,32.22
586399,117,117,block_Trng,3,task_Trng,2,1,"","",9,7,"","","","",Block7,"","","","","","",J,Stim12,HR,115,"",0,J,red,12,"","",0.46,266,"","",1,32.5
586399,118,118,block_Trng,3,task_Trng,2,1,"","",10,7,"","","","",Block7,"","","","","","",J,Stim9,HR,53,"",0,J,red,8,"","",0.46,276,"","",1,32.78
586399,119,119,block_Trng,3,task_Trng,2,1,"","",11,7,"","","","",Block7,"","","","","","",J,Stim12,LR,24,"",0,J,blue,11,"","",0.46,278,"","",1,33.06
586399,120,120,block_Trng,3,task_Trng,2,0,"","",12,7,"","","","",Block7,"","","","","","",J,Stim12,LR,115,"",0,K,blue,12,"","",0.46,278,"","",1,33.33
586399,121,121,block_Trng,3,task_Trng,2,0,"","",13,7,"","","","",Block7,"","","","","","",J,Stim10,NR,21,"",0,K,green,9,"","",0.46,278,"","",1,33.61
586399,122,122,block_Trng,3,task_Trng,2,1,"","",14,7,"","","","",Block7,"","","","","","",K,Stim8,LR,40,"",0,K,blue,8,"","",0.46,280,"","",1,33.89
586399,123,123,block_Trng,3,task_Trng,2,1,"","",15,7,"","","","",Block7,"","","","","","",K,Stim10,HR,22,"",0,K,red,9,"","",0.46,290,"","",1,34.17
586399,124,124,block_Trng,3,task_Trng,2,1,"","",16,7,"","","","",Block7,"","","","","","",J,Stim10,LR,43,"",0,J,blue,9,"","",0.46,292,"","",1,34.44
586399,125,125,block_Trng,3,task_Trng,2,1,"","",17,7,"","","","",Block7,"","","","","","",J,Stim13,NR,83,"",0,J,green,12,"","",0.46,292,"","",1,34.72
586399,126,126,block_Trng,3,task_Trng,2,1,"","",18,7,"","","","",Block7,"","","","","","",K,Stim14,NR,97,"",0,K,green,13,"","",0.46,292,"","",1,35
586399,127,127,block_Trng,3,task_Trng,2,1,"","",1,8,"","","","",Block8,"","","","","","",K,Stim10,LR,91,"",0,K,blue,10,"","",0.46,294,"","",1,35.28
586399,128,128,block_Trng,3,task_Trng,2,0,"","",2,8,"","","","",Block8,"","","","","","",J,Stim8,LR,103,"",0,K,blue,8,"","",0.46,294,"","",1,35.56
586399,129,129,block_Trng,3,task_Trng,2,0,"","",3,8,"","","","",Block8,"","","","","","",K,Stim11,NR,116,"",0,J,green,10,"","",0.46,294,"","",1,35.83
586399,130,130,block_Trng,3,task_Trng,2,1,"","",4,8,"","","","",Block8,"","","","","","",J,Stim13,NR,67,"",0,J,green,12,"","",0.46,294,"","",1,36.11
586399,131,131,block_Trng,3,task_Trng,2,1,"","",5,8,"","","","",Block8,"","","","","","",J,Stim10,HR,45,"",0,J,red,10,"","",0.46,304,"","",1,36.39
586399,132,132,block_Trng,3,task_Trng,2,1,"","",6,8,"","","","",Block8,"","","","","","",J,Stim13,LR,20,"",0,J,blue,13,"","",0.46,306,"","",1,36.67
586399,133,133,block_Trng,3,task_Trng,2,1,"","",7,8,"","","","",Block8,"","","","","","",K,Stim12,LR,38,"",0,K,blue,12,"","",0.46,308,"","",1,36.94
586399,134,134,block_Trng,3,task_Trng,2,0,"","",8,8,"","","","",Block8,"","","","","","",K,Stim8,NR,35,"",0,J,green,8,"","",0.46,308,"","",1,37.22
586399,135,135,block_Trng,3,task_Trng,2,1,"","",9,8,"","","","",Block8,"","","","","","",K,Stim13,NR,32,"",0,K,green,13,"","",0.46,308,"","",1,37.5
586399,136,136,block_Trng,3,task_Trng,2,0,"","",10,8,"","","","",Block8,"","","","","","",K,Stim12,LR,24,"",0,J,blue,11,"","",0.46,308,"","",1,37.78
586399,137,137,block_Trng,3,task_Trng,2,0,"","",11,8,"","","","",Block8,"","","","","","",K,Stim8,HR,102,"",0,J,red,8,"","",0.46,308,"","",1,38.06
586399,138,138,block_Trng,3,task_Trng,2,1,"","",12,8,"","","","",Block8,"","","","","","",K,Stim14,NR,14,"",0,K,green,11,"","",0.46,308,"","",1,38.33
586399,139,139,block_Trng,3,task_Trng,2,1,"","",13,8,"","","","",Block8,"","","","","","",K,Stim13,HR,70,"",0,K,red,13,"","",0.46,318,"","",1,38.61
586399,140,140,block_Trng,3,task_Trng,2,1,"","",14,8,"","","","",Block8,"","","","","","",K,Stim9,NR,23,"",0,K,green,9,"","",0.46,318,"","",1,38.89
586399,141,141,block_Trng,3,task_Trng,2,1,"","",15,8,"","","","",Block8,"","","","","","",J,Stim9,LR,31,"",0,J,blue,9,"","",0.46,320,"","",1,39.17
586399,142,142,block_Trng,3,task_Trng,2,0,"","",16,8,"","","","",Block8,"","","","","","",J,Stim9,HR,102,"",0,K,red,9,"","",0.46,320,"","",1,39.44
586399,143,143,block_Trng,3,task_Trng,2,0,"","",17,8,"","","","",Block8,"","","","","","",J,Stim12,HR,29,"",0,K,red,11,"","",0.46,320,"","",1,39.72
586399,144,144,block_Trng,3,task_Trng,2,0,"","",18,8,"","","","",Block8,"","","","","","",K,Stim12,HR,30,"",0,J,red,12,"","",1.09,320,"","",2,40
586399,145,145,block_Trng,3,task_Trng,2,0,"","",1,9,"","","","",Block9,"","","","","","",K,Stim8,NR,112,"",0,J,green,8,"","",1.09,320,"","",2,40.28
586399,146,146,block_Trng,3,task_Trng,2,0,"","",2,9,"","","","",Block9,"","","","","","",J,Stim12,HR,65,"",0,K,red,11,"","",1.09,320,"","",2,40.56
586399,147,147,block_Trng,3,task_Trng,2,1,"","",3,9,"","","","",Block9,"","","","","","",J,Stim9,LR,111,"",0,J,blue,9,"","",1.09,322,"","",2,40.83
586399,148,148,block_Trng,3,task_Trng,2,1,"","",4,9,"","","","",Block9,"","","","","","",J,Stim10,NR,63,"",0,J,green,10,"","",1.09,322,"","",2,41.11
586399,149,149,block_Trng,3,task_Trng,2,0,"","",5,9,"","","","",Block9,"","","","","","",J,Stim14,HR,103,"",0,K,red,13,"","",1.09,322,"","",2,41.39
586399,150,150,block_Trng,3,task_Trng,2,0,"","",6,9,"","","","",Block9,"","","","","","",K,Stim10,HR,89,"",0,J,red,10,"","",1.09,322,"","",2,41.67
586399,151,151,block_Trng,3,task_Trng,2,0,"","",7,9,"","","","",Block9,"","","","","","",K,Stim13,NR,71,"",0,J,green,12,"","",1.09,322,"","",2,41.94
586399,152,152,block_Trng,3,task_Trng,2,1,"","",8,9,"","","","",Block9,"","","","","","",J,Stim12,LR,89,"",0,J,blue,11,"","",1.09,324,"","",2,42.22
586399,153,153,block_Trng,3,task_Trng,2,0,"","",9,9,"","","","",Block9,"","","","","","",K,Stim8,HR,109,"",0,J,red,8,"","",1.09,324,"","",2,42.5
586399,154,154,block_Trng,3,task_Trng,2,1,"","",10,9,"","","","",Block9,"","","","","","",K,Stim8,LR,56,"",0,K,blue,8,"","",1.09,326,"","",2,42.78
586399,155,155,block_Trng,3,task_Trng,2,1,"","",11,9,"","","","",Block9,"","","","","","",K,Stim11,LR,85,"",0,K,blue,10,"","",1.09,328,"","",2,43.06
586399,156,156,block_Trng,3,task_Trng,2,1,"","",12,9,"","","","",Block9,"","","","","","",K,Stim9,NR,52,"",0,K,green,9,"","",1.09,328,"","",2,43.33
586399,157,157,block_Trng,3,task_Trng,2,0,"","",13,9,"","","","",Block9,"","","","","","",K,Stim12,HR,61,"",0,J,red,12,"","",1.09,328,"","",2,43.61
586399,158,158,block_Trng,3,task_Trng,2,1,"","",14,9,"","","","",Block9,"","","","","","",K,Stim14,NR,12,"",0,K,green,13,"","",1.09,328,"","",2,43.89
586399,159,159,block_Trng,3,task_Trng,2,1,"","",15,9,"","","","",Block9,"","","","","","",K,Stim11,NR,72,"",0,K,green,11,"","",1.09,328,"","",2,44.17
586399,160,160,block_Trng,3,task_Trng,2,0,"","",16,9,"","","","",Block9,"","","","","","",J,Stim11,HR,2,"",0,K,red,9,"","",1.09,328,"","",2,44.44
586399,161,161,block_Trng,3,task_Trng,2,0,"","",17,9,"","","","",Block9,"","","","","","",J,Stim12,LR,21,"",0,K,blue,12,"","",1.09,328,"","",2,44.72
586399,162,162,block_Trng,3,task_Trng,2,1,"","",18,9,"","","","",Block9,"","","","","","",J,Stim13,LR,27,"",0,J,blue,13,"","",1.09,330,"","",2,45
586399,163,163,block_Trng,3,task_Trng,2,1,"","",1,10,"","","","",Block10,"","","","","","",J,Stim8,NR,2,"",0,J,green,8,"","",1.09,330,"","",2,45.28
586399,164,164,block_Trng,3,task_Trng,2,0,"","",2,10,"","","","",Block10,"","","","","","",J,Stim9,HR,37,"",0,K,red,9,"","",1.09,330,"","",2,45.56
586399,165,165,block_Trng,3,task_Trng,2,0,"","",3,10,"","","","",Block10,"","","","","","",K,Stim12,HR,62,"",0,J,red,12,"","",1.09,330,"","",2,45.83
586399,166,166,block_Trng,3,task_Trng,2,1,"","",4,10,"","","","",Block10,"","","","","","",K,Stim14,NR,26,"",0,K,green,13,"","",1.09,330,"","",2,46.11
586399,167,167,block_Trng,3,task_Trng,2,0,"","",5,10,"","","","",Block10,"","","","","","",K,Stim13,LR,46,"",0,J,blue,13,"","",1.09,330,"","",2,46.39
586399,168,168,block_Trng,3,task_Trng,2,1,"","",6,10,"","","","",Block10,"","","","","","",J,Stim12,LR,25,"",0,J,blue,11,"","",1.09,332,"","",2,46.67
586399,169,169,block_Trng,3,task_Trng,2,1,"","",7,10,"","","","",Block10,"","","","","","",K,Stim13,LR,14,"",0,K,blue,12,"","",1.09,334,"","",2,46.94
586399,170,170,block_Trng,3,task_Trng,2,1,"","",8,10,"","","","",Block10,"","","","","","",J,Stim10,NR,3,"",0,J,green,10,"","",1.09,334,"","",2,47.22
586399,171,171,block_Trng,3,task_Trng,2,0,"","",9,10,"","","","",Block10,"","","","","","",J,Stim10,LR,55,"",0,K,blue,10,"","",1.09,334,"","",2,47.5
586399,172,172,block_Trng,3,task_Trng,2,1,"","",10,10,"","","","",Block10,"","","","","","",K,Stim8,LR,25,"",0,K,blue,8,"","",1.09,336,"","",2,47.78
586399,173,173,block_Trng,3,task_Trng,2,0,"","",11,10,"","","","",Block10,"","","","","","",J,Stim12,NR,92,"",0,K,green,11,"","",1.09,336,"","",2,48.06
586399,174,174,block_Trng,3,task_Trng,2,0,"","",12,10,"","","","",Block10,"","","","","","",K,Stim9,HR,22,"",0,J,red,8,"","",1.09,336,"","",2,48.33
586399,175,175,block_Trng,3,task_Trng,2,0,"","",13,10,"","","","",Block10,"","","","","","",J,Stim11,HR,107,"",0,K,red,11,"","",1.09,336,"","",2,48.61
586399,176,176,block_Trng,3,task_Trng,2,0,"","",14,10,"","","","",Block10,"","","","","","",J,Stim14,HR,65,"",0,K,red,13,"","",1.09,336,"","",2,48.89
586399,177,177,block_Trng,3,task_Trng,2,0,"","",15,10,"","","","",Block10,"","","","","","",K,Stim10,LR,32,"",0,J,blue,9,"","",1.09,336,"","",2,49.17
586399,178,178,block_Trng,3,task_Trng,2,0,"","",16,10,"","","","",Block10,"","","","","","",K,Stim11,HR,87,"",0,J,red,10,"","",1.09,336,"","",2,49.44
586399,179,179,block_Trng,3,task_Trng,2,1,"","",17,10,"","","","",Block10,"","","","","","",K,Stim9,NR,5,"",0,K,green,9,"","",1.09,336,"","",2,49.72
586399,180,180,block_Trng,3,task_Trng,2,1,"","",18,10,"","","","",Block10,"","","","","","",J,Stim12,NR,94,"",0,J,green,12,"","",1.09,336,"","",2,50
586399,181,181,block_Trng,3,task_Trng,2,0,"","",1,11,"","","","",Block11,"","","","","","",K,Stim11,HR,46,"",0,J,red,10,"","",1.09,336,"","",2,50.28
586399,182,182,block_Trng,3,task_Trng,2,0,"","",2,11,"","","","",Block11,"","","","","","",K,Stim8,NR,103,"",0,J,green,8,"","",1.09,336,"","",2,50.56
586399,183,183,block_Trng,3,task_Trng,2,1,"","",3,11,"","","","",Block11,"","","","","","",J,Stim12,HR,78,"",0,J,red,12,"","",1.09,346,"","",2,50.83
586399,184,184,block_Trng,3,task_Trng,2,1,"","",4,11,"","","","",Block11,"","","","","","",K,Stim9,HR,60,"",0,K,red,9,"","",1.09,356,"","",2,51.11
586399,185,185,block_Trng,3,task_Trng,2,1,"","",5,11,"","","","",Block11,"","","","","","",J,Stim11,NR,21,"",0,J,green,10,"","",1.09,356,"","",2,51.39
586399,186,186,block_Trng,3,task_Trng,2,1,"","",6,11,"","","","",Block11,"","","","","","",K,Stim11,HR,53,"",0,K,red,11,"","",1.09,366,"","",2,51.67
586399,187,187,block_Trng,3,task_Trng,2,0,"","",7,11,"","","","",Block11,"","","","","","",K,Stim13,NR,39,"",0,J,green,12,"","",1.09,366,"","",2,51.94
586399,188,188,block_Trng,3,task_Trng,2,1,"","",8,11,"","","","",Block11,"","","","","","",J,Stim8,HR,47,"",0,J,red,8,"","",1.09,376,"","",2,52.22
586399,189,189,block_Trng,3,task_Trng,2,1,"","",9,11,"","","","",Block11,"","","","","","",K,Stim13,HR,103,"",0,K,red,13,"","",1.09,386,"","",2,52.5
586399,190,190,block_Trng,3,task_Trng,2,0,"","",10,11,"","","","",Block11,"","","","","","",J,Stim9,NR,109,"",0,K,green,9,"","",1.09,386,"","",2,52.78
586399,191,191,block_Trng,3,task_Trng,2,1,"","",11,11,"","","","",Block11,"","","","","","",J,Stim11,LR,8,"",0,J,blue,11,"","",1.09,388,"","",2,53.06
586399,192,192,block_Trng,3,task_Trng,2,1,"","",12,11,"","","","",Block11,"","","","","","",K,Stim15,NR,118,"",0,K,green,13,"","",1.09,388,"","",2,53.33
586399,193,193,block_Trng,3,task_Trng,2,0,"","",13,11,"","","","",Block11,"","","","","","",K,Stim9,LR,82,"",0,J,blue,9,"","",1.09,388,"","",2,53.61
586399,194,194,block_Trng,3,task_Trng,2,0,"","",14,11,"","","","",Block11,"","","","","","",J,Stim12,LR,79,"",0,K,blue,12,"","",1.09,388,"","",2,53.89
586399,195,195,block_Trng,3,task_Trng,2,1,"","",15,11,"","","","",Block11,"","","","","","",K,Stim10,LR,68,"",0,K,blue,10,"","",1.09,390,"","",2,54.17
586399,196,196,block_Trng,3,task_Trng,2,0,"","",16,11,"","","","",Block11,"","","","","","",J,Stim8,LR,68,"",0,K,blue,8,"","",1.09,390,"","",2,54.44
586399,197,197,block_Trng,3,task_Trng,2,0,"","",17,11,"","","","",Block11,"","","","","","",J,Stim12,NR,23,"",0,K,green,11,"","",1.09,390,"","",2,54.72
586399,198,198,block_Trng,3,task_Trng,2,1,"","",18,11,"","","","",Block11,"","","","","","",J,Stim13,LR,61,"",0,J,blue,13,"","",1.09,392,"","",2,55
586399,199,199,block_Trng,3,task_Trng,2,0,"","",1,12,"","","","",Block12,"","","","","","",J,Stim13,NR,25,"",0,K,green,13,"","",1.09,392,"","",2,55.28
586399,200,200,block_Trng,3,task_Trng,2,1,"","",2,12,"","","","",Block12,"","","","","","",K,Stim12,LR,97,"",0,K,blue,12,"","",1.09,394,"","",2,55.56
586399,201,201,block_Trng,3,task_Trng,2,0,"","",3,12,"","","","",Block12,"","","","","","",K,Stim8,NR,40,"",0,J,green,8,"","",1.09,394,"","",2,55.83
586399,202,202,block_Trng,3,task_Trng,2,1,"","",4,12,"","","","",Block12,"","","","","","",K,Stim11,LR,65,"",0,K,blue,10,"","",1.09,396,"","",2,56.11
586399,203,203,block_Trng,3,task_Trng,2,0,"","",5,12,"","","","",Block12,"","","","","","",J,Stim10,LR,137,"",0,K,blue,8,"","",1.09,396,"","",2,56.39
586399,204,204,block_Trng,3,task_Trng,2,1,"","",6,12,"","","","",Block12,"","","","","","",K,Stim14,HR,15,"",0,K,red,13,"","",1.09,406,"","",2,56.67
586399,205,205,block_Trng,3,task_Trng,2,0,"","",7,12,"","","","",Block12,"","","","","","",K,Stim8,HR,61,"",0,J,red,8,"","",1.09,406,"","",2,56.94
586399,206,206,block_Trng,3,task_Trng,2,0,"","",8,12,"","","","",Block12,"","","","","","",K,Stim12,LR,64,"",0,J,blue,11,"","",1.09,406,"","",2,57.22
586399,207,207,block_Trng,3,task_Trng,2,0,"","",9,12,"","","","",Block12,"","","","","","",K,Stim12,NR,13,"",0,J,green,12,"","",1.09,406,"","",2,57.5
586399,208,208,block_Trng,3,task_Trng,2,0,"","",10,12,"","","","",Block12,"","","","","","",J,Stim11,NR,109,"",0,K,green,11,"","",1.09,406,"","",2,57.78
586399,209,209,block_Trng,3,task_Trng,2,0,"","",11,12,"","","","",Block12,"","","","","","",K,Stim13,LR,116,"",0,J,blue,13,"","",1.09,406,"","",2,58.06
586399,210,210,block_Trng,3,task_Trng,2,0,"","",12,12,"","","","",Block12,"","","","","","",K,Stim11,NR,114,"",0,J,green,10,"","",1.09,406,"","",2,58.33
586399,211,211,block_Trng,3,task_Trng,2,1,"","",13,12,"","","","",Block12,"","","","","","",K,Stim9,NR,83,"",0,K,green,9,"","",1.09,406,"","",2,58.61
586399,212,212,block_Trng,3,task_Trng,2,0,"","",14,12,"","","","",Block12,"","","","","","",K,Stim9,LR,32,"",0,J,blue,9,"","",1.09,406,"","",2,58.89
586399,213,213,block_Trng,3,task_Trng,2,1,"","",15,12,"","","","",Block12,"","","","","","",J,Stim10,HR,84,"",0,J,red,10,"","",1.09,416,"","",2,59.17
586399,214,214,block_Trng,3,task_Trng,2,1,"","",16,12,"","","","",Block12,"","","","","","",K,Stim9,HR,91,"",0,K,red,9,"","",1.09,426,"","",2,59.44
586399,215,215,block_Trng,3,task_Trng,2,0,"","",17,12,"","","","",Block12,"","","","","","",J,Stim11,HR,87,"",0,K,red,11,"","",1.09,426,"","",2,59.72
586399,216,216,block_Trng,3,task_Trng,2,1,"","",18,12,"","","","",Block12,"","","","","","",J,Stim12,HR,34,"",0,J,red,12,"","",1.48,436,"","",3,60
586399,217,217,block_Trng,3,task_Trng,2,1,"","",1,13,"","","","",Block13,"","","","","","",J,Stim11,HR,5,"",0,J,red,8,"","",1.48,446,"","",3,60.28
586399,218,218,block_Trng,3,task_Trng,2,0,"","",2,13,"","","","",Block13,"","","","","","",J,Stim13,LR,22,"",0,K,blue,12,"","",1.48,446,"","",3,60.56
586399,219,219,block_Trng,3,task_Trng,2,0,"","",3,13,"","","","",Block13,"","","","","","",J,Stim9,NR,57,"",0,K,green,9,"","",1.48,446,"","",3,60.83
586399,220,220,block_Trng,3,task_Trng,2,0,"","",4,13,"","","","",Block13,"","","","","","",K,Stim14,LR,77,"",0,J,blue,13,"","",1.48,446,"","",3,61.11
586399,221,221,block_Trng,3,task_Trng,2,0,"","",5,13,"","","","",Block13,"","","","","","",J,Stim11,HR,95,"",0,K,red,9,"","",1.48,446,"","",3,61.39
586399,222,222,block_Trng,3,task_Trng,2,0,"","",6,13,"","","","",Block13,"","","","","","",J,Stim12,NR,71,"",0,K,green,11,"","",1.48,446,"","",3,61.67
586399,223,223,block_Trng,3,task_Trng,2,0,"","",7,13,"","","","",Block13,"","","","","","",J,Stim9,LR,59,"",0,K,blue,8,"","",1.48,446,"","",3,61.94
586399,224,224,block_Trng,3,task_Trng,2,0,"","",8,13,"","","","",Block13,"","","","","","",K,Stim11,HR,39,"",0,J,red,10,"","",1.48,446,"","",3,62.22
586399,225,225,block_Trng,3,task_Trng,2,0,"","",9,13,"","","","",Block13,"","","","","","",K,Stim13,LR,50,"",0,J,blue,11,"","",1.48,446,"","",3,62.5
586399,226,226,block_Trng,3,task_Trng,2,1,"","",10,13,"","","","",Block13,"","","","","","",J,Stim8,NR,37,"",0,J,green,8,"","",1.48,446,"","",3,62.78
586399,227,227,block_Trng,3,task_Trng,2,1,"","",11,13,"","","","",Block13,"","","","","","",K,Stim10,LR,113,"",0,K,blue,10,"","",1.48,448,"","",3,63.06
586399,228,228,block_Trng,3,task_Trng,2,0,"","",12,13,"","","","",Block13,"","","","","","",K,Stim12,NR,22,"",0,J,green,12,"","",1.48,448,"","",3,63.33
586399,229,229,block_Trng,3,task_Trng,2,1,"","",13,13,"","","","",Block13,"","","","","","",K,Stim11,HR,99,"",0,K,red,11,"","",1.48,458,"","",3,63.61
586399,230,230,block_Trng,3,task_Trng,2,1,"","",14,13,"","","","",Block13,"","","","","","",J,Stim11,LR,25,"",0,J,blue,9,"","",1.48,460,"","",3,63.89
586399,231,231,block_Trng,3,task_Trng,2,0,"","",15,13,"","","","",Block13,"","","","","","",K,Stim11,NR,18,"",0,J,green,10,"","",1.48,460,"","",3,64.17
586399,232,232,block_Trng,3,task_Trng,2,0,"","",16,13,"","","","",Block13,"","","","","","",J,Stim15,NR,11,"",0,K,green,13,"","",1.48,460,"","",3,64.44
586399,233,233,block_Trng,3,task_Trng,2,0,"","",17,13,"","","","",Block13,"","","","","","",J,Stim13,HR,76,"",0,K,red,13,"","",1.48,460,"","",3,64.72
586399,234,234,block_Trng,3,task_Trng,2,1,"","",18,13,"","","","",Block13,"","","","","","",J,Stim13,HR,24,"",0,J,red,12,"","",1.48,470,"","",3,65
586399,235,235,block_Trng,3,task_Trng,2,0,"","",1,14,"","","","",Block14,"","","","","","",J,Stim10,LR,43,"",0,K,blue,10,"","",1.48,470,"","",3,65.28
586399,236,236,block_Trng,3,task_Trng,2,0,"","",2,14,"","","","",Block14,"","","","","","",K,Stim10,LR,97,"",0,J,blue,9,"","",1.48,470,"","",3,65.56
586399,237,237,block_Trng,3,task_Trng,2,1,"","",3,14,"","","","",Block14,"","","","","","",K,Stim13,HR,24,"",0,K,red,13,"","",1.48,480,"","",3,65.83
586399,238,238,block_Trng,3,task_Trng,2,1,"","",4,14,"","","","",Block14,"","","","","","",K,Stim11,HR,26,"",0,K,red,11,"","",1.48,490,"","",3,66.11
586399,239,239,block_Trng,3,task_Trng,2,0,"","",5,14,"","","","",Block14,"","","","","","",J,Stim14,NR,30,"",0,K,green,13,"","",1.48,490,"","",3,66.39
586399,240,240,block_Trng,3,task_Trng,2,1,"","",6,14,"","","","",Block14,"","","","","","",J,Stim11,LR,28,"",0,J,blue,11,"","",1.48,492,"","",3,66.67
586399,241,241,block_Trng,3,task_Trng,2,0,"","",7,14,"","","","",Block14,"","","","","","",K,Stim12,HR,12,"",0,J,red,12,"","",1.48,492,"","",3,66.94
586399,242,242,block_Trng,3,task_Trng,2,0,"","",8,14,"","","","",Block14,"","","","","","",K,Stim10,HR,70,"",0,J,red,10,"","",1.48,492,"","",3,67.22
586399,243,243,block_Trng,3,task_Trng,2,1,"","",9,14,"","","","",Block14,"","","","","","",K,Stim8,LR,9,"",0,K,blue,8,"","",1.48,494,"","",3,67.5
586399,244,244,block_Trng,3,task_Trng,2,0,"","",10,14,"","","","",Block14,"","","","","","",J,Stim11,HR,2,"",0,K,red,9,"","",1.48,494,"","",3,67.78
586399,245,245,block_Trng,3,task_Trng,2,0,"","",11,14,"","","","",Block14,"","","","","","",J,Stim12,LR,23,"",0,K,blue,12,"","",1.48,494,"","",3,68.06
586399,246,246,block_Trng,3,task_Trng,2,1,"","",12,14,"","","","",Block14,"","","","","","",K,Stim11,NR,56,"",0,K,green,11,"","",1.48,494,"","",3,68.33
586399,247,247,block_Trng,3,task_Trng,2,0,"","",13,14,"","","","",Block14,"","","","","","",J,Stim9,NR,16,"",0,K,green,9,"","",1.48,494,"","",3,68.61
586399,248,248,block_Trng,3,task_Trng,2,0,"","",14,14,"","","","",Block14,"","","","","","",K,Stim10,NR,34,"",0,J,green,10,"","",1.48,494,"","",3,68.89
586399,249,249,block_Trng,3,task_Trng,2,1,"","",15,14,"","","","",Block14,"","","","","","",J,Stim9,NR,12,"",0,J,green,8,"","",1.48,494,"","",3,69.17
586399,250,250,block_Trng,3,task_Trng,2,0,"","",16,14,"","","","",Block14,"","","","","","",K,Stim15,LR,20,"",0,J,blue,13,"","",1.48,494,"","",3,69.44
586399,251,251,block_Trng,3,task_Trng,2,1,"","",17,14,"","","","",Block14,"","","","","","",J,Stim8,HR,29,"",0,J,red,8,"","",1.48,504,"","",3,69.72
586399,252,252,block_Trng,3,task_Trng,2,1,"","",18,14,"","","","",Block14,"","","","","","",J,Stim12,NR,1,"",0,J,green,12,"","",1.48,504,"","",3,70
586399,253,253,block_Trng,3,task_Trng,2,0,"","",1,15,"","","","",Block15,"","","","","","",J,Stim13,HR,86,"",0,K,red,13,"","",1.48,504,"","",3,70.28
586399,254,254,block_Trng,3,task_Trng,2,1,"","",2,15,"","","","",Block15,"","","","","","",J,Stim13,LR,44,"",0,J,blue,13,"","",1.48,506,"","",3,70.56
586399,255,255,block_Trng,3,task_Trng,2,1,"","",3,15,"","","","",Block15,"","","","","","",K,Stim8,LR,33,"",0,K,blue,8,"","",1.48,508,"","",3,70.83
586399,256,256,block_Trng,3,task_Trng,2,0,"","",4,15,"","","","",Block15,"","","","","","",K,Stim8,HR,67,"",0,J,red,8,"","",1.48,508,"","",3,71.11
586399,257,257,block_Trng,3,task_Trng,2,0,"","",5,15,"","","","",Block15,"","","","","","",K,Stim8,NR,22,"",0,J,green,8,"","",1.48,508,"","",3,71.39
586399,258,258,block_Trng,3,task_Trng,2,1,"","",6,15,"","","","",Block15,"","","","","","",J,PreISI1,HR,34,"",0,J,red,12,"","",1.48,518,"","",3,71.67
586399,259,259,block_Trng,3,task_Trng,2,1,"","",7,15,"","","","",Block15,"","","","","","",J,Stim11,HR,32,"",0,J,red,10,"","",1.48,528,"","",3,71.94
586399,260,260,block_Trng,3,task_Trng,2,0,"","",8,15,"","","","",Block15,"","","","","","",J,Stim10,HR,1,"",0,K,red,9,"","",1.48,528,"","",3,72.22
586399,261,261,block_Trng,3,task_Trng,2,1,"","",9,15,"","","","",Block15,"","","","","","",K,Stim12,HR,16,"",0,K,red,11,"","",1.48,538,"","",3,72.5
586399,262,262,block_Trng,3,task_Trng,2,1,"","",10,15,"","","","",Block15,"","","","","","",J,Stim12,NR,7,"",0,J,green,12,"","",1.48,538,"","",3,72.78
586399,263,263,block_Trng,3,task_Trng,2,1,"","",11,15,"","","","",Block15,"","","","","","",K,Stim11,NR,50,"",0,K,green,11,"","",1.48,538,"","",3,73.06
586399,264,264,block_Trng,3,task_Trng,2,1,"","",12,15,"","","","",Block15,"","","","","","",J,Stim11,LR,36,"",0,J,blue,11,"","",1.48,540,"","",3,73.33
586399,265,265,block_Trng,3,task_Trng,2,0,"","",13,15,"","","","",Block15,"","","","","","",J,Stim11,NR,12,"",0,K,green,9,"","",1.48,540,"","",3,73.61
586399,266,266,block_Trng,3,task_Trng,2,0,"","",14,15,"","","","",Block15,"","","","","","",K,Stim10,NR,67,"",0,J,green,10,"","",1.48,540,"","",3,73.89
586399,267,267,block_Trng,3,task_Trng,2,0,"","",15,15,"","","","",Block15,"","","","","","",J,Stim12,LR,79,"",0,K,blue,12,"","",1.48,540,"","",3,74.17
586399,268,268,block_Trng,3,task_Trng,2,1,"","",16,15,"","","","",Block15,"","","","","","",J,Stim9,LR,83,"",0,J,blue,9,"","",1.48,542,"","",3,74.44
586399,269,269,block_Trng,3,task_Trng,2,1,"","",17,15,"","","","",Block15,"","","","","","",K,Stim13,NR,74,"",0,K,green,13,"","",1.48,542,"","",3,74.72
586399,270,270,block_Trng,3,task_Trng,2,0,"","",18,15,"","","","",Block15,"","","","","","",J,Stim11,LR,44,"",0,K,blue,10,"","",1.48,542,"","",3,75
586399,271,271,block_Trng,3,task_Trng,2,0,"","",1,16,"","","","",Block16',"","","","","","",J,Stim13,LR,20,"",0,K,blue,12,"","",1.48,542,"","",3,75.28
586399,272,272,block_Trng,3,task_Trng,2,0,"","",2,16,"","","","",Block16',"","","","","","",J,Stim8,LR,28,"",0,K,blue,8,"","",1.48,542,"","",3,75.56
586399,273,273,block_Trng,3,task_Trng,2,0,"","",3,16,"","","","",Block16',"","","","","","",J,Stim9,HR,23,"",0,K,red,9,"","",1.48,542,"","",3,75.83
586399,274,274,block_Trng,3,task_Trng,2,1,"","",4,16,"","","","",Block16',"","","","","","",K,Stim9,NR,74,"",0,K,green,9,"","",1.48,542,"","",3,76.11
586399,275,275,block_Trng,3,task_Trng,2,1,"","",5,16,"","","","",Block16',"","","","","","",K,Stim13,NR,93,"",0,K,green,13,"","",1.48,542,"","",3,76.39
586399,276,276,block_Trng,3,task_Trng,2,0,"","",6,16,"","","","",Block16',"","","","","","",K,Stim12,HR,11,"",0,J,red,12,"","",1.48,542,"","",3,76.67
586399,277,277,block_Trng,3,task_Trng,2,1,"","",7,16,"","","","",Block16',"","","","","","",K,Stim13,HR,59,"",0,K,red,13,"","",1.48,552,"","",3,76.94
586399,278,278,block_Trng,3,task_Trng,2,1,"","",8,16,"","","","",Block16',"","","","","","",J,Stim12,LR,1,"",0,J,blue,11,"","",1.48,554,"","",3,77.22
586399,279,279,block_Trng,3,task_Trng,2,1,"","",9,16,"","","","",Block16',"","","","","","",K,Stim11,HR,29,"",0,K,red,11,"","",1.48,564,"","",3,77.5
586399,280,280,block_Trng,3,task_Trng,2,0,"","",10,16,"","","","",Block16',"","","","","","",K,Stim8,HR,68,"",0,J,red,8,"","",1.48,564,"","",3,77.78
586399,281,281,block_Trng,3,task_Trng,2,0,"","",11,16,"","","","",Block16',"","","","","","",K,Stim10,NR,61,"",0,J,green,10,"","",1.48,564,"","",3,78.06
586399,282,282,block_Trng,3,task_Trng,2,1,"","",12,16,"","","","",Block16',"","","","","","",J,Stim10,HR,104,"",0,J,red,10,"","",1.48,574,"","",3,78.33
586399,283,283,block_Trng,3,task_Trng,2,1,"","",13,16,"","","","",Block16',"","","","","","",K,Stim11,NR,104,"",0,K,green,11,"","",1.48,574,"","",3,78.61
586399,284,284,block_Trng,3,task_Trng,2,1,"","",14,16,"","","","",Block16',"","","","","","",J,Stim9,LR,16,"",0,J,blue,9,"","",1.48,576,"","",3,78.89
586399,285,285,block_Trng,3,task_Trng,2,0,"","",15,16,"","","","",Block16',"","","","","","",K,Stim14,NR,76,"",0,J,green,12,"","",1.48,576,"","",3,79.17
586399,286,286,block_Trng,3,task_Trng,2,0,"","",16,16,"","","","",Block16',"","","","","","",K,Stim13,LR,106,"",0,J,blue,13,"","",1.48,576,"","",3,79.44
586399,287,287,block_Trng,3,task_Trng,2,1,"","",17,16,"","","","",Block16',"","","","","","",J,Stim8,NR,52,"",0,J,green,8,"","",1.48,576,"","",3,79.72
586399,288,288,block_Trng,3,task_Trng,2,0,"","",18,16,"","","","",Block16',"","","","","","",J,Stim10,LR,107,"",0,K,blue,10,"","",1.96,576,"","",4,80
586399,289,289,block_Trng,3,task_Trng,2,1,"","",1,17,"","","","",Block17,"","","","","","",J,Stim9,LR,32,"",0,J,blue,9,"","",1.96,578,"","",4,80.28
586399,290,290,block_Trng,3,task_Trng,2,0,"","",2,17,"","","","",Block17,"","","","","","",J,Stim13,NR,107,"",0,K,green,13,"","",1.96,578,"","",4,80.56
586399,291,291,block_Trng,3,task_Trng,2,0,"","",3,17,"","","","",Block17,"","","","","","",J,Stim13,HR,112,"",0,K,red,13,"","",1.96,578,"","",4,80.83
586399,292,292,block_Trng,3,task_Trng,2,0,"","",4,17,"","","","",Block17,"","","","","","",K,Stim9,NR,25,"",0,J,green,8,"","",1.96,578,"","",4,81.11
586399,293,293,block_Trng,3,task_Trng,2,1,"","",5,17,"","","","",Block17,"","","","","","",K,Stim10,LR,98,"",0,K,blue,10,"","",1.96,580,"","",4,81.39
586399,294,294,block_Trng,3,task_Trng,2,0,"","",6,17,"","","","",Block17,"","","","","","",K,Stim11,NR,25,"",0,J,green,10,"","",1.96,580,"","",4,81.67
586399,295,295,block_Trng,3,task_Trng,2,1,"","",7,17,"","","","",Block17,"","","","","","",J,Stim9,HR,57,"",0,J,red,8,"","",1.96,590,"","",4,81.94
586399,296,296,block_Trng,3,task_Trng,2,0,"","",8,17,"","","","",Block17,"","","","","","",K,Stim10,HR,72,"",0,J,red,10,"","",1.96,590,"","",4,82.22
586399,297,297,block_Trng,3,task_Trng,2,0,"","",9,17,"","","","",Block17,"","","","","","",K,Stim11,LR,28,"",0,J,blue,11,"","",1.96,590,"","",4,82.5
586399,298,298,block_Trng,3,task_Trng,2,1,"","",10,17,"","","","",Block17,"","","","","","",K,Stim9,NR,69,"",0,K,green,9,"","",1.96,590,"","",4,82.78
586399,299,299,block_Trng,3,task_Trng,2,1,"","",11,17,"","","","",Block17,"","","","","","",K,Stim11,LR,51,"",0,K,blue,8,"","",1.96,592,"","",4,83.06
586399,300,300,block_Trng,3,task_Trng,2,1,"","",12,17,"","","","",Block17,"","","","","","",J,Stim13,LR,96,"",0,J,blue,13,"","",1.96,594,"","",4,83.33
586399,301,301,block_Trng,3,task_Trng,2,0,"","",13,17,"","","","",Block17,"","","","","","",J,Stim13,LR,56,"",0,K,blue,12,"","",1.96,594,"","",4,83.61
586399,302,302,block_Trng,3,task_Trng,2,1,"","",14,17,"","","","",Block17,"","","","","","",K,Stim11,NR,72,"",0,K,green,11,"","",1.96,594,"","",4,83.89
586399,303,303,block_Trng,3,task_Trng,2,0,"","",15,17,"","","","",Block17,"","","","","","",K,Stim12,HR,39,"",0,J,red,12,"","",1.96,594,"","",4,84.17
586399,304,304,block_Trng,3,task_Trng,2,0,"","",16,17,"","","","",Block17,"","","","","","",K,Stim12,NR,89,"",0,J,green,12,"","",1.96,594,"","",4,84.44
586399,305,305,block_Trng,3,task_Trng,2,0,"","",17,17,"","","","",Block17,"","","","","","",J,Stim9,HR,92,"",0,K,red,9,"","",1.96,594,"","",4,84.72
586399,306,306,block_Trng,3,task_Trng,2,0,"","",18,17,"","","","",Block17,"","","","","","",J,Stim13,HR,99,"",0,K,red,11,"","",1.96,594,"","",4,85
586399,307,307,block_Trng,3,task_Trng,2,0,"","",1,18,"","","","",Block18,"","","","","","",J,Stim12,HR,1,"",0,K,red,11,"","",1.96,594,"","",4,85.28
586399,308,308,block_Trng,3,task_Trng,2,0,"","",2,18,"","","","",Block18,"","","","","","",K,Stim11,HR,1,"",0,J,red,10,"","",1.96,594,"","",4,85.56
586399,309,309,block_Trng,3,task_Trng,2,0,"","",3,18,"","","","",Block18,"","","","","","",K,Stim11,LR,47,"",0,J,blue,11,"","",1.96,594,"","",4,85.83
586399,310,310,block_Trng,3,task_Trng,2,1,"","",4,18,"","","","",Block18,"","","","","","",J,Stim13,LR,47,"",0,J,blue,13,"","",1.96,596,"","",4,86.11
586399,311,311,block_Trng,3,task_Trng,2,0,"","",5,18,"","","","",Block18,"","","","","","",J,Stim12,LR,2,"",0,K,blue,12,"","",1.96,596,"","",4,86.39
586399,312,312,block_Trng,3,task_Trng,2,1,"","",6,18,"","","","",Block18,"","","","","","",K,Stim12,NR,6,"",0,K,green,11,"","",1.96,596,"","",4,86.67
586399,313,313,block_Trng,3,task_Trng,2,1,"","",7,18,"","","","",Block18,"","","","","","",J,Stim9,LR,22,"",0,J,blue,9,"","",1.96,598,"","",4,86.94
586399,314,314,block_Trng,3,task_Trng,2,0,"","",8,18,"","","","",Block18,"","","","","","",K,Stim13,HR,2,"",0,J,red,12,"","",1.96,598,"","",4,87.22
586399,315,315,block_Trng,3,task_Trng,2,1,"","",9,18,"","","","",Block18,"","","","","","",J,Stim8,NR,20,"",0,J,green,8,"","",1.96,598,"","",4,87.5
586399,316,316,block_Trng,3,task_Trng,2,0,"","",10,18,"","","","",Block18,"","","","","","",J,Stim9,HR,32,"",0,K,red,9,"","",1.96,598,"","",4,87.78
586399,317,317,block_Trng,3,task_Trng,2,1,"","",11,18,"","","","",Block18,"","","","","","",J,Stim12,NR,25,"",0,J,green,12,"","",1.96,598,"","",4,88.06
586399,318,318,block_Trng,3,task_Trng,2,0,"","",12,18,"","","","",Block18,"","","","","","",J,Stim12,LR,3,"",0,K,blue,10,"","",1.96,598,"","",4,88.33
586399,319,319,block_Trng,3,task_Trng,2,1,"","",13,18,"","","","",Block18,"","","","","","",K,Stim13,NR,49,"",0,K,green,13,"","",1.96,598,"","",4,88.61
586399,320,320,block_Trng,3,task_Trng,2,0,"","",14,18,"","","","",Block18,"","","","","","",J,Stim13,HR,111,"",0,K,red,13,"","",1.96,598,"","",4,88.89
586399,321,321,block_Trng,3,task_Trng,2,0,"","",15,18,"","","","",Block18,"","","","","","",J,Stim8,LR,90,"",0,K,blue,8,"","",1.96,598,"","",4,89.17
586399,322,322,block_Trng,3,task_Trng,2,1,"","",16,18,"","","","",Block18,"","","","","","",J,Stim9,HR,11,"",0,J,red,8,"","",1.96,608,"","",4,89.44
586399,323,323,block_Trng,3,task_Trng,2,1,"","",17,18,"","","","",Block18,"","","","","","",K,Stim10,NR,72,"",0,K,green,9,"","",1.96,608,"","",4,89.72
586399,324,324,block_Trng,3,task_Trng,2,0,"","",18,18,"","","","",Block18,"","","","","","",K,Stim10,NR,95,"",0,J,green,10,"","",1.96,608,"","",4,90
586399,325,325,block_Trng,3,task_Trng,2,1,"","",1,19,"","","","",Block19,"","","","","","",K,Stim11,HR,105,"",0,K,red,11,"","",1.96,618,"","",4,90.28
586399,326,326,block_Trng,3,task_Trng,2,1,"","",2,19,"","","","",Block19,"","","","","","",J,Stim12,NR,65,"",0,J,green,12,"","",1.96,618,"","",4,90.56
586399,327,327,block_Trng,3,task_Trng,2,0,"","",3,19,"","","","",Block19,"","","","","","",K,Stim10,LR,81,"",0,J,blue,9,"","",1.96,618,"","",4,90.83
586399,328,328,block_Trng,3,task_Trng,2,1,"","",4,19,"","","","",Block19,"","","","","","",K,Stim13,HR,23,"",0,K,red,13,"","",1.96,628,"","",4,91.11
586399,329,329,block_Trng,3,task_Trng,2,1,"","",5,19,"","","","",Block19,"","","","","","",K,Stim10,LR,80,"",0,K,blue,10,"","",1.96,630,"","",4,91.39
586399,330,330,block_Trng,3,task_Trng,2,1,"","",6,19,"","","","",Block19,"","","","","","",J,Stim10,NR,75,"",0,J,green,10,"","",1.96,630,"","",4,91.67
586399,331,331,block_Trng,3,task_Trng,2,0,"","",7,19,"","","","",Block19,"","","","","","",K,Stim10,HR,23,"",0,J,red,10,"","",1.96,630,"","",4,91.94
586399,332,332,block_Trng,3,task_Trng,2,0,"","",8,19,"","","","",Block19,"","","","","","",K,Stim11,LR,46,"",0,J,blue,11,"","",1.96,630,"","",4,92.22
586399,333,333,block_Trng,3,task_Trng,2,1,"","",9,19,"","","","",Block19,"","","","","","",K,Stim13,NR,5,"",0,K,green,11,"","",1.96,630,"","",4,92.5
586399,334,334,block_Trng,3,task_Trng,2,0,"","",10,19,"","","","",Block19,"","","","","","",K,Stim13,LR,46,"",0,J,blue,13,"","",1.96,630,"","",4,92.78
586399,335,335,block_Trng,3,task_Trng,2,1,"","",11,19,"","","","",Block19,"","","","","","",J,Stim8,NR,12,"",0,J,green,8,"","",1.96,630,"","",4,93.06
586399,336,336,block_Trng,3,task_Trng,2,0,"","",12,19,"","","","",Block19,"","","","","","",J,Stim12,LR,124,"",0,K,blue,12,"","",1.96,630,"","",4,93.33
586399,337,337,block_Trng,3,task_Trng,2,0,"","",13,19,"","","","",Block19,"","","","","","",J,Stim9,HR,52,"",0,K,red,9,"","",1.96,630,"","",4,93.61
586399,338,338,block_Trng,3,task_Trng,2,0,"","",14,19,"","","","",Block19,"","","","","","",K,Stim8,HR,19,"",0,J,red,8,"","",1.96,630,"","",4,93.89
586399,339,339,block_Trng,3,task_Trng,2,1,"","",15,19,"","","","",Block19,"","","","","","",K,Stim8,LR,5,"",0,K,blue,8,"","",1.96,632,"","",4,94.17
586399,340,340,block_Trng,3,task_Trng,2,0,"","",16,19,"","","","",Block19,"","","","","","",J,Stim13,NR,72,"",0,K,green,13,"","",1.96,632,"","",4,94.44
586399,341,341,block_Trng,3,task_Trng,2,0,"","",17,19,"","","","",Block19,"","","","","","",J,Stim9,NR,23,"",0,K,green,9,"","",1.96,632,"","",4,94.72
586399,342,342,block_Trng,3,task_Trng,2,0,"","",18,19,"","","","",Block19,"","","","","","",K,Stim13,HR,59,"",0,J,red,12,"","",1.96,632,"","",4,95
586399,343,343,block_Trng,3,task_Trng,2,1,"","",1,20,"","","","",Block20,"","","","","","",K,Stim8,LR,99,"",0,K,blue,8,"","",1.96,634,"","",4,95.28
586399,344,344,block_Trng,3,task_Trng,2,0,"","",2,20,"","","","",Block20,"","","","","","",K,Stim9,LR,8,"",0,J,blue,9,"","",1.96,634,"","",4,95.56
586399,345,345,block_Trng,3,task_Trng,2,0,"","",3,20,"","","","",Block20,"","","","","","",K,Stim11,LR,66,"",0,J,blue,11,"","",1.96,634,"","",4,95.83
586399,346,346,block_Trng,3,task_Trng,2,0,"","",4,20,"","","","",Block20,"","","","","","",K,Stim10,HR,31,"",0,J,red,10,"","",1.96,634,"","",4,96.11
586399,347,347,block_Trng,3,task_Trng,2,1,"","",5,20,"","","","",Block20,"","","","","","",K,Stim11,HR,27,"",0,K,red,11,"","",1.96,644,"","",4,96.39
586399,348,348,block_Trng,3,task_Trng,2,1,"","",6,20,"","","","",Block20,"","","","","","",J,Stim9,HR,15,"",0,J,red,8,"","",1.96,654,"","",4,96.67
586399,349,349,block_Trng,3,task_Trng,2,0,"","",7,20,"","","","",Block20,"","","","","","",J,Stim13,NR,13,"",0,K,green,11,"","",1.96,654,"","",4,96.94
586399,350,350,block_Trng,3,task_Trng,2,0,"","",8,20,"","","","",Block20,"","","","","","",K,Stim14,LR,53,"",0,J,blue,13,"","",1.96,654,"","",4,97.22
586399,351,351,block_Trng,3,task_Trng,2,0,"","",9,20,"","","","",Block20,"","","","","","",K,Stim8,NR,89,"",0,J,green,8,"","",1.96,654,"","",4,97.5
586399,352,352,block_Trng,3,task_Trng,2,1,"","",10,20,"","","","",Block20,"","","","","","",K,Stim9,NR,88,"",0,K,green,9,"","",1.96,654,"","",4,97.78
586399,353,353,block_Trng,3,task_Trng,2,1,"","",11,20,"","","","",Block20,"","","","","","",K,Stim13,HR,22,"",0,K,red,13,"","",1.96,664,"","",4,98.06
586399,354,354,block_Trng,3,task_Trng,2,0,"","",12,20,"","","","",Block20,"","","","","","",J,Stim9,HR,77,"",0,K,red,9,"","",1.96,664,"","",4,98.33
586399,355,355,block_Trng,3,task_Trng,2,0,"","",13,20,"","","","",Block20,"","","","","","",J,Stim13,NR,22,"",0,K,green,13,"","",1.96,664,"","",4,98.61
586399,356,356,block_Trng,3,task_Trng,2,0,"","",14,20,"","","","",Block20,"","","","","","",K,Stim10,NR,21,"",0,J,green,10,"","",1.96,664,"","",4,98.89
586399,357,357,block_Trng,3,task_Trng,2,0,"","",15,20,"","","","",Block20,"","","","","","",K,Stim12,HR,37,"",0,J,red,12,"","",1.96,664,"","",4,99.17
586399,358,358,block_Trng,3,task_Trng,2,0,"","",16,20,"","","","",Block20,"","","","","","",J,Stim12,LR,83,"",0,K,blue,12,"","",1.96,664,"","",4,99.44
586399,359,359,block_Trng,3,task_Trng,2,0,"","",17,20,"","","","",Block20,"","","","","","",J,Stim10,LR,58,"",0,K,blue,10,"","",1.96,664,"","",4,99.72
586399,360,360,block_Trng,3,task_Trng,2,1,"","",18,20,"","","","",Block20,"","","","","","",J,Stim12,NR,105,"",0,J,green,12,"","",1.96,664,"","",4,100
586399,1,1,block_Trng,3,task_Trng_End,3,"","","","",1,"","","","","","","","","","","","","","","","","","","","","","",2.26,664,"","","",""
586399,1,1,block_Testing,4,task_Testing_Instructions,1,"","","","",1,"","","","","","","","","","","","","","","","","","","","","","","","","","","",""
586399,1,1,block_Testing,4,task_Testing,2,1,"","",1,1,"","",Block1,"","","","","","","","",K,Stim12,LR,101,"",0,K,blue,12,0,0.56,"",664,"","","",""
586399,2,2,block_Testing,4,task_Testing,2,0,"","",2,1,"","",Block1,"","","","","","","","",K,Stim8,HR,30,"",0,J,red,8,0,1.11,"",664,"","","",""
586399,3,3,block_Testing,4,task_Testing,2,0,"","",3,1,"","",Block1,"","","","","","","","",K,Stim13,LR,115,"",0,J,blue,13,0,1.67,"",664,"","","",""
586399,4,4,block_Testing,4,task_Testing,2,0,"","",4,1,"","",Block1,"","","","","","","","",J,Stim13,NR,13,"",0,K,green,13,0,2.22,"",664,"","","",""
586399,5,5,block_Testing,4,task_Testing,2,1,"","",5,1,"","",Block1,"","","","","","","","",K,Stim10,LR,121,"",0,K,blue,10,0,2.78,"",664,"","","",""
586399,6,6,block_Testing,4,task_Testing,2,1,"","",6,1,"","",Block1,"","","","","","","","",J,Stim10,NR,126,"",0,J,green,10,0,3.33,"",664,"","","",""
586399,7,7,block_Testing,4,task_Testing,2,0,"","",7,1,"","",Block1,"","","","","","","","",K,Stim12,HR,17,"",0,J,red,12,0,3.89,"",664,"","","",""
586399,8,8,block_Testing,4,task_Testing,2,0,"","",8,1,"","",Block1,"","","","","","","","",J,Stim9,LR,22,"",0,K,blue,8,0,4.44,"",664,"","","",""
586399,9,9,block_Testing,4,task_Testing,2,1,"","",9,1,"","",Block1,"","","","","","","","",K,Stim14,HR,94,"",0,K,red,13,0,5,"",664,"","","",""
586399,10,10,block_Testing,4,task_Testing,2,0,"","",10,1,"","",Block1,"","","","","","","","",J,Stim9,HR,52,"",0,K,red,9,0,5.56,"",664,"","","",""
586399,11,11,block_Testing,4,task_Testing,2,0,"","",11,1,"","",Block1,"","","","","","","","",K,Stim11,HR,65,"",0,J,red,10,0,6.11,"",664,"","","",""
586399,12,12,block_Testing,4,task_Testing,2,0,"","",12,1,"","",Block1,"","","","","","","","",J,Stim11,NR,44,"",0,K,green,11,0,6.67,"",664,"","","",""
586399,13,13,block_Testing,4,task_Testing,2,1,"","",13,1,"","",Block1,"","","","","","","","",J,Stim13,NR,41,"",0,J,green,12,0,7.22,"",664,"","","",""
586399,14,14,block_Testing,4,task_Testing,2,1,"","",14,1,"","",Block1,"","","","","","","","",J,Stim9,LR,115,"",0,J,blue,9,0,7.78,"",664,"","","",""
586399,15,15,block_Testing,4,task_Testing,2,1,"","",15,1,"","",Block1,"","","","","","","","",J,Stim11,LR,31,"",0,J,blue,11,0,8.33,"",664,"","","",""
586399,16,16,block_Testing,4,task_Testing,2,1,"","",16,1,"","",Block1,"","","","","","","","",K,Stim9,NR,118,"",0,K,green,9,0,8.89,"",664,"","","",""
586399,17,17,block_Testing,4,task_Testing,2,1,"","",17,1,"","",Block1,"","","","","","","","",K,Stim11,HR,49,"",0,K,red,11,0,9.44,"",664,"","","",""
586399,18,18,block_Testing,4,task_Testing,2,0,"","",18,1,"","",Block1,"","","","","","","","",K,Stim8,NR,52,"",0,J,green,8,0,10,"",664,"","","",""
586399,19,19,block_Testing,4,task_Testing,2,0,"","",1,2,"","",Block2,"","","","","","","","",K,Stim11,NR,88,"",0,J,green,10,0,10.56,"",664,"","","",""
586399,20,20,block_Testing,4,task_Testing,2,1,"","",2,2,"","",Block2,"","","","","","","","",J,Stim13,HR,15,"",0,J,red,12,0,11.11,"",664,"","","",""
586399,21,21,block_Testing,4,task_Testing,2,0,"","",3,2,"","",Block2,"","","","","","","","",K,Stim15,LR,53,"",0,J,blue,9,0,11.67,"",664,"","","",""
586399,22,22,block_Testing,4,task_Testing,2,0,"","",4,2,"","",Block2,"","","","","","","","",J,Stim10,NR,26,"",0,K,green,9,0,12.22,"",664,"","","",""
586399,23,23,block_Testing,4,task_Testing,2,1,"","",5,2,"","",Block2,"","","","","","","","",K,Stim13,NR,54,"",0,K,green,13,0,12.78,"",664,"","","",""
586399,24,24,block_Testing,4,task_Testing,2,0,"","",6,2,"","",Block2,"","","","","","","","",K,Stim12,HR,7,"",0,J,red,10,0,13.33,"",664,"","","",""
586399,25,25,block_Testing,4,task_Testing,2,0,"","",7,2,"","",Block2,"","","","","","","","",K,Stim14,LR,9,"",0,J,blue,13,0,13.89,"",664,"","","",""
586399,26,26,block_Testing,4,task_Testing,2,0,"","",8,2,"","",Block2,"","","","","","","","",J,Stim13,LR,2,"",0,K,blue,12,0,14.44,"",664,"","","",""
586399,27,27,block_Testing,4,task_Testing,2,0,"","",9,2,"","",Block2,"","","","","","","","",K,Stim12,LR,90,"",0,J,blue,11,0,15,"",664,"","","",""
586399,28,28,block_Testing,4,task_Testing,2,0,"","",10,2,"","",Block2,"","","","","","","","",J,Stim13,HR,23,"",0,K,red,13,0,15.56,"",664,"","","",""
586399,29,29,block_Testing,4,task_Testing,2,1,"","",11,2,"","",Block2,"","","","","","","","",K,Stim11,NR,127,"",0,K,green,11,0,16.11,"",664,"","","",""
586399,30,30,block_Testing,4,task_Testing,2,1,"","",12,2,"","",Block2,"","","","","","","","",J,Stim9,HR,14,"",0,J,red,8,0,16.67,"",664,"","","",""
586399,31,31,block_Testing,4,task_Testing,2,0,"","",13,2,"","",Block2,"","","","","","","","",J,Stim8,LR,10,"",0,K,blue,8,0,17.22,"",664,"","","",""
586399,32,32,block_Testing,4,task_Testing,2,1,"","",14,2,"","",Block2,"","","","","","","","",K,Stim10,LR,8,"",0,K,blue,10,0,17.78,"",664,"","","",""
586399,33,33,block_Testing,4,task_Testing,2,1,"","",15,2,"","",Block2,"","","","","","","","",J,Stim12,NR,27,"",0,J,green,12,0,18.33,"",664,"","","",""
586399,34,34,block_Testing,4,task_Testing,2,0,"","",16,2,"","",Block2,"","","","","","","","",J,Stim10,HR,8,"",0,K,red,9,0,18.89,"",664,"","","",""
586399,35,35,block_Testing,4,task_Testing,2,1,"","",17,2,"","",Block2,"","","","","","","","",K,Stim11,HR,45,"",0,K,red,11,0,19.44,"",664,"","","",""
586399,36,36,block_Testing,4,task_Testing,2,1,"","",18,2,"","",Block2,"","","","","","","","",J,Stim8,NR,9,"",0,J,green,8,0,20,"",664,"","","",""
586399,37,37,block_Testing,4,task_Testing,2,1,"","",1,3,"","",Block3,"","","","","","","","",J,Stim10,HR,115,"",0,J,red,10,0,20.56,"",664,"","","",""
586399,38,38,block_Testing,4,task_Testing,2,0,"","",2,3,"","",Block3,"","","","","","","","",K,Stim13,LR,41,"",0,J,blue,13,0,21.11,"",664,"","","",""
586399,39,39,block_Testing,4,task_Testing,2,0,"","",3,3,"","",Block3,"","","","","","","","",K,Stim10,LR,43,"",0,J,blue,9,0,21.67,"",664,"","","",""
586399,40,40,block_Testing,4,task_Testing,2,1,"","",4,3,"","",Block3,"","","","","","","","",K,Stim11,HR,19,"",0,K,red,11,0,22.22,"",664,"","","",""
586399,41,41,block_Testing,4,task_Testing,2,1,"","",5,3,"","",Block3,"","","","","","","","",K,Stim9,HR,25,"",0,K,red,9,0,22.78,"",664,"","","",""
586399,42,42,block_Testing,4,task_Testing,2,1,"","",6,3,"","",Block3,"","","","","","","","",K,Stim11,NR,28,"",0,K,green,11,0,23.33,"",664,"","","",""
586399,43,43,block_Testing,4,task_Testing,2,1,"","",7,3,"","",Block3,"","","","","","","","",K,Stim10,LR,94,"",0,K,blue,10,0,23.89,"",664,"","","",""
586399,44,44,block_Testing,4,task_Testing,2,0,"","",8,3,"","",Block3,"","","","","","","","",J,Stim13,NR,33,"",0,K,green,13,0,24.44,"",664,"","","",""
586399,45,45,block_Testing,4,task_Testing,2,0,"","",9,3,"","",Block3,"","","","","","","","",K,Stim12,NR,41,"",0,J,green,12,0,25,"",664,"","","",""
586399,46,46,block_Testing,4,task_Testing,2,1,"","",10,3,"","",Block3,"","","","","","","","",J,Stim10,NR,111,"",0,J,green,10,0,25.56,"",664,"","","",""
586399,47,47,block_Testing,4,task_Testing,2,0,"","",11,3,"","",Block3,"","","","","","","","",K,Stim12,HR,16,"",0,J,red,12,0,26.11,"",664,"","","",""
586399,48,48,block_Testing,4,task_Testing,2,0,"","",12,3,"","",Block3,"","","","","","","","",J,Stim13,HR,42,"",0,K,red,13,0,26.67,"",664,"","","",""
586399,49,49,block_Testing,4,task_Testing,2,1,"","",13,3,"","",Block3,"","","","","","","","",J,Stim11,LR,20,"",0,J,blue,11,0,27.22,"",664,"","","",""
586399,50,50,block_Testing,4,task_Testing,2,0,"","",14,3,"","",Block3,"","","","","","","","",J,Stim14,NR,29,"",0,K,green,9,0,27.78,"",664,"","","",""
586399,51,51,block_Testing,4,task_Testing,2,1,"","",15,3,"","",Block3,"","","","","","","","",J,Stim12,HR,75,"",0,J,red,8,0,28.33,"",664,"","","",""
586399,52,52,block_Testing,4,task_Testing,2,1,"","",16,3,"","",Block3,"","","","","","","","",J,Stim13,NR,123,"",0,J,green,8,0,28.89,"",664,"","","",""
586399,53,53,block_Testing,4,task_Testing,2,0,"","",17,3,"","",Block3,"","","","","","","","",J,PreISI1,LR,133,"",0,K,blue,12,0,29.44,"",664,"","","",""
586399,54,54,block_Testing,4,task_Testing,2,1,"","",18,3,"","",Block3,"","","","","","","","",K,Stim14,LR,44,"",0,K,blue,8,1,30,"",664,"","","",""
586399,55,55,block_Testing,4,task_Testing,2,0,"","",1,4,"","",Block4,"","","","","","","","",J,Stim16,LR,128,"",0,K,blue,12,1,30.56,"",664,"","","",""
586399,56,56,block_Testing,4,task_Testing,2,0,"","",2,4,"","",Block4,"","","","","","","","",J,PreISI1,HR,424,"",0,K,red,13,1,31.11,"",664,"","","",""
586399,57,57,block_Testing,4,task_Testing,2,1,"","",3,4,"","",Block4,"","","","","","","","",J,Stim10,HR,44,"",0,J,red,10,1,31.67,"",664,"","","",""
586399,58,58,block_Testing,4,task_Testing,2,0,"","",4,4,"","",Block4,"","","","","","","","",K,Stim14,NR,13,"",0,J,green,8,1,32.22,"",664,"","","",""
586399,59,59,block_Testing,4,task_Testing,2,0,"","",5,4,"","",Block4,"","","","","","","","",K,Stim13,LR,23,"",0,J,blue,13,1,32.78,"",664,"","","",""
586399,60,60,block_Testing,4,task_Testing,2,1,"","",6,4,"","",Block4,"","","","","","","","",K,Stim8,LR,116,"",0,K,blue,8,1,33.33,"",664,"","","",""
586399,61,61,block_Testing,4,task_Testing,2,1,"","",7,4,"","",Block4,"","","","","","","","",K,Stim13,NR,22,"",0,K,green,13,1,33.89,"",664,"","","",""
586399,62,62,block_Testing,4,task_Testing,2,0,"","",8,4,"","",Block4,"","","","","","","","",J,Stim12,HR,15,"",0,K,red,11,1,34.44,"",664,"","","",""
586399,63,63,block_Testing,4,task_Testing,2,1,"","",9,4,"","",Block4,"","","","","","","","",K,Stim10,LR,114,"",0,K,blue,10,1,35,"",664,"","","",""
586399,64,64,block_Testing,4,task_Testing,2,1,"","",10,4,"","",Block4,"","","","","","","","",K,Stim12,NR,91,"",0,K,green,11,1,35.56,"",664,"","","",""
586399,65,65,block_Testing,4,task_Testing,2,0,"","",11,4,"","",Block4,"","","","","","","","",K,Stim11,NR,12,"",0,J,green,10,1,36.11,"",664,"","","",""
586399,66,66,block_Testing,4,task_Testing,2,1,"","",12,4,"","",Block4,"","","","","","","","",J,PreISI1,HR,337,"",0,J,red,12,1,36.67,"",664,"","","",""
586399,67,67,block_Testing,4,task_Testing,2,0,"","",13,4,"","",Block4,"","","","","","","","",K,Stim13,NR,103,"",0,J,green,12,1,37.22,"",664,"","","",""
586399,68,68,block_Testing,4,task_Testing,2,1,"","",14,4,"","",Block4,"","","","","","","","",K,Stim9,NR,87,"",0,K,green,9,1,37.78,"",664,"","","",""
586399,69,69,block_Testing,4,task_Testing,2,0,"","",15,4,"","",Block4,"","","","","","","","",K,Stim11,LR,16,"",0,J,blue,11,1,38.33,"",664,"","","",""
586399,70,70,block_Testing,4,task_Testing,2,1,"","",16,4,"","",Block4,"","","","","","","","",J,Stim10,LR,18,"",0,J,blue,9,1,38.89,"",664,"","","",""
586399,71,71,block_Testing,4,task_Testing,2,0,"","",17,4,"","",Block4,"","","","","","","","",K,Stim8,HR,84,"",0,J,red,8,1,39.44,"",664,"","","",""
586399,72,72,block_Testing,4,task_Testing,2,1,"","",18,4,"","",Block4,"","","","","","","","",K,Stim9,HR,63,"",0,K,red,9,1,40,"",664,"","","",""
586399,73,73,block_Testing,4,task_Testing,2,0,"","",1,5,"","",Block5,"","","","","","","","",K,Stim12,HR,2,"",0,J,red,12,1,40.56,"",664,"","","",""
586399,74,74,block_Testing,4,task_Testing,2,1,"","",2,5,"","",Block5,"","","","","","","","",K,Stim9,HR,3,"",0,K,red,9,1,41.11,"",664,"","","",""
586399,75,75,block_Testing,4,task_Testing,2,1,"","",3,5,"","",Block5,"","","","","","","","",K,Stim13,HR,81,"",0,K,red,13,1,41.67,"",664,"","","",""
586399,76,76,block_Testing,4,task_Testing,2,1,"","",4,5,"","",Block5,"","","","","","","","",K,Stim13,NR,18,"",0,K,green,13,1,42.22,"",664,"","","",""
586399,77,77,block_Testing,4,task_Testing,2,0,"","",5,5,"","",Block5,"","","","","","","","",K,Stim11,HR,58,"",0,J,red,10,1,42.78,"",664,"","","",""
586399,78,78,block_Testing,4,task_Testing,2,1,"","",6,5,"","",Block5,"","","","","","","","",J,Stim9,HR,1,"",0,J,red,8,1,43.33,"",664,"","","",""
586399,79,79,block_Testing,4,task_Testing,2,1,"","",7,5,"","",Block5,"","","","","","","","",J,Stim10,NR,26,"",0,J,green,10,1,43.89,"",664,"","","",""
586399,80,80,block_Testing,4,task_Testing,2,1,"","",8,5,"","",Block5,"","","","","","","","",J,PreISI1,LR,301,"",0,J,blue,13,1,44.44,"",664,"","","",""
586399,81,81,block_Testing,4,task_Testing,2,1,"","",9,5,"","",Block5,"","","","","","","","",K,Stim9,NR,94,"",0,K,green,9,1,45,"",664,"","","",""
586399,82,82,block_Testing,4,task_Testing,2,0,"","",10,5,"","",Block5,"","","","","","","","",J,Stim10,LR,16,"",0,K,blue,10,1,45.56,"",664,"","","",""
586399,83,83,block_Testing,4,task_Testing,2,0,"","",11,5,"","",Block5,"","","","","","","","",J,Stim12,LR,21,"",0,K,blue,12,1,46.11,"",664,"","","",""
586399,84,84,block_Testing,4,task_Testing,2,1,"","",12,5,"","",Block5,"","","","","","","","",K,Stim8,LR,123,"",0,K,blue,8,1,46.67,"",664,"","","",""
586399,85,85,block_Testing,4,task_Testing,2,1,"","",13,5,"","",Block5,"","",Slow!,"","","","","",K,PreISI2,NR,1116,"",1,K,green,11,1,47.22,"",664,"","","",""
586399,86,86,block_Testing,4,task_Testing,2,1,"","",14,5,"","",Block5,"","",Slow!,"","","","","",J,ISI,LR,262,"",2,J,blue,9,1,47.78,"",664,"","","",""
586399,87,87,block_Testing,4,task_Testing,2,0,"","",15,5,"","",Block5,"","",Slow!,"","","","","",K,ISI,NR,261,"",3,J,green,12,1,48.33,"",664,"","","",""
586399,88,88,block_Testing,4,task_Testing,2,1,"","",16,5,"","",Block5,"","","","","","","","",K,Stim11,HR,93,"",0,K,red,11,1,48.89,"",664,"","","",""
586399,89,89,block_Testing,4,task_Testing,2,1,"","",17,5,"","",Block5,"","","","","","","","",J,Stim9,NR,21,"",0,J,green,8,1,49.44,"",664,"","","",""
586399,90,90,block_Testing,4,task_Testing,2,0,"","",18,5,"","",Block5,"","",Slow!,"","","","","",K,ISI,LR,285,"",1,J,blue,11,1,50,"",664,"","","",""
586399,91,91,block_Testing,4,task_Testing,2,0,"","",1,6,"","",Block6,"","","","","","","","",K,Stim12,LR,20,"",0,J,blue,11,1,50.56,"",664,"","","",""
586399,92,92,block_Testing,4,task_Testing,2,1,"","",2,6,"","",Block6,"","","","","","","","",K,Stim12,LR,21,"",0,K,blue,12,1,51.11,"",664,"","","",""
586399,93,93,block_Testing,4,task_Testing,2,1,"","",3,6,"","",Block6,"","","","","","","","",K,Stim8,LR,25,"",0,K,blue,8,1,51.67,"",664,"","","",""
586399,94,94,block_Testing,4,task_Testing,2,0,"","",4,6,"","",Block6,"","",Slow!,"","","","","",J,ISI,NR,601,"",1,K,green,13,1,52.22,"",664,"","","",""
586399,95,95,block_Testing,4,task_Testing,2,0,"","",5,6,"","",Block6,"","","","","","","","",J,Stim9,NR,29,"",0,K,green,9,1,52.78,"",664,"","","",""
586399,96,96,block_Testing,4,task_Testing,2,0,"","",6,6,"","",Block6,"","","","","","","","",K,Stim12,NR,36,"",0,J,green,12,1,53.33,"",664,"","","",""
586399,97,97,block_Testing,4,task_Testing,2,0,"","",7,6,"","",Block6,"","","","","","","","",J,Stim12,HR,16,"",0,K,red,11,1,53.89,"",664,"","","",""
586399,98,98,block_Testing,4,task_Testing,2,1,"","",8,6,"","",Block6,"","","","","","","","",J,Stim8,HR,27,"",0,J,red,8,1,54.44,"",664,"","","",""
586399,99,99,block_Testing,4,task_Testing,2,0,"","",9,6,"","",Block6,"","","","","","","","",J,Stim9,HR,2,"",0,K,red,9,1,55,"",664,"","","",""
586399,100,100,block_Testing,4,task_Testing,2,0,"","",10,6,"","",Block6,"","","","","","","","",K,Stim9,LR,70,"",0,J,blue,9,1,55.56,"",664,"","","",""
586399,101,101,block_Testing,4,task_Testing,2,1,"","",11,6,"","",Block6,"","","","","","","","",J,Stim12,NR,20,"",0,J,green,10,1,56.11,"",664,"","","",""
586399,102,102,block_Testing,4,task_Testing,2,1,"","",12,6,"","",Block6,"","","","","","","","",J,Stim12,HR,117,"",0,J,red,12,1,56.67,"",664,"","","",""
586399,103,103,block_Testing,4,task_Testing,2,1,"","",13,6,"","",Block6,"","","","","","","","",J,Stim14,LR,40,"",0,J,blue,13,1,57.22,"",664,"","","",""
586399,104,104,block_Testing,4,task_Testing,2,1,"","",14,6,"","",Block6,"","","","","","","","",J,Stim12,HR,0,"",0,J,red,10,1,57.78,"",664,"","","",""
586399,105,105,block_Testing,4,task_Testing,2,0,"","",15,6,"","",Block6,"","","","","","","","",J,PreISI1,LR,2,"",0,K,blue,10,1,58.33,"",664,"","","",""
586399,106,106,block_Testing,4,task_Testing,2,0,"","",16,6,"","",Block6,"","","","","","","","",J,Stim13,HR,97,"",0,K,red,13,1,58.89,"",664,"","","",""
586399,107,107,block_Testing,4,task_Testing,2,1,"","",17,6,"","",Block6,"","","","","","","","",J,Stim8,NR,115,"",0,J,green,8,1,59.44,"",664,"","","",""
586399,108,108,block_Testing,4,task_Testing,2,0,"","",18,6,"","",Block6,"","","","","","","","",J,PreISI1,NR,255,"",0,K,green,11,2,60,"",664,"","","",""
586399,109,109,block_Testing,4,task_Testing,2,0,"","",1,7,"","",Block7,"","","","","","","","",J,PreISI1,HR,21,"",0,K,red,9,2,60.56,"",664,"","","",""
586399,110,110,block_Testing,4,task_Testing,2,0,"","",2,7,"","",Block7,"","","","","","","","",J,Stim13,HR,61,"",0,K,red,13,2,61.11,"",664,"","","",""
586399,111,111,block_Testing,4,task_Testing,2,1,"","",3,7,"","",Block7,"","","","","","","","",J,Stim12,NR,18,"",0,J,green,10,2,61.67,"",664,"","","",""
586399,112,112,block_Testing,4,task_Testing,2,1,"","",4,7,"","",Block7,"","","","","","","","",J,Stim12,HR,68,"",0,J,red,12,2,62.22,"",664,"","","",""
586399,113,113,block_Testing,4,task_Testing,2,1,"","",5,7,"","",Block7,"","","","","","","","",J,Stim12,LR,28,"",0,J,blue,11,2,62.78,"",664,"","","",""
586399,114,114,block_Testing,4,task_Testing,2,0,"","",6,7,"","",Block7,"","","","","","","","",J,Stim13,LR,84,"",0,K,blue,12,2,63.33,"",664,"","","",""
586399,115,115,block_Testing,4,task_Testing,2,1,"","",7,7,"","",Block7,"","","","","","","","",J,Stim16,NR,91,"",0,J,green,8,2,63.89,"",664,"","","",""
586399,116,116,block_Testing,4,task_Testing,2,0,"","",8,7,"","",Block7,"","","","","","","","",J,Stim10,LR,18,"",0,K,blue,8,2,64.44,"",664,"","","",""
586399,117,117,block_Testing,4,task_Testing,2,0,"","",9,7,"","",Block7,"","","","","","","","",J,Stim11,NR,20,"",0,K,green,9,2,65,"",664,"","","",""
586399,118,118,block_Testing,4,task_Testing,2,1,"","",10,7,"","",Block7,"","","","","","","","",J,Stim13,LR,36,"",0,J,blue,13,2,65.56,"",664,"","","",""
586399,119,119,block_Testing,4,task_Testing,2,0,"","",11,7,"","",Block7,"","","","","","","","",J,PreISI1,NR,168,"",0,K,green,13,2,66.11,"",664,"","","",""
586399,120,120,block_Testing,4,task_Testing,2,0,"","",12,7,"","",Block7,"","","","","","","","",J,Stim16,NR,34,"",0,K,green,11,2,66.67,"",664,"","","",""
586399,121,121,block_Testing,4,task_Testing,2,0,"","",13,7,"","",Block7,"","",Slow!,"","","","","",J,PreISI2,LR,526,"",1,K,blue,10,2,67.22,"",664,"","","",""
586399,122,122,block_Testing,4,task_Testing,2,1,"","",14,7,"","",Block7,"","","","","","","","",J,Stim9,HR,71,"",0,J,red,8,2,67.78,"",664,"","","",""
586399,123,123,block_Testing,4,task_Testing,2,1,"","",15,7,"","",Block7,"","",Slow!,"","","","","",J,PreISI2,HR,420,"",1,J,red,10,2,68.33,"",664,"","","",""
586399,124,124,block_Testing,4,task_Testing,2,1,"","",16,7,"","",Block7,"","",Slow!,"","","","","",J,PreISI2,NR,243,"",2,J,green,12,2,68.89,"",664,"","","",""
586399,125,125,block_Testing,4,task_Testing,2,1,"","",17,7,"","",Block7,"","","","","","","","",J,Stim14,LR,76,"",0,J,blue,9,2,69.44,"",664,"","","",""
586399,126,126,block_Testing,4,task_Testing,2,0,"","",18,7,"","",Block7,"","","","","","","","",J,PreISI1,HR,183,"",0,K,red,11,2,70,"",664,"","","",""
586399,127,127,block_Testing,4,task_Testing,2,1,"","",1,8,"","",Block8,"","",Slow!,"","","","","",J,PreISI2,HR,172,"",1,J,red,12,2,70.56,"",664,"","","",""
586399,128,128,block_Testing,4,task_Testing,2,0,"","",2,8,"","",Block8,"","",Slow!,"","","","","",J,PreISI2,NR,621,"",2,K,green,11,2,71.11,"",664,"","","",""
586399,129,129,block_Testing,4,task_Testing,2,1,"","",3,8,"","",Block8,"","","","","","","","",J,Stim8,NR,4,"",0,J,green,8,2,71.67,"",664,"","","",""
586399,130,130,block_Testing,4,task_Testing,2,1,"","",4,8,"","",Block8,"","","","","","","","",J,Stim13,HR,64,"",0,J,red,10,2,72.22,"",664,"","","",""
586399,131,131,block_Testing,4,task_Testing,2,0,"","",5,8,"","",Block8,"","","","","","","","",J,Stim8,LR,48,"",0,K,blue,8,2,72.78,"",664,"","","",""
586399,132,132,block_Testing,4,task_Testing,2,0,"","",6,8,"","",Block8,"","","","","","","","",J,Stim15,LR,10,"",0,K,blue,12,2,73.33,"",664,"","","",""
586399,133,133,block_Testing,4,task_Testing,2,0,"","",7,8,"","",Block8,"","","","","","","","",J,Stim11,HR,63,"",0,K,red,11,2,73.89,"",664,"","","",""
586399,134,134,block_Testing,4,task_Testing,2,0,"","",8,8,"","",Block8,"","","","","","","","",J,Stim10,HR,21,"",0,K,red,9,2,74.44,"",664,"","","",""
586399,135,135,block_Testing,4,task_Testing,2,1,"","",9,8,"","",Block8,"","","","","","","","",J,Stim14,LR,109,"",0,J,blue,13,2,75,"",664,"","","",""
586399,136,136,block_Testing,4,task_Testing,2,1,"","",10,8,"","",Block8,"","",Slow!,"","","","","",J,PreISI2,LR,202,"",1,J,blue,9,2,75.56,"",664,"","","",""
586399,137,137,block_Testing,4,task_Testing,2,1,"","",11,8,"","",Block8,"","",Slow!,"","","","","",J,PreISI2,NR,370,"",2,J,green,12,2,76.11,"",664,"","","",""
586399,138,138,block_Testing,4,task_Testing,2,0,"","",12,8,"","",Block8,"","","","","","","","",J,Stim9,NR,117,"",0,K,green,9,2,76.67,"",664,"","","",""
586399,139,139,block_Testing,4,task_Testing,2,0,"","",13,8,"","",Block8,"","","","","","","","",J,PreISI1,HR,163,"",0,K,red,13,2,77.22,"",664,"","","",""
586399,140,140,block_Testing,4,task_Testing,2,0,"","",14,8,"","",Block8,"","",Slow!,"","","","","",J,ISI,LR,0,"",1,K,blue,10,2,77.78,"",664,"","","",""
586399,141,141,block_Testing,4,task_Testing,2,1,"","",15,8,"","",Block8,"","","","","","","","",J,Stim14,LR,64,"",0,J,blue,11,2,78.33,"",664,"","","",""
586399,142,142,block_Testing,4,task_Testing,2,1,"","",16,8,"","",Block8,"","","","","","","","",J,Stim9,HR,79,"",0,J,red,8,2,78.89,"",664,"","","",""
586399,143,143,block_Testing,4,task_Testing,2,0,"","",17,8,"","",Block8,"","",Slow!,"","","","","",J,PreISI2,NR,206,"",1,K,green,13,2,79.44,"",664,"","","",""
586399,144,144,block_Testing,4,task_Testing,2,1,"","",18,8,"","",Block8,"","","","","","","","",J,Stim10,NR,39,"",0,J,green,10,2,80,"",664,"","","",""
586399,145,145,block_Testing,4,task_Testing,2,1,"","",1,9,"","",Block9,"","","","","","","","",J,Stim11,NR,31,"",0,J,green,8,2,80.56,"",664,"","","",""
586399,146,146,block_Testing,4,task_Testing,2,0,"","",2,9,"","",Block9,"","","","","","","","",J,Stim11,HR,84,"",0,K,red,9,2,81.11,"",664,"","","",""
586399,147,147,block_Testing,4,task_Testing,2,1,"","",3,9,"","",Block9,"","","","","","","","",J,Stim15,LR,56,"",0,J,blue,13,2,81.67,"",664,"","","",""
586399,148,148,block_Testing,4,task_Testing,2,0,"","",4,9,"","",Block9,"","",Slow!,"","","","","","","",NR,0,"",1,K,green,13,2,82.22,"",664,"","","",""
586399,149,149,block_Testing,4,task_Testing,2,0,"","",5,9,"","",Block9,"","",Slow!,"","","","","","","",HR,0,"",2,J,red,12,2,82.78,"",664,"","","",""
586399,150,150,block_Testing,4,task_Testing,2,0,"","",6,9,"","",Block9,"","",Slow!,"","","","","","","",LR,0,"",3,J,blue,9,2,83.33,"",664,"","","",""
586399,151,151,block_Testing,4,task_Testing,2,0,"","",7,9,"","",Block9,"","","","","","","","",J,Stim12,LR,40,"",0,K,blue,8,2,83.89,"",664,"","","",""
586399,152,152,block_Testing,4,task_Testing,2,0,"","",8,9,"","",Block9,"","","","","","","","",J,Stim10,NR,3,"",0,K,green,9,2,84.44,"",664,"","","",""
586399,153,153,block_Testing,4,task_Testing,2,0,"","",9,9,"","",Block9,"","","","","","","","",J,Stim15,HR,51,"",0,K,red,13,2,85,"",664,"","","",""
586399,154,154,block_Testing,4,task_Testing,2,0,"","",10,9,"","",Block9,"","",Slow!,"","","","","",J,ISI,NR,897,"",1,K,green,11,2,85.56,"",664,"","","",""
586399,155,155,block_Testing,4,task_Testing,2,1,"","",11,9,"","",Block9,"","","","","","","","",J,Stim8,HR,72,"",0,J,red,8,2,86.11,"",664,"","","",""
586399,156,156,block_Testing,4,task_Testing,2,1,"","",12,9,"","",Block9,"","","","","","","","",J,Stim11,HR,68,"",0,J,red,10,2,86.67,"",664,"","","",""
586399,157,157,block_Testing,4,task_Testing,2,1,"","",13,9,"","",Block9,"","","","","","","","",K,Stim10,LR,39,"",0,K,blue,10,2,87.22,"",664,"","","",""
586399,158,158,block_Testing,4,task_Testing,2,0,"","",14,9,"","",Block9,"","","","","","","","",J,Stim13,LR,70,"",0,K,blue,12,2,87.78,"",664,"","","",""
586399,159,159,block_Testing,4,task_Testing,2,1,"","",15,9,"","",Block9,"","","","","","","","",J,Stim12,NR,42,"",0,J,green,12,2,88.33,"",664,"","","",""
586399,160,160,block_Testing,4,task_Testing,2,0,"","",16,9,"","",Block9,"","","","","","","","",J,Stim11,HR,29,"",0,K,red,11,2,88.89,"",664,"","","",""
586399,161,161,block_Testing,4,task_Testing,2,1,"","",17,9,"","",Block9,"","","","","","","","",J,PreISI1,LR,393,"",0,J,blue,11,2,89.44,"",664,"","","",""
586399,162,162,block_Testing,4,task_Testing,2,1,"","",18,9,"","",Block9,"","","","","","","","",J,Stim10,NR,76,"",0,J,green,10,2,90,"",664,"","","",""
586399,163,163,block_Testing,4,task_Testing,2,1,"","",1,10,"","",Block10,"","","","","","","","",K,Stim9,NR,14,"",0,K,green,9,2,90.56,"",664,"","","",""
586399,164,164,block_Testing,4,task_Testing,2,0,"","",2,10,"","",Block10,"","","","","","","","",K,Stim11,LR,132,"",0,J,blue,11,2,91.11,"",664,"","","",""
586399,165,165,block_Testing,4,task_Testing,2,0,"","",3,10,"","",Block10,"","","","","","","","",K,Stim13,LR,10,"",0,J,blue,13,2,91.67,"",664,"","","",""
586399,166,166,block_Testing,4,task_Testing,2,0,"","",4,10,"","",Block10,"","","","","","","","",K,Stim13,NR,8,"",0,J,green,12,2,92.22,"",664,"","","",""
586399,167,167,block_Testing,4,task_Testing,2,1,"","",5,10,"","",Block10,"","","","","","","","",K,Stim11,NR,30,"",0,K,green,11,2,92.78,"",664,"","","",""
586399,168,168,block_Testing,4,task_Testing,2,0,"","",6,10,"","",Block10,"","","","","","","","",J,Stim13,HR,95,"",0,K,red,13,2,93.33,"",664,"","","",""
586399,169,169,block_Testing,4,task_Testing,2,0,"","",7,10,"","",Block10,"","","","","","","","",K,Stim9,LR,50,"",0,J,blue,9,2,93.89,"",664,"","","",""
586399,170,170,block_Testing,4,task_Testing,2,1,"","",8,10,"","",Block10,"","","","","","","","",J,Stim10,HR,66,"",0,J,red,10,2,94.44,"",664,"","","",""
586399,171,171,block_Testing,4,task_Testing,2,1,"","",9,10,"","",Block10,"","","","","","","","",J,Stim12,NR,16,"",0,J,green,10,2,95,"",664,"","","",""
586399,172,172,block_Testing,4,task_Testing,2,0,"","",10,10,"","",Block10,"","","","","","","","",J,Stim10,LR,50,"",0,K,blue,10,2,95.56,"",664,"","","",""
586399,173,173,block_Testing,4,task_Testing,2,1,"","",11,10,"","",Block10,"","","","","","","","",J,Stim14,NR,20,"",0,J,green,8,2,96.11,"",664,"","","",""
586399,174,174,block_Testing,4,task_Testing,2,0,"","",12,10,"","",Block10,"","","","","","","","",J,Stim9,HR,110,"",0,K,red,9,2,96.67,"",664,"","","",""
586399,175,175,block_Testing,4,task_Testing,2,1,"","",13,10,"","",Block10,"","","","","","","","",J,Stim13,HR,24,"",0,J,red,12,2,97.22,"",664,"","","",""
586399,176,176,block_Testing,4,task_Testing,2,0,"","",14,10,"","",Block10,"","","","","","","","",J,PreISI1,NR,84,"",0,K,green,13,2,97.78,"",664,"","","",""
586399,177,177,block_Testing,4,task_Testing,2,0,"","",15,10,"","",Block10,"","","","","","","","",J,Stim12,LR,50,"",0,K,blue,12,2,98.33,"",664,"","","",""
586399,178,178,block_Testing,4,task_Testing,2,1,"","",16,10,"","",Block10,"","","","","","","","",J,Stim10,HR,83,"",0,J,red,8,2,98.89,"",664,"","","",""
586399,179,179,block_Testing,4,task_Testing,2,1,"","",17,10,"","",Block10,"","","","","","","","",K,Stim8,LR,45,"",0,K,blue,8,2,99.44,"",664,"","","",""
586399,180,180,block_Testing,4,task_Testing,2,0,"","",18,10,"","",Block10,"","","","","","","","",J,Stim11,HR,19,"",0,K,red,11,2,100,"",664,"","","",""
586399,1,1,block_End,5,task_Demog_End,1,"","",38,"",1,"","","","","","","","","","","","","","","",Female,"","","","","","","","","","","",""
