Rec_Session_Id,Trial_Nr,Trial_Id,Block_Name,Block_Nr,Task_Name,Task_Nr,ACC,ACC_Total_Prac,Age,BlkTrial_Nr,Condition_Id,Consent,Contact,copy_of_factor1_tg1_task2,Email,factor1_tg1_task2,Fdbck_Slow,Feedback,MatricNo,Name,PAYNOW,Recontact,RESP,RESP_Frame,Reward,RT_FromFramePress,Sex,SlowResp,Targ,TargCol,TargPos,Testing_BreakCount,Testing_Progress,TotalMoney,TotalPoints,TotalPoints_prac,Trial_Nr_prac,Trng_BreakCount,Trng_Progress
586375,1,1,block_Practice,2,task_GetReady,1,"","","","",1,"","","","","","","","","","","","","","","","","","","","","","","","","","","",""
586375,1,1,block_Practice,2,task_Trng_Prac,2,1,1,"","",1,"","","","","","","","","","","",K,PreISI1,Disallowed,488,"",1,K,green,11,"","","",0,0,"","",""
586375,2,2,block_Practice,2,task_Trng_Prac,2,1,2,"","",1,"","","","","","","","","","","",K,PreISI1,Disallowed,274,"",1,K,red,10,"","","",0,0,"","",""
586375,3,3,block_Practice,2,task_Trng_Prac,2,0,2,"","",1,"","","","","","","","","","","",J,Stim16,Disallowed,64,"",1,K,red,8,"","","",0,0,"","",""
586375,4,4,block_Practice,2,task_Trng_Prac,2,1,0,"","",1,"","","","","",Slow!,"","","","","",J,PreISI2,Disallowed,172,"",2,J,blue,13,"","","",0,0,"","",""
586375,5,5,block_Practice,2,task_Trng_Prac,2,1,1,"","",1,"","","","","","","","","","","",J,PreISI1,Disallowed,239,"",2,J,green,9,"","","",0,0,"","",""
586375,6,6,block_Practice,2,task_Trng_Prac,2,1,0,"","",1,"","","","","","","","","","","",J,PreISI1,Disallowed,380,"",2,J,blue,12,"","","",0,0,"","",""
586375,1,1,block_Practice,2,task_GetReady,1,"","","","",1,"","","","","","","","","","","","","","","","","","","","","","","","","","","",""
586375,1,1,block_Practice,2,task_Trng_Prac,2,0,0,"","",1,"","","","","","","","","","","",K,PreISI1,Disallowed,117,"",4,J,blue,13,"","","",0,0,"","",""
586375,2,2,block_Practice,2,task_Trng_Prac,2,1,1,"","",1,"","","","","","","","","","","",K,Stim16,Disallowed,84,"",4,K,red,8,"","","",0,0,"","",""
586375,3,3,block_Practice,2,task_Trng_Prac,2,1,2,"","",1,"","","","","","","","","","","",K,PreISI1,Disallowed,10,"",4,K,red,10,"","","",0,0,"","",""
586375,4,4,block_Practice,2,task_Trng_Prac,2,1,3,"","",1,"","","","","","","","","","","",J,Stim16,Disallowed,6,"",4,J,green,9,"","","",0,0,"","",""
586375,5,5,block_Practice,2,task_Trng_Prac,2,1,4,"","",1,"","","","","","","","","","","",K,PreISI2,Disallowed,27,"",4,K,green,11,"","","",0,0,"","",""
586375,6,6,block_Practice,2,task_Trng_Prac,2,1,5,"","",1,"","","","","","","","","","","",J,PreISI1,Disallowed,191,"",4,J,blue,12,"","","",0,0,"","",""
586375,1,1,block_Trng,3,task_GetReady,1,"","","","",1,"","","","","","","","","","","","","","","","","","","","","","","","","","","",""
586375,1,1,block_Trng,3,task_Trng,2,1,"","",1,1,"","","","",Block1,"","","","","","",J,Stim16,NR,37,"",0,J,green,10,"","",0,0,"","",0,0.28
586375,2,2,block_Trng,3,task_Trng,2,1,"","",2,1,"","","","",Block1,Slow!,"","","","","",J,PreISI2,NR,398,"",1,J,green,12,"","",0,0,"","",0,0.56
586375,3,3,block_Trng,3,task_Trng,2,1,"","",3,1,"","","","",Block1,"","","","","","",J,PreISI1,HR,275,"",0,J,red,12,"","",0,10,"","",0,0.83
586375,4,4,block_Trng,3,task_Trng,2,1,"","",4,1,"","","","",Block1,"","","","","","",K,PreISI1,HR,100,"",0,K,red,11,"","",0,20,"","",0,1.11
586375,5,5,block_Trng,3,task_Trng,2,1,"","",5,1,"","","","",Block1,"","","","","","",K,PreISI1,NR,382,"",0,K,green,13,"","",0,20,"","",0,1.39
586375,6,6,block_Trng,3,task_Trng,2,1,"","",6,1,"","","","",Block1,"","","","","","",K,PreISI1,HR,469,"",0,K,red,13,"","",0,30,"","",0,1.67
586375,7,7,block_Trng,3,task_Trng,2,1,"","",7,1,"","","","",Block1,"","","","","","",J,Stim16,NR,48,"",0,J,green,8,"","",0,30,"","",0,1.94
586375,8,8,block_Trng,3,task_Trng,2,1,"","",8,1,"","","","",Block1,"","","","","","",K,Stim14,LR,80,"",0,K,blue,8,"","",0,32,"","",0,2.22
586375,9,9,block_Trng,3,task_Trng,2,1,"","",9,1,"","","","",Block1,"","","","","","",J,Stim15,LR,20,"",0,J,blue,9,"","",0,34,"","",0,2.5
586375,10,10,block_Trng,3,task_Trng,2,1,"","",10,1,"","","","",Block1,"","","","","","",J,PreISI1,LR,405,"",0,J,blue,13,"","",0,36,"","",0,2.78
586375,11,11,block_Trng,3,task_Trng,2,1,"","",11,1,"","","","",Block1,"","","","","","",J,PreISI1,LR,189,"",0,J,blue,11,"","",0,38,"","",0,3.06
586375,12,12,block_Trng,3,task_Trng,2,1,"","",12,1,"","","","",Block1,Slow!,"","","","","",J,ISI,HR,247,"",1,J,red,8,"","",0,38,"","",0,3.33
586375,13,13,block_Trng,3,task_Trng,2,1,"","",13,1,"","","","",Block1,"","","","","","",K,PreISI1,LR,119,"",0,K,blue,10,"","",0,40,"","",0,3.61
586375,14,14,block_Trng,3,task_Trng,2,1,"","",14,1,"","","","",Block1,"","","","","","",K,PreISI1,HR,19,"",0,K,red,9,"","",0,50,"","",0,3.89
586375,15,15,block_Trng,3,task_Trng,2,1,"","",15,1,"","","","",Block1,"","","","","","",K,Stim14,NR,107,"",0,K,green,9,"","",0,50,"","",0,4.17
586375,16,16,block_Trng,3,task_Trng,2,0,"","",16,1,"","","","",Block1,"","","","","","",K,Stim16,HR,38,"",0,J,red,10,"","",0,50,"","",0,4.44
586375,17,17,block_Trng,3,task_Trng,2,1,"","",17,1,"","","","",Block1,"","","","","","",K,PreISI1,LR,229,"",0,K,blue,12,"","",0,52,"","",0,4.72
586375,18,18,block_Trng,3,task_Trng,2,1,"","",18,1,"","","","",Block1,"","","","","","",K,PreISI1,NR,134,"",0,K,green,11,"","",0,52,"","",0,5
586375,19,19,block_Trng,3,task_Trng,2,0,"","",1,2,"","","","",Block2,Slow!,"","","","","",K,PreISI2,LR,486,"",1,J,blue,9,"","",0,52,"","",0,5.28
586375,20,20,block_Trng,3,task_Trng,2,0,"","",2,2,"","","","",Block2,"","","","","","",K,Stim16,LR,87,"",0,J,blue,13,"","",0,52,"","",0,5.56
586375,21,21,block_Trng,3,task_Trng,2,0,"","",3,2,"","","","",Block2,"","","","","","",J,Stim16,NR,93,"",0,K,green,11,"","",0,52,"","",0,5.83
586375,22,22,block_Trng,3,task_Trng,2,1,"","",4,2,"","","","",Block2,"","","","","","",J,Stim16,NR,72,"",0,J,green,10,"","",0,52,"","",0,6.11
586375,23,23,block_Trng,3,task_Trng,2,1,"","",5,2,"","","","",Block2,"","","","","","",K,PreISI1,LR,191,"",0,K,blue,12,"","",0,54,"","",0,6.39
586375,24,24,block_Trng,3,task_Trng,2,1,"","",6,2,"","","","",Block2,"","","","","","",J,Stim16,LR,81,"",0,J,blue,11,"","",0,56,"","",0,6.67
586375,25,25,block_Trng,3,task_Trng,2,1,"","",7,2,"","","","",Block2,"","","","","","",J,PreISI1,NR,356,"",0,J,green,12,"","",0,56,"","",0,6.94
586375,26,26,block_Trng,3,task_Trng,2,1,"","",8,2,"","","","",Block2,"","","","","","",K,Stim14,LR,87,"",0,K,blue,8,"","",0,58,"","",0,7.22
586375,27,27,block_Trng,3,task_Trng,2,1,"","",9,2,"","","","",Block2,"","","","","","",J,PreISI1,HR,177,"",0,J,red,12,"","",0,68,"","",0,7.5
586375,28,28,block_Trng,3,task_Trng,2,1,"","",10,2,"","","","",Block2,"","","","","","",K,Stim16,NR,9,"",0,K,green,9,"","",0,68,"","",0,7.78
586375,29,29,block_Trng,3,task_Trng,2,1,"","",11,2,"","","","",Block2,"","","","","","",K,PreISI1,NR,134,"",0,K,green,13,"","",0,68,"","",0,8.06
586375,30,30,block_Trng,3,task_Trng,2,1,"","",12,2,"","","","",Block2,"","","","","","",J,PreISI1,HR,364,"",0,J,red,10,"","",0,78,"","",0,8.33
586375,31,31,block_Trng,3,task_Trng,2,1,"","",13,2,"","","","",Block2,"","","","","","",K,Stim16,HR,70,"",0,K,red,9,"","",0,88,"","",0,8.61
586375,32,32,block_Trng,3,task_Trng,2,1,"","",14,2,"","","","",Block2,"","","","","","",J,Stim16,HR,54,"",0,J,red,8,"","",0,98,"","",0,8.89
586375,33,33,block_Trng,3,task_Trng,2,1,"","",15,2,"","","","",Block2,"","","","","","",K,PreISI1,HR,378,"",0,K,red,13,"","",0,108,"","",0,9.17
586375,34,34,block_Trng,3,task_Trng,2,1,"","",16,2,"","","","",Block2,"","","","","","",J,PreISI1,NR,18,"",0,J,green,8,"","",0,108,"","",0,9.44
586375,35,35,block_Trng,3,task_Trng,2,0,"","",17,2,"","","","",Block2,"","","","","","",J,PreISI1,HR,294,"",0,K,red,11,"","",0,108,"","",0,9.72
586375,36,36,block_Trng,3,task_Trng,2,1,"","",18,2,"","","","",Block2,"","","","","","",K,PreISI1,LR,20,"",0,K,blue,10,"","",0,110,"","",0,10
586375,37,37,block_Trng,3,task_Trng,2,1,"","",1,3,"","","","",Block3,Slow!,"","","","","",K,PreISI2,LR,211,"",1,K,blue,8,"","",0,110,"","",0,10.28
586375,38,38,block_Trng,3,task_Trng,2,0,"","",2,3,"","","","",Block3,Slow!,"","","","","",J,PreISI2,HR,365,"",2,K,red,11,"","",0,110,"","",0,10.56
586375,39,39,block_Trng,3,task_Trng,2,1,"","",3,3,"","","","",Block3,"","","","","","",J,Stim15,HR,14,"",0,J,red,10,"","",0,120,"","",0,10.83
586375,40,40,block_Trng,3,task_Trng,2,1,"","",4,3,"","","","",Block3,"","","","","","",K,Stim16,HR,3,"",0,K,red,9,"","",0,130,"","",0,11.11
586375,41,41,block_Trng,3,task_Trng,2,1,"","",5,3,"","","","",Block3,"","","","","","",K,PreISI1,HR,332,"",0,K,red,13,"","",0,140,"","",0,11.39
586375,42,42,block_Trng,3,task_Trng,2,1,"","",6,3,"","","","",Block3,"","","","","","",J,PreISI1,NR,193,"",0,J,green,12,"","",0,140,"","",0,11.67
586375,43,43,block_Trng,3,task_Trng,2,1,"","",7,3,"","","","",Block3,"","","","","","",J,PreISI1,HR,65,"",0,J,red,8,"","",0,150,"","",0,11.94
586375,44,44,block_Trng,3,task_Trng,2,1,"","",8,3,"","","","",Block3,"","","","","","",K,PreISI1,NR,55,"",0,K,green,11,"","",0,150,"","",0,12.22
586375,45,45,block_Trng,3,task_Trng,2,0,"","",9,3,"","","","",Block3,"","","","","","",K,Stim16,LR,32,"",0,J,blue,11,"","",0,150,"","",0,12.5
586375,46,46,block_Trng,3,task_Trng,2,1,"","",10,3,"","","","",Block3,"","","","","","",K,PreISI1,NR,395,"",0,K,green,13,"","",0,150,"","",0,12.78
586375,47,47,block_Trng,3,task_Trng,2,1,"","",11,3,"","","","",Block3,"","","","","","",J,Stim16,HR,112,"",0,J,red,12,"","",0,160,"","",0,13.06
586375,48,48,block_Trng,3,task_Trng,2,1,"","",12,3,"","","","",Block3,"","","","","","",K,Stim13,NR,28,"",0,K,green,9,"","",0,160,"","",0,13.33
586375,49,49,block_Trng,3,task_Trng,2,1,"","",13,3,"","","","",Block3,"","","","","","",J,PreISI1,LR,345,"",0,J,blue,13,"","",0,162,"","",0,13.61
586375,50,50,block_Trng,3,task_Trng,2,1,"","",14,3,"","","","",Block3,"","","","","","",J,Stim16,NR,74,"",0,J,green,10,"","",0,162,"","",0,13.89
586375,51,51,block_Trng,3,task_Trng,2,0,"","",15,3,"","","","",Block3,"","","","","","",J,Stim15,LR,67,"",0,K,blue,10,"","",0,162,"","",0,14.17
586375,52,52,block_Trng,3,task_Trng,2,1,"","",16,3,"","","","",Block3,"","","","","","",K,Stim14,LR,90,"",0,K,blue,12,"","",0,164,"","",0,14.44
586375,53,53,block_Trng,3,task_Trng,2,0,"","",17,3,"","","","",Block3,Slow!,"","","","","","","",LR,0,"",1,J,blue,9,"","",0,164,"","",0,14.72
586375,54,54,block_Trng,3,task_Trng,2,1,"","",18,3,"","","","",Block3,"","","","","","",J,Stim14,NR,49,"",0,J,green,8,"","",0,164,"","",0,15
586375,55,55,block_Trng,3,task_Trng,2,0,"","",1,4,"","","","",Block4,"","","","","","",K,Stim11,HR,68,"",0,J,red,10,"","",0,164,"","",0,15.28
586375,56,56,block_Trng,3,task_Trng,2,1,"","",2,4,"","","","",Block4,"","","","","","",K,Stim14,HR,37,"",0,K,red,9,"","",0,174,"","",0,15.56
586375,57,57,block_Trng,3,task_Trng,2,1,"","",3,4,"","","","",Block4,"","","","","","",J,Stim13,LR,85,"",0,J,blue,11,"","",0,176,"","",0,15.83
586375,58,58,block_Trng,3,task_Trng,2,1,"","",4,4,"","","","",Block4,"","","","","","",K,Stim13,NR,53,"",0,K,green,11,"","",0,176,"","",0,16.11
586375,59,59,block_Trng,3,task_Trng,2,0,"","",5,4,"","","","",Block4,"","","","","","",K,Stim11,NR,10,"",0,J,green,8,"","",0,176,"","",0,16.39
586375,60,60,block_Trng,3,task_Trng,2,1,"","",6,4,"","","","",Block4,"","","","","","",J,Stim14,HR,41,"",0,J,red,8,"","",0,186,"","",0,16.67
586375,61,61,block_Trng,3,task_Trng,2,1,"","",7,4,"","","","",Block4,"","","","","","",J,Stim12,NR,12,"",0,J,green,10,"","",0,186,"","",0,16.94
586375,62,62,block_Trng,3,task_Trng,2,1,"","",8,4,"","","","",Block4,Slow!,"","","","","",J,PreISI2,NR,83,"",1,J,green,12,"","",0,186,"","",0,17.22
586375,63,63,block_Trng,3,task_Trng,2,1,"","",9,4,"","","","",Block4,"","","","","","",J,PreISI1,LR,167,"",0,J,blue,13,"","",0,188,"","",0,17.5
586375,64,64,block_Trng,3,task_Trng,2,0,"","",10,4,"","","","",Block4,"","","","","","",J,Stim12,LR,88,"",0,K,blue,8,"","",0,188,"","",0,17.78
586375,65,65,block_Trng,3,task_Trng,2,1,"","",11,4,"","","","",Block4,"","","","","","",K,PreISI1,LR,204,"",0,K,blue,10,"","",0,190,"","",0,18.06
586375,66,66,block_Trng,3,task_Trng,2,1,"","",12,4,"","","","",Block4,"","","","","","",K,Stim12,LR,76,"",0,K,blue,12,"","",0,192,"","",0,18.33
586375,67,67,block_Trng,3,task_Trng,2,1,"","",13,4,"","","","",Block4,"","","","","","",K,Stim13,NR,38,"",0,K,green,13,"","",0,192,"","",0,18.61
586375,68,68,block_Trng,3,task_Trng,2,1,"","",14,4,"","","","",Block4,Slow!,"","","","","",J,PreISI2,LR,223,"",1,J,blue,9,"","",0,192,"","",0,18.89
586375,69,69,block_Trng,3,task_Trng,2,1,"","",15,4,"","","","",Block4,Slow!,"","","","","",K,ISI,HR,971,"",2,K,red,11,"","",0,192,"","",0,19.17
586375,70,70,block_Trng,3,task_Trng,2,1,"","",16,4,"","","","",Block4,"","","","","","",K,Stim15,HR,85,"",0,K,red,13,"","",0,202,"","",0,19.44
586375,71,71,block_Trng,3,task_Trng,2,1,"","",17,4,"","","","",Block4,"","","","","","",K,Stim14,NR,53,"",0,K,green,9,"","",0,202,"","",0,19.72
586375,72,72,block_Trng,3,task_Trng,2,0,"","",18,4,"","","","",Block4,"","","","","","",K,PreISI1,HR,99,"",0,J,red,12,"","",0.69,202,"","",1,20
586375,73,73,block_Trng,3,task_Trng,2,0,"","",1,5,"","","","",Block5,"","","","","","",K,Stim16,LR,47,"",0,J,blue,11,"","",0.69,202,"","",1,20.28
586375,74,74,block_Trng,3,task_Trng,2,1,"","",2,5,"","","","",Block5,"","","","","","",J,Stim15,NR,32,"",0,J,green,8,"","",0.69,202,"","",1,20.56
586375,75,75,block_Trng,3,task_Trng,2,1,"","",3,5,"","","","",Block5,"","","","","","",K,PreISI1,NR,160,"",0,K,green,11,"","",0.69,202,"","",1,20.83
586375,76,76,block_Trng,3,task_Trng,2,1,"","",4,5,"","","","",Block5,"","","","","","",K,PreISI1,NR,481,"",0,K,green,13,"","",0.69,202,"","",1,21.11
586375,77,77,block_Trng,3,task_Trng,2,0,"","",5,5,"","","","",Block5,"","","","","","",K,PreISI1,NR,107,"",0,J,green,12,"","",0.69,202,"","",1,21.39
586375,78,78,block_Trng,3,task_Trng,2,1,"","",6,5,"","","","",Block5,Slow!,"","","","","",K,PreISI2,LR,65,"",1,K,blue,8,"","",0.69,202,"","",1,21.67
586375,79,79,block_Trng,3,task_Trng,2,1,"","",7,5,"","","","",Block5,Slow!,"","","","","",J,PreISI2,LR,76,"",2,J,blue,9,"","",0.69,202,"","",1,21.94
586375,80,80,block_Trng,3,task_Trng,2,1,"","",8,5,"","","","",Block5,"","","","","","",K,PreISI2,HR,29,"",0,K,red,13,"","",0.69,212,"","",1,22.22
586375,81,81,block_Trng,3,task_Trng,2,1,"","",9,5,"","","","",Block5,"","","","","","",J,PreISI1,NR,61,"",0,J,green,10,"","",0.69,212,"","",1,22.5
586375,82,82,block_Trng,3,task_Trng,2,1,"","",10,5,"","","","",Block5,"","","","","","",K,PreISI1,LR,110,"",0,K,blue,10,"","",0.69,214,"","",1,22.78
586375,83,83,block_Trng,3,task_Trng,2,1,"","",11,5,"","","","",Block5,"","","","","","",J,PreISI2,LR,24,"",0,J,blue,13,"","",0.69,216,"","",1,23.06
586375,84,84,block_Trng,3,task_Trng,2,1,"","",12,5,"","","","",Block5,"","","","","","",K,Stim14,NR,95,"",0,K,green,9,"","",0.69,216,"","",1,23.33
586375,85,85,block_Trng,3,task_Trng,2,1,"","",13,5,"","","","",Block5,"","","","","","",K,Stim16,HR,94,"",0,K,red,9,"","",0.69,226,"","",1,23.61
586375,86,86,block_Trng,3,task_Trng,2,1,"","",14,5,"","","","",Block5,"","","","","","",J,PreISI1,HR,306,"",0,J,red,10,"","",0.69,236,"","",1,23.89
586375,87,87,block_Trng,3,task_Trng,2,1,"","",15,5,"","","","",Block5,"","","","","","",J,Stim16,HR,87,"",0,J,red,8,"","",0.69,246,"","",1,24.17
586375,88,88,block_Trng,3,task_Trng,2,1,"","",16,5,"","","","",Block5,"","","","","","",K,PreISI1,HR,139,"",0,K,red,11,"","",0.69,256,"","",1,24.44
586375,89,89,block_Trng,3,task_Trng,2,1,"","",17,5,"","","","",Block5,"","","","","","",K,PreISI1,LR,110,"",0,K,blue,12,"","",0.69,258,"","",1,24.72
586375,90,90,block_Trng,3,task_Trng,2,1,"","",18,5,"","","","",Block5,"","","","","","",J,PreISI1,HR,278,"",0,J,red,12,"","",0.69,268,"","",1,25
586375,91,91,block_Trng,3,task_Trng,2,1,"","",1,6,"","","","",Block6,"","","","","","",K,PreISI2,NR,10,"",0,K,green,13,"","",0.69,268,"","",1,25.28
586375,92,92,block_Trng,3,task_Trng,2,1,"","",2,6,"","","","",Block6,"","","","","","",J,PreISI1,HR,36,"",0,J,red,12,"","",0.69,278,"","",1,25.56
586375,93,93,block_Trng,3,task_Trng,2,1,"","",3,6,"","","","",Block6,Slow!,"","","","","",K,PreISI2,NR,220,"",1,K,green,9,"","",0.69,278,"","",1,25.83
586375,94,94,block_Trng,3,task_Trng,2,1,"","",4,6,"","","","",Block6,"","","","","","",J,PreISI1,LR,215,"",0,J,blue,11,"","",0.69,280,"","",1,26.11
586375,95,95,block_Trng,3,task_Trng,2,1,"","",5,6,"","","","",Block6,"","","","","","",K,Stim16,HR,9,"",0,K,red,11,"","",0.69,290,"","",1,26.39
586375,96,96,block_Trng,3,task_Trng,2,1,"","",6,6,"","","","",Block6,"","","","","","",J,PreISI1,NR,150,"",0,J,green,12,"","",0.69,290,"","",1,26.67
586375,97,97,block_Trng,3,task_Trng,2,1,"","",7,6,"","","","",Block6,"","","","","","",J,Stim16,NR,105,"",0,J,green,10,"","",0.69,290,"","",1,26.94
586375,98,98,block_Trng,3,task_Trng,2,1,"","",8,6,"","","","",Block6,"","","","","","",J,PreISI1,LR,276,"",0,J,blue,13,"","",0.69,292,"","",1,27.22
586375,99,99,block_Trng,3,task_Trng,2,1,"","",9,6,"","","","",Block6,"","","","","","",J,Stim16,HR,45,"",0,J,red,10,"","",0.69,302,"","",1,27.5
586375,100,100,block_Trng,3,task_Trng,2,1,"","",10,6,"","","","",Block6,"","","","","","",K,PreISI1,NR,12,"",0,K,green,11,"","",0.69,302,"","",1,27.78
586375,101,101,block_Trng,3,task_Trng,2,1,"","",11,6,"","","","",Block6,"","","","","","",K,Stim16,LR,66,"",0,K,blue,10,"","",0.69,304,"","",1,28.06
586375,102,102,block_Trng,3,task_Trng,2,1,"","",12,6,"","","","",Block6,"","","","","","",K,PreISI1,LR,213,"",0,K,blue,12,"","",0.69,306,"","",1,28.33
586375,103,103,block_Trng,3,task_Trng,2,0,"","",13,6,"","","","",Block6,"","","","","","",K,Stim15,LR,67,"",0,J,blue,9,"","",0.69,306,"","",1,28.61
586375,104,104,block_Trng,3,task_Trng,2,1,"","",14,6,"","","","",Block6,"","","","","","",K,Stim14,LR,46,"",0,K,blue,8,"","",0.69,308,"","",1,28.89
586375,105,105,block_Trng,3,task_Trng,2,1,"","",15,6,"","","","",Block6,"","","","","","",K,Stim15,HR,108,"",0,K,red,9,"","",0.69,318,"","",1,29.17
586375,106,106,block_Trng,3,task_Trng,2,1,"","",16,6,"","","","",Block6,"","","","","","",J,Stim14,NR,90,"",0,J,green,8,"","",0.69,318,"","",1,29.44
586375,107,107,block_Trng,3,task_Trng,2,1,"","",17,6,"","","","",Block6,"","","","","","",K,PreISI1,HR,212,"",0,K,red,13,"","",0.69,328,"","",1,29.72
586375,108,108,block_Trng,3,task_Trng,2,0,"","",18,6,"","","","",Block6,Slow!,"","","","","","","",HR,0,"",1,J,red,8,"","",0.69,328,"","",1,30
586375,109,109,block_Trng,3,task_Trng,2,1,"","",1,7,"","","","",Block7,"","","","","","",K,PreISI1,HR,120,"",0,K,red,11,"","",0.69,338,"","",1,30.28
586375,110,110,block_Trng,3,task_Trng,2,1,"","",2,7,"","","","",Block7,"","","","","","",K,PreISI1,LR,3,"",0,K,blue,10,"","",0.69,340,"","",1,30.56
586375,111,111,block_Trng,3,task_Trng,2,1,"","",3,7,"","","","",Block7,"","","","","","",K,PreISI1,NR,61,"",0,K,green,11,"","",0.69,340,"","",1,30.83
586375,112,112,block_Trng,3,task_Trng,2,1,"","",4,7,"","","","",Block7,"","","","","","",J,Stim16,NR,88,"",0,J,green,10,"","",0.69,340,"","",1,31.11
586375,113,113,block_Trng,3,task_Trng,2,1,"","",5,7,"","","","",Block7,"","","","","","",K,Stim14,LR,76,"",0,K,blue,8,"","",0.69,342,"","",1,31.39
586375,114,114,block_Trng,3,task_Trng,2,1,"","",6,7,"","","","",Block7,"","","","","","",J,PreISI1,LR,127,"",0,J,blue,11,"","",0.69,344,"","",1,31.67
586375,115,115,block_Trng,3,task_Trng,2,1,"","",7,7,"","","","",Block7,"","","","","","",J,Stim16,HR,68,"",0,J,red,8,"","",0.69,354,"","",1,31.94
586375,116,116,block_Trng,3,task_Trng,2,1,"","",8,7,"","","","",Block7,"","","","","","",K,PreISI1,HR,295,"",0,K,red,13,"","",0.69,364,"","",1,32.22
586375,117,117,block_Trng,3,task_Trng,2,1,"","",9,7,"","","","",Block7,"","","","","","",J,Stim14,NR,72,"",0,J,green,8,"","",0.69,364,"","",1,32.5
586375,118,118,block_Trng,3,task_Trng,2,1,"","",10,7,"","","","",Block7,"","","","","","",K,Stim16,HR,10,"",0,K,red,9,"","",0.69,374,"","",1,32.78
586375,119,119,block_Trng,3,task_Trng,2,1,"","",11,7,"","","","",Block7,"","","","","","",K,PreISI1,LR,62,"",0,K,blue,12,"","",0.69,376,"","",1,33.06
586375,120,120,block_Trng,3,task_Trng,2,1,"","",12,7,"","","","",Block7,"","","","","","",J,PreISI1,HR,216,"",0,J,red,12,"","",0.69,386,"","",1,33.33
586375,121,121,block_Trng,3,task_Trng,2,1,"","",13,7,"","","","",Block7,"","","","","","",J,PreISI1,HR,73,"",0,J,red,10,"","",0.69,396,"","",1,33.61
586375,122,122,block_Trng,3,task_Trng,2,0,"","",14,7,"","","","",Block7,"","","","","","",J,PreISI1,NR,260,"",0,K,green,13,"","",0.69,396,"","",1,33.89
586375,123,123,block_Trng,3,task_Trng,2,1,"","",15,7,"","","","",Block7,"","","","","","",J,PreISI1,LR,492,"",0,J,blue,13,"","",0.69,398,"","",1,34.17
586375,124,124,block_Trng,3,task_Trng,2,0,"","",16,7,"","","","",Block7,"","","","","","",K,Stim14,LR,67,"",0,J,blue,9,"","",0.69,398,"","",1,34.44
586375,125,125,block_Trng,3,task_Trng,2,1,"","",17,7,"","","","",Block7,"","","","","","",K,Stim16,NR,59,"",0,K,green,9,"","",0.69,398,"","",1,34.72
586375,126,126,block_Trng,3,task_Trng,2,1,"","",18,7,"","","","",Block7,"","","","","","",J,PreISI1,NR,311,"",0,J,green,12,"","",0.69,398,"","",1,35
586375,127,127,block_Trng,3,task_Trng,2,1,"","",1,8,"","","","",Block8,"","","","","","",J,PreISI1,NR,21,"",0,J,green,10,"","",0.69,398,"","",1,35.28
586375,128,128,block_Trng,3,task_Trng,2,1,"","",2,8,"","","","",Block8,"","","","","","",J,Stim15,NR,61,"",0,J,green,8,"","",0.69,398,"","",1,35.56
586375,129,129,block_Trng,3,task_Trng,2,1,"","",3,8,"","","","",Block8,"","","","","","",J,Stim14,HR,112,"",0,J,red,8,"","",0.69,408,"","",1,35.83
586375,130,130,block_Trng,3,task_Trng,2,1,"","",4,8,"","","","",Block8,"","","","","","",K,Stim16,NR,95,"",0,K,green,9,"","",0.69,408,"","",1,36.11
586375,131,131,block_Trng,3,task_Trng,2,1,"","",5,8,"","","","",Block8,"","","","","","",K,Stim13,LR,80,"",0,K,blue,8,"","",0.69,410,"","",1,36.39
586375,132,132,block_Trng,3,task_Trng,2,1,"","",6,8,"","","","",Block8,"","","","","","",K,PreISI1,LR,171,"",0,K,blue,12,"","",0.69,412,"","",1,36.67
586375,133,133,block_Trng,3,task_Trng,2,1,"","",7,8,"","","","",Block8,"","","","","","",K,Stim16,LR,40,"",0,K,blue,10,"","",0.69,414,"","",1,36.94
586375,134,134,block_Trng,3,task_Trng,2,1,"","",8,8,"","","","",Block8,"","","","","","",J,Stim16,LR,110,"",0,J,blue,9,"","",0.69,416,"","",1,37.22
586375,135,135,block_Trng,3,task_Trng,2,1,"","",9,8,"","","","",Block8,"","","","","","",J,PreISI1,LR,20,"",0,J,blue,11,"","",0.69,418,"","",1,37.5
586375,136,136,block_Trng,3,task_Trng,2,1,"","",10,8,"","","","",Block8,"","","","","","",K,PreISI1,HR,40,"",0,K,red,11,"","",0.69,428,"","",1,37.78
586375,137,137,block_Trng,3,task_Trng,2,1,"","",11,8,"","","","",Block8,"","","","","","",K,PreISI1,HR,278,"",0,K,red,13,"","",0.69,438,"","",1,38.06
586375,138,138,block_Trng,3,task_Trng,2,1,"","",12,8,"","","","",Block8,"","","","","","",K,PreISI1,NR,169,"",0,K,green,11,"","",0.69,438,"","",1,38.33
586375,139,139,block_Trng,3,task_Trng,2,1,"","",13,8,"","","","",Block8,"","","","","","",J,PreISI1,LR,320,"",0,J,blue,13,"","",0.69,440,"","",1,38.61
586375,140,140,block_Trng,3,task_Trng,2,1,"","",14,8,"","","","",Block8,"","","","","","",K,PreISI2,NR,6,"",0,K,green,13,"","",0.69,440,"","",1,38.89
586375,141,141,block_Trng,3,task_Trng,2,1,"","",15,8,"","","","",Block8,"","","","","","",K,Stim16,HR,21,"",0,K,red,9,"","",0.69,450,"","",1,39.17
586375,142,142,block_Trng,3,task_Trng,2,1,"","",16,8,"","","","",Block8,"","","","","","",J,Stim16,HR,5,"",0,J,red,10,"","",0.69,460,"","",1,39.44
586375,143,143,block_Trng,3,task_Trng,2,1,"","",17,8,"","","","",Block8,"","","","","","",J,PreISI1,HR,177,"",0,J,red,12,"","",0.69,470,"","",1,39.72
586375,144,144,block_Trng,3,task_Trng,2,1,"","",18,8,"","","","",Block8,"","","","","","",J,PreISI1,NR,132,"",0,J,green,12,"","",1.6,470,"","",2,40
586375,145,145,block_Trng,3,task_Trng,2,1,"","",1,9,"","","","",Block9,"","","","","","",J,PreISI1,HR,130,"",0,J,red,12,"","",1.6,480,"","",2,40.28
586375,146,146,block_Trng,3,task_Trng,2,1,"","",2,9,"","","","",Block9,"","","","","","",K,PreISI1,LR,309,"",0,K,blue,12,"","",1.6,482,"","",2,40.56
586375,147,147,block_Trng,3,task_Trng,2,0,"","",3,9,"","","","",Block9,"","","","","","",K,PreISI1,LR,235,"",0,J,blue,13,"","",1.6,482,"","",2,40.83
586375,148,148,block_Trng,3,task_Trng,2,1,"","",4,9,"","","","",Block9,"","","","","","",K,PreISI1,NR,64,"",0,K,green,11,"","",1.6,482,"","",2,41.11
586375,149,149,block_Trng,3,task_Trng,2,1,"","",5,9,"","","","",Block9,"","","","","","",K,Stim15,HR,72,"",0,K,red,9,"","",1.6,492,"","",2,41.39
586375,150,150,block_Trng,3,task_Trng,2,1,"","",6,9,"","","","",Block9,"","","","","","",K,Stim16,LR,56,"",0,K,blue,10,"","",1.6,494,"","",2,41.67
586375,151,151,block_Trng,3,task_Trng,2,0,"","",7,9,"","","","",Block9,"","","","","","",K,Stim16,LR,5,"",0,J,blue,9,"","",1.6,494,"","",2,41.94
586375,152,152,block_Trng,3,task_Trng,2,1,"","",8,9,"","","","",Block9,"","","","","","",J,Stim16,HR,25,"",0,J,red,10,"","",1.6,504,"","",2,42.22
586375,153,153,block_Trng,3,task_Trng,2,1,"","",9,9,"","","","",Block9,"","","","","","",J,PreISI1,NR,350,"",0,J,green,12,"","",1.6,504,"","",2,42.5
586375,154,154,block_Trng,3,task_Trng,2,1,"","",10,9,"","","","",Block9,"","","","","","",K,Stim15,NR,63,"",0,K,green,9,"","",1.6,504,"","",2,42.78
586375,155,155,block_Trng,3,task_Trng,2,1,"","",11,9,"","","","",Block9,"","","","","","",J,Stim15,HR,5,"",0,J,red,8,"","",1.6,514,"","",2,43.06
586375,156,156,block_Trng,3,task_Trng,2,1,"","",12,9,"","","","",Block9,"","","","","","",J,Stim16,NR,106,"",0,J,green,10,"","",1.6,514,"","",2,43.33
586375,157,157,block_Trng,3,task_Trng,2,0,"","",13,9,"","","","",Block9,"","","","","","",J,Stim14,LR,102,"",0,K,blue,8,"","",1.6,514,"","",2,43.61
586375,158,158,block_Trng,3,task_Trng,2,1,"","",14,9,"","","","",Block9,"","","","","","",J,PreISI1,LR,176,"",0,J,blue,11,"","",1.6,516,"","",2,43.89
586375,159,159,block_Trng,3,task_Trng,2,1,"","",15,9,"","","","",Block9,"","","","","","",K,PreISI1,HR,476,"",0,K,red,13,"","",1.6,526,"","",2,44.17
586375,160,160,block_Trng,3,task_Trng,2,1,"","",16,9,"","","","",Block9,"","","","","","",J,Stim16,NR,12,"",0,J,green,8,"","",1.6,526,"","",2,44.44
586375,161,161,block_Trng,3,task_Trng,2,1,"","",17,9,"","","","",Block9,"","","","","","",K,PreISI1,NR,332,"",0,K,green,13,"","",1.6,526,"","",2,44.72
586375,162,162,block_Trng,3,task_Trng,2,1,"","",18,9,"","","","",Block9,"","","","","","",K,PreISI1,HR,135,"",0,K,red,11,"","",1.6,536,"","",2,45
586375,163,163,block_Trng,3,task_Trng,2,1,"","",1,10,"","","","",Block10,"","","","","","",K,Stim14,LR,3,"",0,K,blue,8,"","",1.6,538,"","",2,45.28
586375,164,164,block_Trng,3,task_Trng,2,1,"","",2,10,"","","","",Block10,"","","","","","",J,PreISI1,HR,137,"",0,J,red,10,"","",1.6,548,"","",2,45.56
586375,165,165,block_Trng,3,task_Trng,2,0,"","",3,10,"","","","",Block10,"","","","","","",K,PreISI1,LR,303,"",0,J,blue,13,"","",1.6,548,"","",2,45.83
586375,166,166,block_Trng,3,task_Trng,2,1,"","",4,10,"","","","",Block10,"","","","","","",J,PreISI1,LR,420,"",0,J,blue,9,"","",1.6,550,"","",2,46.11
586375,167,167,block_Trng,3,task_Trng,2,1,"","",5,10,"","","","",Block10,"","","","","","",J,PreISI1,LR,461,"",0,J,blue,11,"","",1.6,552,"","",2,46.39
586375,168,168,block_Trng,3,task_Trng,2,1,"","",6,10,"","","","",Block10,"","","","","","",K,Stim16,NR,19,"",0,K,green,9,"","",1.6,552,"","",2,46.67
586375,169,169,block_Trng,3,task_Trng,2,1,"","",7,10,"","","","",Block10,"","","","","","",J,PreISI1,NR,48,"",0,J,green,8,"","",1.6,552,"","",2,46.94
586375,170,170,block_Trng,3,task_Trng,2,1,"","",8,10,"","","","",Block10,"","","","","","",J,PreISI1,NR,283,"",0,J,green,12,"","",1.6,552,"","",2,47.22
586375,171,171,block_Trng,3,task_Trng,2,1,"","",9,10,"","","","",Block10,"","","","","","",K,PreISI1,NR,394,"",0,K,green,11,"","",1.6,552,"","",2,47.5
586375,172,172,block_Trng,3,task_Trng,2,1,"","",10,10,"","","","",Block10,"","","","","","",K,PreISI1,HR,416,"",0,K,red,13,"","",1.6,562,"","",2,47.78
586375,173,173,block_Trng,3,task_Trng,2,1,"","",11,10,"","","","",Block10,"","","","","","",K,Stim16,HR,41,"",0,K,red,9,"","",1.6,572,"","",2,48.06
586375,174,174,block_Trng,3,task_Trng,2,1,"","",12,10,"","","","",Block10,"","","","","","",J,PreISI1,HR,206,"",0,J,red,12,"","",1.6,582,"","",2,48.33
586375,175,175,block_Trng,3,task_Trng,2,1,"","",13,10,"","","","",Block10,"","","","","","",K,Stim16,LR,45,"",0,K,blue,10,"","",1.6,584,"","",2,48.61
586375,176,176,block_Trng,3,task_Trng,2,1,"","",14,10,"","","","",Block10,"","","","","","",K,PreISI1,NR,265,"",0,K,green,13,"","",1.6,584,"","",2,48.89
586375,177,177,block_Trng,3,task_Trng,2,1,"","",15,10,"","","","",Block10,Slow!,"","","","","",J,PreISI2,NR,810,"",1,J,green,10,"","",1.6,584,"","",2,49.17
586375,178,178,block_Trng,3,task_Trng,2,1,"","",16,10,"","","","",Block10,"","","","","","",K,PreISI1,LR,261,"",0,K,blue,12,"","",1.6,586,"","",2,49.44
586375,179,179,block_Trng,3,task_Trng,2,1,"","",17,10,"","","","",Block10,"","","","","","",J,Stim14,HR,100,"",0,J,red,8,"","",1.6,596,"","",2,49.72
586375,180,180,block_Trng,3,task_Trng,2,1,"","",18,10,"","","","",Block10,"","","","","","",K,PreISI1,HR,45,"",0,K,red,11,"","",1.6,606,"","",2,50
586375,181,181,block_Trng,3,task_Trng,2,1,"","",1,11,"","","","",Block11,"","","","","","",K,PreISI1,LR,138,"",0,K,blue,12,"","",1.6,608,"","",2,50.28
586375,182,182,block_Trng,3,task_Trng,2,1,"","",2,11,"","","","",Block11,"","","","","","",J,PreISI1,LR,127,"",0,J,blue,11,"","",1.6,610,"","",2,50.56
586375,183,183,block_Trng,3,task_Trng,2,1,"","",3,11,"","","","",Block11,"","","","","","",K,Stim16,HR,20,"",0,K,red,9,"","",1.6,620,"","",2,50.83
586375,184,184,block_Trng,3,task_Trng,2,1,"","",4,11,"","","","",Block11,"","","","","","",K,PreISI1,LR,36,"",0,K,blue,10,"","",1.6,622,"","",2,51.11
586375,185,185,block_Trng,3,task_Trng,2,1,"","",5,11,"","","","",Block11,"","","","","","",J,Stim14,NR,76,"",0,J,green,8,"","",1.6,622,"","",2,51.39
586375,186,186,block_Trng,3,task_Trng,2,1,"","",6,11,"","","","",Block11,"","","","","","",J,Stim15,HR,117,"",0,J,red,10,"","",1.6,632,"","",2,51.67
586375,187,187,block_Trng,3,task_Trng,2,1,"","",7,11,"","","","",Block11,"","","","","","",J,PreISI1,HR,170,"",0,J,red,12,"","",1.6,642,"","",2,51.94
586375,188,188,block_Trng,3,task_Trng,2,1,"","",8,11,"","","","",Block11,"","","","","","",K,Stim16,NR,84,"",0,K,green,11,"","",1.6,642,"","",2,52.22
586375,189,189,block_Trng,3,task_Trng,2,1,"","",9,11,"","","","",Block11,"","","","","","",K,PreISI1,HR,286,"",0,K,red,13,"","",1.6,652,"","",2,52.5
586375,190,190,block_Trng,3,task_Trng,2,1,"","",10,11,"","","","",Block11,"","","","","","",K,Stim15,NR,16,"",0,K,green,9,"","",1.6,652,"","",2,52.78
586375,191,191,block_Trng,3,task_Trng,2,1,"","",11,11,"","","","",Block11,"","","","","","",J,PreISI1,NR,165,"",0,J,green,10,"","",1.6,652,"","",2,53.06
586375,192,192,block_Trng,3,task_Trng,2,1,"","",12,11,"","","","",Block11,"","","","","","",J,PreISI1,LR,466,"",0,J,blue,13,"","",1.6,654,"","",2,53.33
586375,193,193,block_Trng,3,task_Trng,2,1,"","",13,11,"","","","",Block11,"","","","","","",J,PreISI1,NR,252,"",0,J,green,12,"","",1.6,654,"","",2,53.61
586375,194,194,block_Trng,3,task_Trng,2,1,"","",14,11,"","","","",Block11,"","","","","","",J,Stim13,HR,117,"",0,J,red,8,"","",1.6,664,"","",2,53.89
586375,195,195,block_Trng,3,task_Trng,2,1,"","",15,11,"","","","",Block11,"","","","","","",J,Stim16,LR,108,"",0,J,blue,9,"","",1.6,666,"","",2,54.17
586375,196,196,block_Trng,3,task_Trng,2,1,"","",16,11,"","","","",Block11,"","","","","","",K,Stim16,HR,99,"",0,K,red,11,"","",1.6,676,"","",2,54.44
586375,197,197,block_Trng,3,task_Trng,2,1,"","",17,11,"","","","",Block11,"","","","","","",K,Stim14,LR,34,"",0,K,blue,8,"","",1.6,678,"","",2,54.72
586375,198,198,block_Trng,3,task_Trng,2,1,"","",18,11,"","","","",Block11,"","","","","","",K,PreISI1,NR,343,"",0,K,green,13,"","",1.6,678,"","",2,55
586375,199,199,block_Trng,3,task_Trng,2,1,"","",1,12,"","","","",Block12,"","","","","","",K,PreISI1,NR,503,"",0,K,green,13,"","",1.6,678,"","",2,55.28
586375,200,200,block_Trng,3,task_Trng,2,1,"","",2,12,"","","","",Block12,"","","","","","",K,Stim16,NR,104,"",0,K,green,11,"","",1.6,678,"","",2,55.56
586375,201,201,block_Trng,3,task_Trng,2,0,"","",3,12,"","","","",Block12,"","","","","","",K,Stim16,LR,37,"",0,J,blue,11,"","",1.6,678,"","",2,55.83
586375,202,202,block_Trng,3,task_Trng,2,1,"","",4,12,"","","","",Block12,"","","","","","",J,Stim16,NR,14,"",0,J,green,10,"","",1.6,678,"","",2,56.11
586375,203,203,block_Trng,3,task_Trng,2,1,"","",5,12,"","","","",Block12,"","","","","","",J,Stim14,NR,86,"",0,J,green,8,"","",1.6,678,"","",2,56.39
586375,204,204,block_Trng,3,task_Trng,2,0,"","",6,12,"","","","",Block12,"","","","","","",K,Stim16,HR,53,"",0,J,red,10,"","",1.6,678,"","",2,56.67
586375,205,205,block_Trng,3,task_Trng,2,1,"","",7,12,"","","","",Block12,"","","","","","",K,PreISI1,HR,380,"",0,K,red,13,"","",1.6,688,"","",2,56.94
586375,206,206,block_Trng,3,task_Trng,2,1,"","",8,12,"","","","",Block12,"","","","","","",J,PreISI1,NR,376,"",0,J,green,12,"","",1.6,688,"","",2,57.22
586375,207,207,block_Trng,3,task_Trng,2,1,"","",9,12,"","","","",Block12,"","","","","","",K,PreISI1,LR,449,"",0,K,blue,12,"","",1.6,690,"","",2,57.5
586375,208,208,block_Trng,3,task_Trng,2,1,"","",10,12,"","","","",Block12,"","","","","","",J,PreISI1,LR,376,"",0,J,blue,13,"","",1.6,692,"","",2,57.78
586375,209,209,block_Trng,3,task_Trng,2,0,"","",11,12,"","","","",Block12,Slow!,"","","","","","","",HR,0,"",1,J,red,8,"","",1.6,692,"","",2,58.06
586375,210,210,block_Trng,3,task_Trng,2,1,"","",12,12,"","","","",Block12,"","","","","","",K,PreISI1,HR,161,"",0,K,red,11,"","",1.6,702,"","",2,58.33
586375,211,211,block_Trng,3,task_Trng,2,0,"","",13,12,"","","","",Block12,Slow!,"","","","","",K,PreISI2,HR,228,"",1,J,red,12,"","",1.6,702,"","",2,58.61
586375,212,212,block_Trng,3,task_Trng,2,0,"","",14,12,"","","","",Block12,Slow!,"","","","","",J,PreISI2,HR,956,"",2,K,red,9,"","",1.6,702,"","",2,58.89
586375,213,213,block_Trng,3,task_Trng,2,1,"","",15,12,"","","","",Block12,"","","","","","",J,Stim15,LR,24,"",0,J,blue,9,"","",1.6,704,"","",2,59.17
586375,214,214,block_Trng,3,task_Trng,2,1,"","",16,12,"","","","",Block12,"","","","","","",K,Stim15,NR,52,"",0,K,green,9,"","",1.6,704,"","",2,59.44
586375,215,215,block_Trng,3,task_Trng,2,1,"","",17,12,"","","","",Block12,"","","","","","",K,Stim16,LR,71,"",0,K,blue,10,"","",1.6,706,"","",2,59.72
586375,216,216,block_Trng,3,task_Trng,2,1,"","",18,12,"","","","",Block12,"","","","","","",K,Stim14,LR,113,"",0,K,blue,8,"","",2.41,708,"","",3,60
586375,217,217,block_Trng,3,task_Trng,2,1,"","",1,13,"","","","",Block13,"","","","","","",J,PreISI1,LR,178,"",0,J,blue,11,"","",2.41,710,"","",3,60.28
586375,218,218,block_Trng,3,task_Trng,2,0,"","",2,13,"","","","",Block13,"","","","","","",K,Stim12,NR,113,"",0,J,green,8,"","",2.41,710,"","",3,60.56
586375,219,219,block_Trng,3,task_Trng,2,1,"","",3,13,"","","","",Block13,"","","","","","",J,Stim15,HR,9,"",0,J,red,8,"","",2.41,720,"","",3,60.83
586375,220,220,block_Trng,3,task_Trng,2,1,"","",4,13,"","","","",Block13,"","","","","","",K,PreISI1,HR,226,"",0,K,red,13,"","",2.41,730,"","",3,61.11
586375,221,221,block_Trng,3,task_Trng,2,1,"","",5,13,"","","","",Block13,"","","","","","",K,PreISI1,NR,295,"",0,K,green,11,"","",2.41,730,"","",3,61.39
586375,222,222,block_Trng,3,task_Trng,2,0,"","",6,13,"","","","",Block13,"","","","","","",K,Stim15,NR,113,"",0,J,green,10,"","",2.41,730,"","",3,61.67
586375,223,223,block_Trng,3,task_Trng,2,1,"","",7,13,"","","","",Block13,"","","","","","",K,PreISI1,HR,67,"",0,K,red,11,"","",2.41,740,"","",3,61.94
586375,224,224,block_Trng,3,task_Trng,2,1,"","",8,13,"","","","",Block13,Slow!,"","","","","",K,PreISI2,LR,837,"",1,K,blue,8,"","",2.41,740,"","",3,62.22
586375,225,225,block_Trng,3,task_Trng,2,1,"","",9,13,"","","","",Block13,Slow!,"","","","","",K,PreISI2,HR,459,"",2,K,red,9,"","",2.41,740,"","",3,62.5
586375,226,226,block_Trng,3,task_Trng,2,1,"","",10,13,"","","","",Block13,"","","","","","",K,PreISI1,NR,404,"",0,K,green,13,"","",2.41,740,"","",3,62.78
586375,227,227,block_Trng,3,task_Trng,2,1,"","",11,13,"","","","",Block13,"","","","","","",J,PreISI2,NR,5,"",0,J,green,12,"","",2.41,740,"","",3,63.06
586375,228,228,block_Trng,3,task_Trng,2,1,"","",12,13,"","","","",Block13,"","","","","","",K,PreISI1,LR,81,"",0,K,blue,12,"","",2.41,742,"","",3,63.33
586375,229,229,block_Trng,3,task_Trng,2,1,"","",13,13,"","","","",Block13,"","","","","","",J,Stim16,LR,89,"",0,J,blue,9,"","",2.41,744,"","",3,63.61
586375,230,230,block_Trng,3,task_Trng,2,1,"","",14,13,"","","","",Block13,Slow!,"","","","","",J,PreISI2,HR,486,"",1,J,red,12,"","",2.41,744,"","",3,63.89
586375,231,231,block_Trng,3,task_Trng,2,0,"","",15,13,"","","","",Block13,Slow!,"","","","","","","",HR,0,"",2,J,red,10,"","",2.41,744,"","",3,64.17
586375,232,232,block_Trng,3,task_Trng,2,0,"","",16,13,"","","","",Block13,Slow!,"","","","","",K,PreISI2,LR,1403,"",3,J,blue,13,"","",2.41,744,"","",3,64.44
586375,233,233,block_Trng,3,task_Trng,2,1,"","",17,13,"","","","",Block13,"","","","","","",K,Stim16,LR,8,"",0,K,blue,10,"","",2.41,746,"","",3,64.72
586375,234,234,block_Trng,3,task_Trng,2,1,"","",18,13,"","","","",Block13,"","","","","","",K,PreISI1,NR,131,"",0,K,green,9,"","",2.41,746,"","",3,65
586375,235,235,block_Trng,3,task_Trng,2,0,"","",1,14,"","","","",Block14,"","","","","","",K,PreISI1,NR,315,"",0,J,green,12,"","",2.41,746,"","",3,65.28
586375,236,236,block_Trng,3,task_Trng,2,0,"","",2,14,"","","","",Block14,"","","","","","",K,PreISI1,LR,268,"",0,J,blue,11,"","",2.41,746,"","",3,65.56
586375,237,237,block_Trng,3,task_Trng,2,0,"","",3,14,"","","","",Block14,"","","","","","",K,Stim15,LR,71,"",0,J,blue,9,"","",2.41,746,"","",3,65.83
586375,238,238,block_Trng,3,task_Trng,2,1,"","",4,14,"","","","",Block14,"","","","","","",J,PreISI1,HR,182,"",0,J,red,12,"","",2.41,756,"","",3,66.11
586375,239,239,block_Trng,3,task_Trng,2,1,"","",5,14,"","","","",Block14,"","","","","","",K,Stim16,HR,5,"",0,K,red,9,"","",2.41,766,"","",3,66.39
586375,240,240,block_Trng,3,task_Trng,2,1,"","",6,14,"","","","",Block14,Slow!,"","","","","",J,PreISI2,HR,113,"",1,J,red,10,"","",2.41,766,"","",3,66.67
586375,241,241,block_Trng,3,task_Trng,2,1,"","",7,14,"","","","",Block14,"","","","","","",K,PreISI1,LR,195,"",0,K,blue,12,"","",2.41,768,"","",3,66.94
586375,242,242,block_Trng,3,task_Trng,2,1,"","",8,14,"","","","",Block14,"","","","","","",K,PreISI1,HR,112,"",0,K,red,11,"","",2.41,778,"","",3,67.22
586375,243,243,block_Trng,3,task_Trng,2,0,"","",9,14,"","","","",Block14,Slow!,"","","","","",J,PreISI2,LR,391,"",1,K,blue,8,"","",2.41,778,"","",3,67.5
586375,244,244,block_Trng,3,task_Trng,2,1,"","",10,14,"","","","",Block14,"","","","","","",K,Stim16,NR,81,"",0,K,green,11,"","",2.41,778,"","",3,67.78
586375,245,245,block_Trng,3,task_Trng,2,1,"","",11,14,"","","","",Block14,"","","","","","",J,PreISI1,LR,173,"",0,J,blue,13,"","",2.41,780,"","",3,68.06
586375,246,246,block_Trng,3,task_Trng,2,1,"","",12,14,"","","","",Block14,"","","","","","",K,Stim15,NR,71,"",0,K,green,9,"","",2.41,780,"","",3,68.33
586375,247,247,block_Trng,3,task_Trng,2,1,"","",13,14,"","","","",Block14,"","","","","","",K,PreISI1,LR,1,"",0,K,blue,10,"","",2.41,782,"","",3,68.61
586375,248,248,block_Trng,3,task_Trng,2,1,"","",14,14,"","","","",Block14,"","","","","","",J,Stim14,NR,96,"",0,J,green,8,"","",2.41,782,"","",3,68.89
586375,249,249,block_Trng,3,task_Trng,2,0,"","",15,14,"","","","",Block14,"","","","","","",K,Stim13,NR,71,"",0,J,green,10,"","",2.41,782,"","",3,69.17
586375,250,250,block_Trng,3,task_Trng,2,1,"","",16,14,"","","","",Block14,"","","","","","",J,Stim14,HR,15,"",0,J,red,8,"","",2.41,792,"","",3,69.44
586375,251,251,block_Trng,3,task_Trng,2,0,"","",17,14,"","","","",Block14,Slow!,"","","","","",J,PreISI2,NR,339,"",1,K,green,13,"","",2.41,792,"","",3,69.72
586375,252,252,block_Trng,3,task_Trng,2,1,"","",18,14,"","","","",Block14,"","","","","","",K,PreISI1,HR,301,"",0,K,red,13,"","",2.41,802,"","",3,70
586375,253,253,block_Trng,3,task_Trng,2,0,"","",1,15,"","","","",Block15,Slow!,"","","","","","","",NR,0,"",1,J,green,12,"","",2.41,802,"","",3,70.28
586375,254,254,block_Trng,3,task_Trng,2,0,"","",2,15,"","","","",Block15,"","","","","","",K,Stim15,NR,97,"",0,J,green,10,"","",2.41,802,"","",3,70.56
586375,255,255,block_Trng,3,task_Trng,2,1,"","",3,15,"","","","",Block15,"","","","","","",K,PreISI1,LR,191,"",0,K,blue,12,"","",2.41,804,"","",3,70.83
586375,256,256,block_Trng,3,task_Trng,2,1,"","",4,15,"","","","",Block15,"","","","","","",J,PreISI1,LR,461,"",0,J,blue,13,"","",2.41,806,"","",3,71.11
586375,257,257,block_Trng,3,task_Trng,2,1,"","",5,15,"","","","",Block15,"","","","","","",K,Stim14,LR,56,"",0,K,blue,8,"","",2.41,808,"","",3,71.39
586375,258,258,block_Trng,3,task_Trng,2,0,"","",6,15,"","","","",Block15,"","","","","","",K,PreISI1,HR,382,"",0,J,red,12,"","",2.41,808,"","",3,71.67
586375,259,259,block_Trng,3,task_Trng,2,1,"","",7,15,"","","","",Block15,"","","","","","",K,Stim16,NR,75,"",0,K,green,9,"","",2.41,808,"","",3,71.94
586375,260,260,block_Trng,3,task_Trng,2,1,"","",8,15,"","","","",Block15,"","","","","","",K,PreISI1,LR,98,"",0,K,blue,10,"","",2.41,810,"","",3,72.22
586375,261,261,block_Trng,3,task_Trng,2,1,"","",9,15,"","","","",Block15,"","","","","","",K,PreISI1,HR,136,"",0,K,red,9,"","",2.41,820,"","",3,72.5
586375,262,262,block_Trng,3,task_Trng,2,1,"","",10,15,"","","","",Block15,"","","","","","",K,PreISI1,HR,338,"",0,K,red,13,"","",2.41,830,"","",3,72.78
586375,263,263,block_Trng,3,task_Trng,2,1,"","",11,15,"","","","",Block15,"","","","","","",J,PreISI1,HR,159,"",0,J,red,10,"","",2.41,840,"","",3,73.06
586375,264,264,block_Trng,3,task_Trng,2,1,"","",12,15,"","","","",Block15,"","","","","","",K,PreISI1,NR,297,"",0,K,green,13,"","",2.41,840,"","",3,73.33
586375,265,265,block_Trng,3,task_Trng,2,1,"","",13,15,"","","","",Block15,"","","","","","",J,Stim15,HR,72,"",0,J,red,8,"","",2.41,850,"","",3,73.61
586375,266,266,block_Trng,3,task_Trng,2,1,"","",14,15,"","","","",Block15,"","","","","","",J,PreISI1,LR,162,"",0,J,blue,11,"","",2.41,852,"","",3,73.89
586375,267,267,block_Trng,3,task_Trng,2,1,"","",15,15,"","","","",Block15,"","","","","","",J,Stim15,NR,3,"",0,J,green,8,"","",2.41,852,"","",3,74.17
586375,268,268,block_Trng,3,task_Trng,2,1,"","",16,15,"","","","",Block15,"","","","","","",K,PreISI1,HR,238,"",0,K,red,11,"","",2.41,862,"","",3,74.44
586375,269,269,block_Trng,3,task_Trng,2,1,"","",17,15,"","","","",Block15,"","","","","","",J,Stim15,LR,103,"",0,J,blue,9,"","",2.41,864,"","",3,74.72
586375,270,270,block_Trng,3,task_Trng,2,1,"","",18,15,"","","","",Block15,"","","","","","",K,PreISI1,NR,71,"",0,K,green,11,"","",2.41,864,"","",3,75
586375,271,271,block_Trng,3,task_Trng,2,1,"","",1,16,"","","","",Block16',"","","","","","",J,PreISI1,HR,42,"",0,J,red,10,"","",2.41,874,"","",3,75.28
586375,272,272,block_Trng,3,task_Trng,2,1,"","",2,16,"","","","",Block16',"","","","","","",J,PreISI1,NR,201,"",0,J,green,12,"","",2.41,874,"","",3,75.56
586375,273,273,block_Trng,3,task_Trng,2,1,"","",3,16,"","","","",Block16',"","","","","","",K,PreISI1,LR,380,"",0,K,blue,12,"","",2.41,876,"","",3,75.83
586375,274,274,block_Trng,3,task_Trng,2,1,"","",4,16,"","","","",Block16',"","","","","","",J,PreISI1,NR,146,"",0,J,green,10,"","",2.41,876,"","",3,76.11
586375,275,275,block_Trng,3,task_Trng,2,1,"","",5,16,"","","","",Block16',"","","","","","",J,Stim15,LR,78,"",0,J,blue,9,"","",2.41,878,"","",3,76.39
586375,276,276,block_Trng,3,task_Trng,2,1,"","",6,16,"","","","",Block16',"","","","","","",J,Stim14,NR,63,"",0,J,green,8,"","",2.41,878,"","",3,76.67
586375,277,277,block_Trng,3,task_Trng,2,1,"","",7,16,"","","","",Block16',"","","","","","",J,PreISI1,LR,339,"",0,J,blue,13,"","",2.41,880,"","",3,76.94
586375,278,278,block_Trng,3,task_Trng,2,1,"","",8,16,"","","","",Block16',"","","","","","",J,Stim15,HR,58,"",0,J,red,8,"","",2.41,890,"","",3,77.22
586375,279,279,block_Trng,3,task_Trng,2,1,"","",9,16,"","","","",Block16',"","","","","","",J,PreISI1,LR,97,"",0,J,blue,11,"","",2.41,892,"","",3,77.5
586375,280,280,block_Trng,3,task_Trng,2,1,"","",10,16,"","","","",Block16',"","","","","","",K,PreISI1,HR,37,"",0,K,red,9,"","",2.41,902,"","",3,77.78
586375,281,281,block_Trng,3,task_Trng,2,0,"","",11,16,"","","","",Block16',Slow!,"","","","","","","",NR,0,"",1,K,green,9,"","",2.41,902,"","",3,78.06
586375,282,282,block_Trng,3,task_Trng,2,0,"","",12,16,"","","","",Block16',Slow!,"","","","","",J,PreISI2,HR,90,"",2,K,red,13,"","",2.41,902,"","",3,78.33
586375,283,283,block_Trng,3,task_Trng,2,1,"","",13,16,"","","","",Block16',"","","","","","",K,PreISI1,NR,438,"",0,K,green,13,"","",2.41,902,"","",3,78.61
586375,284,284,block_Trng,3,task_Trng,2,1,"","",14,16,"","","","",Block16',"","","","","","",K,Stim16,LR,42,"",0,K,blue,10,"","",2.41,904,"","",3,78.89
586375,285,285,block_Trng,3,task_Trng,2,1,"","",15,16,"","","","",Block16',"","","","","","",J,PreISI1,HR,219,"",0,J,red,12,"","",2.41,914,"","",3,79.17
586375,286,286,block_Trng,3,task_Trng,2,1,"","",16,16,"","","","",Block16',"","","","","","",K,Stim16,NR,29,"",0,K,green,11,"","",2.41,914,"","",3,79.44
586375,287,287,block_Trng,3,task_Trng,2,1,"","",17,16,"","","","",Block16',"","","","","","",K,Stim15,LR,53,"",0,K,blue,8,"","",2.41,916,"","",3,79.72
586375,288,288,block_Trng,3,task_Trng,2,1,"","",18,16,"","","","",Block16',"","","","","","",K,PreISI1,HR,156,"",0,K,red,11,"","",3.15,926,"","",4,80
586375,289,289,block_Trng,3,task_Trng,2,1,"","",1,17,"","","","",Block17,"","","","","","",J,Stim15,HR,98,"",0,J,red,10,"","",3.15,936,"","",4,80.28
586375,290,290,block_Trng,3,task_Trng,2,0,"","",2,17,"","","","",Block17,"","","","","","",J,PreISI1,HR,365,"",0,K,red,11,"","",3.15,936,"","",4,80.56
586375,291,291,block_Trng,3,task_Trng,2,1,"","",3,17,"","","","",Block17,"","","","","","",J,PreISI1,LR,269,"",0,J,blue,13,"","",3.15,938,"","",4,80.83
586375,292,292,block_Trng,3,task_Trng,2,1,"","",4,17,"","","","",Block17,"","","","","","",J,Stim14,HR,31,"",0,J,red,8,"","",3.15,948,"","",4,81.11
586375,293,293,block_Trng,3,task_Trng,2,0,"","",5,17,"","","","",Block17,Slow!,"","","","","","","",NR,0,"",1,K,green,11,"","",3.15,948,"","",4,81.39
586375,294,294,block_Trng,3,task_Trng,2,1,"","",6,17,"","","","",Block17,"","","","","","",J,PreISI1,NR,392,"",0,J,green,12,"","",3.15,948,"","",4,81.67
586375,295,295,block_Trng,3,task_Trng,2,1,"","",7,17,"","","","",Block17,"","","","","","",J,Stim16,LR,23,"",0,J,blue,9,"","",3.15,950,"","",4,81.94
586375,296,296,block_Trng,3,task_Trng,2,1,"","",8,17,"","","","",Block17,"","","","","","",K,Stim14,HR,63,"",0,K,red,9,"","",3.15,960,"","",4,82.22
586375,297,297,block_Trng,3,task_Trng,2,0,"","",9,17,"","","","",Block17,"","","","","","",J,Stim14,NR,85,"",0,K,green,9,"","",3.15,960,"","",4,82.5
586375,298,298,block_Trng,3,task_Trng,2,1,"","",10,17,"","","","",Block17,"","","","","","",J,Stim15,NR,56,"",0,J,green,8,"","",3.15,960,"","",4,82.78
586375,299,299,block_Trng,3,task_Trng,2,1,"","",11,17,"","","","",Block17,"","","","","","",K,PreISI1,LR,163,"",0,K,blue,12,"","",3.15,962,"","",4,83.06
586375,300,300,block_Trng,3,task_Trng,2,1,"","",12,17,"","","","",Block17,"","","","","","",K,PreISI1,NR,186,"",0,K,green,13,"","",3.15,962,"","",4,83.33
586375,301,301,block_Trng,3,task_Trng,2,1,"","",13,17,"","","","",Block17,"","","","","","",K,Stim15,LR,116,"",0,K,blue,10,"","",3.15,964,"","",4,83.61
586375,302,302,block_Trng,3,task_Trng,2,1,"","",14,17,"","","","",Block17,"","","","","","",J,PreISI1,LR,243,"",0,J,blue,11,"","",3.15,966,"","",4,83.89
586375,303,303,block_Trng,3,task_Trng,2,1,"","",15,17,"","","","",Block17,"","","","","","",K,Stim15,LR,8,"",0,K,blue,8,"","",3.15,968,"","",4,84.17
586375,304,304,block_Trng,3,task_Trng,2,1,"","",16,17,"","","","",Block17,"","","","","","",J,PreISI1,HR,236,"",0,J,red,12,"","",3.15,978,"","",4,84.44
586375,305,305,block_Trng,3,task_Trng,2,0,"","",17,17,"","","","",Block17,"","","","","","",K,Stim15,NR,84,"",0,J,green,10,"","",3.15,978,"","",4,84.72
586375,306,306,block_Trng,3,task_Trng,2,1,"","",18,17,"","","","",Block17,"","","","","","",K,PreISI1,HR,456,"",0,K,red,13,"","",3.15,988,"","",4,85
586375,307,307,block_Trng,3,task_Trng,2,1,"","",1,18,"","","","",Block18,"","","","","","",K,Stim15,HR,90,"",0,K,red,9,"","",3.15,998,"","",4,85.28
586375,308,308,block_Trng,3,task_Trng,2,1,"","",2,18,"","","","",Block18,"","","","","","",J,PreISI1,HR,129,"",0,J,red,12,"","",3.15,1008,"","",4,85.56
586375,309,309,block_Trng,3,task_Trng,2,1,"","",3,18,"","","","",Block18,"","","","","","",K,PreISI1,HR,235,"",0,K,red,13,"","",3.15,1018,"","",4,85.83
586375,310,310,block_Trng,3,task_Trng,2,1,"","",4,18,"","","","",Block18,"","","","","","",K,Stim16,HR,85,"",0,K,red,11,"","",3.15,1028,"","",4,86.11
586375,311,311,block_Trng,3,task_Trng,2,1,"","",5,18,"","","","",Block18,"","","","","","",J,Stim16,HR,101,"",0,J,red,10,"","",3.15,1038,"","",4,86.39
586375,312,312,block_Trng,3,task_Trng,2,1,"","",6,18,"","","","",Block18,"","","","","","",J,PreISI1,LR,175,"",0,J,blue,11,"","",3.15,1040,"","",4,86.67
586375,313,313,block_Trng,3,task_Trng,2,1,"","",7,18,"","","","",Block18,"","","","","","",J,Stim13,NR,117,"",0,J,green,8,"","",3.15,1040,"","",4,86.94
586375,314,314,block_Trng,3,task_Trng,2,1,"","",8,18,"","","","",Block18,"","","","","","",K,PreISI1,LR,108,"",0,K,blue,12,"","",3.15,1042,"","",4,87.22
586375,315,315,block_Trng,3,task_Trng,2,1,"","",9,18,"","","","",Block18,"","","","","","",J,PreISI1,NR,22,"",0,J,green,10,"","",3.15,1042,"","",4,87.5
586375,316,316,block_Trng,3,task_Trng,2,1,"","",10,18,"","","","",Block18,"","","","","","",K,PreISI1,NR,227,"",0,K,green,13,"","",3.15,1042,"","",4,87.78
586375,317,317,block_Trng,3,task_Trng,2,1,"","",11,18,"","","","",Block18,"","","","","","",K,PreISI1,NR,461,"",0,K,green,11,"","",3.15,1042,"","",4,88.06
586375,318,318,block_Trng,3,task_Trng,2,1,"","",12,18,"","","","",Block18,"","","","","","",J,PreISI1,LR,416,"",0,J,blue,13,"","",3.15,1044,"","",4,88.33
586375,319,319,block_Trng,3,task_Trng,2,1,"","",13,18,"","","","",Block18,Slow!,"","","","","",J,PreISI2,LR,1215,"",1,J,blue,9,"","",3.15,1044,"","",4,88.61
586375,320,320,block_Trng,3,task_Trng,2,1,"","",14,18,"","","","",Block18,"","","","","","",K,Stim15,LR,15,"",0,K,blue,10,"","",3.15,1046,"","",4,88.89
586375,321,321,block_Trng,3,task_Trng,2,1,"","",15,18,"","","","",Block18,"","","","","","",J,Stim14,HR,9,"",0,J,red,8,"","",3.15,1056,"","",4,89.17
586375,322,322,block_Trng,3,task_Trng,2,1,"","",16,18,"","","","",Block18,"","","","","","",J,PreISI1,NR,229,"",0,J,green,12,"","",3.15,1056,"","",4,89.44
586375,323,323,block_Trng,3,task_Trng,2,1,"","",17,18,"","","","",Block18,"","","","","","",K,Stim15,NR,66,"",0,K,green,9,"","",3.15,1056,"","",4,89.72
586375,324,324,block_Trng,3,task_Trng,2,1,"","",18,18,"","","","",Block18,Slow!,"","","","","",K,PreISI2,LR,422,"",1,K,blue,8,"","",3.15,1056,"","",4,90
586375,325,325,block_Trng,3,task_Trng,2,1,"","",1,19,"","","","",Block19,"","","","","","",K,PreISI1,HR,251,"",0,K,red,13,"","",3.15,1066,"","",4,90.28
586375,326,326,block_Trng,3,task_Trng,2,1,"","",2,19,"","","","",Block19,"","","","","","",K,Stim15,LR,116,"",0,K,blue,8,"","",3.15,1068,"","",4,90.56
586375,327,327,block_Trng,3,task_Trng,2,1,"","",3,19,"","","","",Block19,"","","","","","",K,Stim16,LR,11,"",0,K,blue,10,"","",3.15,1070,"","",4,90.83
586375,328,328,block_Trng,3,task_Trng,2,1,"","",4,19,"","","","",Block19,Slow!,"","","","","",K,PreISI2,HR,809,"",1,K,red,11,"","",3.15,1070,"","",4,91.11
586375,329,329,block_Trng,3,task_Trng,2,1,"","",5,19,"","","","",Block19,"","","","","","",K,Stim13,HR,95,"",0,K,red,9,"","",3.15,1080,"","",4,91.39
586375,330,330,block_Trng,3,task_Trng,2,0,"","",6,19,"","","","",Block19,"","","","","","",K,Stim13,NR,71,"",0,J,green,8,"","",3.15,1080,"","",4,91.67
586375,331,331,block_Trng,3,task_Trng,2,1,"","",7,19,"","","","",Block19,"","","","","","",K,PreISI1,NR,212,"",0,K,green,13,"","",3.15,1080,"","",4,91.94
586375,332,332,block_Trng,3,task_Trng,2,0,"","",8,19,"","","","",Block19,"","","","","","",K,PreISI1,HR,36,"",0,J,red,12,"","",3.15,1080,"","",4,92.22
586375,333,333,block_Trng,3,task_Trng,2,1,"","",9,19,"","","","",Block19,"","","","","","",K,PreISI1,NR,21,"",0,K,green,11,"","",3.15,1080,"","",4,92.5
586375,334,334,block_Trng,3,task_Trng,2,1,"","",10,19,"","","","",Block19,"","","","","","",J,Stim16,HR,31,"",0,J,red,8,"","",3.15,1090,"","",4,92.78
586375,335,335,block_Trng,3,task_Trng,2,1,"","",11,19,"","","","",Block19,"","","","","","",K,PreISI1,LR,209,"",0,K,blue,12,"","",3.15,1092,"","",4,93.06
586375,336,336,block_Trng,3,task_Trng,2,0,"","",12,19,"","","","",Block19,"","","","","","",K,PreISI1,LR,389,"",0,J,blue,13,"","",3.15,1092,"","",4,93.33
586375,337,337,block_Trng,3,task_Trng,2,1,"","",13,19,"","","","",Block19,"","","","","","",J,Stim15,LR,106,"",0,J,blue,9,"","",3.15,1094,"","",4,93.61
586375,338,338,block_Trng,3,task_Trng,2,1,"","",14,19,"","","","",Block19,"","","","","","",K,Stim14,NR,100,"",0,K,green,9,"","",3.15,1094,"","",4,93.89
586375,339,339,block_Trng,3,task_Trng,2,1,"","",15,19,"","","","",Block19,"","","","","","",J,PreISI1,HR,42,"",0,J,red,10,"","",3.15,1104,"","",4,94.17
586375,340,340,block_Trng,3,task_Trng,2,1,"","",16,19,"","","","",Block19,"","","","","","",J,PreISI1,NR,297,"",0,J,green,12,"","",3.15,1104,"","",4,94.44
586375,341,341,block_Trng,3,task_Trng,2,1,"","",17,19,"","","","",Block19,"","","","","","",J,Stim15,NR,92,"",0,J,green,10,"","",3.15,1104,"","",4,94.72
586375,342,342,block_Trng,3,task_Trng,2,1,"","",18,19,"","","","",Block19,"","","","","","",J,PreISI1,LR,232,"",0,J,blue,11,"","",3.15,1106,"","",4,95
586375,343,343,block_Trng,3,task_Trng,2,0,"","",1,20,"","","","",Block20,"","","","","","",K,PreISI1,NR,259,"",0,J,green,12,"","",3.15,1106,"","",4,95.28
586375,344,344,block_Trng,3,task_Trng,2,1,"","",2,20,"","","","",Block20,"","","","","","",K,Stim15,NR,68,"",0,K,green,9,"","",3.15,1106,"","",4,95.56
586375,345,345,block_Trng,3,task_Trng,2,1,"","",3,20,"","","","",Block20,"","","","","","",J,PreISI1,HR,285,"",0,J,red,12,"","",3.15,1116,"","",4,95.83
586375,346,346,block_Trng,3,task_Trng,2,1,"","",4,20,"","","","",Block20,"","","","","","",K,PreISI1,NR,216,"",0,K,green,11,"","",3.15,1116,"","",4,96.11
586375,347,347,block_Trng,3,task_Trng,2,1,"","",5,20,"","","","",Block20,"","","","","","",J,Stim16,HR,84,"",0,J,red,8,"","",3.15,1126,"","",4,96.39
586375,348,348,block_Trng,3,task_Trng,2,1,"","",6,20,"","","","",Block20,"","","","","","",K,PreISI1,NR,234,"",0,K,green,13,"","",3.15,1126,"","",4,96.67
586375,349,349,block_Trng,3,task_Trng,2,1,"","",7,20,"","","","",Block20,Slow!,"","","","","",J,PreISI2,LR,45,"",1,J,blue,13,"","",3.15,1126,"","",4,96.94
586375,350,350,block_Trng,3,task_Trng,2,1,"","",8,20,"","","","",Block20,"","","","","","",K,PreISI1,HR,25,"",0,K,red,13,"","",3.15,1136,"","",4,97.22
586375,351,351,block_Trng,3,task_Trng,2,1,"","",9,20,"","","","",Block20,"","","","","","",J,Stim13,NR,107,"",0,J,green,8,"","",3.15,1136,"","",4,97.5
586375,352,352,block_Trng,3,task_Trng,2,0,"","",10,20,"","","","",Block20,"","","","","","",K,Stim14,HR,115,"",0,J,red,10,"","",3.15,1136,"","",4,97.78
586375,353,353,block_Trng,3,task_Trng,2,0,"","",11,20,"","","","",Block20,"","","","","","",J,Stim16,HR,13,"",0,K,red,9,"","",3.15,1136,"","",4,98.06
586375,354,354,block_Trng,3,task_Trng,2,1,"","",12,20,"","","","",Block20,"","","","","","",J,PreISI1,LR,116,"",0,J,blue,11,"","",3.15,1138,"","",4,98.33
586375,355,355,block_Trng,3,task_Trng,2,1,"","",13,20,"","","","",Block20,Slow!,"","","","","",J,PreISI2,NR,284,"",1,J,green,10,"","",3.15,1138,"","",4,98.61
586375,356,356,block_Trng,3,task_Trng,2,1,"","",14,20,"","","","",Block20,"","","","","","",K,Stim14,LR,93,"",0,K,blue,8,"","",3.15,1140,"","",4,98.89
586375,357,357,block_Trng,3,task_Trng,2,1,"","",15,20,"","","","",Block20,"","","","","","",K,PreISI1,HR,138,"",0,K,red,11,"","",3.15,1150,"","",4,99.17
586375,358,358,block_Trng,3,task_Trng,2,1,"","",16,20,"","","","",Block20,"","","","","","",K,PreISI1,LR,125,"",0,K,blue,12,"","",3.15,1152,"","",4,99.44
586375,359,359,block_Trng,3,task_Trng,2,0,"","",17,20,"","","","",Block20,"","","","","","",K,Stim14,LR,111,"",0,J,blue,9,"","",3.15,1152,"","",4,99.72
586375,360,360,block_Trng,3,task_Trng,2,1,"","",18,20,"","","","",Block20,"","","","","","",K,PreISI1,LR,196,"",0,K,blue,10,"","",3.15,1154,"","",4,100
586375,1,1,block_TrngInstructions,1,task_Trng_Instructions,1,"","","","",1,"","","","","","","","","","","","","","","","","","","","","","","","","","","",""
586375,1,1,block_Practice,2,task_GetReady,1,"","","","",1,"","","","","","","","","","","","","","","","","","","","","","","","","","","",""
586375,1,1,block_Practice,2,task_Trng_Prac,2,1,1,"","",1,"","","","","","","","","","","",K,PreISI1,Disallowed,344,"",0,K,green,11,"","","",0,0,"","",""
586375,2,2,block_Practice,2,task_Trng_Prac,2,1,2,"","",1,"","","","","","","","","","","",J,PreISI1,Disallowed,2,"",0,J,blue,12,"","","",0,0,"","",""
586375,3,3,block_Practice,2,task_Trng_Prac,2,0,2,"","",1,"","","","","","","","","","","",K,PreISI1,Disallowed,290,"",0,J,green,9,"","","",0,0,"","",""
586375,4,4,block_Practice,2,task_Trng_Prac,2,1,3,"","",1,"","","","","","","","","","","",K,PreISI1,Disallowed,133,"",0,K,red,8,"","","",0,0,"","",""
586375,5,5,block_Practice,2,task_Trng_Prac,2,1,0,"","",1,"","","","","",Slow!,"","","","","",J,PreISI2,Disallowed,217,"",1,J,blue,13,"","","",0,0,"","",""
586375,6,6,block_Practice,2,task_Trng_Prac,2,1,0,"","",1,"","","","","","","","","","","",K,PreISI1,Disallowed,91,"",1,K,red,10,"","","",0,0,"","",""
586375,1,1,block_Practice,2,task_Trng_Prac,2,1,1,"","",1,"","","","","","","","","","","",K,PreISI1,Disallowed,183,"",2,K,red,10,"","","",0,0,"","",""
586375,2,2,block_Practice,2,task_Trng_Prac,2,1,0,"","",1,"","","","","",Slow!,"","","","","",J,PreISI2,Disallowed,436,"",3,J,blue,13,"","","",0,0,"","",""
586375,3,3,block_Practice,2,task_Trng_Prac,2,1,0,"","",1,"","","","","",Slow!,"","","","","",J,PreISI2,Disallowed,221,"",4,J,blue,12,"","","",0,0,"","",""
586375,4,4,block_Practice,2,task_Trng_Prac,2,1,1,"","",1,"","","","","","","","","","","",K,PreISI1,Disallowed,143,"",4,K,green,11,"","","",0,0,"","",""
586375,5,5,block_Practice,2,task_Trng_Prac,2,1,2,"","",1,"","","","","","","","","","","",K,Stim15,Disallowed,31,"",4,K,red,8,"","","",0,0,"","",""
586375,6,6,block_Practice,2,task_Trng_Prac,2,1,0,"","",1,"","","","","","","","","","","",J,Stim16,Disallowed,84,"",4,J,green,9,"","","",0,0,"","",""
586375,1,1,block_Practice,2,task_GetReady,1,"","","","",1,"","","","","","","","","","","","","","","","","","","","","","","","","","","",""
586375,1,1,block_Testing,4,task_Testing,2,1,"","",1,1,"","",Block1,"","","","","","","","",J,PreISI1,LR,8,"",0,J,blue,9,0,0.56,"",1154,"","","",""
586375,2,2,block_Testing,4,task_Testing,2,1,"","",2,1,"","",Block1,"","","","","","","","",J,PreISI1,LR,27,"",0,J,blue,11,0,1.11,"",1154,"","","",""
586375,3,3,block_Testing,4,task_Testing,2,0,"","",3,1,"","",Block1,"","","","","","","","",J,Stim16,LR,35,"",0,K,blue,12,0,1.67,"",1154,"","","",""
586375,4,4,block_Testing,4,task_Testing,2,1,"","",4,1,"","",Block1,"","","","","","","","",K,Stim13,HR,89,"",0,K,red,13,0,2.22,"",1154,"","","",""
586375,5,5,block_Testing,4,task_Testing,2,1,"","",5,1,"","",Block1,"","","","","","","","",J,Stim16,NR,92,"",0,J,green,12,0,2.78,"",1154,"","","",""
586375,6,6,block_Testing,4,task_Testing,2,1,"","",6,1,"","",Block1,"","","","","","","","",K,Stim15,LR,22,"",0,K,blue,8,0,3.33,"",1154,"","","",""
586375,7,7,block_Testing,4,task_Testing,2,1,"","",7,1,"","",Block1,"","","","","","","","",K,PreISI1,LR,26,"",0,K,blue,10,0,3.89,"",1154,"","","",""
586375,8,8,block_Testing,4,task_Testing,2,1,"","",8,1,"","",Block1,"","","","","","","","",J,Stim16,HR,5,"",0,J,red,10,0,4.44,"",1154,"","","",""
586375,9,9,block_Testing,4,task_Testing,2,1,"","",9,1,"","",Block1,"","","","","","","","",K,PreISI1,HR,13,"",0,K,red,11,0,5,"",1154,"","","",""
586375,10,10,block_Testing,4,task_Testing,2,1,"","",10,1,"","",Block1,"","","","","","","","",J,Stim15,NR,85,"",0,J,green,8,0,5.56,"",1154,"","","",""
586375,11,11,block_Testing,4,task_Testing,2,0,"","",11,1,"","",Block1,"","","","","","","","",K,Stim15,HR,24,"",0,J,red,8,0,6.11,"",1154,"","","",""
586375,12,12,block_Testing,4,task_Testing,2,1,"","",12,1,"","",Block1,"","","","","","","","",K,PreISI1,NR,410,"",0,K,green,13,0,6.67,"",1154,"","","",""
586375,13,13,block_Testing,4,task_Testing,2,1,"","",13,1,"","",Block1,"","","","","","","","",K,Stim16,HR,2,"",0,K,red,9,0,7.22,"",1154,"","","",""
586375,14,14,block_Testing,4,task_Testing,2,0,"","",14,1,"","",Block1,"","","","","","","","",K,PreISI1,HR,90,"",0,J,red,12,0,7.78,"",1154,"","","",""
586375,15,15,block_Testing,4,task_Testing,2,1,"","",15,1,"","",Block1,"","","","","","","","",J,PreISI1,NR,139,"",0,J,green,10,0,8.33,"",1154,"","","",""
586375,16,16,block_Testing,4,task_Testing,2,1,"","",16,1,"","",Block1,"","","","","","","","",K,Stim16,NR,64,"",0,K,green,11,0,8.89,"",1154,"","","",""
586375,17,17,block_Testing,4,task_Testing,2,1,"","",17,1,"","",Block1,"","","","","","","","",K,PreISI1,NR,195,"",0,K,green,9,0,9.44,"",1154,"","","",""
586375,18,18,block_Testing,4,task_Testing,2,1,"","",18,1,"","",Block1,"","","","","","","","",J,PreISI1,LR,456,"",0,J,blue,13,0,10,"",1154,"","","",""
586375,19,19,block_Testing,4,task_Testing,2,1,"","",1,2,"","",Block2,"","","","","","","","",J,PreISI1,LR,489,"",0,J,blue,13,0,10.56,"",1154,"","","",""
586375,20,20,block_Testing,4,task_Testing,2,0,"","",2,2,"","",Block2,"","","","","","","","",K,Stim15,HR,84,"",0,J,red,8,0,11.11,"",1154,"","","",""
586375,21,21,block_Testing,4,task_Testing,2,0,"","",3,2,"","",Block2,"","","","","","","","",J,PreISI1,NR,512,"",0,K,green,11,0,11.67,"",1154,"","","",""
586375,22,22,block_Testing,4,task_Testing,2,1,"","",4,2,"","",Block2,"","","","","","","","",K,PreISI1,LR,380,"",0,K,blue,12,0,12.22,"",1154,"","","",""
586375,23,23,block_Testing,4,task_Testing,2,1,"","",5,2,"","",Block2,"","","","","","","","",J,PreISI1,NR,60,"",0,J,green,8,0,12.78,"",1154,"","","",""
586375,24,24,block_Testing,4,task_Testing,2,1,"","",6,2,"","",Block2,"","","","","","","","",J,PreISI1,LR,298,"",0,J,blue,9,0,13.33,"",1154,"","","",""
586375,25,25,block_Testing,4,task_Testing,2,1,"","",7,2,"","",Block2,"","",Slow!,"","","","","",J,PreISI2,HR,1212,"",1,J,red,12,0,13.89,"",1154,"","","",""
586375,26,26,block_Testing,4,task_Testing,2,1,"","",8,2,"","",Block2,"","","","","","","","",J,PreISI1,LR,142,"",0,J,blue,11,0,14.44,"",1154,"","","",""
586375,27,27,block_Testing,4,task_Testing,2,1,"","",9,2,"","",Block2,"","","","","","","","",K,PreISI1,HR,10,"",0,K,red,11,0,15,"",1154,"","","",""
586375,28,28,block_Testing,4,task_Testing,2,1,"","",10,2,"","",Block2,"","","","","","","","",K,Stim15,LR,0,"",0,K,blue,8,0,15.56,"",1154,"","","",""
586375,29,29,block_Testing,4,task_Testing,2,1,"","",11,2,"","",Block2,"","","","","","","","",J,Stim16,NR,90,"",0,J,green,10,0,16.11,"",1154,"","","",""
586375,30,30,block_Testing,4,task_Testing,2,1,"","",12,2,"","",Block2,"","","","","","","","",K,Stim14,NR,75,"",0,K,green,9,0,16.67,"",1154,"","","",""
586375,31,31,block_Testing,4,task_Testing,2,1,"","",13,2,"","",Block2,"","","","","","","","",K,Stim14,HR,100,"",0,K,red,9,0,17.22,"",1154,"","","",""
586375,32,32,block_Testing,4,task_Testing,2,1,"","",14,2,"","",Block2,"","","","","","","","",K,PreISI1,HR,146,"",0,K,red,13,0,17.78,"",1154,"","","",""
586375,33,33,block_Testing,4,task_Testing,2,0,"","",15,2,"","",Block2,"","","","","","","","",K,Stim15,HR,7,"",0,J,red,10,0,18.33,"",1154,"","","",""
586375,34,34,block_Testing,4,task_Testing,2,1,"","",16,2,"","",Block2,"","","","","","","","",K,PreISI1,NR,479,"",0,K,green,13,0,18.89,"",1154,"","","",""
586375,35,35,block_Testing,4,task_Testing,2,1,"","",17,2,"","",Block2,"","","","","","","","",J,PreISI1,NR,326,"",0,J,green,12,0,19.44,"",1154,"","","",""
586375,36,36,block_Testing,4,task_Testing,2,1,"","",18,2,"","",Block2,"","","","","","","","",K,Stim16,LR,49,"",0,K,blue,10,0,20,"",1154,"","","",""
586375,37,37,block_Testing,4,task_Testing,2,1,"","",1,3,"","",Block3,"","","","","","","","",K,PreISI1,HR,44,"",0,K,red,11,0,20.56,"",1154,"","","",""
586375,38,38,block_Testing,4,task_Testing,2,0,"","",2,3,"","",Block3,"","","","","","","","",K,Stim16,HR,36,"",0,J,red,12,0,21.11,"",1154,"","","",""
586375,39,39,block_Testing,4,task_Testing,2,1,"","",3,3,"","",Block3,"","","","","","","","",K,Stim16,NR,46,"",0,K,green,9,0,21.67,"",1154,"","","",""
586375,40,40,block_Testing,4,task_Testing,2,1,"","",4,3,"","",Block3,"","","","","","","","",J,Stim15,LR,97,"",0,J,blue,9,0,22.22,"",1154,"","","",""
586375,41,41,block_Testing,4,task_Testing,2,1,"","",5,3,"","",Block3,"","","","","","","","",J,Stim15,NR,8,"",0,J,green,8,0,22.78,"",1154,"","","",""
586375,42,42,block_Testing,4,task_Testing,2,1,"","",6,3,"","",Block3,"","","","","","","","",K,PreISI1,HR,234,"",0,K,red,13,0,23.33,"",1154,"","","",""
586375,43,43,block_Testing,4,task_Testing,2,1,"","",7,3,"","",Block3,"","","","","","","","",J,Stim15,HR,34,"",0,J,red,8,0,23.89,"",1154,"","","",""
586375,44,44,block_Testing,4,task_Testing,2,1,"","",8,3,"","",Block3,"","",Slow!,"","","","","",J,PreISI2,LR,654,"",1,J,blue,13,0,24.44,"",1154,"","","",""
586375,45,45,block_Testing,4,task_Testing,2,0,"","",9,3,"","",Block3,"","","","","","","","",K,Stim15,NR,95,"",0,J,green,10,0,25,"",1154,"","","",""
586375,46,46,block_Testing,4,task_Testing,2,1,"","",10,3,"","",Block3,"","","","","","","","",J,PreISI1,LR,10,"",0,J,blue,11,0,25.56,"",1154,"","","",""
586375,47,47,block_Testing,4,task_Testing,2,1,"","",11,3,"","",Block3,"","","","","","","","",K,Stim16,LR,87,"",0,K,blue,10,0,26.11,"",1154,"","","",""
586375,48,48,block_Testing,4,task_Testing,2,1,"","",12,3,"","",Block3,"","","","","","","","",J,Stim16,HR,109,"",0,J,red,10,0,26.67,"",1154,"","","",""
586375,49,49,block_Testing,4,task_Testing,2,1,"","",13,3,"","",Block3,"","","","","","","","",K,PreISI1,NR,177,"",0,K,green,13,0,27.22,"",1154,"","","",""
586375,50,50,block_Testing,4,task_Testing,2,1,"","",14,3,"","",Block3,"","","","","","","","",K,PreISI1,LR,264,"",0,K,blue,12,0,27.78,"",1154,"","","",""
586375,51,51,block_Testing,4,task_Testing,2,1,"","",15,3,"","",Block3,"","","","","","","","",K,Stim14,HR,81,"",0,K,red,9,0,28.33,"",1154,"","","",""
586375,52,52,block_Testing,4,task_Testing,2,1,"","",16,3,"","",Block3,"","","","","","","","",K,Stim15,LR,116,"",0,K,blue,8,0,28.89,"",1154,"","","",""
586375,53,53,block_Testing,4,task_Testing,2,1,"","",17,3,"","",Block3,"","",Slow!,"","","","","",J,PreISI2,NR,481,"",1,J,green,12,0,29.44,"",1154,"","","",""
586375,54,54,block_Testing,4,task_Testing,2,1,"","",18,3,"","",Block3,"","","","","","","","",K,Stim16,NR,57,"",0,K,green,11,1,30,"",1154,"","","",""
586375,55,55,block_Testing,4,task_Testing,2,0,"","",1,4,"","",Block4,"","","","","","","","",K,Stim15,LR,11,"",0,J,blue,11,1,30.56,"",1154,"","","",""
586375,56,56,block_Testing,4,task_Testing,2,1,"","",2,4,"","",Block4,"","","","","","","","",J,Stim12,NR,2,"",0,J,green,12,1,31.11,"",1154,"","","",""
586375,57,57,block_Testing,4,task_Testing,2,1,"","",3,4,"","",Block4,"","","","","","","","",K,Stim16,NR,95,"",0,K,green,13,1,31.67,"",1154,"","","",""
586375,58,58,block_Testing,4,task_Testing,2,1,"","",4,4,"","",Block4,"","",Slow!,"","","","","",J,PreISI2,HR,992,"",1,J,red,10,1,32.22,"",1154,"","","",""
586375,59,59,block_Testing,4,task_Testing,2,0,"","",5,4,"","",Block4,"","","","","","","","",J,Stim14,HR,9,"",0,K,red,13,1,32.78,"",1154,"","","",""
586375,60,60,block_Testing,4,task_Testing,2,1,"","",6,4,"","",Block4,"","","","","","","","",K,Stim10,LR,67,"",0,K,blue,10,1,33.33,"",1154,"","","",""
586375,61,61,block_Testing,4,task_Testing,2,1,"","",7,4,"","",Block4,"","","","","","","","",K,Stim11,NR,69,"",0,K,green,11,1,33.89,"",1154,"","","",""
586375,62,62,block_Testing,4,task_Testing,2,1,"","",8,4,"","",Block4,"","","","","","","","",K,PreISI1,LR,20,"",0,K,blue,12,1,34.44,"",1154,"","","",""
586375,63,63,block_Testing,4,task_Testing,2,1,"","",9,4,"","",Block4,"","","","","","","","",K,Stim10,NR,114,"",0,K,green,9,1,35,"",1154,"","","",""
586375,64,64,block_Testing,4,task_Testing,2,1,"","",10,4,"","",Block4,"","","","","","","","",J,Stim9,LR,2,"",0,J,blue,9,1,35.56,"",1154,"","","",""
586375,65,65,block_Testing,4,task_Testing,2,0,"","",11,4,"","",Block4,"","","","","","","","",K,Stim10,NR,94,"",0,J,green,8,1,36.11,"",1154,"","","",""
586375,66,66,block_Testing,4,task_Testing,2,0,"","",12,4,"","",Block4,"","","","","","","","",K,Stim10,NR,61,"",0,J,green,10,1,36.67,"",1154,"","","",""
586375,67,67,block_Testing,4,task_Testing,2,1,"","",13,4,"","",Block4,"","","","","","","","",J,Stim13,HR,106,"",0,J,red,12,1,37.22,"",1154,"","","",""
586375,68,68,block_Testing,4,task_Testing,2,1,"","",14,4,"","",Block4,"","","","","","","","",K,Stim8,LR,1,"",0,K,blue,8,1,37.78,"",1154,"","","",""
586375,69,69,block_Testing,4,task_Testing,2,0,"","",15,4,"","",Block4,"","","","","","","","",K,Stim14,LR,67,"",0,J,blue,13,1,38.33,"",1154,"","","",""
586375,70,70,block_Testing,4,task_Testing,2,1,"","",16,4,"","",Block4,"","","","","","","","",K,Stim9,HR,16,"",0,K,red,9,1,38.89,"",1154,"","","",""
586375,71,71,block_Testing,4,task_Testing,2,0,"","",17,4,"","",Block4,"","","","","","","","",J,Stim11,HR,57,"",0,K,red,11,1,39.44,"",1154,"","","",""
586375,72,72,block_Testing,4,task_Testing,2,1,"","",18,4,"","",Block4,"","","","","","","","",J,Stim8,HR,74,"",0,J,red,8,1,40,"",1154,"","","",""
586375,73,73,block_Testing,4,task_Testing,2,1,"","",1,5,"","",Block5,"","","","","","","","",J,Stim10,NR,88,"",0,J,green,10,1,40.56,"",1154,"","","",""
586375,74,74,block_Testing,4,task_Testing,2,0,"","",2,5,"","",Block5,"","","","","","","","",J,Stim11,NR,96,"",0,K,green,9,1,41.11,"",1154,"","","",""
586375,75,75,block_Testing,4,task_Testing,2,1,"","",3,5,"","",Block5,"","","","","","","","",K,PreISI1,LR,123,"",0,K,blue,12,1,41.67,"",1154,"","","",""
586375,76,76,block_Testing,4,task_Testing,2,1,"","",4,5,"","",Block5,"","","","","","","","",K,Stim12,LR,30,"",0,K,blue,8,1,42.22,"",1154,"","","",""
586375,77,77,block_Testing,4,task_Testing,2,0,"","",5,5,"","",Block5,"","","","","","","","",J,Stim9,HR,32,"",0,K,red,9,1,42.78,"",1154,"","","",""
586375,78,78,block_Testing,4,task_Testing,2,0,"","",6,5,"","",Block5,"","","","","","","","",K,PreISI1,NR,308,"",0,J,green,8,1,43.33,"",1154,"","","",""
586375,79,79,block_Testing,4,task_Testing,2,1,"","",7,5,"","",Block5,"","","","","","","","",K,Stim15,NR,101,"",0,K,green,11,1,43.89,"",1154,"","","",""
586375,80,80,block_Testing,4,task_Testing,2,0,"","",8,5,"","",Block5,"","","","","","","","",K,Stim11,HR,88,"",0,J,red,8,1,44.44,"",1154,"","","",""
586375,81,81,block_Testing,4,task_Testing,2,0,"","",9,5,"","",Block5,"","","","","","","","",J,PreISI1,NR,522,"",0,K,green,13,1,45,"",1154,"","","",""
586375,82,82,block_Testing,4,task_Testing,2,1,"","",10,5,"","",Block5,"","",Slow!,"","","","","",J,PreISI2,LR,990,"",1,J,blue,13,1,45.56,"",1154,"","","",""
586375,83,83,block_Testing,4,task_Testing,2,0,"","",11,5,"","",Block5,"","","","","","","","",K,Stim12,NR,89,"",0,J,green,12,1,46.11,"",1154,"","","",""
586375,84,84,block_Testing,4,task_Testing,2,1,"","",12,5,"","",Block5,"","","","","","","","",J,PreISI1,HR,4,"",0,J,red,12,1,46.67,"",1154,"","","",""
586375,85,85,block_Testing,4,task_Testing,2,1,"","",13,5,"","",Block5,"","","","","","","","",J,Stim16,HR,104,"",0,J,red,10,1,47.22,"",1154,"","","",""
586375,86,86,block_Testing,4,task_Testing,2,1,"","",14,5,"","",Block5,"","","","","","","","",K,Stim11,LR,43,"",0,K,blue,10,1,47.78,"",1154,"","","",""
586375,87,87,block_Testing,4,task_Testing,2,0,"","",15,5,"","",Block5,"","","","","","","","",K,Stim12,LR,112,"",0,J,blue,9,1,48.33,"",1154,"","","",""
586375,88,88,block_Testing,4,task_Testing,2,1,"","",16,5,"","",Block5,"","",Slow!,"","","","","",K,PreISI2,HR,89,"",1,K,red,13,1,48.89,"",1154,"","","",""
586375,89,89,block_Testing,4,task_Testing,2,0,"","",17,5,"","",Block5,"","","","","","","","",J,Stim15,HR,81,"",0,K,red,11,1,49.44,"",1154,"","","",""
586375,90,90,block_Testing,4,task_Testing,2,0,"","",18,5,"","",Block5,"","","","","","","","",K,Stim16,LR,9,"",0,J,blue,11,1,50,"",1154,"","","",""
586375,91,91,block_Testing,4,task_Testing,2,1,"","",1,6,"","",Block6,"","","","","","","","",J,Stim14,HR,93,"",0,J,red,12,1,50.56,"",1154,"","","",""
586375,92,92,block_Testing,4,task_Testing,2,1,"","",2,6,"","",Block6,"","",Slow!,"","","","","",J,ISI,LR,20,"",1,J,blue,11,1,51.11,"",1154,"","","",""
586375,93,93,block_Testing,4,task_Testing,2,0,"","",3,6,"","",Block6,"","",Slow!,"","","","","",J,PreISI2,LR,1032,"",2,K,blue,12,1,51.67,"",1154,"","","",""
586375,94,94,block_Testing,4,task_Testing,2,0,"","",4,6,"","",Block6,"","","","","","","","",K,PreISI1,NR,149,"",0,J,green,12,1,52.22,"",1154,"","","",""
586375,95,95,block_Testing,4,task_Testing,2,0,"","",5,6,"","",Block6,"","","","","","","","",J,Stim15,HR,24,"",0,K,red,9,1,52.78,"",1154,"","","",""
586375,96,96,block_Testing,4,task_Testing,2,0,"","",6,6,"","",Block6,"","","","","","","","",K,Stim15,NR,21,"",0,J,green,10,1,53.33,"",1154,"","","",""
586375,97,97,block_Testing,4,task_Testing,2,1,"","",7,6,"","",Block6,"","","","","","","","",J,Stim16,LR,47,"",0,J,blue,9,1,53.89,"",1154,"","","",""
586375,98,98,block_Testing,4,task_Testing,2,1,"","",8,6,"","",Block6,"","","","","","","","",K,Stim12,LR,30,"",0,K,blue,10,1,54.44,"",1154,"","","",""
586375,99,99,block_Testing,4,task_Testing,2,0,"","",9,6,"","",Block6,"","","","","","","","",J,Stim11,NR,6,"",0,K,green,9,1,55,"",1154,"","","",""
586375,100,100,block_Testing,4,task_Testing,2,1,"","",10,6,"","",Block6,"","","","","","","","",J,Stim15,HR,7,"",0,J,red,8,1,55.56,"",1154,"","","",""
586375,101,101,block_Testing,4,task_Testing,2,1,"","",11,6,"","",Block6,"","","","","","","","",K,PreISI1,HR,2,"",0,K,red,11,1,56.11,"",1154,"","","",""
586375,102,102,block_Testing,4,task_Testing,2,0,"","",12,6,"","",Block6,"","","","","","","","",J,Stim11,LR,12,"",0,K,blue,8,1,56.67,"",1154,"","","",""
586375,103,103,block_Testing,4,task_Testing,2,0,"","",13,6,"","",Block6,"","","","","","","","",K,Stim13,NR,12,"",0,J,green,8,1,57.22,"",1154,"","","",""
586375,104,104,block_Testing,4,task_Testing,2,0,"","",14,6,"","",Block6,"","","","","","","","",J,PreISI1,NR,87,"",0,K,green,11,1,57.78,"",1154,"","","",""
586375,105,105,block_Testing,4,task_Testing,2,0,"","",15,6,"","",Block6,"","","","","","","","",K,Stim14,LR,22,"",0,J,blue,13,1,58.33,"",1154,"","","",""
586375,106,106,block_Testing,4,task_Testing,2,0,"","",16,6,"","",Block6,"","","","","","","","",K,Stim16,HR,26,"",0,J,red,10,1,58.89,"",1154,"","","",""
586375,107,107,block_Testing,4,task_Testing,2,1,"","",17,6,"","",Block6,"","","","","","","","",K,PreISI1,NR,380,"",0,K,green,13,1,59.44,"",1154,"","","",""
586375,108,108,block_Testing,4,task_Testing,2,1,"","",18,6,"","",Block6,"","","","","","","","",K,PreISI1,HR,188,"",0,K,red,13,2,60,"",1154,"","","",""
586375,109,109,block_Testing,4,task_Testing,2,1,"","",1,7,"","",Block7,"","","","","","","","",K,Stim10,LR,84,"",0,K,blue,10,2,60.56,"",1154,"","","",""
586375,110,110,block_Testing,4,task_Testing,2,1,"","",2,7,"","",Block7,"","","","","","","","",K,Stim14,NR,15,"",0,K,green,11,2,61.11,"",1154,"","","",""
586375,111,111,block_Testing,4,task_Testing,2,0,"","",3,7,"","",Block7,"","","","","","","","",K,Stim13,NR,98,"",0,J,green,8,2,61.67,"",1154,"","","",""
586375,112,112,block_Testing,4,task_Testing,2,1,"","",4,7,"","",Block7,"","",Slow!,"","","","","",K,ISI,HR,957,"",1,K,red,13,2,62.22,"",1154,"","","",""
586375,113,113,block_Testing,4,task_Testing,2,0,"","",5,7,"","",Block7,"","","","","","","","",J,Stim15,LR,80,"",0,K,blue,8,2,62.78,"",1154,"","","",""
586375,114,114,block_Testing,4,task_Testing,2,1,"","",6,7,"","",Block7,"","","","","","","","",J,PreISI1,HR,275,"",0,J,red,12,2,63.33,"",1154,"","","",""
586375,115,115,block_Testing,4,task_Testing,2,1,"","",7,7,"","",Block7,"","","","","","","","",K,Stim16,HR,99,"",0,K,red,11,2,63.89,"",1154,"","","",""
586375,116,116,block_Testing,4,task_Testing,2,0,"","",8,7,"","",Block7,"","","","","","","","",K,Stim13,HR,1,"",0,J,red,8,2,64.44,"",1154,"","","",""
586375,117,117,block_Testing,4,task_Testing,2,0,"","",9,7,"","",Block7,"","","","","","","","",K,PreISI1,LR,197,"",0,J,blue,13,2,65,"",1154,"","","",""
586375,118,118,block_Testing,4,task_Testing,2,1,"","",10,7,"","",Block7,"","","","","","","","",K,PreISI1,NR,228,"",0,K,green,13,2,65.56,"",1154,"","","",""
586375,119,119,block_Testing,4,task_Testing,2,0,"","",11,7,"","",Block7,"","","","","","","","",K,Stim15,NR,32,"",0,J,green,10,2,66.11,"",1154,"","","",""
586375,120,120,block_Testing,4,task_Testing,2,1,"","",12,7,"","",Block7,"","","","","","","","",J,Stim15,LR,16,"",0,J,blue,11,2,66.67,"",1154,"","","",""
586375,121,121,block_Testing,4,task_Testing,2,1,"","",13,7,"","",Block7,"","","","","","","","",K,Stim12,HR,24,"",0,K,red,9,2,67.22,"",1154,"","","",""
586375,122,122,block_Testing,4,task_Testing,2,0,"","",14,7,"","",Block7,"","",Slow!,"","","","","","","",LR,0,"",1,J,blue,9,2,67.78,"",1154,"","","",""
586375,123,123,block_Testing,4,task_Testing,2,0,"","",15,7,"","",Block7,"","","","","","","","",K,Stim13,NR,57,"",0,J,green,12,2,68.33,"",1154,"","","",""
586375,124,124,block_Testing,4,task_Testing,2,1,"","",16,7,"","",Block7,"","","","","","","","",K,Stim15,NR,37,"",0,K,green,9,2,68.89,"",1154,"","","",""
586375,125,125,block_Testing,4,task_Testing,2,1,"","",17,7,"","",Block7,"","","","","","","","",K,Stim16,LR,91,"",0,K,blue,12,2,69.44,"",1154,"","","",""
586375,126,126,block_Testing,4,task_Testing,2,0,"","",18,7,"","",Block7,"","","","","","","","",K,Stim14,HR,63,"",0,J,red,10,2,70,"",1154,"","","",""
586375,127,127,block_Testing,4,task_Testing,2,1,"","",1,8,"","",Block8,"","","","","","","","",K,Stim13,NR,113,"",0,K,green,11,2,70.56,"",1154,"","","",""
586375,128,128,block_Testing,4,task_Testing,2,0,"","",2,8,"","",Block8,"","","","","","","","",K,Stim16,LR,80,"",0,J,blue,11,2,71.11,"",1154,"","","",""
586375,129,129,block_Testing,4,task_Testing,2,0,"","",3,8,"","",Block8,"","",Slow!,"","","","","","","",HR,0,"",1,K,red,13,2,71.67,"",1154,"","","",""
586375,130,130,block_Testing,4,task_Testing,2,0,"","",4,8,"","",Block8,"","",Slow!,"","","","","","","",HR,0,"",2,J,red,12,2,72.22,"",1154,"","","",""
586375,131,131,block_Testing,4,task_Testing,2,0,"","",5,8,"","",Block8,"","","","","","","","",K,Stim11,HR,20,"",0,J,red,8,2,72.78,"",1154,"","","",""
586375,132,132,block_Testing,4,task_Testing,2,1,"","",6,8,"","",Block8,"","","","","","","","",J,PreISI1,HR,7,"",0,J,red,10,2,73.33,"",1154,"","","",""
586375,133,133,block_Testing,4,task_Testing,2,0,"","",7,8,"","",Block8,"","","","","","","","",K,Stim15,NR,33,"",0,J,green,12,2,73.89,"",1154,"","","",""
586375,134,134,block_Testing,4,task_Testing,2,0,"","",8,8,"","",Block8,"","","","","","","","",J,Stim11,LR,112,"",0,K,blue,10,2,74.44,"",1154,"","","",""
586375,135,135,block_Testing,4,task_Testing,2,0,"","",9,8,"","",Block8,"","","","","","","","",J,Stim13,HR,58,"",0,K,red,9,2,75,"",1154,"","","",""
586375,136,136,block_Testing,4,task_Testing,2,1,"","",10,8,"","",Block8,"","","","","","","","",K,Stim15,NR,41,"",0,K,green,9,2,75.56,"",1154,"","","",""
586375,137,137,block_Testing,4,task_Testing,2,1,"","",11,8,"","",Block8,"","","","","","","","",K,Stim12,LR,117,"",0,K,blue,8,2,76.11,"",1154,"","","",""
586375,138,138,block_Testing,4,task_Testing,2,1,"","",12,8,"","",Block8,"","","","","","","","",K,Stim16,NR,10,"",0,K,green,13,2,76.67,"",1154,"","","",""
586375,139,139,block_Testing,4,task_Testing,2,1,"","",13,8,"","",Block8,"","","","","","","","",K,PreISI2,LR,15,"",0,K,blue,12,2,77.22,"",1154,"","","",""
586375,140,140,block_Testing,4,task_Testing,2,0,"","",14,8,"","",Block8,"","",Slow!,"","","","","",K,ISI,NR,441,"",1,J,green,8,2,77.78,"",1154,"","","",""
586375,141,141,block_Testing,4,task_Testing,2,1,"","",15,8,"","",Block8,"","","","","","","","",J,PreISI1,LR,232,"",0,J,blue,13,2,78.33,"",1154,"","","",""
586375,142,142,block_Testing,4,task_Testing,2,0,"","",16,8,"","",Block8,"","",Slow!,"","","","","",K,PreISI2,NR,419,"",1,J,green,10,2,78.89,"",1154,"","","",""
586375,143,143,block_Testing,4,task_Testing,2,1,"","",17,8,"","",Block8,"","","","","","","","",J,Stim16,LR,23,"",0,J,blue,9,2,79.44,"",1154,"","","",""
586375,144,144,block_Testing,4,task_Testing,2,1,"","",18,8,"","",Block8,"","","","","","","","",K,PreISI1,HR,68,"",0,K,red,11,2,80,"",1154,"","","",""
586375,145,145,block_Testing,4,task_Testing,2,1,"","",1,9,"","",Block9,"","","","","","","","",J,Stim14,HR,11,"",0,J,red,12,2,80.56,"",1154,"","","",""
586375,146,146,block_Testing,4,task_Testing,2,1,"","",2,9,"","",Block9,"","","","","","","","",J,Stim14,HR,42,"",0,J,red,8,2,81.11,"",1154,"","","",""
586375,147,147,block_Testing,4,task_Testing,2,0,"","",3,9,"","",Block9,"","","","","","","","",K,Stim12,HR,116,"",0,J,red,10,2,81.67,"",1154,"","","",""
586375,148,148,block_Testing,4,task_Testing,2,1,"","",4,9,"","",Block9,"","","","","","","","",K,PreISI1,NR,191,"",0,K,green,13,2,82.22,"",1154,"","","",""
586375,149,149,block_Testing,4,task_Testing,2,1,"","",5,9,"","",Block9,"","","","","","","","",K,Stim11,LR,101,"",0,K,blue,10,2,82.78,"",1154,"","","",""
586375,150,150,block_Testing,4,task_Testing,2,0,"","",6,9,"","",Block9,"","","","","","","","",K,Stim12,LR,56,"",0,J,blue,9,2,83.33,"",1154,"","","",""
586375,151,151,block_Testing,4,task_Testing,2,1,"","",7,9,"","",Block9,"","","","","","","","",J,Stim12,LR,1,"",0,J,blue,11,2,83.89,"",1154,"","","",""
586375,152,152,block_Testing,4,task_Testing,2,1,"","",8,9,"","",Block9,"","","","","","","","",K,Stim12,HR,18,"",0,K,red,9,2,84.44,"",1154,"","","",""
586375,153,153,block_Testing,4,task_Testing,2,1,"","",9,9,"","",Block9,"","","","","","","","",K,PreISI1,HR,209,"",0,K,red,11,2,85,"",1154,"","","",""
586375,154,154,block_Testing,4,task_Testing,2,1,"","",10,9,"","",Block9,"","","","","","","","",K,Stim15,HR,78,"",0,K,red,13,2,85.56,"",1154,"","","",""
586375,155,155,block_Testing,4,task_Testing,2,1,"","",11,9,"","",Block9,"","","","","","","","",K,Stim11,LR,33,"",0,K,blue,8,2,86.11,"",1154,"","","",""
586375,156,156,block_Testing,4,task_Testing,2,0,"","",12,9,"","",Block9,"","","","","","","","",K,PreISI1,NR,6,"",0,J,green,12,2,86.67,"",1154,"","","",""
586375,157,157,block_Testing,4,task_Testing,2,1,"","",13,9,"","",Block9,"","",Slow!,"","","","","",J,PreISI2,LR,373,"",1,J,blue,13,2,87.22,"",1154,"","","",""
586375,158,158,block_Testing,4,task_Testing,2,0,"","",14,9,"","",Block9,"","","","","","","","",K,Stim14,NR,14,"",0,J,green,10,2,87.78,"",1154,"","","",""
586375,159,159,block_Testing,4,task_Testing,2,0,"","",15,9,"","",Block9,"","","","","","","","",J,PreISI1,NR,102,"",0,K,green,11,2,88.33,"",1154,"","","",""
586375,160,160,block_Testing,4,task_Testing,2,1,"","",16,9,"","",Block9,"","","","","","","","",K,Stim13,NR,67,"",0,K,green,9,2,88.89,"",1154,"","","",""
586375,161,161,block_Testing,4,task_Testing,2,1,"","",17,9,"","",Block9,"","",Slow!,"","","","","",K,PreISI2,LR,232,"",1,K,blue,12,2,89.44,"",1154,"","","",""
586375,162,162,block_Testing,4,task_Testing,2,0,"","",18,9,"","",Block9,"","",Slow!,"","","","","","","",NR,0,"",2,J,green,8,2,90,"",1154,"","","",""
586375,163,163,block_Testing,4,task_Testing,2,1,"","",1,10,"","",Block10,"","","","","","","","",J,PreISI1,HR,334,"",0,J,red,10,2,90.56,"",1154,"","","",""
586375,164,164,block_Testing,4,task_Testing,2,0,"","",2,10,"","",Block10,"","",Slow!,"","","","","","","",NR,0,"",1,J,green,8,2,91.11,"",1154,"","","",""
586375,165,165,block_Testing,4,task_Testing,2,0,"","",3,10,"","",Block10,"","",Slow!,"","","","","","","",HR,0,"",2,K,red,13,2,91.67,"",1154,"","","",""
586375,166,166,block_Testing,4,task_Testing,2,0,"","",4,10,"","",Block10,"","",Slow!,"","","","","","","",LR,0,"",3,K,blue,8,2,92.22,"",1154,"","","",""
586375,167,167,block_Testing,4,task_Testing,2,0,"","",5,10,"","",Block10,"","",Slow!,"","","","","","","",NR,0,"",4,J,green,12,2,92.78,"",1154,"","","",""
586375,168,168,block_Testing,4,task_Testing,2,1,"","",6,10,"","",Block10,"","","","","","","","",J,Stim16,HR,112,"",0,J,red,8,2,93.33,"",1154,"","","",""
586375,169,169,block_Testing,4,task_Testing,2,1,"","",7,10,"","",Block10,"","","","","","","","",K,Stim16,NR,92,"",0,K,green,11,2,93.89,"",1154,"","","",""
586375,170,170,block_Testing,4,task_Testing,2,1,"","",8,10,"","",Block10,"","","","","","","","",J,Stim16,LR,5,"",0,J,blue,9,2,94.44,"",1154,"","","",""
586375,171,171,block_Testing,4,task_Testing,2,1,"","",9,10,"","",Block10,"","","","","","","","",J,PreISI1,LR,328,"",0,J,blue,13,2,95,"",1154,"","","",""
586375,172,172,block_Testing,4,task_Testing,2,1,"","",10,10,"","",Block10,"","","","","","","","",K,PreISI1,LR,351,"",0,K,blue,10,2,95.56,"",1154,"","","",""
586375,173,173,block_Testing,4,task_Testing,2,1,"","",11,10,"","",Block10,"","","","","","","","",K,PreISI1,NR,147,"",0,K,green,13,2,96.11,"",1154,"","","",""
586375,174,174,block_Testing,4,task_Testing,2,1,"","",12,10,"","",Block10,"","","","","","","","",J,PreISI1,NR,112,"",0,J,green,10,2,96.67,"",1154,"","","",""
586375,175,175,block_Testing,4,task_Testing,2,1,"","",13,10,"","",Block10,"","","","","","","","",K,Stim14,NR,90,"",0,K,green,9,2,97.22,"",1154,"","","",""
586375,176,176,block_Testing,4,task_Testing,2,1,"","",14,10,"","",Block10,"","","","","","","","",J,PreISI1,HR,378,"",0,J,red,12,2,97.78,"",1154,"","","",""
586375,177,177,block_Testing,4,task_Testing,2,1,"","",15,10,"","",Block10,"","","","","","","","",K,Stim15,HR,56,"",0,K,red,11,2,98.33,"",1154,"","","",""
586375,178,178,block_Testing,4,task_Testing,2,1,"","",16,10,"","",Block10,"","","","","","","","",J,PreISI1,LR,144,"",0,J,blue,11,2,98.89,"",1154,"","","",""
586375,179,179,block_Testing,4,task_Testing,2,1,"","",17,10,"","",Block10,"","","","","","","","",K,Stim14,LR,20,"",0,K,blue,12,2,99.44,"",1154,"","","",""
586375,180,180,block_Testing,4,task_Testing,2,0,"","",18,10,"","",Block10,"","","","","","","","",J,Stim15,HR,102,"",0,K,red,9,2,100,"",1154,"","","",""
586375,1,1,block_Trng,3,task_Trng_End,3,"","","","",1,"","","","","","","","","","","","","","","","","","","","","","",3.92,1154,"","","",""
586375,1,1,block_Testing,4,task_Testing_Instructions,1,"","","","",1,"","","","","","","","","","","","","","","","","","","","","","","","","","","",""
586375,1,1,block_End,5,task_Demog_End,1,"","",32,"",1,"","","","","","","","","","","","","","","",Female,"","","","","","","","","","","",""
