Rec_Session_Id,Trial_Nr,Trial_Id,Block_Name,Block_Nr,Task_Name,Task_Nr,ACC,ACC_Total_Prac,Age,BlkTrial_Nr,Condition_Id,Consent,copy_of_factor1_tg1_task2,factor1_tg1_task2,Feedback,RESP,RESP_Frame,Reward,RT_FromFramePress,Sex,Targ,TargCol,TargPos,TotalMoney,TotalPoints,TotalPoints_prac,Trial_Nr_prac
570081,1,1,block_Testing,4,task_Testing_Instructions,1,"","","","",1,"","","","","","","","","","","","","","","",""
570081,1,1,block_Testing,4,task_Testing,2,1,"","",1,1,"",Block1,"","",K,Stim16,NR,123,"",K,green,11,"",1398,"",""
570081,2,2,block_Testing,4,task_Testing,2,1,"","",2,1,"",Block1,"","",J,Stim12,HR,146,"",J,red,8,"",1398,"",""
570081,3,3,block_Testing,4,task_Testing,2,1,"","",3,1,"",Block1,"","",K,ISI,HR,185,"",K,red,13,"",1398,"",""
570081,4,4,block_Testing,4,task_Testing,2,1,"","",4,1,"",Block1,"","",K,Stim16,LR,117,"",K,blue,12,"",1398,"",""
570081,5,5,block_Testing,4,task_Testing,2,1,"","",5,1,"",Block1,"","",J,ISI,LR,113,"",J,blue,13,"",1398,"",""
570081,6,6,block_Testing,4,task_Testing,2,1,"","",6,1,"",Block1,"","",J,ISI,HR,19,"",J,red,12,"",1398,"",""
570081,7,7,block_Testing,4,task_Testing,2,1,"","",7,1,"",Block1,"","",K,Stim13,NR,19,"",K,green,9,"",1398,"",""
570081,8,8,block_Testing,4,task_Testing,2,1,"","",8,1,"",Block1,"","",K,Stim13,HR,33,"",K,red,9,"",1398,"",""
570081,9,9,block_Testing,4,task_Testing,2,1,"","",9,1,"",Block1,"","",J,Stim15,LR,83,"",J,blue,11,"",1398,"",""
570081,10,10,block_Testing,4,task_Testing,2,1,"","",10,1,"",Block1,"","",J,Stim15,HR,102,"",J,red,10,"",1398,"",""
570081,11,11,block_Testing,4,task_Testing,2,1,"","",11,1,"",Block1,"","",J,Stim13,NR,14,"",J,green,8,"",1398,"",""
570081,12,12,block_Testing,4,task_Testing,2,1,"","",12,1,"",Block1,"","",K,Stim12,LR,44,"",K,blue,8,"",1398,"",""
570081,13,13,block_Testing,4,task_Testing,2,1,"","",13,1,"",Block1,"","",K,Stim15,HR,44,"",K,red,11,"",1398,"",""
570081,14,14,block_Testing,4,task_Testing,2,1,"","",14,1,"",Block1,"","",K,Stim16,NR,90,"",K,green,13,"",1398,"",""
570081,15,15,block_Testing,4,task_Testing,2,1,"","",15,1,"",Block1,"","",K,Stim14,LR,8,"",K,blue,10,"",1398,"",""
570081,16,16,block_Testing,4,task_Testing,2,1,"","",16,1,"",Block1,"","",J,Stim14,LR,3,"",J,blue,9,"",1398,"",""
570081,17,17,block_Testing,4,task_Testing,2,1,"","",17,1,"",Block1,"","",J,Stim14,NR,117,"",J,green,10,"",1398,"",""
570081,18,18,block_Testing,4,task_Testing,2,1,"","",18,1,"",Block1,"","",J,Stim16,NR,25,"",J,green,12,"",1398,"",""
570081,19,19,block_Testing,4,task_Testing,2,1,"","",1,2,"",Block2,"","",K,Stim16,NR,79,"",K,green,11,"",1398,"",""
570081,20,20,block_Testing,4,task_Testing,2,1,"","",2,2,"",Block2,"","",J,Stim12,HR,27,"",J,red,8,"",1398,"",""
570081,21,21,block_Testing,4,task_Testing,2,1,"","",3,2,"",Block2,"","",K,ISI,HR,18,"",K,red,13,"",1398,"",""
570081,22,22,block_Testing,4,task_Testing,2,1,"","",4,2,"",Block2,"","",K,Stim16,LR,101,"",K,blue,12,"",1398,"",""
570081,23,23,block_Testing,4,task_Testing,2,0,"","",5,2,"",Block2,"","",K,Stim16,LR,50,"",J,blue,13,"",1398,"",""
570081,24,24,block_Testing,4,task_Testing,2,1,"","",6,2,"",Block2,"","",J,Stim16,HR,119,"",J,red,12,"",1398,"",""
570081,25,25,block_Testing,4,task_Testing,2,1,"","",7,2,"",Block2,"","",K,Stim13,NR,26,"",K,green,9,"",1398,"",""
570081,26,26,block_Testing,4,task_Testing,2,1,"","",8,2,"",Block2,"","",K,Stim16,HR,34,"",K,red,9,"",1398,"",""
570081,27,27,block_Testing,4,task_Testing,2,1,"","",9,2,"",Block2,"","",J,ISI,LR,123,"",J,blue,11,"",1398,"",""
570081,28,28,block_Testing,4,task_Testing,2,1,"","",10,2,"",Block2,"","",J,Stim16,HR,77,"",J,red,10,"",1398,"",""
570081,29,29,block_Testing,4,task_Testing,2,1,"","",11,2,"",Block2,"","",J,Stim13,NR,23,"",J,green,8,"",1398,"",""
570081,30,30,block_Testing,4,task_Testing,2,1,"","",12,2,"",Block2,"","",K,Stim14,LR,56,"",K,blue,8,"",1398,"",""
570081,31,31,block_Testing,4,task_Testing,2,1,"","",13,2,"",Block2,"","",K,Stim16,HR,32,"",K,red,11,"",1398,"",""
570081,32,32,block_Testing,4,task_Testing,2,1,"","",14,2,"",Block2,"","",K,ISI,NR,290,"",K,green,13,"",1398,"",""
570081,33,33,block_Testing,4,task_Testing,2,1,"","",15,2,"",Block2,"","",K,Stim16,LR,47,"",K,blue,10,"",1398,"",""
570081,34,34,block_Testing,4,task_Testing,2,1,"","",16,2,"",Block2,"","",J,Stim13,LR,105,"",J,blue,9,"",1398,"",""
570081,35,35,block_Testing,4,task_Testing,2,1,"","",17,2,"",Block2,"","",J,Stim14,NR,57,"",J,green,10,"",1398,"",""
570081,36,36,block_Testing,4,task_Testing,2,1,"","",18,2,"",Block2,"","",J,Stim16,NR,39,"",J,green,12,"",1398,"",""
570081,37,37,block_Testing,4,task_Testing,2,1,"","",1,3,"",Block3,"","",K,Stim15,NR,112,"",K,green,11,"",1398,"",""
570081,38,38,block_Testing,4,task_Testing,2,1,"","",2,3,"",Block3,"","",J,Stim12,HR,42,"",J,red,8,"",1398,"",""
570081,39,39,block_Testing,4,task_Testing,2,1,"","",3,3,"",Block3,"","",K,Stim16,HR,127,"",K,red,13,"",1398,"",""
570081,40,40,block_Testing,4,task_Testing,2,1,"","",4,3,"",Block3,"","",K,Stim16,LR,74,"",K,blue,12,"",1398,"",""
570081,41,41,block_Testing,4,task_Testing,2,1,"","",5,3,"",Block3,"","",J,ISI,LR,21,"",J,blue,13,"",1398,"",""
570081,42,42,block_Testing,4,task_Testing,2,1,"","",6,3,"",Block3,"","",J,Stim15,HR,74,"",J,red,12,"",1398,"",""
570081,43,43,block_Testing,4,task_Testing,2,1,"","",7,3,"",Block3,"","",K,Stim13,NR,1,"",K,green,9,"",1398,"",""
570081,44,44,block_Testing,4,task_Testing,2,1,"","",8,3,"",Block3,"","",K,Stim12,HR,106,"",K,red,9,"",1398,"",""
570081,45,45,block_Testing,4,task_Testing,2,0,"","",9,3,"",Block3,"","",K,Stim15,LR,108,"",J,blue,11,"",1398,"",""
570081,46,46,block_Testing,4,task_Testing,2,1,"","",10,3,"",Block3,"","",J,Stim14,HR,17,"",J,red,10,"",1398,"",""
570081,47,47,block_Testing,4,task_Testing,2,1,"","",11,3,"",Block3,"","",J,Stim12,NR,99,"",J,green,8,"",1398,"",""
570081,48,48,block_Testing,4,task_Testing,2,1,"","",12,3,"",Block3,"","",K,Stim12,LR,90,"",K,blue,8,"",1398,"",""
570081,49,49,block_Testing,4,task_Testing,2,1,"","",13,3,"",Block3,"","",K,Stim15,HR,58,"",K,red,11,"",1398,"",""
570081,50,50,block_Testing,4,task_Testing,2,1,"","",14,3,"",Block3,"","",K,ISI,NR,27,"",K,green,13,"",1398,"",""
570081,51,51,block_Testing,4,task_Testing,2,1,"","",15,3,"",Block3,"","",K,Stim14,LR,105,"",K,blue,10,"",1398,"",""
570081,52,52,block_Testing,4,task_Testing,2,1,"","",16,3,"",Block3,"","",J,Stim13,LR,53,"",J,blue,9,"",1398,"",""
570081,53,53,block_Testing,4,task_Testing,2,1,"","",17,3,"",Block3,"","",J,Stim15,NR,14,"",J,green,10,"",1398,"",""
570081,54,54,block_Testing,4,task_Testing,2,1,"","",18,3,"",Block3,"","",J,Stim16,NR,107,"",J,green,12,"",1398,"",""
570081,55,55,block_Testing,4,task_Testing,2,0,"","",1,4,"",Block4,"","",J,Stim16,NR,14,"",K,green,11,"",1398,"",""
570081,56,56,block_Testing,4,task_Testing,2,1,"","",2,4,"",Block4,"","",J,Stim13,HR,36,"",J,red,8,"",1398,"",""
570081,57,57,block_Testing,4,task_Testing,2,1,"","",3,4,"",Block4,"","",K,ISI,HR,72,"",K,red,13,"",1398,"",""
570081,58,58,block_Testing,4,task_Testing,2,1,"","",4,4,"",Block4,"","",K,ISI,LR,70,"",K,blue,12,"",1398,"",""
570081,59,59,block_Testing,4,task_Testing,2,1,"","",5,4,"",Block4,"","",J,ISI,LR,154,"",J,blue,13,"",1398,"",""
570081,60,60,block_Testing,4,task_Testing,2,1,"","",6,4,"",Block4,"","",J,Stim16,HR,117,"",J,red,12,"",1398,"",""
570081,61,61,block_Testing,4,task_Testing,2,1,"","",7,4,"",Block4,"","",K,Stim12,NR,92,"",K,green,9,"",1398,"",""
570081,62,62,block_Testing,4,task_Testing,2,1,"","",8,4,"",Block4,"","",K,Stim12,HR,58,"",K,red,9,"",1398,"",""
570081,63,63,block_Testing,4,task_Testing,2,1,"","",9,4,"",Block4,"","",J,Stim15,LR,1,"",J,blue,11,"",1398,"",""
570081,64,64,block_Testing,4,task_Testing,2,1,"","",10,4,"",Block4,"","",J,Stim15,HR,9,"",J,red,10,"",1398,"",""
570081,65,65,block_Testing,4,task_Testing,2,1,"","",11,4,"",Block4,"","",J,ISI,NR,24,"",J,green,8,"",1398,"",""
570081,66,66,block_Testing,4,task_Testing,2,1,"","",12,4,"",Block4,"","",K,Stim12,LR,25,"",K,blue,8,"",1398,"",""
570081,67,67,block_Testing,4,task_Testing,2,1,"","",13,4,"",Block4,"","",K,Stim16,HR,57,"",K,red,11,"",1398,"",""
570081,68,68,block_Testing,4,task_Testing,2,1,"","",14,4,"",Block4,"","",K,ISI,NR,143,"",K,green,13,"",1398,"",""
570081,69,69,block_Testing,4,task_Testing,2,1,"","",15,4,"",Block4,"","",K,Stim14,LR,15,"",K,blue,10,"",1398,"",""
570081,70,70,block_Testing,4,task_Testing,2,1,"","",16,4,"",Block4,"","",J,Stim13,LR,30,"",J,blue,9,"",1398,"",""
570081,71,71,block_Testing,4,task_Testing,2,1,"","",17,4,"",Block4,"","",J,Stim14,NR,58,"",J,green,10,"",1398,"",""
570081,72,72,block_Testing,4,task_Testing,2,1,"","",18,4,"",Block4,"","",J,Stim16,NR,90,"",J,green,12,"",1398,"",""
570081,73,73,block_Testing,4,task_Testing,2,1,"","",1,5,"",Block5,"","",K,ISI,NR,18,"",K,green,11,"",1398,"",""
570081,74,74,block_Testing,4,task_Testing,2,1,"","",2,5,"",Block5,"","",J,Stim13,HR,50,"",J,red,8,"",1398,"",""
570081,75,75,block_Testing,4,task_Testing,2,1,"","",3,5,"",Block5,"","",K,ISI,HR,219,"",K,red,13,"",1398,"",""
570081,76,76,block_Testing,4,task_Testing,2,1,"","",4,5,"",Block5,"","",K,ISI,LR,37,"",K,blue,12,"",1398,"",""
570081,77,77,block_Testing,4,task_Testing,2,1,"","",5,5,"",Block5,"","",J,ISI,LR,207,"",J,blue,13,"",1398,"",""
570081,78,78,block_Testing,4,task_Testing,2,1,"","",6,5,"",Block5,"","",J,ISI,HR,156,"",J,red,12,"",1398,"",""
570081,79,79,block_Testing,4,task_Testing,2,1,"","",7,5,"",Block5,"","",K,Stim15,NR,0,"",K,green,9,"",1398,"",""
570081,80,80,block_Testing,4,task_Testing,2,1,"","",8,5,"",Block5,"","",K,Stim13,HR,18,"",K,red,9,"",1398,"",""
570081,81,81,block_Testing,4,task_Testing,2,1,"","",9,5,"",Block5,"","",J,Stim15,LR,97,"",J,blue,11,"",1398,"",""
570081,82,82,block_Testing,4,task_Testing,2,1,"","",10,5,"",Block5,"","",J,Stim14,HR,85,"",J,red,10,"",1398,"",""
570081,83,83,block_Testing,4,task_Testing,2,0,"","",11,5,"",Block5,"","",K,Stim11,NR,80,"",J,green,8,"",1398,"",""
570081,84,84,block_Testing,4,task_Testing,2,1,"","",12,5,"",Block5,"","",K,Stim12,LR,1,"",K,blue,8,"",1398,"",""
570081,85,85,block_Testing,4,task_Testing,2,1,"","",13,5,"",Block5,"","",K,ISI,HR,409,"",K,red,11,"",1398,"",""
570081,86,86,block_Testing,4,task_Testing,2,1,"","",14,5,"",Block5,"","",K,ISI,NR,740,"",K,green,13,"",1398,"",""
570081,87,87,block_Testing,4,task_Testing,2,1,"","",15,5,"",Block5,"","",K,Stim15,LR,64,"",K,blue,10,"",1398,"",""
570081,88,88,block_Testing,4,task_Testing,2,1,"","",16,5,"",Block5,"","",J,Stim14,LR,87,"",J,blue,9,"",1398,"",""
570081,89,89,block_Testing,4,task_Testing,2,1,"","",17,5,"",Block5,"","",J,Stim14,NR,115,"",J,green,10,"",1398,"",""
570081,90,90,block_Testing,4,task_Testing,2,1,"","",18,5,"",Block5,"","",J,Stim16,NR,87,"",J,green,12,"",1398,"",""
570081,91,91,block_Testing,4,task_Testing,2,1,"","",1,6,"",Block6,"","",K,Stim16,NR,87,"",K,green,11,"",1398,"",""
570081,92,92,block_Testing,4,task_Testing,2,0,"","",2,6,"",Block6,"","","","",HR,0,"",J,red,8,"",1398,"",""
570081,93,93,block_Testing,4,task_Testing,2,1,"","",3,6,"",Block6,"","",K,ITI,HR,60,"",K,red,13,"",1398,"",""
570081,94,94,block_Testing,4,task_Testing,2,1,"","",4,6,"",Block6,"","",K,Stim16,LR,74,"",K,blue,12,"",1398,"",""
570081,95,95,block_Testing,4,task_Testing,2,1,"","",5,6,"",Block6,"","",J,ISI,LR,144,"",J,blue,13,"",1398,"",""
570081,96,96,block_Testing,4,task_Testing,2,1,"","",6,6,"",Block6,"","",J,Stim16,HR,52,"",J,red,12,"",1398,"",""
570081,97,97,block_Testing,4,task_Testing,2,1,"","",7,6,"",Block6,"","",K,Stim15,NR,32,"",K,green,9,"",1398,"",""
570081,98,98,block_Testing,4,task_Testing,2,1,"","",8,6,"",Block6,"","",K,Stim13,HR,7,"",K,red,9,"",1398,"",""
570081,99,99,block_Testing,4,task_Testing,2,0,"","",9,6,"",Block6,"","","","",LR,0,"",J,blue,11,"",1398,"",""
570081,100,100,block_Testing,4,task_Testing,2,1,"","",10,6,"",Block6,"","",J,Stim14,HR,44,"",J,red,10,"",1398,"",""
570081,101,101,block_Testing,4,task_Testing,2,1,"","",11,6,"",Block6,"","",J,Stim12,NR,66,"",J,green,8,"",1398,"",""
570081,102,102,block_Testing,4,task_Testing,2,1,"","",12,6,"",Block6,"","",K,Stim12,LR,45,"",K,blue,8,"",1398,"",""
570081,103,103,block_Testing,4,task_Testing,2,1,"","",13,6,"",Block6,"","",K,Stim14,HR,77,"",K,red,11,"",1398,"",""
570081,104,104,block_Testing,4,task_Testing,2,1,"","",14,6,"",Block6,"","",K,ISI,NR,178,"",K,green,13,"",1398,"",""
570081,105,105,block_Testing,4,task_Testing,2,1,"","",15,6,"",Block6,"","",K,Stim15,LR,41,"",K,blue,10,"",1398,"",""
570081,106,106,block_Testing,4,task_Testing,2,1,"","",16,6,"",Block6,"","",J,Stim13,LR,74,"",J,blue,9,"",1398,"",""
570081,107,107,block_Testing,4,task_Testing,2,1,"","",17,6,"",Block6,"","",J,Stim14,NR,81,"",J,green,10,"",1398,"",""
570081,108,108,block_Testing,4,task_Testing,2,1,"","",18,6,"",Block6,"","",J,Stim16,NR,11,"",J,green,12,"",1398,"",""
570081,109,109,block_Testing,4,task_Testing,2,1,"","",1,7,"",Block7,"","",K,Stim15,NR,94,"",K,green,11,"",1398,"",""
570081,110,110,block_Testing,4,task_Testing,2,1,"","",2,7,"",Block7,"","",J,Stim12,HR,52,"",J,red,8,"",1398,"",""
570081,111,111,block_Testing,4,task_Testing,2,1,"","",3,7,"",Block7,"","",K,ISI,HR,11,"",K,red,13,"",1398,"",""
570081,112,112,block_Testing,4,task_Testing,2,1,"","",4,7,"",Block7,"","",K,Stim16,LR,65,"",K,blue,12,"",1398,"",""
570081,113,113,block_Testing,4,task_Testing,2,1,"","",5,7,"",Block7,"","",J,ISI,LR,26,"",J,blue,13,"",1398,"",""
570081,114,114,block_Testing,4,task_Testing,2,1,"","",6,7,"",Block7,"","",J,ISI,HR,97,"",J,red,12,"",1398,"",""
570081,115,115,block_Testing,4,task_Testing,2,1,"","",7,7,"",Block7,"","",K,Stim13,NR,1,"",K,green,9,"",1398,"",""
570081,116,116,block_Testing,4,task_Testing,2,1,"","",8,7,"",Block7,"","",K,Stim12,HR,75,"",K,red,9,"",1398,"",""
570081,117,117,block_Testing,4,task_Testing,2,1,"","",9,7,"",Block7,"","",J,Stim16,LR,24,"",J,blue,11,"",1398,"",""
570081,118,118,block_Testing,4,task_Testing,2,1,"","",10,7,"",Block7,"","",J,Stim13,HR,114,"",J,red,10,"",1398,"",""
570081,119,119,block_Testing,4,task_Testing,2,1,"","",11,7,"",Block7,"","",J,Stim12,NR,25,"",J,green,8,"",1398,"",""
570081,120,120,block_Testing,4,task_Testing,2,1,"","",12,7,"",Block7,"","",K,Stim14,LR,53,"",K,blue,8,"",1398,"",""
570081,121,121,block_Testing,4,task_Testing,2,1,"","",13,7,"",Block7,"","",K,Stim14,HR,117,"",K,red,11,"",1398,"",""
570081,122,122,block_Testing,4,task_Testing,2,1,"","",14,7,"",Block7,"","",K,ISI,NR,79,"",K,green,13,"",1398,"",""
570081,123,123,block_Testing,4,task_Testing,2,0,"","",15,7,"",Block7,"","",J,ISI,LR,602,"",K,blue,10,"",1398,"",""
570081,124,124,block_Testing,4,task_Testing,2,1,"","",16,7,"",Block7,"","",J,Stim13,LR,22,"",J,blue,9,"",1398,"",""
570081,125,125,block_Testing,4,task_Testing,2,1,"","",17,7,"",Block7,"","",J,Stim14,NR,52,"",J,green,10,"",1398,"",""
570081,126,126,block_Testing,4,task_Testing,2,1,"","",18,7,"",Block7,"","",J,ISI,NR,153,"",J,green,12,"",1398,"",""
570081,127,127,block_Testing,4,task_Testing,2,1,"","",1,8,"",Block8,"","",K,Stim16,NR,67,"",K,green,11,"",1398,"",""
570081,128,128,block_Testing,4,task_Testing,2,1,"","",2,8,"",Block8,"","",J,Stim12,HR,142,"",J,red,8,"",1398,"",""
570081,129,129,block_Testing,4,task_Testing,2,1,"","",3,8,"",Block8,"","",K,ISI,HR,171,"",K,red,13,"",1398,"",""
570081,130,130,block_Testing,4,task_Testing,2,1,"","",4,8,"",Block8,"","",K,Stim16,LR,95,"",K,blue,12,"",1398,"",""
570081,131,131,block_Testing,4,task_Testing,2,1,"","",5,8,"",Block8,"","",J,ISI,LR,63,"",J,blue,13,"",1398,"",""
570081,132,132,block_Testing,4,task_Testing,2,1,"","",6,8,"",Block8,"","",J,ISI,HR,315,"",J,red,12,"",1398,"",""
570081,133,133,block_Testing,4,task_Testing,2,1,"","",7,8,"",Block8,"","",K,Stim13,NR,27,"",K,green,9,"",1398,"",""
570081,134,134,block_Testing,4,task_Testing,2,1,"","",8,8,"",Block8,"","",K,Stim13,HR,71,"",K,red,9,"",1398,"",""
570081,135,135,block_Testing,4,task_Testing,2,1,"","",9,8,"",Block8,"","",J,Stim16,LR,72,"",J,blue,11,"",1398,"",""
570081,136,136,block_Testing,4,task_Testing,2,1,"","",10,8,"",Block8,"","",J,Stim14,HR,43,"",J,red,10,"",1398,"",""
570081,137,137,block_Testing,4,task_Testing,2,1,"","",11,8,"",Block8,"","",J,Stim13,NR,38,"",J,green,8,"",1398,"",""
570081,138,138,block_Testing,4,task_Testing,2,1,"","",12,8,"",Block8,"","",K,Stim13,LR,65,"",K,blue,8,"",1398,"",""
570081,139,139,block_Testing,4,task_Testing,2,1,"","",13,8,"",Block8,"","",K,ISI,HR,16,"",K,red,11,"",1398,"",""
570081,140,140,block_Testing,4,task_Testing,2,1,"","",14,8,"",Block8,"","",K,ISI,NR,282,"",K,green,13,"",1398,"",""
570081,141,141,block_Testing,4,task_Testing,2,1,"","",15,8,"",Block8,"","",K,Stim15,LR,21,"",K,blue,10,"",1398,"",""
570081,142,142,block_Testing,4,task_Testing,2,1,"","",16,8,"",Block8,"","",J,Stim14,LR,7,"",J,blue,9,"",1398,"",""
570081,143,143,block_Testing,4,task_Testing,2,1,"","",17,8,"",Block8,"","",J,Stim15,NR,23,"",J,green,10,"",1398,"",""
570081,144,144,block_Testing,4,task_Testing,2,1,"","",18,8,"",Block8,"","",J,Stim16,NR,38,"",J,green,12,"",1398,"",""
570081,145,145,block_Testing,4,task_Testing,2,1,"","",1,9,"",Block9,"","",K,Stim16,NR,90,"",K,green,11,"",1398,"",""
570081,146,146,block_Testing,4,task_Testing,2,1,"","",2,9,"",Block9,"","",J,Stim12,HR,75,"",J,red,8,"",1398,"",""
570081,147,147,block_Testing,4,task_Testing,2,1,"","",3,9,"",Block9,"","",K,ISI,HR,94,"",K,red,13,"",1398,"",""
570081,148,148,block_Testing,4,task_Testing,2,1,"","",4,9,"",Block9,"","",K,Stim16,LR,117,"",K,blue,12,"",1398,"",""
570081,149,149,block_Testing,4,task_Testing,2,1,"","",5,9,"",Block9,"","",J,ISI,LR,202,"",J,blue,13,"",1398,"",""
570081,150,150,block_Testing,4,task_Testing,2,1,"","",6,9,"",Block9,"","",J,Stim16,HR,79,"",J,red,12,"",1398,"",""
570081,151,151,block_Testing,4,task_Testing,2,1,"","",7,9,"",Block9,"","",K,Stim14,NR,50,"",K,green,9,"",1398,"",""
570081,152,152,block_Testing,4,task_Testing,2,1,"","",8,9,"",Block9,"","",K,Stim13,HR,37,"",K,red,9,"",1398,"",""
570081,153,153,block_Testing,4,task_Testing,2,1,"","",9,9,"",Block9,"","",J,Stim16,LR,116,"",J,blue,11,"",1398,"",""
570081,154,154,block_Testing,4,task_Testing,2,1,"","",10,9,"",Block9,"","",J,Stim14,HR,111,"",J,red,10,"",1398,"",""
570081,155,155,block_Testing,4,task_Testing,2,0,"","",11,9,"",Block9,"","",K,Stim13,NR,101,"",J,green,8,"",1398,"",""
570081,156,156,block_Testing,4,task_Testing,2,1,"","",12,9,"",Block9,"","",K,Stim14,LR,9,"",K,blue,8,"",1398,"",""
570081,157,157,block_Testing,4,task_Testing,2,1,"","",13,9,"",Block9,"","",K,Stim16,HR,22,"",K,red,11,"",1398,"",""
570081,158,158,block_Testing,4,task_Testing,2,1,"","",14,9,"",Block9,"","",K,ISI,NR,244,"",K,green,13,"",1398,"",""
570081,159,159,block_Testing,4,task_Testing,2,1,"","",15,9,"",Block9,"","",K,Stim15,LR,113,"",K,blue,10,"",1398,"",""
570081,160,160,block_Testing,4,task_Testing,2,1,"","",16,9,"",Block9,"","",J,Stim13,LR,73,"",J,blue,9,"",1398,"",""
570081,161,161,block_Testing,4,task_Testing,2,1,"","",17,9,"",Block9,"","",J,Stim14,NR,70,"",J,green,10,"",1398,"",""
570081,162,162,block_Testing,4,task_Testing,2,1,"","",18,9,"",Block9,"","",J,Stim16,NR,48,"",J,green,12,"",1398,"",""
570081,163,163,block_Testing,4,task_Testing,2,1,"","",1,10,"",Block10,"","",K,Stim16,NR,15,"",K,green,11,"",1398,"",""
570081,164,164,block_Testing,4,task_Testing,2,1,"","",2,10,"",Block10,"","",J,Stim13,HR,56,"",J,red,8,"",1398,"",""
570081,165,165,block_Testing,4,task_Testing,2,1,"","",3,10,"",Block10,"","",K,ISI,HR,199,"",K,red,13,"",1398,"",""
570081,166,166,block_Testing,4,task_Testing,2,1,"","",4,10,"",Block10,"","",K,ISI,LR,41,"",K,blue,12,"",1398,"",""
570081,167,167,block_Testing,4,task_Testing,2,1,"","",5,10,"",Block10,"","",J,ISI,LR,158,"",J,blue,13,"",1398,"",""
570081,168,168,block_Testing,4,task_Testing,2,1,"","",6,10,"",Block10,"","",J,ISI,HR,12,"",J,red,12,"",1398,"",""
570081,169,169,block_Testing,4,task_Testing,2,1,"","",7,10,"",Block10,"","",K,Stim14,NR,54,"",K,green,9,"",1398,"",""
570081,170,170,block_Testing,4,task_Testing,2,1,"","",8,10,"",Block10,"","",K,Stim14,HR,43,"",K,red,9,"",1398,"",""
570081,171,171,block_Testing,4,task_Testing,2,1,"","",9,10,"",Block10,"","",J,Stim16,LR,82,"",J,blue,11,"",1398,"",""
570081,172,172,block_Testing,4,task_Testing,2,1,"","",10,10,"",Block10,"","",J,Stim14,HR,109,"",J,red,10,"",1398,"",""
570081,173,173,block_Testing,4,task_Testing,2,1,"","",11,10,"",Block10,"","",J,Stim12,NR,76,"",J,green,8,"",1398,"",""
570081,174,174,block_Testing,4,task_Testing,2,1,"","",12,10,"",Block10,"","",K,Stim12,LR,63,"",K,blue,8,"",1398,"",""
570081,175,175,block_Testing,4,task_Testing,2,1,"","",13,10,"",Block10,"","",K,Stim15,HR,100,"",K,red,11,"",1398,"",""
570081,176,176,block_Testing,4,task_Testing,2,1,"","",14,10,"",Block10,"","",K,ISI,NR,190,"",K,green,13,"",1398,"",""
570081,177,177,block_Testing,4,task_Testing,2,1,"","",15,10,"",Block10,"","",K,Stim15,LR,101,"",K,blue,10,"",1398,"",""
570081,178,178,block_Testing,4,task_Testing,2,1,"","",16,10,"",Block10,"","",J,Stim14,LR,95,"",J,blue,9,"",1398,"",""
570081,179,179,block_Testing,4,task_Testing,2,1,"","",17,10,"",Block10,"","",J,Stim16,NR,98,"",J,green,10,"",1398,"",""
570081,180,180,block_Testing,4,task_Testing,2,1,"","",18,10,"",Block10,"","",J,ISI,NR,35,"",J,green,12,"",1398,"",""
570081,1,1,block_TrngInstructions,1,task_Consent,1,"","","","",1,Yes,"","","","","","","","","","","","","","",""
570081,1,1,block_End,5,task_Demog_End,1,"","",54,"",1,"","","","","","","","",Female,"","","","","","",""
570081,1,1,block_TrngInstructions,1,task_Trng_Instructions,2,"","","","",1,"","","","","","","","","","","","","","","",""
570081,1,1,block_Practice,2,task_GetReady,1,"","","","",1,"","","","","","","","","","","","","","","",""
570081,1,1,block_Practice,2,task_Trng_Prac,2,1,1,"","",1,"","","","",J,Stim16,"",77,"",J,blue,12,"",0,0,""
570081,2,2,block_Practice,2,task_Trng_Prac,2,1,2,"","",1,"","","","",K,Stim16,"",89,"",K,green,11,"",0,0,""
570081,3,3,block_Practice,2,task_Trng_Prac,2,0,2,"","",1,"","","","",K,Stim7,"",105,"",J,green,9,"",0,0,""
570081,4,4,block_Practice,2,task_Trng_Prac,2,1,3,"","",1,"","","","",J,ISI,"",245,"",J,blue,13,"",0,0,""
570081,5,5,block_Practice,2,task_Trng_Prac,2,0,3,"","",1,"","","","",J,Fdbck,"",32,"",K,red,8,"",0,0,""
570081,6,6,block_Practice,2,task_Trng_Prac,2,1,4,"","",1,"","","","",K,Stim16,"",59,"",K,red,10,"",0,0,""
570081,1,1,block_Trng,3,task_GetReady,1,"","","","",1,"","","","","","","","","","","","","","","",""
570081,1,1,block_Trng,3,task_Trng,2,1,"","",1,1,"","",Block1,"",K,ISI,NR,84,"",K,green,13,"",0,"",""
570081,2,2,block_Trng,3,task_Trng,2,1,"","",2,1,"","",Block1,"",J,Stim15,NR,77,"",J,green,8,"",0,"",""
570081,3,3,block_Trng,3,task_Trng,2,0,"","",3,1,"","",Block1,"",J,Stim12,NR,90,"",K,green,9,"",0,"",""
570081,4,4,block_Trng,3,task_Trng,2,1,"","",4,1,"","",Block1,"",K,Stim14,NR,86,"",K,green,11,"",0,"",""
570081,5,5,block_Trng,3,task_Trng,2,1,"","",5,1,"","",Block1,"",J,ISI,LR,80,"",J,blue,13,"",2,"",""
570081,6,6,block_Trng,3,task_Trng,2,1,"","",6,1,"","",Block1,"",K,Stim14,LR,16,"",K,blue,10,"",4,"",""
570081,7,7,block_Trng,3,task_Trng,2,1,"","",7,1,"","",Block1,"",J,Stim16,HR,57,"",J,red,12,"",14,"",""
570081,8,8,block_Trng,3,task_Trng,2,1,"","",8,1,"","",Block1,"",J,Stim14,LR,114,"",J,blue,11,"",16,"",""
570081,9,9,block_Trng,3,task_Trng,2,1,"","",9,1,"","",Block1,"",J,Stim14,NR,48,"",J,green,10,"",16,"",""
570081,10,10,block_Trng,3,task_Trng,2,1,"","",10,1,"","",Block1,"",K,Stim11,LR,105,"",K,blue,8,"",18,"",""
570081,11,11,block_Trng,3,task_Trng,2,1,"","",11,1,"","",Block1,"",K,Stim16,HR,89,"",K,red,11,"",28,"",""
570081,12,12,block_Trng,3,task_Trng,2,1,"","",12,1,"","",Block1,"",J,ISI,NR,120,"",J,green,12,"",28,"",""
570081,13,13,block_Trng,3,task_Trng,2,1,"","",13,1,"","",Block1,"",J,Stim13,HR,21,"",J,red,8,"",38,"",""
570081,14,14,block_Trng,3,task_Trng,2,1,"","",14,1,"","",Block1,"",K,Stim14,HR,4,"",K,red,9,"",48,"",""
570081,15,15,block_Trng,3,task_Trng,2,1,"","",15,1,"","",Block1,"",K,Stim16,HR,32,"",K,red,13,"",58,"",""
570081,16,16,block_Trng,3,task_Trng,2,1,"","",16,1,"","",Block1,"",K,Stim15,LR,91,"",K,blue,12,"",60,"",""
570081,17,17,block_Trng,3,task_Trng,2,1,"","",17,1,"","",Block1,"",J,Stim12,LR,77,"",J,blue,9,"",62,"",""
570081,18,18,block_Trng,3,task_Trng,2,1,"","",18,1,"","",Block1,"",J,Stim15,HR,6,"",J,red,10,"",72,"",""
570081,19,19,block_Trng,3,task_Trng,2,1,"","",1,2,"","",Block2,"",K,ISI,NR,41,"",K,green,13,"",72,"",""
570081,20,20,block_Trng,3,task_Trng,2,1,"","",2,2,"","",Block2,"",J,Stim13,NR,12,"",J,green,8,"",72,"",""
570081,21,21,block_Trng,3,task_Trng,2,0,"","",3,2,"","",Block2,"",J,Stim13,NR,22,"",K,green,9,"",72,"",""
570081,22,22,block_Trng,3,task_Trng,2,1,"","",4,2,"","",Block2,"",K,Stim16,NR,108,"",K,green,11,"",72,"",""
570081,23,23,block_Trng,3,task_Trng,2,1,"","",5,2,"","",Block2,"",J,ISI,LR,207,"",J,blue,13,"",74,"",""
570081,24,24,block_Trng,3,task_Trng,2,1,"","",6,2,"","",Block2,"",K,Stim15,LR,37,"",K,blue,10,"",76,"",""
570081,25,25,block_Trng,3,task_Trng,2,1,"","",7,2,"","",Block2,"",J,Stim16,HR,67,"",J,red,12,"",86,"",""
570081,26,26,block_Trng,3,task_Trng,2,1,"","",8,2,"","",Block2,"",J,Stim16,LR,66,"",J,blue,11,"",88,"",""
570081,27,27,block_Trng,3,task_Trng,2,1,"","",9,2,"","",Block2,"",J,Stim15,NR,8,"",J,green,10,"",88,"",""
570081,28,28,block_Trng,3,task_Trng,2,1,"","",10,2,"","",Block2,"",K,Stim13,LR,91,"",K,blue,8,"",90,"",""
570081,29,29,block_Trng,3,task_Trng,2,1,"","",11,2,"","",Block2,"",K,ISI,HR,244,"",K,red,11,"",100,"",""
570081,30,30,block_Trng,3,task_Trng,2,1,"","",12,2,"","",Block2,"",J,Stim16,NR,141,"",J,green,12,"",100,"",""
570081,31,31,block_Trng,3,task_Trng,2,1,"","",13,2,"","",Block2,"",J,Stim13,HR,69,"",J,red,8,"",110,"",""
570081,32,32,block_Trng,3,task_Trng,2,1,"","",14,2,"","",Block2,"",K,Stim16,HR,13,"",K,red,9,"",120,"",""
570081,33,33,block_Trng,3,task_Trng,2,1,"","",15,2,"","",Block2,"",K,ISI,HR,59,"",K,red,13,"",130,"",""
570081,34,34,block_Trng,3,task_Trng,2,1,"","",16,2,"","",Block2,"",K,ISI,LR,7,"",K,blue,12,"",132,"",""
570081,35,35,block_Trng,3,task_Trng,2,1,"","",17,2,"","",Block2,"",J,Stim14,LR,11,"",J,blue,9,"",134,"",""
570081,36,36,block_Trng,3,task_Trng,2,1,"","",18,2,"","",Block2,"",J,Stim15,HR,18,"",J,red,10,"",144,"",""
570081,37,37,block_Trng,3,task_Trng,2,1,"","",1,3,"","",Block3,"",K,ISI,NR,26,"",K,green,13,"",144,"",""
570081,38,38,block_Trng,3,task_Trng,2,1,"","",2,3,"","",Block3,"",J,Stim13,NR,39,"",J,green,8,"",144,"",""
570081,39,39,block_Trng,3,task_Trng,2,1,"","",3,3,"","",Block3,"",K,Stim14,NR,52,"",K,green,9,"",144,"",""
570081,40,40,block_Trng,3,task_Trng,2,1,"","",4,3,"","",Block3,"",K,Stim16,NR,95,"",K,green,11,"",144,"",""
570081,41,41,block_Trng,3,task_Trng,2,1,"","",5,3,"","",Block3,"",J,ISI,LR,286,"",J,blue,13,"",146,"",""
570081,42,42,block_Trng,3,task_Trng,2,1,"","",6,3,"","",Block3,"",K,Stim15,LR,23,"",K,blue,10,"",148,"",""
570081,43,43,block_Trng,3,task_Trng,2,1,"","",7,3,"","",Block3,"",J,ISI,HR,43,"",J,red,12,"",158,"",""
570081,44,44,block_Trng,3,task_Trng,2,1,"","",8,3,"","",Block3,"",J,ISI,LR,1,"",J,blue,11,"",160,"",""
570081,45,45,block_Trng,3,task_Trng,2,1,"","",9,3,"","",Block3,"",J,Stim15,NR,2,"",J,green,10,"",160,"",""
570081,46,46,block_Trng,3,task_Trng,2,1,"","",10,3,"","",Block3,"",K,Stim12,LR,8,"",K,blue,8,"",162,"",""
570081,47,47,block_Trng,3,task_Trng,2,1,"","",11,3,"","",Block3,"",K,Stim14,HR,106,"",K,red,11,"",172,"",""
570081,48,48,block_Trng,3,task_Trng,2,1,"","",12,3,"","",Block3,"",J,Stim16,NR,61,"",J,green,12,"",172,"",""
570081,49,49,block_Trng,3,task_Trng,2,1,"","",13,3,"","",Block3,"",J,Stim12,HR,31,"",J,red,8,"",182,"",""
570081,50,50,block_Trng,3,task_Trng,2,1,"","",14,3,"","",Block3,"",K,Stim14,HR,75,"",K,red,9,"",192,"",""
570081,51,51,block_Trng,3,task_Trng,2,1,"","",15,3,"","",Block3,"",K,ISI,HR,189,"",K,red,13,"",202,"",""
570081,52,52,block_Trng,3,task_Trng,2,1,"","",16,3,"","",Block3,"",K,ISI,LR,2,"",K,blue,12,"",204,"",""
570081,53,53,block_Trng,3,task_Trng,2,1,"","",17,3,"","",Block3,"",J,Stim13,LR,96,"",J,blue,9,"",206,"",""
570081,54,54,block_Trng,3,task_Trng,2,1,"","",18,3,"","",Block3,"",J,Stim15,HR,96,"",J,red,10,"",216,"",""
570081,55,55,block_Trng,3,task_Trng,2,1,"","",1,4,"","",Block4,"",K,Stim16,NR,101,"",K,green,13,"",216,"",""
570081,56,56,block_Trng,3,task_Trng,2,0,"","",2,4,"","",Block4,"",K,Stim13,NR,15,"",J,green,8,"",216,"",""
570081,57,57,block_Trng,3,task_Trng,2,1,"","",3,4,"","",Block4,"",K,Stim15,NR,77,"",K,green,9,"",216,"",""
570081,58,58,block_Trng,3,task_Trng,2,1,"","",4,4,"","",Block4,"",K,Stim15,NR,21,"",K,green,11,"",216,"",""
570081,59,59,block_Trng,3,task_Trng,2,1,"","",5,4,"","",Block4,"",J,ISI,LR,78,"",J,blue,13,"",218,"",""
570081,60,60,block_Trng,3,task_Trng,2,1,"","",6,4,"","",Block4,"",K,Stim16,LR,29,"",K,blue,10,"",220,"",""
570081,61,61,block_Trng,3,task_Trng,2,1,"","",7,4,"","",Block4,"",J,ISI,HR,75,"",J,red,12,"",230,"",""
570081,62,62,block_Trng,3,task_Trng,2,1,"","",8,4,"","",Block4,"",J,Stim15,LR,64,"",J,blue,11,"",232,"",""
570081,63,63,block_Trng,3,task_Trng,2,1,"","",9,4,"","",Block4,"",J,Stim15,NR,90,"",J,green,10,"",232,"",""
570081,64,64,block_Trng,3,task_Trng,2,1,"","",10,4,"","",Block4,"",K,Stim13,LR,23,"",K,blue,8,"",234,"",""
570081,65,65,block_Trng,3,task_Trng,2,1,"","",11,4,"","",Block4,"",K,Stim15,HR,52,"",K,red,11,"",244,"",""
570081,66,66,block_Trng,3,task_Trng,2,1,"","",12,4,"","",Block4,"",J,Stim16,NR,113,"",J,green,12,"",244,"",""
570081,67,67,block_Trng,3,task_Trng,2,1,"","",13,4,"","",Block4,"",J,Stim12,HR,113,"",J,red,8,"",254,"",""
570081,68,68,block_Trng,3,task_Trng,2,1,"","",14,4,"","",Block4,"",K,Stim14,HR,76,"",K,red,9,"",264,"",""
570081,69,69,block_Trng,3,task_Trng,2,1,"","",15,4,"","",Block4,"",K,ISI,HR,289,"",K,red,13,"",274,"",""
570081,70,70,block_Trng,3,task_Trng,2,1,"","",16,4,"","",Block4,"",K,ISI,LR,332,"",K,blue,12,"",276,"",""
570081,71,71,block_Trng,3,task_Trng,2,1,"","",17,4,"","",Block4,"",J,ISI,LR,449,"",J,blue,9,"",278,"",""
570081,72,72,block_Trng,3,task_Trng,2,1,"","",18,4,"","",Block4,"",J,Stim16,HR,18,"",J,red,10,"",288,"",""
570081,73,73,block_Trng,3,task_Trng,2,1,"","",1,5,"","",Block5,"",K,ISI,NR,379,"",K,green,13,"",288,"",""
570081,74,74,block_Trng,3,task_Trng,2,1,"","",2,5,"","",Block5,"",J,Stim14,NR,86,"",J,green,8,"",288,"",""
570081,75,75,block_Trng,3,task_Trng,2,1,"","",3,5,"","",Block5,"",K,Stim15,NR,5,"",K,green,9,"",288,"",""
570081,76,76,block_Trng,3,task_Trng,2,1,"","",4,5,"","",Block5,"",K,Stim16,NR,51,"",K,green,11,"",288,"",""
570081,77,77,block_Trng,3,task_Trng,2,1,"","",5,5,"","",Block5,"",J,ISI,LR,238,"",J,blue,13,"",290,"",""
570081,78,78,block_Trng,3,task_Trng,2,1,"","",6,5,"","",Block5,"",K,Stim15,LR,25,"",K,blue,10,"",292,"",""
570081,79,79,block_Trng,3,task_Trng,2,1,"","",7,5,"","",Block5,"",J,ISI,HR,108,"",J,red,12,"",302,"",""
570081,80,80,block_Trng,3,task_Trng,2,1,"","",8,5,"","",Block5,"",J,Stim16,LR,47,"",J,blue,11,"",304,"",""
570081,81,81,block_Trng,3,task_Trng,2,1,"","",9,5,"","",Block5,"",J,Stim15,NR,36,"",J,green,10,"",304,"",""
570081,82,82,block_Trng,3,task_Trng,2,1,"","",10,5,"","",Block5,"",K,Stim12,LR,97,"",K,blue,8,"",306,"",""
570081,83,83,block_Trng,3,task_Trng,2,1,"","",11,5,"","",Block5,"",K,Stim16,HR,1,"",K,red,11,"",316,"",""
570081,84,84,block_Trng,3,task_Trng,2,1,"","",12,5,"","",Block5,"",J,ISI,NR,84,"",J,green,12,"",316,"",""
570081,85,85,block_Trng,3,task_Trng,2,1,"","",13,5,"","",Block5,"",J,Stim14,HR,14,"",J,red,8,"",326,"",""
570081,86,86,block_Trng,3,task_Trng,2,1,"","",14,5,"","",Block5,"",K,Stim13,HR,51,"",K,red,9,"",336,"",""
570081,87,87,block_Trng,3,task_Trng,2,1,"","",15,5,"","",Block5,"",K,ISI,HR,91,"",K,red,13,"",346,"",""
570081,88,88,block_Trng,3,task_Trng,2,1,"","",16,5,"","",Block5,"",K,ISI,LR,291,"",K,blue,12,"",348,"",""
570081,89,89,block_Trng,3,task_Trng,2,1,"","",17,5,"","",Block5,"",J,Stim14,LR,10,"",J,blue,9,"",350,"",""
570081,90,90,block_Trng,3,task_Trng,2,1,"","",18,5,"","",Block5,"",J,Stim14,HR,110,"",J,red,10,"",360,"",""
570081,91,91,block_Trng,3,task_Trng,2,1,"","",1,6,"","",Block6,"",K,ISI,NR,206,"",K,green,13,"",360,"",""
570081,92,92,block_Trng,3,task_Trng,2,1,"","",2,6,"","",Block6,"",J,Stim13,NR,88,"",J,green,8,"",360,"",""
570081,93,93,block_Trng,3,task_Trng,2,1,"","",3,6,"","",Block6,"",K,Stim15,NR,48,"",K,green,9,"",360,"",""
570081,94,94,block_Trng,3,task_Trng,2,1,"","",4,6,"","",Block6,"",K,Stim16,NR,14,"",K,green,11,"",360,"",""
570081,95,95,block_Trng,3,task_Trng,2,1,"","",5,6,"","",Block6,"",J,ISI,LR,280,"",J,blue,13,"",362,"",""
570081,96,96,block_Trng,3,task_Trng,2,1,"","",6,6,"","",Block6,"",K,ISI,LR,82,"",K,blue,10,"",364,"",""
570081,97,97,block_Trng,3,task_Trng,2,1,"","",7,6,"","",Block6,"",J,ISI,HR,372,"",J,red,12,"",374,"",""
570081,98,98,block_Trng,3,task_Trng,2,1,"","",8,6,"","",Block6,"",J,ISI,LR,266,"",J,blue,11,"",376,"",""
570081,99,99,block_Trng,3,task_Trng,2,1,"","",9,6,"","",Block6,"",J,Stim15,NR,60,"",J,green,10,"",376,"",""
570081,100,100,block_Trng,3,task_Trng,2,1,"","",10,6,"","",Block6,"",K,Stim14,LR,7,"",K,blue,8,"",378,"",""
570081,101,101,block_Trng,3,task_Trng,2,1,"","",11,6,"","",Block6,"",K,Stim15,HR,48,"",K,red,11,"",388,"",""
570081,102,102,block_Trng,3,task_Trng,2,1,"","",12,6,"","",Block6,"",J,ISI,NR,24,"",J,green,12,"",388,"",""
570081,103,103,block_Trng,3,task_Trng,2,1,"","",13,6,"","",Block6,"",J,Stim12,HR,36,"",J,red,8,"",398,"",""
570081,104,104,block_Trng,3,task_Trng,2,1,"","",14,6,"","",Block6,"",K,Stim13,HR,113,"",K,red,9,"",408,"",""
570081,105,105,block_Trng,3,task_Trng,2,1,"","",15,6,"","",Block6,"",K,ISI,HR,119,"",K,red,13,"",418,"",""
570081,106,106,block_Trng,3,task_Trng,2,1,"","",16,6,"","",Block6,"",K,Stim16,LR,88,"",K,blue,12,"",420,"",""
570081,107,107,block_Trng,3,task_Trng,2,1,"","",17,6,"","",Block6,"",J,Stim14,LR,15,"",J,blue,9,"",422,"",""
570081,108,108,block_Trng,3,task_Trng,2,1,"","",18,6,"","",Block6,"",J,Stim15,HR,4,"",J,red,10,"",432,"",""
570081,109,109,block_Trng,3,task_Trng,2,1,"","",1,7,"","",Block7,"",K,ISI,NR,110,"",K,green,13,"",432,"",""
570081,110,110,block_Trng,3,task_Trng,2,1,"","",2,7,"","",Block7,"",J,Stim13,NR,24,"",J,green,8,"",432,"",""
570081,111,111,block_Trng,3,task_Trng,2,1,"","",3,7,"","",Block7,"",K,Stim14,NR,59,"",K,green,9,"",432,"",""
570081,112,112,block_Trng,3,task_Trng,2,1,"","",4,7,"","",Block7,"",K,ISI,NR,14,"",K,green,11,"",432,"",""
570081,113,113,block_Trng,3,task_Trng,2,1,"","",5,7,"","",Block7,"",J,ISI,LR,139,"",J,blue,13,"",434,"",""
570081,114,114,block_Trng,3,task_Trng,2,1,"","",6,7,"","",Block7,"",K,Stim13,LR,103,"",K,blue,10,"",436,"",""
570081,115,115,block_Trng,3,task_Trng,2,1,"","",7,7,"","",Block7,"",J,ISI,HR,40,"",J,red,12,"",446,"",""
570081,116,116,block_Trng,3,task_Trng,2,0,"","",8,7,"","",Block7,"",K,ISI,LR,92,"",J,blue,11,"",446,"",""
570081,117,117,block_Trng,3,task_Trng,2,1,"","",9,7,"","",Block7,"",J,Stim15,NR,50,"",J,green,10,"",446,"",""
570081,118,118,block_Trng,3,task_Trng,2,0,"","",10,7,"","",Block7,"",J,Stim14,LR,100,"",K,blue,8,"",446,"",""
570081,119,119,block_Trng,3,task_Trng,2,0,"","",11,7,"","",Block7,"",K,Fdbck,HR,287,"",K,red,11,"",446,"",""
570081,120,120,block_Trng,3,task_Trng,2,1,"","",12,7,"","",Block7,"",J,ISI,NR,124,"",J,green,12,"",446,"",""
570081,121,121,block_Trng,3,task_Trng,2,1,"","",13,7,"","",Block7,"",J,Stim13,HR,15,"",J,red,8,"",456,"",""
570081,122,122,block_Trng,3,task_Trng,2,1,"","",14,7,"","",Block7,"",K,Stim14,HR,34,"",K,red,9,"",466,"",""
570081,123,123,block_Trng,3,task_Trng,2,1,"","",15,7,"","",Block7,"",K,ISI,HR,140,"",K,red,13,"",476,"",""
570081,124,124,block_Trng,3,task_Trng,2,1,"","",16,7,"","",Block7,"",K,ISI,LR,214,"",K,blue,12,"",478,"",""
570081,125,125,block_Trng,3,task_Trng,2,1,"","",17,7,"","",Block7,"",J,Stim14,LR,88,"",J,blue,9,"",480,"",""
570081,126,126,block_Trng,3,task_Trng,2,1,"","",18,7,"","",Block7,"",J,Stim16,HR,22,"",J,red,10,"",490,"",""
570081,127,127,block_Trng,3,task_Trng,2,1,"","",1,8,"","",Block8,"",K,ISI,NR,108,"",K,green,13,"",490,"",""
570081,128,128,block_Trng,3,task_Trng,2,1,"","",2,8,"","",Block8,"",J,Stim11,NR,91,"",J,green,8,"",490,"",""
570081,129,129,block_Trng,3,task_Trng,2,1,"","",3,8,"","",Block8,"",K,Stim14,NR,35,"",K,green,9,"",490,"",""
570081,130,130,block_Trng,3,task_Trng,2,1,"","",4,8,"","",Block8,"",K,ISI,NR,77,"",K,green,11,"",490,"",""
570081,131,131,block_Trng,3,task_Trng,2,1,"","",5,8,"","",Block8,"",J,ISI,LR,193,"",J,blue,13,"",492,"",""
570081,132,132,block_Trng,3,task_Trng,2,1,"","",6,8,"","",Block8,"",K,Stim15,LR,5,"",K,blue,10,"",494,"",""
570081,133,133,block_Trng,3,task_Trng,2,1,"","",7,8,"","",Block8,"",J,Stim16,HR,87,"",J,red,12,"",504,"",""
570081,134,134,block_Trng,3,task_Trng,2,1,"","",8,8,"","",Block8,"",J,Stim15,LR,81,"",J,blue,11,"",506,"",""
570081,135,135,block_Trng,3,task_Trng,2,1,"","",9,8,"","",Block8,"",J,Stim14,NR,96,"",J,green,10,"",506,"",""
570081,136,136,block_Trng,3,task_Trng,2,1,"","",10,8,"","",Block8,"",K,ISI,LR,35,"",K,blue,8,"",508,"",""
570081,137,137,block_Trng,3,task_Trng,2,1,"","",11,8,"","",Block8,"",K,Stim15,HR,113,"",K,red,11,"",518,"",""
570081,138,138,block_Trng,3,task_Trng,2,1,"","",12,8,"","",Block8,"",J,Stim16,NR,83,"",J,green,12,"",518,"",""
570081,139,139,block_Trng,3,task_Trng,2,1,"","",13,8,"","",Block8,"",J,Stim13,HR,90,"",J,red,8,"",528,"",""
570081,140,140,block_Trng,3,task_Trng,2,1,"","",14,8,"","",Block8,"",K,Stim13,HR,90,"",K,red,9,"",538,"",""
570081,141,141,block_Trng,3,task_Trng,2,1,"","",15,8,"","",Block8,"",K,ISI,HR,340,"",K,red,13,"",548,"",""
570081,142,142,block_Trng,3,task_Trng,2,1,"","",16,8,"","",Block8,"",K,ISI,LR,79,"",K,blue,12,"",550,"",""
570081,143,143,block_Trng,3,task_Trng,2,1,"","",17,8,"","",Block8,"",J,ISI,LR,319,"",J,blue,9,"",552,"",""
570081,144,144,block_Trng,3,task_Trng,2,1,"","",18,8,"","",Block8,"",J,Stim16,HR,20,"",J,red,10,"",562,"",""
570081,145,145,block_Trng,3,task_Trng,2,1,"","",1,9,"","",Block9,"",K,ISI,NR,217,"",K,green,13,"",562,"",""
570081,146,146,block_Trng,3,task_Trng,2,1,"","",2,9,"","",Block9,"",J,Stim15,NR,16,"",J,green,8,"",562,"",""
570081,147,147,block_Trng,3,task_Trng,2,1,"","",3,9,"","",Block9,"",K,Stim15,NR,103,"",K,green,9,"",562,"",""
570081,148,148,block_Trng,3,task_Trng,2,1,"","",4,9,"","",Block9,"",K,ISI,NR,48,"",K,green,11,"",562,"",""
570081,149,149,block_Trng,3,task_Trng,2,1,"","",5,9,"","",Block9,"",J,ISI,LR,196,"",J,blue,13,"",564,"",""
570081,150,150,block_Trng,3,task_Trng,2,0,"","",6,9,"","",Block9,"",J,ISI,LR,937,"",K,blue,10,"",564,"",""
570081,151,151,block_Trng,3,task_Trng,2,1,"","",7,9,"","",Block9,"",J,ISI,HR,427,"",J,red,12,"",574,"",""
570081,152,152,block_Trng,3,task_Trng,2,1,"","",8,9,"","",Block9,"",J,ISI,LR,1,"",J,blue,11,"",576,"",""
570081,153,153,block_Trng,3,task_Trng,2,1,"","",9,9,"","",Block9,"",J,ISI,NR,371,"",J,green,10,"",576,"",""
570081,154,154,block_Trng,3,task_Trng,2,1,"","",10,9,"","",Block9,"",K,Stim14,LR,101,"",K,blue,8,"",578,"",""
570081,155,155,block_Trng,3,task_Trng,2,1,"","",11,9,"","",Block9,"",K,ISI,HR,64,"",K,red,11,"",588,"",""
570081,156,156,block_Trng,3,task_Trng,2,1,"","",12,9,"","",Block9,"",J,ISI,NR,379,"",J,green,12,"",588,"",""
570081,157,157,block_Trng,3,task_Trng,2,1,"","",13,9,"","",Block9,"",J,ISI,HR,894,"",J,red,8,"",598,"",""
570081,158,158,block_Trng,3,task_Trng,2,1,"","",14,9,"","",Block9,"",K,ISI,HR,377,"",K,red,9,"",608,"",""
570081,159,159,block_Trng,3,task_Trng,2,1,"","",15,9,"","",Block9,"",K,ISI,HR,473,"",K,red,13,"",618,"",""
570081,160,160,block_Trng,3,task_Trng,2,1,"","",16,9,"","",Block9,"",K,ISI,LR,311,"",K,blue,12,"",620,"",""
570081,161,161,block_Trng,3,task_Trng,2,1,"","",17,9,"","",Block9,"",J,Stim16,LR,3,"",J,blue,9,"",622,"",""
570081,162,162,block_Trng,3,task_Trng,2,1,"","",18,9,"","",Block9,"",J,ISI,HR,69,"",J,red,10,"",632,"",""
570081,163,163,block_Trng,3,task_Trng,2,1,"","",1,10,"","",Block10,"",K,ISI,NR,378,"",K,green,13,"",632,"",""
570081,164,164,block_Trng,3,task_Trng,2,1,"","",2,10,"","",Block10,"",J,Stim14,NR,19,"",J,green,8,"",632,"",""
570081,165,165,block_Trng,3,task_Trng,2,1,"","",3,10,"","",Block10,"",K,ISI,NR,114,"",K,green,9,"",632,"",""
570081,166,166,block_Trng,3,task_Trng,2,0,"","",4,10,"","",Block10,"",J,ISI,NR,856,"",K,green,11,"",632,"",""
570081,167,167,block_Trng,3,task_Trng,2,1,"","",5,10,"","",Block10,"",J,ISI,LR,495,"",J,blue,13,"",634,"",""
570081,168,168,block_Trng,3,task_Trng,2,1,"","",6,10,"","",Block10,"",K,ISI,LR,898,"",K,blue,10,"",636,"",""
570081,169,169,block_Trng,3,task_Trng,2,1,"","",7,10,"","",Block10,"",J,ISI,HR,202,"",J,red,12,"",646,"",""
570081,170,170,block_Trng,3,task_Trng,2,1,"","",8,10,"","",Block10,"",J,ISI,LR,428,"",J,blue,11,"",648,"",""
570081,171,171,block_Trng,3,task_Trng,2,1,"","",9,10,"","",Block10,"",J,ISI,NR,188,"",J,green,10,"",648,"",""
570081,172,172,block_Trng,3,task_Trng,2,1,"","",10,10,"","",Block10,"",K,ISI,LR,569,"",K,blue,8,"",650,"",""
570081,173,173,block_Trng,3,task_Trng,2,1,"","",11,10,"","",Block10,"",K,ISI,HR,411,"",K,red,11,"",660,"",""
570081,174,174,block_Trng,3,task_Trng,2,1,"","",12,10,"","",Block10,"",J,ISI,NR,593,"",J,green,12,"",660,"",""
570081,175,175,block_Trng,3,task_Trng,2,1,"","",13,10,"","",Block10,"",J,ISI,HR,924,"",J,red,8,"",670,"",""
570081,176,176,block_Trng,3,task_Trng,2,1,"","",14,10,"","",Block10,"",K,Stim16,HR,35,"",K,red,9,"",680,"",""
570081,177,177,block_Trng,3,task_Trng,2,1,"","",15,10,"","",Block10,"",K,ISI,HR,403,"",K,red,13,"",690,"",""
570081,178,178,block_Trng,3,task_Trng,2,1,"","",16,10,"","",Block10,"",K,ISI,LR,61,"",K,blue,12,"",692,"",""
570081,179,179,block_Trng,3,task_Trng,2,1,"","",17,10,"","",Block10,"",J,Stim15,LR,50,"",J,blue,9,"",694,"",""
570081,180,180,block_Trng,3,task_Trng,2,1,"","",18,10,"","",Block10,"",J,Stim14,HR,75,"",J,red,10,"",704,"",""
570081,181,181,block_Trng,3,task_Trng,2,0,"","",1,11,"","",Block11,"",K,Fdbck,NR,219,"",K,green,13,"",704,"",""
570081,182,182,block_Trng,3,task_Trng,2,1,"","",2,11,"","",Block11,"",J,Stim16,NR,97,"",J,green,8,"",704,"",""
570081,183,183,block_Trng,3,task_Trng,2,1,"","",3,11,"","",Block11,"",K,Stim16,NR,84,"",K,green,9,"",704,"",""
570081,184,184,block_Trng,3,task_Trng,2,1,"","",4,11,"","",Block11,"",K,ISI,NR,159,"",K,green,11,"",704,"",""
570081,185,185,block_Trng,3,task_Trng,2,0,"","",5,11,"","",Block11,"",K,Fdbck,LR,548,"",J,blue,13,"",704,"",""
570081,186,186,block_Trng,3,task_Trng,2,1,"","",6,11,"","",Block11,"",K,Stim15,LR,104,"",K,blue,10,"",706,"",""
570081,187,187,block_Trng,3,task_Trng,2,1,"","",7,11,"","",Block11,"",J,ISI,HR,874,"",J,red,12,"",716,"",""
570081,188,188,block_Trng,3,task_Trng,2,0,"","",8,11,"","",Block11,"",K,ISI,LR,570,"",J,blue,11,"",716,"",""
570081,189,189,block_Trng,3,task_Trng,2,1,"","",9,11,"","",Block11,"",J,Stim14,NR,47,"",J,green,10,"",716,"",""
570081,190,190,block_Trng,3,task_Trng,2,1,"","",10,11,"","",Block11,"",K,Stim13,LR,9,"",K,blue,8,"",718,"",""
570081,191,191,block_Trng,3,task_Trng,2,1,"","",11,11,"","",Block11,"",K,Stim16,HR,12,"",K,red,11,"",728,"",""
570081,192,192,block_Trng,3,task_Trng,2,1,"","",12,11,"","",Block11,"",J,Stim16,NR,103,"",J,green,12,"",728,"",""
570081,193,193,block_Trng,3,task_Trng,2,0,"","",13,11,"","",Block11,"",K,Stim12,HR,3,"",J,red,8,"",728,"",""
570081,194,194,block_Trng,3,task_Trng,2,1,"","",14,11,"","",Block11,"",K,ISI,HR,190,"",K,red,9,"",738,"",""
570081,195,195,block_Trng,3,task_Trng,2,1,"","",15,11,"","",Block11,"",K,ISI,HR,352,"",K,red,13,"",748,"",""
570081,196,196,block_Trng,3,task_Trng,2,1,"","",16,11,"","",Block11,"",K,ISI,LR,423,"",K,blue,12,"",750,"",""
570081,197,197,block_Trng,3,task_Trng,2,1,"","",17,11,"","",Block11,"",J,ISI,LR,35,"",J,blue,9,"",752,"",""
570081,198,198,block_Trng,3,task_Trng,2,1,"","",18,11,"","",Block11,"",J,ISI,HR,262,"",J,red,10,"",762,"",""
570081,199,199,block_Trng,3,task_Trng,2,1,"","",1,12,"","",Block12,"",K,ISI,NR,408,"",K,green,13,"",762,"",""
570081,200,200,block_Trng,3,task_Trng,2,1,"","",2,12,"","",Block12,"",J,Stim16,NR,11,"",J,green,8,"",762,"",""
570081,201,201,block_Trng,3,task_Trng,2,1,"","",3,12,"","",Block12,"",K,Stim15,NR,8,"",K,green,9,"",762,"",""
570081,202,202,block_Trng,3,task_Trng,2,1,"","",4,12,"","",Block12,"",K,Stim15,NR,51,"",K,green,11,"",762,"",""
570081,203,203,block_Trng,3,task_Trng,2,1,"","",5,12,"","",Block12,"",J,ISI,LR,99,"",J,blue,13,"",764,"",""
570081,204,204,block_Trng,3,task_Trng,2,1,"","",6,12,"","",Block12,"",K,Stim15,LR,29,"",K,blue,10,"",766,"",""
570081,205,205,block_Trng,3,task_Trng,2,1,"","",7,12,"","",Block12,"",J,ISI,HR,57,"",J,red,12,"",776,"",""
570081,206,206,block_Trng,3,task_Trng,2,1,"","",8,12,"","",Block12,"",J,Stim16,LR,17,"",J,blue,11,"",778,"",""
570081,207,207,block_Trng,3,task_Trng,2,1,"","",9,12,"","",Block12,"",J,Stim15,NR,80,"",J,green,10,"",778,"",""
570081,208,208,block_Trng,3,task_Trng,2,1,"","",10,12,"","",Block12,"",K,Stim13,LR,74,"",K,blue,8,"",780,"",""
570081,209,209,block_Trng,3,task_Trng,2,1,"","",11,12,"","",Block12,"",K,ISI,HR,83,"",K,red,11,"",790,"",""
570081,210,210,block_Trng,3,task_Trng,2,1,"","",12,12,"","",Block12,"",J,ISI,NR,23,"",J,green,12,"",790,"",""
570081,211,211,block_Trng,3,task_Trng,2,1,"","",13,12,"","",Block12,"",J,Stim13,HR,51,"",J,red,8,"",800,"",""
570081,212,212,block_Trng,3,task_Trng,2,1,"","",14,12,"","",Block12,"",K,Stim15,HR,88,"",K,red,9,"",810,"",""
570081,213,213,block_Trng,3,task_Trng,2,1,"","",15,12,"","",Block12,"",K,ISI,HR,75,"",K,red,13,"",820,"",""
570081,214,214,block_Trng,3,task_Trng,2,1,"","",16,12,"","",Block12,"",K,ISI,LR,37,"",K,blue,12,"",822,"",""
570081,215,215,block_Trng,3,task_Trng,2,1,"","",17,12,"","",Block12,"",J,Stim14,LR,8,"",J,blue,9,"",824,"",""
570081,216,216,block_Trng,3,task_Trng,2,1,"","",18,12,"","",Block12,"",J,Stim15,HR,36,"",J,red,10,"",834,"",""
570081,217,217,block_Trng,3,task_Trng,2,1,"","",1,13,"","",Block13,"",K,ISI,NR,175,"",K,green,13,"",834,"",""
570081,218,218,block_Trng,3,task_Trng,2,1,"","",2,13,"","",Block13,"",J,Stim14,NR,116,"",J,green,8,"",834,"",""
570081,219,219,block_Trng,3,task_Trng,2,1,"","",3,13,"","",Block13,"",K,Stim14,NR,35,"",K,green,9,"",834,"",""
570081,220,220,block_Trng,3,task_Trng,2,0,"","",4,13,"","",Block13,"",J,Stim11,NR,97,"",K,green,11,"",834,"",""
570081,221,221,block_Trng,3,task_Trng,2,1,"","",5,13,"","",Block13,"",J,ISI,LR,266,"",J,blue,13,"",836,"",""
570081,222,222,block_Trng,3,task_Trng,2,1,"","",6,13,"","",Block13,"",K,Stim14,LR,25,"",K,blue,10,"",838,"",""
570081,223,223,block_Trng,3,task_Trng,2,1,"","",7,13,"","",Block13,"",J,ISI,HR,144,"",J,red,12,"",848,"",""
570081,224,224,block_Trng,3,task_Trng,2,1,"","",8,13,"","",Block13,"",J,ISI,LR,17,"",J,blue,11,"",850,"",""
570081,225,225,block_Trng,3,task_Trng,2,1,"","",9,13,"","",Block13,"",J,Stim15,NR,56,"",J,green,10,"",850,"",""
570081,226,226,block_Trng,3,task_Trng,2,1,"","",10,13,"","",Block13,"",K,Stim13,LR,10,"",K,blue,8,"",852,"",""
570081,227,227,block_Trng,3,task_Trng,2,1,"","",11,13,"","",Block13,"",K,Stim16,HR,17,"",K,red,11,"",862,"",""
570081,228,228,block_Trng,3,task_Trng,2,1,"","",12,13,"","",Block13,"",J,ISI,NR,129,"",J,green,12,"",862,"",""
570081,229,229,block_Trng,3,task_Trng,2,1,"","",13,13,"","",Block13,"",J,Stim12,HR,77,"",J,red,8,"",872,"",""
570081,230,230,block_Trng,3,task_Trng,2,1,"","",14,13,"","",Block13,"",K,Stim12,HR,121,"",K,red,9,"",882,"",""
570081,231,231,block_Trng,3,task_Trng,2,1,"","",15,13,"","",Block13,"",K,ISI,HR,122,"",K,red,13,"",892,"",""
570081,232,232,block_Trng,3,task_Trng,2,1,"","",16,13,"","",Block13,"",K,ISI,LR,343,"",K,blue,12,"",894,"",""
570081,233,233,block_Trng,3,task_Trng,2,1,"","",17,13,"","",Block13,"",J,Stim15,LR,48,"",J,blue,9,"",896,"",""
570081,234,234,block_Trng,3,task_Trng,2,1,"","",18,13,"","",Block13,"",J,Stim14,HR,108,"",J,red,10,"",906,"",""
570081,235,235,block_Trng,3,task_Trng,2,1,"","",1,14,"","",Block14,"",K,ISI,NR,182,"",K,green,13,"",906,"",""
570081,236,236,block_Trng,3,task_Trng,2,1,"","",2,14,"","",Block14,"",J,Stim13,NR,80,"",J,green,8,"",906,"",""
570081,237,237,block_Trng,3,task_Trng,2,1,"","",3,14,"","",Block14,"",K,Stim14,NR,102,"",K,green,9,"",906,"",""
570081,238,238,block_Trng,3,task_Trng,2,1,"","",4,14,"","",Block14,"",K,ISI,NR,172,"",K,green,11,"",906,"",""
570081,239,239,block_Trng,3,task_Trng,2,1,"","",5,14,"","",Block14,"",J,ISI,LR,230,"",J,blue,13,"",908,"",""
570081,240,240,block_Trng,3,task_Trng,2,1,"","",6,14,"","",Block14,"",K,Stim16,LR,41,"",K,blue,10,"",910,"",""
570081,241,241,block_Trng,3,task_Trng,2,1,"","",7,14,"","",Block14,"",J,ISI,HR,20,"",J,red,12,"",920,"",""
570081,242,242,block_Trng,3,task_Trng,2,1,"","",8,14,"","",Block14,"",J,Stim15,LR,10,"",J,blue,11,"",922,"",""
570081,243,243,block_Trng,3,task_Trng,2,1,"","",9,14,"","",Block14,"",J,Stim16,NR,102,"",J,green,10,"",922,"",""
570081,244,244,block_Trng,3,task_Trng,2,1,"","",10,14,"","",Block14,"",K,Stim13,LR,23,"",K,blue,8,"",924,"",""
570081,245,245,block_Trng,3,task_Trng,2,1,"","",11,14,"","",Block14,"",K,Stim16,HR,6,"",K,red,11,"",934,"",""
570081,246,246,block_Trng,3,task_Trng,2,1,"","",12,14,"","",Block14,"",J,ISI,NR,161,"",J,green,12,"",934,"",""
570081,247,247,block_Trng,3,task_Trng,2,1,"","",13,14,"","",Block14,"",J,Stim14,HR,36,"",J,red,8,"",944,"",""
570081,248,248,block_Trng,3,task_Trng,2,1,"","",14,14,"","",Block14,"",K,Stim15,HR,50,"",K,red,9,"",954,"",""
570081,249,249,block_Trng,3,task_Trng,2,1,"","",15,14,"","",Block14,"",K,ISI,HR,225,"",K,red,13,"",964,"",""
570081,250,250,block_Trng,3,task_Trng,2,1,"","",16,14,"","",Block14,"",K,ISI,LR,11,"",K,blue,12,"",966,"",""
570081,251,251,block_Trng,3,task_Trng,2,1,"","",17,14,"","",Block14,"",J,Stim15,LR,15,"",J,blue,9,"",968,"",""
570081,252,252,block_Trng,3,task_Trng,2,1,"","",18,14,"","",Block14,"",J,Stim15,HR,30,"",J,red,10,"",978,"",""
570081,253,253,block_Trng,3,task_Trng,2,1,"","",1,15,"","",Block15,"",K,ISI,NR,12,"",K,green,13,"",978,"",""
570081,254,254,block_Trng,3,task_Trng,2,1,"","",2,15,"","",Block15,"",J,Stim13,NR,75,"",J,green,8,"",978,"",""
570081,255,255,block_Trng,3,task_Trng,2,1,"","",3,15,"","",Block15,"",K,Stim15,NR,6,"",K,green,9,"",978,"",""
570081,256,256,block_Trng,3,task_Trng,2,1,"","",4,15,"","",Block15,"",K,Stim15,NR,100,"",K,green,11,"",978,"",""
570081,257,257,block_Trng,3,task_Trng,2,1,"","",5,15,"","",Block15,"",J,ISI,LR,310,"",J,blue,13,"",980,"",""
570081,258,258,block_Trng,3,task_Trng,2,1,"","",6,15,"","",Block15,"",K,Stim14,LR,62,"",K,blue,10,"",982,"",""
570081,259,259,block_Trng,3,task_Trng,2,1,"","",7,15,"","",Block15,"",J,ISI,HR,10,"",J,red,12,"",992,"",""
570081,260,260,block_Trng,3,task_Trng,2,1,"","",8,15,"","",Block15,"",J,ISI,LR,133,"",J,blue,11,"",994,"",""
570081,261,261,block_Trng,3,task_Trng,2,0,"","",9,15,"","",Block15,"",K,Stim16,NR,6,"",J,green,10,"",994,"",""
570081,262,262,block_Trng,3,task_Trng,2,1,"","",10,15,"","",Block15,"",K,ISI,LR,881,"",K,blue,8,"",996,"",""
570081,263,263,block_Trng,3,task_Trng,2,1,"","",11,15,"","",Block15,"",K,ISI,HR,218,"",K,red,11,"",1006,"",""
570081,264,264,block_Trng,3,task_Trng,2,1,"","",12,15,"","",Block15,"",J,ISI,NR,896,"",J,green,12,"",1006,"",""
570081,265,265,block_Trng,3,task_Trng,2,1,"","",13,15,"","",Block15,"",J,Stim13,HR,101,"",J,red,8,"",1016,"",""
570081,266,266,block_Trng,3,task_Trng,2,1,"","",14,15,"","",Block15,"",K,Stim13,HR,95,"",K,red,9,"",1026,"",""
570081,267,267,block_Trng,3,task_Trng,2,1,"","",15,15,"","",Block15,"",K,ISI,HR,220,"",K,red,13,"",1036,"",""
570081,268,268,block_Trng,3,task_Trng,2,1,"","",16,15,"","",Block15,"",K,ISI,LR,168,"",K,blue,12,"",1038,"",""
570081,269,269,block_Trng,3,task_Trng,2,1,"","",17,15,"","",Block15,"",J,ISI,LR,20,"",J,blue,9,"",1040,"",""
570081,270,270,block_Trng,3,task_Trng,2,1,"","",18,15,"","",Block15,"",J,Stim15,HR,24,"",J,red,10,"",1050,"",""
570081,271,271,block_Trng,3,task_Trng,2,1,"","",1,16,"","",Block16',"",K,ISI,NR,138,"",K,green,13,"",1050,"",""
570081,272,272,block_Trng,3,task_Trng,2,1,"","",2,16,"","",Block16',"",J,Stim13,NR,21,"",J,green,8,"",1050,"",""
570081,273,273,block_Trng,3,task_Trng,2,1,"","",3,16,"","",Block16',"",K,Stim15,NR,39,"",K,green,9,"",1050,"",""
570081,274,274,block_Trng,3,task_Trng,2,1,"","",4,16,"","",Block16',"",K,ISI,NR,241,"",K,green,11,"",1050,"",""
570081,275,275,block_Trng,3,task_Trng,2,1,"","",5,16,"","",Block16',"",J,ISI,LR,143,"",J,blue,13,"",1052,"",""
570081,276,276,block_Trng,3,task_Trng,2,1,"","",6,16,"","",Block16',"",K,Stim16,LR,20,"",K,blue,10,"",1054,"",""
570081,277,277,block_Trng,3,task_Trng,2,1,"","",7,16,"","",Block16',"",J,Stim16,HR,14,"",J,red,12,"",1064,"",""
570081,278,278,block_Trng,3,task_Trng,2,1,"","",8,16,"","",Block16',"",J,Stim16,LR,53,"",J,blue,11,"",1066,"",""
570081,279,279,block_Trng,3,task_Trng,2,1,"","",9,16,"","",Block16',"",J,Stim15,NR,47,"",J,green,10,"",1066,"",""
570081,280,280,block_Trng,3,task_Trng,2,1,"","",10,16,"","",Block16',"",K,Stim12,LR,81,"",K,blue,8,"",1068,"",""
570081,281,281,block_Trng,3,task_Trng,2,1,"","",11,16,"","",Block16',"",K,Stim16,HR,35,"",K,red,11,"",1078,"",""
570081,282,282,block_Trng,3,task_Trng,2,1,"","",12,16,"","",Block16',"",J,ISI,NR,7,"",J,green,12,"",1078,"",""
570081,283,283,block_Trng,3,task_Trng,2,1,"","",13,16,"","",Block16',"",J,Stim14,HR,9,"",J,red,8,"",1088,"",""
570081,284,284,block_Trng,3,task_Trng,2,1,"","",14,16,"","",Block16',"",K,Stim14,HR,109,"",K,red,9,"",1098,"",""
570081,285,285,block_Trng,3,task_Trng,2,1,"","",15,16,"","",Block16',"",K,ISI,HR,370,"",K,red,13,"",1108,"",""
570081,286,286,block_Trng,3,task_Trng,2,1,"","",16,16,"","",Block16',"",K,ISI,LR,412,"",K,blue,12,"",1110,"",""
570081,287,287,block_Trng,3,task_Trng,2,1,"","",17,16,"","",Block16',"",J,Stim16,LR,38,"",J,blue,9,"",1112,"",""
570081,288,288,block_Trng,3,task_Trng,2,1,"","",18,16,"","",Block16',"",J,Stim14,HR,61,"",J,red,10,"",1122,"",""
570081,289,289,block_Trng,3,task_Trng,2,1,"","",1,17,"","",Block17,"",K,ISI,NR,141,"",K,green,13,"",1122,"",""
570081,290,290,block_Trng,3,task_Trng,2,1,"","",2,17,"","",Block17,"",J,Stim13,NR,97,"",J,green,8,"",1122,"",""
570081,291,291,block_Trng,3,task_Trng,2,1,"","",3,17,"","",Block17,"",K,Stim13,NR,104,"",K,green,9,"",1122,"",""
570081,292,292,block_Trng,3,task_Trng,2,1,"","",4,17,"","",Block17,"",K,Stim15,NR,62,"",K,green,11,"",1122,"",""
570081,293,293,block_Trng,3,task_Trng,2,1,"","",5,17,"","",Block17,"",J,ISI,LR,38,"",J,blue,13,"",1124,"",""
570081,294,294,block_Trng,3,task_Trng,2,1,"","",6,17,"","",Block17,"",K,Stim15,LR,82,"",K,blue,10,"",1126,"",""
570081,295,295,block_Trng,3,task_Trng,2,1,"","",7,17,"","",Block17,"",J,ISI,HR,40,"",J,red,12,"",1136,"",""
570081,296,296,block_Trng,3,task_Trng,2,1,"","",8,17,"","",Block17,"",J,ISI,LR,25,"",J,blue,11,"",1138,"",""
570081,297,297,block_Trng,3,task_Trng,2,1,"","",9,17,"","",Block17,"",J,Stim15,NR,4,"",J,green,10,"",1138,"",""
570081,298,298,block_Trng,3,task_Trng,2,1,"","",10,17,"","",Block17,"",K,Stim12,LR,83,"",K,blue,8,"",1140,"",""
570081,299,299,block_Trng,3,task_Trng,2,1,"","",11,17,"","",Block17,"",K,Stim15,HR,26,"",K,red,11,"",1150,"",""
570081,300,300,block_Trng,3,task_Trng,2,1,"","",12,17,"","",Block17,"",J,Stim16,NR,95,"",J,green,12,"",1150,"",""
570081,301,301,block_Trng,3,task_Trng,2,1,"","",13,17,"","",Block17,"",J,Stim12,HR,56,"",J,red,8,"",1160,"",""
570081,302,302,block_Trng,3,task_Trng,2,1,"","",14,17,"","",Block17,"",K,Stim13,HR,64,"",K,red,9,"",1170,"",""
570081,303,303,block_Trng,3,task_Trng,2,1,"","",15,17,"","",Block17,"",K,ISI,HR,110,"",K,red,13,"",1180,"",""
570081,304,304,block_Trng,3,task_Trng,2,1,"","",16,17,"","",Block17,"",K,Stim16,LR,104,"",K,blue,12,"",1182,"",""
570081,305,305,block_Trng,3,task_Trng,2,1,"","",17,17,"","",Block17,"",J,Stim13,LR,79,"",J,blue,9,"",1184,"",""
570081,306,306,block_Trng,3,task_Trng,2,1,"","",18,17,"","",Block17,"",J,Stim14,HR,42,"",J,red,10,"",1194,"",""
570081,307,307,block_Trng,3,task_Trng,2,1,"","",1,18,"","",Block18,"",K,ISI,NR,50,"",K,green,13,"",1194,"",""
570081,308,308,block_Trng,3,task_Trng,2,1,"","",2,18,"","",Block18,"",J,Stim12,NR,21,"",J,green,8,"",1194,"",""
570081,309,309,block_Trng,3,task_Trng,2,1,"","",3,18,"","",Block18,"",K,Stim13,NR,55,"",K,green,9,"",1194,"",""
570081,310,310,block_Trng,3,task_Trng,2,1,"","",4,18,"","",Block18,"",K,Stim15,NR,75,"",K,green,11,"",1194,"",""
570081,311,311,block_Trng,3,task_Trng,2,1,"","",5,18,"","",Block18,"",J,ISI,LR,260,"",J,blue,13,"",1196,"",""
570081,312,312,block_Trng,3,task_Trng,2,1,"","",6,18,"","",Block18,"",K,Stim14,LR,74,"",K,blue,10,"",1198,"",""
570081,313,313,block_Trng,3,task_Trng,2,1,"","",7,18,"","",Block18,"",J,Stim16,HR,14,"",J,red,12,"",1208,"",""
570081,314,314,block_Trng,3,task_Trng,2,1,"","",8,18,"","",Block18,"",J,Stim15,LR,34,"",J,blue,11,"",1210,"",""
570081,315,315,block_Trng,3,task_Trng,2,1,"","",9,18,"","",Block18,"",J,Stim15,NR,23,"",J,green,10,"",1210,"",""
570081,316,316,block_Trng,3,task_Trng,2,1,"","",10,18,"","",Block18,"",K,Stim13,LR,8,"",K,blue,8,"",1212,"",""
570081,317,317,block_Trng,3,task_Trng,2,1,"","",11,18,"","",Block18,"",K,Stim15,HR,80,"",K,red,11,"",1222,"",""
570081,318,318,block_Trng,3,task_Trng,2,1,"","",12,18,"","",Block18,"",J,Stim16,NR,98,"",J,green,12,"",1222,"",""
570081,319,319,block_Trng,3,task_Trng,2,1,"","",13,18,"","",Block18,"",J,Stim12,HR,115,"",J,red,8,"",1232,"",""
570081,320,320,block_Trng,3,task_Trng,2,1,"","",14,18,"","",Block18,"",K,Stim16,HR,62,"",K,red,9,"",1242,"",""
570081,321,321,block_Trng,3,task_Trng,2,1,"","",15,18,"","",Block18,"",K,ISI,HR,225,"",K,red,13,"",1252,"",""
570081,322,322,block_Trng,3,task_Trng,2,1,"","",16,18,"","",Block18,"",K,Stim16,LR,74,"",K,blue,12,"",1254,"",""
570081,323,323,block_Trng,3,task_Trng,2,1,"","",17,18,"","",Block18,"",J,Stim13,LR,125,"",J,blue,9,"",1256,"",""
570081,324,324,block_Trng,3,task_Trng,2,0,"","",18,18,"","",Block18,"",K,Stim14,HR,99,"",J,red,10,"",1256,"",""
570081,325,325,block_Trng,3,task_Trng,2,1,"","",1,19,"","",Block19,"",K,ISI,NR,460,"",K,green,13,"",1256,"",""
570081,326,326,block_Trng,3,task_Trng,2,1,"","",2,19,"","",Block19,"",J,ISI,NR,75,"",J,green,8,"",1256,"",""
570081,327,327,block_Trng,3,task_Trng,2,1,"","",3,19,"","",Block19,"",K,Stim15,NR,9,"",K,green,9,"",1256,"",""
570081,328,328,block_Trng,3,task_Trng,2,1,"","",4,19,"","",Block19,"",K,Stim15,NR,103,"",K,green,11,"",1256,"",""
570081,329,329,block_Trng,3,task_Trng,2,1,"","",5,19,"","",Block19,"",J,ISI,LR,162,"",J,blue,13,"",1258,"",""
570081,330,330,block_Trng,3,task_Trng,2,1,"","",6,19,"","",Block19,"",K,Stim14,LR,73,"",K,blue,10,"",1260,"",""
570081,331,331,block_Trng,3,task_Trng,2,1,"","",7,19,"","",Block19,"",J,ISI,HR,67,"",J,red,12,"",1270,"",""
570081,332,332,block_Trng,3,task_Trng,2,1,"","",8,19,"","",Block19,"",J,Stim16,LR,13,"",J,blue,11,"",1272,"",""
570081,333,333,block_Trng,3,task_Trng,2,1,"","",9,19,"","",Block19,"",J,Stim15,NR,60,"",J,green,10,"",1272,"",""
570081,334,334,block_Trng,3,task_Trng,2,0,"","",10,19,"","",Block19,"",J,ISI,LR,617,"",K,blue,8,"",1272,"",""
570081,335,335,block_Trng,3,task_Trng,2,1,"","",11,19,"","",Block19,"",K,ISI,HR,103,"",K,red,11,"",1282,"",""
570081,336,336,block_Trng,3,task_Trng,2,1,"","",12,19,"","",Block19,"",J,ISI,NR,191,"",J,green,12,"",1282,"",""
570081,337,337,block_Trng,3,task_Trng,2,1,"","",13,19,"","",Block19,"",J,Stim13,HR,10,"",J,red,8,"",1292,"",""
570081,338,338,block_Trng,3,task_Trng,2,1,"","",14,19,"","",Block19,"",K,Stim13,HR,114,"",K,red,9,"",1302,"",""
570081,339,339,block_Trng,3,task_Trng,2,1,"","",15,19,"","",Block19,"",K,ISI,HR,71,"",K,red,13,"",1312,"",""
570081,340,340,block_Trng,3,task_Trng,2,1,"","",16,19,"","",Block19,"",K,ISI,LR,12,"",K,blue,12,"",1314,"",""
570081,341,341,block_Trng,3,task_Trng,2,1,"","",17,19,"","",Block19,"",J,Stim14,LR,72,"",J,blue,9,"",1316,"",""
570081,342,342,block_Trng,3,task_Trng,2,1,"","",18,19,"","",Block19,"",J,Stim15,HR,90,"",J,red,10,"",1326,"",""
570081,343,343,block_Trng,3,task_Trng,2,1,"","",1,20,"","",Block20,"",K,Stim16,NR,124,"",K,green,13,"",1326,"",""
570081,344,344,block_Trng,3,task_Trng,2,1,"","",2,20,"","",Block20,"",J,Stim13,NR,42,"",J,green,8,"",1326,"",""
570081,345,345,block_Trng,3,task_Trng,2,1,"","",3,20,"","",Block20,"",K,Stim13,NR,84,"",K,green,9,"",1326,"",""
570081,346,346,block_Trng,3,task_Trng,2,1,"","",4,20,"","",Block20,"",K,Stim15,NR,91,"",K,green,11,"",1326,"",""
570081,347,347,block_Trng,3,task_Trng,2,1,"","",5,20,"","",Block20,"",J,ISI,LR,285,"",J,blue,13,"",1328,"",""
570081,348,348,block_Trng,3,task_Trng,2,1,"","",6,20,"","",Block20,"",K,Stim16,LR,35,"",K,blue,10,"",1330,"",""
570081,349,349,block_Trng,3,task_Trng,2,1,"","",7,20,"","",Block20,"",J,ISI,HR,42,"",J,red,12,"",1340,"",""
570081,350,350,block_Trng,3,task_Trng,2,1,"","",8,20,"","",Block20,"",J,Stim15,LR,91,"",J,blue,11,"",1342,"",""
570081,351,351,block_Trng,3,task_Trng,2,1,"","",9,20,"","",Block20,"",J,Stim14,NR,110,"",J,green,10,"",1342,"",""
570081,352,352,block_Trng,3,task_Trng,2,1,"","",10,20,"","",Block20,"",K,Stim13,LR,40,"",K,blue,8,"",1344,"",""
570081,353,353,block_Trng,3,task_Trng,2,1,"","",11,20,"","",Block20,"",K,Stim14,HR,118,"",K,red,11,"",1354,"",""
570081,354,354,block_Trng,3,task_Trng,2,1,"","",12,20,"","",Block20,"",J,ISI,NR,95,"",J,green,12,"",1354,"",""
570081,355,355,block_Trng,3,task_Trng,2,1,"","",13,20,"","",Block20,"",J,Stim12,HR,115,"",J,red,8,"",1364,"",""
570081,356,356,block_Trng,3,task_Trng,2,1,"","",14,20,"","",Block20,"",K,Stim13,HR,21,"",K,red,9,"",1374,"",""
570081,357,357,block_Trng,3,task_Trng,2,1,"","",15,20,"","",Block20,"",K,ISI,HR,101,"",K,red,13,"",1384,"",""
570081,358,358,block_Trng,3,task_Trng,2,1,"","",16,20,"","",Block20,"",K,ISI,LR,85,"",K,blue,12,"",1386,"",""
570081,359,359,block_Trng,3,task_Trng,2,1,"","",17,20,"","",Block20,"",J,Stim14,LR,88,"",J,blue,9,"",1388,"",""
570081,360,360,block_Trng,3,task_Trng,2,1,"","",18,20,"","",Block20,"",J,Stim15,HR,77,"",J,red,10,"",1398,"",""
570081,1,1,block_Trng,3,task_Trng_End,3,"","","","",1,"","","","","","","","","","","","",4.75,1398,"",""
