Rec_Session_Id,Trial_Nr,Trial_Id,Block_Name,Block_Nr,Task_Name,Task_Nr,ACC,ACC_Total_Prac,Age,BlkTrial_Nr,Condition_Id,Consent,Contact,copy_of_factor1_tg1_task2,Email,factor1_tg1_task2,Fdbck_Slow,Feedback,MatricNo,Name,PAYNOW,Recontact,RESP,RESP_Frame,Reward,RT_FromFramePress,Sex,SlowResp,Targ,TargCol,TargPos,Testing_BreakCount,Testing_Progress,TotalMoney,TotalPoints,TotalPoints_prac,Trial_Nr_prac,Trng_BreakCount,Trng_Progress
592711,1,1,block_TrngInstructions,1,task_Trng_Instructions,1,"","","","",1,"","","","","","","","","","","","","","","","","","","","","","","","","","","",""
592711,1,1,block_Practice,2,task_GetReady,1,"","","","",1,"","","","","","","","","","","","","","","","","","","","","","","","","","","",""
592711,1,1,block_Practice,2,task_Trng_Prac,2,1,1,"","",1,"","","","","","","","","","","",K,Stim8,Disallowed,2,"",0,K,red,8,"","","",0,0,"","",""
592711,2,2,block_Practice,2,task_Trng_Prac,2,0,1,"","",1,"","","","","","","","","","","",J,Stim11,Disallowed,26,"",0,K,green,11,"","","",0,0,"","",""
592711,3,3,block_Practice,2,task_Trng_Prac,2,1,2,"","",1,"","","","","","","","","","","",K,Stim10,Disallowed,89,"",0,K,red,10,"","","",0,0,"","",""
592711,4,4,block_Practice,2,task_Trng_Prac,2,1,3,"","",1,"","","","","","","","","","","",J,Stim9,Disallowed,62,"",0,J,green,9,"","","",0,0,"","",""
592711,5,5,block_Practice,2,task_Trng_Prac,2,0,3,"","",1,"","","","","","","","","","","",K,Stim12,Disallowed,44,"",0,J,blue,12,"","","",0,0,"","",""
592711,6,6,block_Practice,2,task_Trng_Prac,2,0,0,"","",1,"","","","","","","","","","","",K,Stim13,Disallowed,20,"",0,J,blue,13,"","","",0,0,"","",""
592711,1,1,block_Practice,2,task_GetReady,1,"","","","",1,"","","","","","","","","","","","","","","","","","","","","","","","","","","",""
592711,1,1,block_Practice,2,task_Trng_Prac,2,0,0,"","",1,"","","","","","","","","","","",J,Stim11,Disallowed,95,"",0,K,green,11,"","","",0,0,"","",""
592711,2,2,block_Practice,2,task_Trng_Prac,2,1,1,"","",1,"","","","","","","","","","","",K,Stim8,Disallowed,67,"",0,K,red,8,"","","",0,0,"","",""
592711,3,3,block_Practice,2,task_Trng_Prac,2,0,1,"","",1,"","","","","","","","","","","",K,Stim10,Disallowed,6,"",0,J,green,9,"","","",0,0,"","",""
592711,4,4,block_Practice,2,task_Trng_Prac,2,0,1,"","",1,"","","","","","","","","","","",K,Stim12,Disallowed,3,"",0,J,blue,12,"","","",0,0,"","",""
592711,5,5,block_Practice,2,task_Trng_Prac,2,0,1,"","",1,"","","","","","","","","","","",J,Stim10,Disallowed,49,"",0,K,red,10,"","","",0,0,"","",""
592711,6,6,block_Practice,2,task_Trng_Prac,2,1,0,"","",1,"","","","","","","","","","","",J,Stim13,Disallowed,33,"",0,J,blue,13,"","","",0,0,"","",""
592711,1,1,block_Practice,2,task_Trng_Prac,2,1,1,"","",1,"","","","","","","","","","","",J,Stim13,Disallowed,58,"",0,J,blue,13,"","","",0,0,"","",""
592711,2,2,block_Practice,2,task_Trng_Prac,2,1,2,"","",1,"","","","","","","","","","","",J,Stim9,Disallowed,17,"",0,J,green,9,"","","",0,0,"","",""
592711,3,3,block_Practice,2,task_Trng_Prac,2,0,2,"","",1,"","","","","","","","","","","",K,Stim12,Disallowed,54,"",0,J,blue,12,"","","",0,0,"","",""
592711,4,4,block_Practice,2,task_Trng_Prac,2,1,3,"","",1,"","","","","","","","","","","",K,Stim8,Disallowed,39,"",0,K,red,8,"","","",0,0,"","",""
592711,5,5,block_Practice,2,task_Trng_Prac,2,1,4,"","",1,"","","","","","","","","","","",K,Stim10,Disallowed,65,"",0,K,red,10,"","","",0,0,"","",""
592711,6,6,block_Practice,2,task_Trng_Prac,2,1,5,"","",1,"","","","","","","","","","","",K,Stim11,Disallowed,85,"",0,K,green,11,"","","",0,0,"","",""
592711,1,1,block_Trng,3,task_GetReady,1,"","","","",1,"","","","","","","","","","","","","","","","","","","","","","","","","","","",""
592711,1,1,block_Practice,2,task_GetReady,1,"","","","",1,"","","","","","","","","","","","","","","","","","","","","","","","","","","",""
592711,1,1,block_Trng,3,task_Trng,2,0,"","",1,1,"","","","",Block1,Slow!,"","","","","","","",LR,0,"",1,J,red,12,"","",0,0,"","",0,0.28
592711,2,2,block_Trng,3,task_Trng,2,0,"","",2,1,"","","","",Block1,"","","","","","",J,Stim10,NR,13,"",0,K,blue,10,"","",0,0,"","",0,0.56
592711,3,3,block_Trng,3,task_Trng,2,0,"","",3,1,"","","","",Block1,"","","","","","",K,Stim11,NR,8,"",0,J,blue,11,"","",0,0,"","",0,0.83
592711,4,4,block_Trng,3,task_Trng,2,1,"","",4,1,"","","","",Block1,Slow!,"","","","","",J,PreISI2,NR,1436,"",1,J,blue,13,"","",0,0,"","",0,1.11
592711,5,5,block_Trng,3,task_Trng,2,1,"","",5,1,"","","","",Block1,"","","","","","",K,Stim13,HR,70,"",0,K,green,13,"","",0,10,"","",0,1.39
592711,6,6,block_Trng,3,task_Trng,2,0,"","",6,1,"","","","",Block1,"","","","","","",K,Stim12,HR,71,"",0,J,green,12,"","",0,10,"","",0,1.67
592711,7,7,block_Trng,3,task_Trng,2,1,"","",7,1,"","","","",Block1,"","","","","","",K,Stim11,HR,50,"",0,K,green,11,"","",0,20,"","",0,1.94
592711,8,8,block_Trng,3,task_Trng,2,1,"","",8,1,"","","","",Block1,"","","","","","",J,Stim9,NR,45,"",0,J,blue,9,"","",0,20,"","",0,2.22
592711,9,9,block_Trng,3,task_Trng,2,1,"","",9,1,"","","","",Block1,"","","","","","",K,Stim8,NR,43,"",0,K,blue,8,"","",0,20,"","",0,2.5
592711,10,10,block_Trng,3,task_Trng,2,0,"","",10,1,"","","","",Block1,"","","","","","",J,Stim9,HR,50,"",0,K,green,9,"","",0,20,"","",0,2.78
592711,11,11,block_Trng,3,task_Trng,2,0,"","",11,1,"","","","",Block1,"","","","","","",K,Stim8,LR,12,"",0,J,red,8,"","",0,20,"","",0,3.06
592711,12,12,block_Trng,3,task_Trng,2,0,"","",12,1,"","","","",Block1,"","","","","","",J,Stim12,NR,13,"",0,K,blue,12,"","",0,20,"","",0,3.33
592711,13,13,block_Trng,3,task_Trng,2,1,"","",13,1,"","","","",Block1,"","","","","","",K,Stim9,LR,25,"",0,K,red,9,"","",0,22,"","",0,3.61
592711,14,14,block_Trng,3,task_Trng,2,0,"","",14,1,"","","","",Block1,"","","","","","",K,Stim8,HR,107,"",0,J,green,8,"","",0,22,"","",0,3.89
592711,15,15,block_Trng,3,task_Trng,2,0,"","",15,1,"","","","",Block1,"","","","","","",K,Stim10,HR,24,"",0,J,green,10,"","",0,22,"","",0,4.17
592711,16,16,block_Trng,3,task_Trng,2,0,"","",16,1,"","","","",Block1,"","","","","","",J,Stim12,LR,15,"",0,K,red,11,"","",0,22,"","",0,4.44
592711,17,17,block_Trng,3,task_Trng,2,0,"","",17,1,"","","","",Block1,"","","","","","",J,Stim13,LR,110,"",0,K,red,13,"","",0,22,"","",0,4.72
592711,18,18,block_Trng,3,task_Trng,2,0,"","",18,1,"","","","",Block1,"","","","","","",K,Stim10,LR,92,"",0,J,red,10,"","",0,22,"","",0,5
592711,19,19,block_Trng,3,task_Trng,2,0,"","",1,2,"","","","",Block2,"","","","","","",J,Stim8,NR,64,"",0,K,blue,8,"","",0,22,"","",0,5.28
592711,20,20,block_Trng,3,task_Trng,2,1,"","",2,2,"","","","",Block2,"","","","","","",J,Stim12,LR,80,"",0,J,red,12,"","",0,24,"","",0,5.56
592711,21,21,block_Trng,3,task_Trng,2,1,"","",3,2,"","","","",Block2,"","","","","","",K,Stim14,LR,66,"",0,K,red,13,"","",0,26,"","",0,5.83
592711,22,22,block_Trng,3,task_Trng,2,1,"","",4,2,"","","","",Block2,"","","","","","",K,Stim11,NR,28,"",0,K,blue,10,"","",0,26,"","",0,6.11
592711,23,23,block_Trng,3,task_Trng,2,1,"","",5,2,"","","","",Block2,"","","","","","",J,Stim12,HR,56,"",0,J,green,12,"","",0,36,"","",0,6.39
592711,24,24,block_Trng,3,task_Trng,2,0,"","",6,2,"","","","",Block2,"","","","","","",K,Stim11,NR,47,"",0,J,blue,11,"","",0,36,"","",0,6.67
592711,25,25,block_Trng,3,task_Trng,2,0,"","",7,2,"","","","",Block2,"","","","","","",K,Stim9,NR,12,"",0,J,blue,9,"","",0,36,"","",0,6.94
592711,26,26,block_Trng,3,task_Trng,2,0,"","",8,2,"","","","",Block2,"","","","","","",K,Stim8,LR,11,"",0,J,red,8,"","",0,36,"","",0,7.22
592711,27,27,block_Trng,3,task_Trng,2,0,"","",9,2,"","","","",Block2,"","","","","","",J,Stim9,HR,21,"",0,K,green,9,"","",0,36,"","",0,7.5
592711,28,28,block_Trng,3,task_Trng,2,0,"","",10,2,"","","","",Block2,"","","","","","",J,Stim11,HR,35,"",0,K,green,11,"","",0,36,"","",0,7.78
592711,29,29,block_Trng,3,task_Trng,2,0,"","",11,2,"","","","",Block2,"","","","","","",J,Stim12,NR,85,"",0,K,blue,12,"","",0,36,"","",0,8.06
592711,30,30,block_Trng,3,task_Trng,2,1,"","",12,2,"","","","",Block2,"","","","","","",J,Stim10,LR,51,"",0,J,red,10,"","",0,38,"","",0,8.33
592711,31,31,block_Trng,3,task_Trng,2,0,"","",13,2,"","","","",Block2,"","","","","","",K,Stim8,HR,57,"",0,J,green,8,"","",0,38,"","",0,8.61
592711,32,32,block_Trng,3,task_Trng,2,1,"","",14,2,"","","","",Block2,"","","","","","",K,Stim13,HR,21,"",0,K,green,13,"","",0,48,"","",0,8.89
592711,33,33,block_Trng,3,task_Trng,2,0,"","",15,2,"","","","",Block2,"","","","","","",J,Stim11,LR,12,"",0,K,red,11,"","",0,48,"","",0,9.17
592711,34,34,block_Trng,3,task_Trng,2,1,"","",16,2,"","","","",Block2,"","","","","","",J,Stim10,HR,41,"",0,J,green,10,"","",0,58,"","",0,9.44
592711,35,35,block_Trng,3,task_Trng,2,1,"","",17,2,"","","","",Block2,"","","","","","",J,Stim13,NR,14,"",0,J,blue,13,"","",0,58,"","",0,9.72
592711,36,36,block_Trng,3,task_Trng,2,1,"","",18,2,"","","","",Block2,"","","","","","",K,Stim9,LR,79,"",0,K,red,9,"","",0,60,"","",0,10
592711,37,37,block_Trng,3,task_Trng,2,1,"","",1,3,"","","","",Block3,"","","","","","",J,Stim12,NR,27,"",0,J,blue,11,"","",0,60,"","",0,10.28
592711,38,38,block_Trng,3,task_Trng,2,0,"","",2,3,"","","","",Block3,"","","","","","",J,Stim14,HR,13,"",0,K,green,13,"","",0,60,"","",0,10.56
592711,39,39,block_Trng,3,task_Trng,2,0,"","",3,3,"","","","",Block3,"","","","","","",K,Stim10,HR,34,"",0,J,green,10,"","",0,60,"","",0,10.83
592711,40,40,block_Trng,3,task_Trng,2,0,"","",4,3,"","","","",Block3,"","","","","","",K,Stim8,LR,54,"",0,J,red,8,"","",0,60,"","",0,11.11
592711,41,41,block_Trng,3,task_Trng,2,0,"","",5,3,"","","","",Block3,"","","","","","",J,Stim11,LR,11,"",0,K,red,11,"","",0,60,"","",0,11.39
592711,42,42,block_Trng,3,task_Trng,2,0,"","",6,3,"","","","",Block3,"","","","","","",J,Stim10,NR,63,"",0,K,blue,10,"","",0,60,"","",0,11.67
592711,43,43,block_Trng,3,task_Trng,2,1,"","",7,3,"","","","",Block3,"","","","","","",J,Stim12,LR,28,"",0,J,red,12,"","",0,62,"","",0,11.94
592711,44,44,block_Trng,3,task_Trng,2,0,"","",8,3,"","","","",Block3,"","","","","","",J,Stim10,HR,24,"",0,K,green,9,"","",0,62,"","",0,12.22
592711,45,45,block_Trng,3,task_Trng,2,1,"","",9,3,"","","","",Block3,"","","","","","",J,Stim13,NR,13,"",0,J,blue,13,"","",0,62,"","",0,12.5
592711,46,46,block_Trng,3,task_Trng,2,1,"","",10,3,"","","","",Block3,"","","","","","",J,Stim12,HR,33,"",0,J,green,12,"","",0,72,"","",0,12.78
592711,47,47,block_Trng,3,task_Trng,2,0,"","",11,3,"","","","",Block3,"","","","","","",J,Stim8,NR,38,"",0,K,blue,8,"","",0,72,"","",0,13.06
592711,48,48,block_Trng,3,task_Trng,2,0,"","",12,3,"","","","",Block3,"","","","","","",J,Stim11,HR,23,"",0,K,green,11,"","",0,72,"","",0,13.33
592711,49,49,block_Trng,3,task_Trng,2,0,"","",13,3,"","","","",Block3,"","","","","","",J,Stim9,LR,8,"",0,K,red,9,"","",0,72,"","",0,13.61
592711,50,50,block_Trng,3,task_Trng,2,1,"","",14,3,"","","","",Block3,"","","","","","",K,Stim13,LR,31,"",0,K,red,13,"","",0,74,"","",0,13.89
592711,51,51,block_Trng,3,task_Trng,2,0,"","",15,3,"","","","",Block3,"","","","","","",K,Stim10,LR,2,"",0,J,red,10,"","",0,74,"","",0,14.17
592711,52,52,block_Trng,3,task_Trng,2,1,"","",16,3,"","","","",Block3,"","","","","","",J,Stim8,HR,30,"",0,J,green,8,"","",0,84,"","",0,14.44
592711,53,53,block_Trng,3,task_Trng,2,0,"","",17,3,"","","","",Block3,"","","","","","",K,Stim9,NR,26,"",0,J,blue,9,"","",0,84,"","",0,14.72
592711,54,54,block_Trng,3,task_Trng,2,0,"","",18,3,"","","","",Block3,"","","","","","",J,Stim12,NR,33,"",0,K,blue,12,"","",0,84,"","",0,15
592711,55,55,block_Trng,3,task_Trng,2,0,"","",1,4,"","","","",Block4,"","","","","","",J,Stim10,HR,63,"",0,K,green,9,"","",0,84,"","",0,15.28
592711,56,56,block_Trng,3,task_Trng,2,0,"","",2,4,"","","","",Block4,"","","","","","",J,Stim8,NR,25,"",0,K,blue,8,"","",0,84,"","",0,15.56
592711,57,57,block_Trng,3,task_Trng,2,0,"","",3,4,"","","","",Block4,"","","","","","",K,Stim13,NR,11,"",0,J,blue,13,"","",0,84,"","",0,15.83
592711,58,58,block_Trng,3,task_Trng,2,1,"","",4,4,"","","","",Block4,"","","","","","",J,Stim12,LR,9,"",0,J,red,12,"","",0,86,"","",0,16.11
592711,59,59,block_Trng,3,task_Trng,2,0,"","",5,4,"","","","",Block4,"","","","","","",J,Stim11,LR,23,"",0,K,red,11,"","",0,86,"","",0,16.39
592711,60,60,block_Trng,3,task_Trng,2,1,"","",6,4,"","","","",Block4,"","","","","","",J,Stim10,LR,77,"",0,J,red,10,"","",0,88,"","",0,16.67
592711,61,61,block_Trng,3,task_Trng,2,0,"","",7,4,"","","","",Block4,"","","","","","",K,Stim8,HR,23,"",0,J,green,8,"","",0,88,"","",0,16.94
592711,62,62,block_Trng,3,task_Trng,2,0,"","",8,4,"","","","",Block4,"","","","","","",J,Stim11,NR,43,"",0,K,blue,10,"","",0,88,"","",0,17.22
592711,63,63,block_Trng,3,task_Trng,2,0,"","",9,4,"","","","",Block4,"","","","","","",J,Stim12,NR,13,"",0,K,blue,12,"","",0,88,"","",0,17.5
592711,64,64,block_Trng,3,task_Trng,2,1,"","",10,4,"","","","",Block4,"","","","","","",K,Stim13,HR,20,"",0,K,green,13,"","",0,98,"","",0,17.78
592711,65,65,block_Trng,3,task_Trng,2,1,"","",11,4,"","","","",Block4,"","","","","","",J,Stim8,LR,79,"",0,J,red,8,"","",0,100,"","",0,18.06
592711,66,66,block_Trng,3,task_Trng,2,0,"","",12,4,"","","","",Block4,"","","","","","",K,Stim13,HR,26,"",0,J,green,12,"","",0,100,"","",0,18.33
592711,67,67,block_Trng,3,task_Trng,2,1,"","",13,4,"","","","",Block4,"","","","","","",K,Stim9,LR,13,"",0,K,red,9,"","",0,102,"","",0,18.61
592711,68,68,block_Trng,3,task_Trng,2,1,"","",14,4,"","","","",Block4,"","","","","","",J,Stim11,NR,36,"",0,J,blue,11,"","",0,102,"","",0,18.89
592711,69,69,block_Trng,3,task_Trng,2,0,"","",15,4,"","","","",Block4,"","","","","","",J,Stim13,LR,13,"",0,K,red,13,"","",0,102,"","",0,19.17
592711,70,70,block_Trng,3,task_Trng,2,1,"","",16,4,"","","","",Block4,"","","","","","",J,Stim10,HR,118,"",0,J,green,10,"","",0,112,"","",0,19.44
592711,71,71,block_Trng,3,task_Trng,2,0,"","",17,4,"","","","",Block4,"","","","","","",J,Stim11,HR,29,"",0,K,green,11,"","",0,112,"","",0,19.72
592711,72,72,block_Trng,3,task_Trng,2,1,"","",18,4,"","","","",Block4,"","","","","","",J,Stim9,NR,14,"",0,J,blue,9,"","",0.38,112,"","",1,20
592711,73,73,block_Trng,3,task_Trng,2,1,"","",1,5,"","","","",Block5,"","","","","","",K,Stim11,HR,27,"",0,K,green,11,"","",0.38,122,"","",1,20.28
592711,74,74,block_Trng,3,task_Trng,2,0,"","",2,5,"","","","",Block5,"","","","","","",J,Stim11,LR,8,"",0,K,red,11,"","",0.38,122,"","",1,20.56
592711,75,75,block_Trng,3,task_Trng,2,1,"","",3,5,"","","","",Block5,"","","","","","",J,Stim10,HR,12,"",0,J,green,8,"","",0.38,132,"","",1,20.83
592711,76,76,block_Trng,3,task_Trng,2,0,"","",4,5,"","","","",Block5,"","","","","","",K,Stim10,HR,15,"",0,J,green,10,"","",0.38,132,"","",1,21.11
592711,77,77,block_Trng,3,task_Trng,2,1,"","",5,5,"","","","",Block5,"","","","","","",K,Stim13,LR,60,"",0,K,red,13,"","",0.38,134,"","",1,21.39
592711,78,78,block_Trng,3,task_Trng,2,1,"","",6,5,"","","","",Block5,"","","","","","",K,Stim13,HR,23,"",0,K,green,13,"","",0.38,144,"","",1,21.67
592711,79,79,block_Trng,3,task_Trng,2,1,"","",7,5,"","","","",Block5,"","","","","","",J,Stim11,NR,14,"",0,J,blue,11,"","",0.38,144,"","",1,21.94
592711,80,80,block_Trng,3,task_Trng,2,1,"","",8,5,"","","","",Block5,"","","","","","",K,Stim12,NR,72,"",0,K,blue,12,"","",0.38,144,"","",1,22.22
592711,81,81,block_Trng,3,task_Trng,2,1,"","",9,5,"","","","",Block5,"","","","","","",K,Stim9,LR,20,"",0,K,red,9,"","",0.38,146,"","",1,22.5
592711,82,82,block_Trng,3,task_Trng,2,1,"","",10,5,"","","","",Block5,"","","","","","",K,Stim10,NR,110,"",0,K,blue,10,"","",0.38,146,"","",1,22.78
592711,83,83,block_Trng,3,task_Trng,2,0,"","",11,5,"","","","",Block5,"","","","","","",K,Stim12,LR,44,"",0,J,red,12,"","",0.38,146,"","",1,23.06
592711,84,84,block_Trng,3,task_Trng,2,1,"","",12,5,"","","","",Block5,"","","","","","",J,Stim10,LR,50,"",0,J,red,10,"","",0.38,148,"","",1,23.33
592711,85,85,block_Trng,3,task_Trng,2,0,"","",13,5,"","","","",Block5,"","","","","","",K,Stim13,NR,55,"",0,J,blue,13,"","",0.38,148,"","",1,23.61
592711,86,86,block_Trng,3,task_Trng,2,1,"","",14,5,"","","","",Block5,"","","","","","",K,Stim9,HR,39,"",0,K,green,9,"","",0.38,158,"","",1,23.89
592711,87,87,block_Trng,3,task_Trng,2,0,"","",15,5,"","","","",Block5,Slow!,"","","","","","","",NR,0,"",1,J,blue,9,"","",0.38,158,"","",1,24.17
592711,88,88,block_Trng,3,task_Trng,2,1,"","",16,5,"","","","",Block5,"","","","","","",J,Stim12,HR,8,"",0,J,green,12,"","",0.38,168,"","",1,24.44
592711,89,89,block_Trng,3,task_Trng,2,0,"","",17,5,"","","","",Block5,"","","","","","",J,Stim8,NR,12,"",0,K,blue,8,"","",0.38,168,"","",1,24.72
592711,90,90,block_Trng,3,task_Trng,2,0,"","",18,5,"","","","",Block5,"","","","","","",K,Stim8,LR,43,"",0,J,red,8,"","",0.38,168,"","",1,25
592711,91,91,block_Trng,3,task_Trng,2,0,"","",1,6,"","","","",Block6,Slow!,"","","","","","","",HR,0,"",1,J,green,10,"","",0.38,168,"","",1,25.28
592711,92,92,block_Trng,3,task_Trng,2,0,"","",2,6,"","","","",Block6,"","","","","","",K,Stim12,HR,63,"",0,J,green,12,"","",0.38,168,"","",1,25.56
592711,93,93,block_Trng,3,task_Trng,2,1,"","",3,6,"","","","",Block6,"","","","","","",J,Stim12,LR,31,"",0,J,red,12,"","",0.38,170,"","",1,25.83
592711,94,94,block_Trng,3,task_Trng,2,1,"","",4,6,"","","","",Block6,"","","","","","",K,Stim13,HR,12,"",0,K,green,13,"","",0.38,180,"","",1,26.11
592711,95,95,block_Trng,3,task_Trng,2,0,"","",5,6,"","","","",Block6,Slow!,"","","","","","","",HR,0,"",1,K,green,11,"","",0.38,180,"","",1,26.39
592711,96,96,block_Trng,3,task_Trng,2,1,"","",6,6,"","","","",Block6,"","","","","","",K,Stim9,HR,28,"",0,K,green,9,"","",0.38,190,"","",1,26.67
592711,97,97,block_Trng,3,task_Trng,2,1,"","",7,6,"","","","",Block6,"","","","","","",K,Stim12,NR,89,"",0,K,blue,12,"","",0.38,190,"","",1,26.94
592711,98,98,block_Trng,3,task_Trng,2,1,"","",8,6,"","","","",Block6,"","","","","","",J,Stim10,NR,11,"",0,J,blue,9,"","",0.38,190,"","",1,27.22
592711,99,99,block_Trng,3,task_Trng,2,1,"","",9,6,"","","","",Block6,"","","","","","",K,Stim9,LR,91,"",0,K,red,9,"","",0.38,192,"","",1,27.5
592711,100,100,block_Trng,3,task_Trng,2,1,"","",10,6,"","","","",Block6,"","","","","","",J,Stim8,HR,11,"",0,J,green,8,"","",0.38,202,"","",1,27.78
592711,101,101,block_Trng,3,task_Trng,2,0,"","",11,6,"","","","",Block6,"","","","","","",J,Stim9,NR,3,"",0,K,blue,8,"","",0.38,202,"","",1,28.06
592711,102,102,block_Trng,3,task_Trng,2,1,"","",12,6,"","","","",Block6,"","","","","","",J,Stim10,LR,112,"",0,J,red,10,"","",0.38,204,"","",1,28.33
592711,103,103,block_Trng,3,task_Trng,2,1,"","",13,6,"","","","",Block6,"","","","","","",J,Stim11,NR,22,"",0,J,blue,11,"","",0.38,204,"","",1,28.61
592711,104,104,block_Trng,3,task_Trng,2,0,"","",14,6,"","","","",Block6,"","","","","","",J,Stim13,LR,6,"",0,K,red,13,"","",0.38,204,"","",1,28.89
592711,105,105,block_Trng,3,task_Trng,2,0,"","",15,6,"","","","",Block6,Slow!,"","","","","",J,PreISI2,LR,1152,"",1,K,red,11,"","",0.38,204,"","",1,29.17
592711,106,106,block_Trng,3,task_Trng,2,1,"","",16,6,"","","","",Block6,"","","","","","",J,Stim8,LR,118,"",0,J,red,8,"","",0.38,206,"","",1,29.44
592711,107,107,block_Trng,3,task_Trng,2,0,"","",17,6,"","","","",Block6,Slow!,"","","","","","","",NR,0,"",1,J,blue,13,"","",0.38,206,"","",1,29.72
592711,108,108,block_Trng,3,task_Trng,2,0,"","",18,6,"","","","",Block6,"","","","","","",J,Stim15,NR,68,"",0,K,blue,10,"","",0.38,206,"","",1,30
592711,109,109,block_Trng,3,task_Trng,2,0,"","",1,7,"","","","",Block7,"","","","","","",K,Stim13,LR,11,"",0,J,red,12,"","",0.38,206,"","",1,30.28
592711,110,110,block_Trng,3,task_Trng,2,0,"","",2,7,"","","","",Block7,"","","","","","",K,Stim8,HR,28,"",0,J,green,8,"","",0.38,206,"","",1,30.56
592711,111,111,block_Trng,3,task_Trng,2,0,"","",3,7,"","","","",Block7,"","","","","","",J,Stim11,LR,22,"",0,K,red,11,"","",0.38,206,"","",1,30.83
592711,112,112,block_Trng,3,task_Trng,2,1,"","",4,7,"","","","",Block7,"","","","","","",K,Stim9,HR,30,"",0,K,green,9,"","",0.38,216,"","",1,31.11
592711,113,113,block_Trng,3,task_Trng,2,1,"","",5,7,"","","","",Block7,"","","","","","",K,Stim11,NR,3,"",0,K,blue,10,"","",0.38,216,"","",1,31.39
592711,114,114,block_Trng,3,task_Trng,2,1,"","",6,7,"","","","",Block7,"","","","","","",K,Stim8,NR,68,"",0,K,blue,8,"","",0.38,216,"","",1,31.67
592711,115,115,block_Trng,3,task_Trng,2,1,"","",7,7,"","","","",Block7,"","","","","","",J,Stim11,NR,46,"",0,J,blue,11,"","",0.38,216,"","",1,31.94
592711,116,116,block_Trng,3,task_Trng,2,1,"","",8,7,"","","","",Block7,"","","","","","",K,Stim13,NR,115,"",0,K,blue,12,"","",0.38,216,"","",1,32.22
592711,117,117,block_Trng,3,task_Trng,2,0,"","",9,7,"","","","",Block7,"","","","","","",J,Stim13,LR,28,"",0,K,red,13,"","",0.38,216,"","",1,32.5
592711,118,118,block_Trng,3,task_Trng,2,1,"","",10,7,"","","","",Block7,Slow!,"","","","","",J,ISI,HR,355,"",1,J,green,10,"","",0.38,216,"","",1,32.78
592711,119,119,block_Trng,3,task_Trng,2,1,"","",11,7,"","","","",Block7,"","","","","","",J,Stim12,HR,38,"",0,J,green,12,"","",0.38,226,"","",1,33.06
592711,120,120,block_Trng,3,task_Trng,2,1,"","",12,7,"","","","",Block7,"","","","","","",K,Stim9,LR,48,"",0,K,red,9,"","",0.38,228,"","",1,33.33
592711,121,121,block_Trng,3,task_Trng,2,0,"","",13,7,"","","","",Block7,"","","","","","",J,Stim12,HR,30,"",0,K,green,11,"","",0.38,228,"","",1,33.61
592711,122,122,block_Trng,3,task_Trng,2,1,"","",14,7,"","","","",Block7,"","","","","","",J,Stim10,LR,1,"",0,J,red,8,"","",0.38,230,"","",1,33.89
592711,123,123,block_Trng,3,task_Trng,2,1,"","",15,7,"","","","",Block7,"","","","","","",J,Stim13,NR,22,"",0,J,blue,13,"","",0.38,230,"","",1,34.17
592711,124,124,block_Trng,3,task_Trng,2,1,"","",16,7,"","","","",Block7,"","","","","","",J,Stim9,NR,9,"",0,J,blue,9,"","",0.38,230,"","",1,34.44
592711,125,125,block_Trng,3,task_Trng,2,0,"","",17,7,"","","","",Block7,"","","","","","",J,Stim13,HR,1,"",0,K,green,13,"","",0.38,230,"","",1,34.72
592711,126,126,block_Trng,3,task_Trng,2,0,"","",18,7,"","","","",Block7,"","","","","","",K,Stim10,LR,67,"",0,J,red,10,"","",0.38,230,"","",1,35
592711,127,127,block_Trng,3,task_Trng,2,1,"","",1,8,"","","","",Block8,"","","","","","",J,Stim11,NR,61,"",0,J,blue,11,"","",0.38,230,"","",1,35.28
592711,128,128,block_Trng,3,task_Trng,2,0,"","",2,8,"","","","",Block8,"","","","","","",J,Stim12,NR,27,"",0,K,blue,12,"","",0.38,230,"","",1,35.56
592711,129,129,block_Trng,3,task_Trng,2,1,"","",3,8,"","","","",Block8,"","","","","","",K,Stim8,NR,24,"",0,K,blue,8,"","",0.38,230,"","",1,35.83
592711,130,130,block_Trng,3,task_Trng,2,1,"","",4,8,"","","","",Block8,"","","","","","",K,Stim10,NR,17,"",0,K,blue,10,"","",0.38,230,"","",1,36.11
592711,131,131,block_Trng,3,task_Trng,2,1,"","",5,8,"","","","",Block8,"","","","","","",J,Stim12,LR,28,"",0,J,red,10,"","",0.38,232,"","",1,36.39
592711,132,132,block_Trng,3,task_Trng,2,1,"","",6,8,"","","","",Block8,"","","","","","",J,Stim9,LR,10,"",0,J,red,8,"","",0.38,234,"","",1,36.67
592711,133,133,block_Trng,3,task_Trng,2,1,"","",7,8,"","","","",Block8,"","","","","","",K,Stim13,LR,92,"",0,K,red,13,"","",0.38,236,"","",1,36.94
592711,134,134,block_Trng,3,task_Trng,2,1,"","",8,8,"","","","",Block8,"","","","","","",K,Stim13,HR,20,"",0,K,green,13,"","",0.38,246,"","",1,37.22
592711,135,135,block_Trng,3,task_Trng,2,1,"","",9,8,"","","","",Block8,"","","","","","",J,Stim12,LR,7,"",0,J,red,12,"","",0.38,248,"","",1,37.5
592711,136,136,block_Trng,3,task_Trng,2,0,"","",10,8,"","","","",Block8,"","","","","","",K,Stim8,HR,6,"",0,J,green,8,"","",0.38,248,"","",1,37.78
592711,137,137,block_Trng,3,task_Trng,2,0,"","",11,8,"","","","",Block8,"","","","","","",J,Stim12,LR,4,"",0,K,red,11,"","",0.38,248,"","",1,38.06
592711,138,138,block_Trng,3,task_Trng,2,1,"","",12,8,"","","","",Block8,"","","","","","",J,Stim10,HR,13,"",0,J,green,10,"","",0.38,258,"","",1,38.33
592711,139,139,block_Trng,3,task_Trng,2,0,"","",13,8,"","","","",Block8,"","","","","","",J,Stim11,HR,29,"",0,K,green,11,"","",0.38,258,"","",1,38.61
592711,140,140,block_Trng,3,task_Trng,2,0,"","",14,8,"","","","",Block8,"","","","","","",J,Stim9,HR,43,"",0,K,green,9,"","",0.38,258,"","",1,38.89
592711,141,141,block_Trng,3,task_Trng,2,1,"","",15,8,"","","","",Block8,"","","","","","",J,Stim13,NR,102,"",0,J,blue,13,"","",0.38,258,"","",1,39.17
592711,142,142,block_Trng,3,task_Trng,2,1,"","",16,8,"","","","",Block8,"","","","","","",J,Stim9,NR,8,"",0,J,blue,9,"","",0.38,258,"","",1,39.44
592711,143,143,block_Trng,3,task_Trng,2,0,"","",17,8,"","","","",Block8,"","","","","","",J,Stim9,LR,13,"",0,K,red,9,"","",0.38,258,"","",1,39.72
592711,144,144,block_Trng,3,task_Trng,2,0,"","",18,8,"","","","",Block8,"","","","","","",K,Stim12,HR,6,"",0,J,green,12,"","",0.88,258,"","",2,40
592711,145,145,block_Trng,3,task_Trng,2,0,"","",1,9,"","","","",Block9,"","","","","","",K,Stim8,HR,21,"",0,J,green,8,"","",0.88,258,"","",2,40.28
592711,146,146,block_Trng,3,task_Trng,2,0,"","",2,9,"","","","",Block9,Slow!,"","","","","","","",HR,0,"",1,K,green,9,"","",0.88,258,"","",2,40.56
592711,147,147,block_Trng,3,task_Trng,2,1,"","",3,9,"","","","",Block9,"","","","","","",K,Stim10,NR,50,"",0,K,blue,10,"","",0.88,258,"","",2,40.83
592711,148,148,block_Trng,3,task_Trng,2,0,"","",4,9,"","","","",Block9,"","","","","","",J,Stim11,HR,75,"",0,K,green,11,"","",0.88,258,"","",2,41.11
592711,149,149,block_Trng,3,task_Trng,2,1,"","",5,9,"","","","",Block9,"","","","","","",J,Stim11,NR,16,"",0,J,blue,11,"","",0.88,258,"","",2,41.39
592711,150,150,block_Trng,3,task_Trng,2,0,"","",6,9,"","","","",Block9,"","","","","","",J,Stim9,LR,15,"",0,K,red,9,"","",0.88,258,"","",2,41.67
592711,151,151,block_Trng,3,task_Trng,2,0,"","",7,9,"","","","",Block9,"","","","","","",K,Stim12,LR,44,"",0,J,red,12,"","",0.88,258,"","",2,41.94
592711,152,152,block_Trng,3,task_Trng,2,0,"","",8,9,"","","","",Block9,"","","","","","",J,Stim12,NR,24,"",0,K,blue,12,"","",0.88,258,"","",2,42.22
592711,153,153,block_Trng,3,task_Trng,2,0,"","",9,9,"","","","",Block9,"","","","","","",J,Stim8,NR,44,"",0,K,blue,8,"","",0.88,258,"","",2,42.5
592711,154,154,block_Trng,3,task_Trng,2,1,"","",10,9,"","","","",Block9,"","","","","","",J,Stim10,NR,33,"",0,J,blue,9,"","",0.88,258,"","",2,42.78
592711,155,155,block_Trng,3,task_Trng,2,0,"","",11,9,"","","","",Block9,"","","","","","",J,Stim13,LR,10,"",0,K,red,13,"","",0.88,258,"","",2,43.06
592711,156,156,block_Trng,3,task_Trng,2,0,"","",12,9,"","","","",Block9,"","","","","","",J,Stim13,HR,26,"",0,K,green,13,"","",0.88,258,"","",2,43.33
592711,157,157,block_Trng,3,task_Trng,2,0,"","",13,9,"","","","",Block9,"","","","","","",K,Stim13,NR,61,"",0,J,blue,13,"","",0.88,258,"","",2,43.61
592711,158,158,block_Trng,3,task_Trng,2,0,"","",14,9,"","","","",Block9,"","","","","","",K,Stim12,HR,82,"",0,J,green,12,"","",0.88,258,"","",2,43.89
592711,159,159,block_Trng,3,task_Trng,2,1,"","",15,9,"","","","",Block9,"","","","","","",K,Stim12,LR,51,"",0,K,red,11,"","",0.88,260,"","",2,44.17
592711,160,160,block_Trng,3,task_Trng,2,1,"","",16,9,"","","","",Block9,"","","","","","",J,Stim10,HR,11,"",0,J,green,10,"","",0.88,270,"","",2,44.44
592711,161,161,block_Trng,3,task_Trng,2,1,"","",17,9,"","","","",Block9,"","","","","","",J,Stim11,LR,1,"",0,J,red,10,"","",0.88,272,"","",2,44.72
592711,162,162,block_Trng,3,task_Trng,2,1,"","",18,9,"","","","",Block9,"","","","","","",J,Stim8,LR,106,"",0,J,red,8,"","",0.88,274,"","",2,45
592711,163,163,block_Trng,3,task_Trng,2,0,"","",1,10,"","","","",Block10,"","","","","","",J,Stim12,LR,112,"",0,K,red,11,"","",0.88,274,"","",2,45.28
592711,164,164,block_Trng,3,task_Trng,2,0,"","",2,10,"","","","",Block10,"","","","","","",J,Stim14,HR,9,"",0,K,green,13,"","",0.88,274,"","",2,45.56
592711,165,165,block_Trng,3,task_Trng,2,0,"","",3,10,"","","","",Block10,"","","","","","",J,Stim9,LR,19,"",0,K,red,9,"","",0.88,274,"","",2,45.83
592711,166,166,block_Trng,3,task_Trng,2,0,"","",4,10,"","","","",Block10,"","","","","","",K,Stim9,NR,104,"",0,J,blue,9,"","",0.88,274,"","",2,46.11
592711,167,167,block_Trng,3,task_Trng,2,0,"","",5,10,"","","","",Block10,"","","","","","",K,Stim11,NR,32,"",0,J,blue,11,"","",0.88,274,"","",2,46.39
592711,168,168,block_Trng,3,task_Trng,2,1,"","",6,10,"","","","",Block10,"","","","","","",J,Stim12,HR,93,"",0,J,green,12,"","",0.88,284,"","",2,46.67
592711,169,169,block_Trng,3,task_Trng,2,0,"","",7,10,"","","","",Block10,"","","","","","",K,Stim10,HR,91,"",0,J,green,10,"","",0.88,284,"","",2,46.94
592711,170,170,block_Trng,3,task_Trng,2,1,"","",8,10,"","","","",Block10,"","","","","","",K,Stim8,NR,23,"",0,K,blue,8,"","",0.88,284,"","",2,47.22
592711,171,171,block_Trng,3,task_Trng,2,0,"","",9,10,"","","","",Block10,"","","","","","",J,Stim12,NR,97,"",0,K,blue,12,"","",0.88,284,"","",2,47.5
592711,172,172,block_Trng,3,task_Trng,2,0,"","",10,10,"","","","",Block10,"","","","","","",K,Stim12,LR,33,"",0,J,red,12,"","",0.88,284,"","",2,47.78
592711,173,173,block_Trng,3,task_Trng,2,1,"","",11,10,"","","","",Block10,"","","","","","",K,Stim13,LR,87,"",0,K,red,13,"","",0.88,286,"","",2,48.06
592711,174,174,block_Trng,3,task_Trng,2,1,"","",12,10,"","","","",Block10,"","","","","","",J,Stim8,HR,45,"",0,J,green,8,"","",0.88,296,"","",2,48.33
592711,175,175,block_Trng,3,task_Trng,2,1,"","",13,10,"","","","",Block10,"","","","","","",J,Stim13,NR,47,"",0,J,blue,13,"","",0.88,296,"","",2,48.61
592711,176,176,block_Trng,3,task_Trng,2,1,"","",14,10,"","","","",Block10,"","","","","","",K,Stim11,HR,39,"",0,K,green,11,"","",0.88,306,"","",2,48.89
592711,177,177,block_Trng,3,task_Trng,2,1,"","",15,10,"","","","",Block10,"","","","","","",J,Stim11,LR,27,"",0,J,red,10,"","",0.88,308,"","",2,49.17
592711,178,178,block_Trng,3,task_Trng,2,0,"","",16,10,"","","","",Block10,"","","","","","",J,Stim11,NR,22,"",0,K,blue,10,"","",0.88,308,"","",2,49.44
592711,179,179,block_Trng,3,task_Trng,2,1,"","",17,10,"","","","",Block10,"","","","","","",J,Stim8,LR,117,"",0,J,red,8,"","",0.88,310,"","",2,49.72
592711,180,180,block_Trng,3,task_Trng,2,0,"","",18,10,"","","","",Block10,"","","","","","",J,Stim10,HR,22,"",0,K,green,9,"","",0.88,310,"","",2,50
592711,181,181,block_Trng,3,task_Trng,2,0,"","",1,11,"","","","",Block11,"","","","","","",J,Stim12,LR,61,"",0,K,red,11,"","",0.88,310,"","",2,50.28
592711,182,182,block_Trng,3,task_Trng,2,1,"","",2,11,"","","","",Block11,"","","","","","",K,Stim10,NR,28,"",0,K,blue,10,"","",0.88,310,"","",2,50.56
592711,183,183,block_Trng,3,task_Trng,2,1,"","",3,11,"","","","",Block11,"","","","","","",J,Stim12,NR,8,"",0,J,blue,11,"","",0.88,310,"","",2,50.83
592711,184,184,block_Trng,3,task_Trng,2,0,"","",4,11,"","","","",Block11,"","","","","","",K,Stim12,LR,13,"",0,J,red,12,"","",0.88,310,"","",2,51.11
592711,185,185,block_Trng,3,task_Trng,2,1,"","",5,11,"","","","",Block11,"","","","","","",J,Stim8,HR,30,"",0,J,green,8,"","",0.88,320,"","",2,51.39
592711,186,186,block_Trng,3,task_Trng,2,1,"","",6,11,"","","","",Block11,"","","","","","",J,Stim9,NR,74,"",0,J,blue,9,"","",0.88,320,"","",2,51.67
592711,187,187,block_Trng,3,task_Trng,2,1,"","",7,11,"","","","",Block11,"","","","","","",J,Stim10,LR,34,"",0,J,red,10,"","",0.88,322,"","",2,51.94
592711,188,188,block_Trng,3,task_Trng,2,0,"","",8,11,"","","","",Block11,"","","","","","",J,Stim9,HR,4,"",0,K,green,9,"","",0.88,322,"","",2,52.22
592711,189,189,block_Trng,3,task_Trng,2,0,"","",9,11,"","","","",Block11,"","","","","","",K,Stim8,LR,114,"",0,J,red,8,"","",0.88,322,"","",2,52.5
592711,190,190,block_Trng,3,task_Trng,2,0,"","",10,11,"","","","",Block11,"","","","","","",J,Stim13,HR,107,"",0,K,green,13,"","",0.88,322,"","",2,52.78
592711,191,191,block_Trng,3,task_Trng,2,0,"","",11,11,"","","","",Block11,"","","","","","",J,Stim13,NR,30,"",0,K,blue,12,"","",0.88,322,"","",2,53.06
592711,192,192,block_Trng,3,task_Trng,2,0,"","",12,11,"","","","",Block11,"","","","","","",J,Stim12,HR,1,"",0,K,green,11,"","",0.88,322,"","",2,53.33
592711,193,193,block_Trng,3,task_Trng,2,0,"","",13,11,"","","","",Block11,"","","","","","",K,Stim12,HR,1,"",0,J,green,12,"","",0.88,322,"","",2,53.61
592711,194,194,block_Trng,3,task_Trng,2,0,"","",14,11,"","","","",Block11,"","","","","","",K,Stim10,HR,60,"",0,J,green,10,"","",0.88,322,"","",2,53.89
592711,195,195,block_Trng,3,task_Trng,2,0,"","",15,11,"","","","",Block11,"","","","","","",J,Stim8,NR,12,"",0,K,blue,8,"","",0.88,322,"","",2,54.17
592711,196,196,block_Trng,3,task_Trng,2,1,"","",16,11,"","","","",Block11,"","","","","","",J,Stim14,NR,19,"",0,J,blue,13,"","",0.88,322,"","",2,54.44
592711,197,197,block_Trng,3,task_Trng,2,1,"","",17,11,"","","","",Block11,"","","","","","",K,Stim10,LR,12,"",0,K,red,9,"","",0.88,324,"","",2,54.72
592711,198,198,block_Trng,3,task_Trng,2,1,"","",18,11,"","","","",Block11,"","","","","","",K,Stim13,LR,66,"",0,K,red,13,"","",0.88,326,"","",2,55
592711,199,199,block_Trng,3,task_Trng,2,1,"","",1,12,"","","","",Block12,"","","","","","",K,Stim11,NR,64,"",0,K,blue,10,"","",0.88,326,"","",2,55.28
592711,200,200,block_Trng,3,task_Trng,2,0,"","",2,12,"","","","",Block12,"","","","","","",K,Stim10,HR,7,"",0,J,green,8,"","",0.88,326,"","",2,55.56
592711,201,201,block_Trng,3,task_Trng,2,1,"","",3,12,"","","","",Block12,"","","","","","",K,Stim9,LR,90,"",0,K,red,9,"","",0.88,328,"","",2,55.83
592711,202,202,block_Trng,3,task_Trng,2,0,"","",4,12,"","","","",Block12,"","","","","","",K,Stim12,LR,96,"",0,J,red,12,"","",0.88,328,"","",2,56.11
592711,203,203,block_Trng,3,task_Trng,2,0,"","",5,12,"","","","",Block12,"","","","","","",K,Stim10,NR,22,"",0,J,blue,9,"","",0.88,328,"","",2,56.39
592711,204,204,block_Trng,3,task_Trng,2,0,"","",6,12,"","","","",Block12,"","","","","","",K,Stim8,LR,14,"",0,J,red,8,"","",0.88,328,"","",2,56.67
592711,205,205,block_Trng,3,task_Trng,2,0,"","",7,12,"","","","",Block12,"","","","","","",K,Stim12,HR,25,"",0,J,green,12,"","",0.88,328,"","",2,56.94
592711,206,206,block_Trng,3,task_Trng,2,0,"","",8,12,"","","","",Block12,"","","","","","",J,Stim14,NR,30,"",0,K,blue,12,"","",0.88,328,"","",2,57.22
592711,207,207,block_Trng,3,task_Trng,2,0,"","",9,12,"","","","",Block12,"","","","","","",K,Stim13,NR,99,"",0,J,blue,13,"","",0.88,328,"","",2,57.5
592711,208,208,block_Trng,3,task_Trng,2,1,"","",10,12,"","","","",Block12,"","","","","","",K,Stim9,HR,66,"",0,K,green,9,"","",0.88,338,"","",2,57.78
592711,209,209,block_Trng,3,task_Trng,2,1,"","",11,12,"","","","",Block12,"","","","","","",K,Stim13,HR,52,"",0,K,green,13,"","",0.88,348,"","",2,58.06
592711,210,210,block_Trng,3,task_Trng,2,0,"","",12,12,"","","","",Block12,"","","","","","",J,Stim8,NR,56,"",0,K,blue,8,"","",0.88,348,"","",2,58.33
592711,211,211,block_Trng,3,task_Trng,2,0,"","",13,12,"","","","",Block12,"","","","","","",K,Stim12,NR,11,"",0,J,blue,11,"","",0.88,348,"","",2,58.61
592711,212,212,block_Trng,3,task_Trng,2,1,"","",14,12,"","","","",Block12,"","","","","","",J,Stim10,LR,1,"",0,J,red,10,"","",0.88,350,"","",2,58.89
592711,213,213,block_Trng,3,task_Trng,2,1,"","",15,12,"","","","",Block12,"","","","","","",J,Stim10,HR,5,"",0,J,green,10,"","",0.88,360,"","",2,59.17
592711,214,214,block_Trng,3,task_Trng,2,0,"","",16,12,"","","","",Block12,"","","","","","",J,Stim13,LR,52,"",0,K,red,13,"","",0.88,360,"","",2,59.44
592711,215,215,block_Trng,3,task_Trng,2,0,"","",17,12,"","","","",Block12,"","","","","","",J,Stim11,LR,7,"",0,K,red,11,"","",0.88,360,"","",2,59.72
592711,216,216,block_Trng,3,task_Trng,2,0,"","",18,12,"","","","",Block12,"","","","","","",J,Stim11,HR,69,"",0,K,green,11,"","",1.22,360,"","",3,60
592711,217,217,block_Trng,3,task_Trng,2,1,"","",1,13,"","","","",Block13,"","","","","","",J,Stim8,HR,64,"",0,J,green,8,"","",1.22,370,"","",3,60.28
592711,218,218,block_Trng,3,task_Trng,2,1,"","",2,13,"","","","",Block13,"","","","","","",K,Stim11,HR,31,"",0,K,green,11,"","",1.22,380,"","",3,60.56
592711,219,219,block_Trng,3,task_Trng,2,0,"","",3,13,"","","","",Block13,"","","","","","",J,Stim11,LR,27,"",0,K,red,11,"","",1.22,380,"","",3,60.83
592711,220,220,block_Trng,3,task_Trng,2,0,"","",4,13,"","","","",Block13,"","","","","","",J,Stim9,NR,2,"",0,K,blue,8,"","",1.22,380,"","",3,61.11
592711,221,221,block_Trng,3,task_Trng,2,1,"","",5,13,"","","","",Block13,"","","","","","",K,Stim10,NR,71,"",0,K,blue,10,"","",1.22,380,"","",3,61.39
592711,222,222,block_Trng,3,task_Trng,2,1,"","",6,13,"","","","",Block13,"","","","","","",J,Stim10,LR,12,"",0,J,red,10,"","",1.22,382,"","",3,61.67
592711,223,223,block_Trng,3,task_Trng,2,1,"","",7,13,"","","","",Block13,"","","","","","",J,Stim12,HR,18,"",0,J,green,12,"","",1.22,392,"","",3,61.94
592711,224,224,block_Trng,3,task_Trng,2,0,"","",8,13,"","","","",Block13,"","","","","","",J,Stim13,LR,110,"",0,K,red,13,"","",1.22,392,"","",3,62.22
592711,225,225,block_Trng,3,task_Trng,2,0,"","",9,13,"","","","",Block13,"","","","","","",K,Stim11,NR,20,"",0,J,blue,11,"","",1.22,392,"","",3,62.5
592711,226,226,block_Trng,3,task_Trng,2,1,"","",10,13,"","","","",Block13,"","","","","","",K,Stim14,HR,17,"",0,K,green,13,"","",1.22,402,"","",3,62.78
592711,227,227,block_Trng,3,task_Trng,2,1,"","",11,13,"","","","",Block13,"","","","","","",J,Stim9,NR,92,"",0,J,blue,9,"","",1.22,402,"","",3,63.06
592711,228,228,block_Trng,3,task_Trng,2,0,"","",12,13,"","","","",Block13,"","","","","","",J,Stim12,NR,50,"",0,K,blue,12,"","",1.22,402,"","",3,63.33
592711,229,229,block_Trng,3,task_Trng,2,0,"","",13,13,"","","","",Block13,"","","","","","",K,Stim13,NR,76,"",0,J,blue,13,"","",1.22,402,"","",3,63.61
592711,230,230,block_Trng,3,task_Trng,2,1,"","",14,13,"","","","",Block13,"","","","","","",K,Stim9,HR,107,"",0,K,green,9,"","",1.22,412,"","",3,63.89
592711,231,231,block_Trng,3,task_Trng,2,0,"","",15,13,"","","","",Block13,"","","","","","",K,Stim10,HR,28,"",0,J,green,10,"","",1.22,412,"","",3,64.17
592711,232,232,block_Trng,3,task_Trng,2,0,"","",16,13,"","","","",Block13,"","","","","","",K,Stim12,LR,34,"",0,J,red,12,"","",1.22,412,"","",3,64.44
592711,233,233,block_Trng,3,task_Trng,2,1,"","",17,13,"","","","",Block13,"","","","","","",K,Stim9,LR,59,"",0,K,red,9,"","",1.22,414,"","",3,64.72
592711,234,234,block_Trng,3,task_Trng,2,1,"","",18,13,"","","","",Block13,"","","","","","",J,Stim8,LR,24,"",0,J,red,8,"","",1.22,416,"","",3,65
592711,235,235,block_Trng,3,task_Trng,2,1,"","",1,14,"","","","",Block14,"","","","","","",J,Stim12,HR,102,"",0,J,green,12,"","",1.22,426,"","",3,65.28
592711,236,236,block_Trng,3,task_Trng,2,0,"","",2,14,"","","","",Block14,"","","","","","",K,Stim10,HR,53,"",0,J,green,10,"","",1.22,426,"","",3,65.56
592711,237,237,block_Trng,3,task_Trng,2,0,"","",3,14,"","","","",Block14,"","","","","","",J,Stim9,LR,47,"",0,K,red,9,"","",1.22,426,"","",3,65.83
592711,238,238,block_Trng,3,task_Trng,2,1,"","",4,14,"","","","",Block14,"","","","","","",K,Stim13,HR,13,"",0,K,green,13,"","",1.22,436,"","",3,66.11
592711,239,239,block_Trng,3,task_Trng,2,1,"","",5,14,"","","","",Block14,"","","","","","",J,Stim11,NR,39,"",0,J,blue,11,"","",1.22,436,"","",3,66.39
592711,240,240,block_Trng,3,task_Trng,2,0,"","",6,14,"","","","",Block14,"","","","","","",J,Stim12,NR,13,"",0,K,blue,12,"","",1.22,436,"","",3,66.67
592711,241,241,block_Trng,3,task_Trng,2,1,"","",7,14,"","","","",Block14,"","","","","","",J,Stim10,NR,12,"",0,J,blue,9,"","",1.22,436,"","",3,66.94
592711,242,242,block_Trng,3,task_Trng,2,1,"","",8,14,"","","","",Block14,"","","","","","",J,Stim8,LR,13,"",0,J,red,8,"","",1.22,438,"","",3,67.22
592711,243,243,block_Trng,3,task_Trng,2,1,"","",9,14,"","","","",Block14,"","","","","","",J,Stim12,LR,2,"",0,J,red,12,"","",1.22,440,"","",3,67.5
592711,244,244,block_Trng,3,task_Trng,2,1,"","",10,14,"","","","",Block14,"","","","","","",K,Stim13,LR,22,"",0,K,red,13,"","",1.22,442,"","",3,67.78
592711,245,245,block_Trng,3,task_Trng,2,1,"","",11,14,"","","","",Block14,"","","","","","",K,Stim11,HR,88,"",0,K,green,11,"","",1.22,452,"","",3,68.06
592711,246,246,block_Trng,3,task_Trng,2,0,"","",12,14,"","","","",Block14,"","","","","","",J,Stim10,NR,73,"",0,K,blue,10,"","",1.22,452,"","",3,68.33
592711,247,247,block_Trng,3,task_Trng,2,1,"","",13,14,"","","","",Block14,"","","","","","",J,Stim14,NR,49,"",0,J,blue,13,"","",1.22,452,"","",3,68.61
592711,248,248,block_Trng,3,task_Trng,2,0,"","",14,14,"","","","",Block14,"","","","","","",J,Stim11,LR,15,"",0,K,red,11,"","",1.22,452,"","",3,68.89
592711,249,249,block_Trng,3,task_Trng,2,1,"","",15,14,"","","","",Block14,"","","","","","",J,Stim10,LR,39,"",0,J,red,10,"","",1.22,454,"","",3,69.17
592711,250,250,block_Trng,3,task_Trng,2,0,"","",16,14,"","","","",Block14,"","","","","","",J,Stim9,HR,50,"",0,K,green,9,"","",1.22,454,"","",3,69.44
592711,251,251,block_Trng,3,task_Trng,2,1,"","",17,14,"","","","",Block14,"","","","","","",J,Stim8,HR,69,"",0,J,green,8,"","",1.22,464,"","",3,69.72
592711,252,252,block_Trng,3,task_Trng,2,0,"","",18,14,"","","","",Block14,"","","","","","",J,Stim8,NR,45,"",0,K,blue,8,"","",1.22,464,"","",3,70
592711,253,253,block_Trng,3,task_Trng,2,0,"","",1,15,"","","","",Block15,"","","","","","",J,Stim13,LR,12,"",0,K,red,13,"","",1.22,464,"","",3,70.28
592711,254,254,block_Trng,3,task_Trng,2,1,"","",2,15,"","","","",Block15,"","","","","","",J,Stim9,HR,1,"",0,J,green,8,"","",1.22,474,"","",3,70.56
592711,255,255,block_Trng,3,task_Trng,2,0,"","",3,15,"","","","",Block15,"","","","","","",J,Stim11,HR,107,"",0,K,green,11,"","",1.22,474,"","",3,70.83
592711,256,256,block_Trng,3,task_Trng,2,0,"","",4,15,"","","","",Block15,"","","","","","",J,Stim13,HR,38,"",0,K,green,13,"","",1.22,474,"","",3,71.11
592711,257,257,block_Trng,3,task_Trng,2,0,"","",5,15,"","","","",Block15,"","","","","","",J,Stim9,HR,32,"",0,K,green,9,"","",1.22,474,"","",3,71.39
592711,258,258,block_Trng,3,task_Trng,2,0,"","",6,15,"","","","",Block15,"","","","","","",J,Stim8,NR,69,"",0,K,blue,8,"","",1.22,474,"","",3,71.67
592711,259,259,block_Trng,3,task_Trng,2,1,"","",7,15,"","","","",Block15,"","","","","","",J,Stim9,NR,80,"",0,J,blue,9,"","",1.22,474,"","",3,71.94
592711,260,260,block_Trng,3,task_Trng,2,1,"","",8,15,"","","","",Block15,"","","","","","",J,Stim11,NR,11,"",0,J,blue,11,"","",1.22,474,"","",3,72.22
592711,261,261,block_Trng,3,task_Trng,2,1,"","",9,15,"","","","",Block15,"","","","","","",J,Stim13,NR,14,"",0,J,blue,13,"","",1.22,474,"","",3,72.5
592711,262,262,block_Trng,3,task_Trng,2,1,"","",10,15,"","","","",Block15,"","","","","","",J,Stim8,LR,2,"",0,J,red,8,"","",1.22,476,"","",3,72.78
592711,263,263,block_Trng,3,task_Trng,2,1,"","",11,15,"","","","",Block15,"","","","","","",J,Stim12,HR,40,"",0,J,green,12,"","",1.22,486,"","",3,73.06
592711,264,264,block_Trng,3,task_Trng,2,0,"","",12,15,"","","","",Block15,"","","","","","",K,Stim10,LR,16,"",0,J,red,10,"","",1.22,486,"","",3,73.33
592711,265,265,block_Trng,3,task_Trng,2,1,"","",13,15,"","","","",Block15,"","","","","","",J,Stim12,LR,1,"",0,J,red,12,"","",1.22,488,"","",3,73.61
592711,266,266,block_Trng,3,task_Trng,2,0,"","",14,15,"","","","",Block15,"","","","","","",J,Stim11,NR,16,"",0,K,blue,10,"","",1.22,488,"","",3,73.89
592711,267,267,block_Trng,3,task_Trng,2,1,"","",15,15,"","","","",Block15,"","","","","","",K,Stim9,LR,91,"",0,K,red,9,"","",1.22,490,"","",3,74.17
592711,268,268,block_Trng,3,task_Trng,2,1,"","",16,15,"","","","",Block15,"","","","","","",K,Stim11,LR,56,"",0,K,red,11,"","",1.22,492,"","",3,74.44
592711,269,269,block_Trng,3,task_Trng,2,0,"","",17,15,"","","","",Block15,"","","","","","",J,Stim12,NR,16,"",0,K,blue,12,"","",1.22,492,"","",3,74.72
592711,270,270,block_Trng,3,task_Trng,2,1,"","",18,15,"","","","",Block15,"","","","","","",J,Stim10,HR,55,"",0,J,green,10,"","",1.22,502,"","",3,75
592711,271,271,block_Trng,3,task_Trng,2,0,"","",1,16,"","","","",Block16',"","","","","","",J,Stim10,HR,64,"",0,K,green,9,"","",1.22,502,"","",3,75.28
592711,272,272,block_Trng,3,task_Trng,2,0,"","",2,16,"","","","",Block16',"","","","","","",J,Stim13,LR,68,"",0,K,red,13,"","",1.22,502,"","",3,75.56
592711,273,273,block_Trng,3,task_Trng,2,0,"","",3,16,"","","","",Block16',"","","","","","",K,Stim11,NR,25,"",0,J,blue,11,"","",1.22,502,"","",3,75.83
592711,274,274,block_Trng,3,task_Trng,2,1,"","",4,16,"","","","",Block16',"","","","","","",K,Stim10,NR,26,"",0,K,blue,10,"","",1.22,502,"","",3,76.11
592711,275,275,block_Trng,3,task_Trng,2,0,"","",5,16,"","","","",Block16',"","","","","","",J,Stim9,LR,111,"",0,K,red,9,"","",1.22,502,"","",3,76.39
592711,276,276,block_Trng,3,task_Trng,2,0,"","",6,16,"","","","",Block16',"","","","","","",J,Stim11,HR,15,"",0,K,green,11,"","",1.22,502,"","",3,76.67
592711,277,277,block_Trng,3,task_Trng,2,0,"","",7,16,"","","","",Block16',"","","","","","",K,Stim13,NR,77,"",0,J,blue,13,"","",1.22,502,"","",3,76.94
592711,278,278,block_Trng,3,task_Trng,2,0,"","",8,16,"","","","",Block16',"","","","","","",K,Stim10,LR,38,"",0,J,red,10,"","",1.22,502,"","",3,77.22
592711,279,279,block_Trng,3,task_Trng,2,1,"","",9,16,"","","","",Block16',"","","","","","",J,Stim15,HR,80,"",0,J,green,12,"","",1.22,512,"","",3,77.5
592711,280,280,block_Trng,3,task_Trng,2,0,"","",10,16,"","","","",Block16',"","","","","","",K,Stim8,LR,23,"",0,J,red,8,"","",1.22,512,"","",3,77.78
592711,281,281,block_Trng,3,task_Trng,2,1,"","",11,16,"","","","",Block16',"","","","","","",J,Stim12,LR,64,"",0,J,red,12,"","",1.22,514,"","",3,78.06
592711,282,282,block_Trng,3,task_Trng,2,0,"","",12,16,"","","","",Block16',"","","","","","",K,Stim9,HR,6,"",0,J,green,8,"","",1.22,514,"","",3,78.33
592711,283,283,block_Trng,3,task_Trng,2,0,"","",13,16,"","","","",Block16',"","","","","","",K,Stim9,NR,16,"",0,J,blue,9,"","",1.22,514,"","",3,78.61
592711,284,284,block_Trng,3,task_Trng,2,0,"","",14,16,"","","","",Block16',"","","","","","",J,Stim12,NR,62,"",0,K,blue,12,"","",1.22,514,"","",3,78.89
592711,285,285,block_Trng,3,task_Trng,2,1,"","",15,16,"","","","",Block16',"","","","","","",K,Stim12,LR,35,"",0,K,red,11,"","",1.22,516,"","",3,79.17
592711,286,286,block_Trng,3,task_Trng,2,0,"","",16,16,"","","","",Block16',"","","","","","",J,Stim9,NR,29,"",0,K,blue,8,"","",1.22,516,"","",3,79.44
592711,287,287,block_Trng,3,task_Trng,2,1,"","",17,16,"","","","",Block16',"","","","","","",J,Stim12,HR,18,"",0,J,green,10,"","",1.22,526,"","",3,79.72
592711,288,288,block_Trng,3,task_Trng,2,0,"","",18,16,"","","","",Block16',"","","","","","",J,Stim13,HR,87,"",0,K,green,13,"","",1.79,526,"","",4,80
592711,289,289,block_Trng,3,task_Trng,2,0,"","",1,17,"","","","",Block17,"","","","","","",K,Stim13,HR,1,"",0,J,green,12,"","",1.79,526,"","",4,80.28
592711,290,290,block_Trng,3,task_Trng,2,1,"","",2,17,"","","","",Block17,"","","","","","",J,Stim9,NR,24,"",0,J,blue,9,"","",1.79,526,"","",4,80.56
592711,291,291,block_Trng,3,task_Trng,2,1,"","",3,17,"","","","",Block17,"","","","","","",K,Stim9,LR,12,"",0,K,red,9,"","",1.79,528,"","",4,80.83
592711,292,292,block_Trng,3,task_Trng,2,0,"","",4,17,"","","","",Block17,"","","","","","",K,Stim11,NR,17,"",0,J,blue,11,"","",1.79,528,"","",4,81.11
592711,293,293,block_Trng,3,task_Trng,2,1,"","",5,17,"","","","",Block17,"","","","","","",K,Stim13,NR,23,"",0,K,blue,12,"","",1.79,528,"","",4,81.39
592711,294,294,block_Trng,3,task_Trng,2,1,"","",6,17,"","","","",Block17,"","","","","","",K,Stim8,NR,51,"",0,K,blue,8,"","",1.79,528,"","",4,81.67
592711,295,295,block_Trng,3,task_Trng,2,0,"","",7,17,"","","","",Block17,"","","","","","",J,Stim9,HR,77,"",0,K,green,9,"","",1.79,528,"","",4,81.94
592711,296,296,block_Trng,3,task_Trng,2,0,"","",8,17,"","","","",Block17,"","","","","","",J,Stim10,NR,15,"",0,K,blue,10,"","",1.79,528,"","",4,82.22
592711,297,297,block_Trng,3,task_Trng,2,1,"","",9,17,"","","","",Block17,"","","","","","",J,Stim11,HR,13,"",0,J,green,10,"","",1.79,538,"","",4,82.5
592711,298,298,block_Trng,3,task_Trng,2,1,"","",10,17,"","","","",Block17,"","","","","","",J,Stim8,LR,29,"",0,J,red,8,"","",1.79,540,"","",4,82.78
592711,299,299,block_Trng,3,task_Trng,2,1,"","",11,17,"","","","",Block17,"","","","","","",J,Stim13,NR,87,"",0,J,blue,13,"","",1.79,540,"","",4,83.06
592711,300,300,block_Trng,3,task_Trng,2,0,"","",12,17,"","","","",Block17,"","","","","","",J,Stim13,LR,11,"",0,K,red,13,"","",1.79,540,"","",4,83.33
592711,301,301,block_Trng,3,task_Trng,2,0,"","",13,17,"","","","",Block17,"","","","","","",J,Stim12,HR,98,"",0,K,green,11,"","",1.79,540,"","",4,83.61
592711,302,302,block_Trng,3,task_Trng,2,1,"","",14,17,"","","","",Block17,"","","","","","",J,Stim12,LR,12,"",0,J,red,12,"","",1.79,542,"","",4,83.89
592711,303,303,block_Trng,3,task_Trng,2,1,"","",15,17,"","","","",Block17,"","","","","","",J,Stim8,HR,45,"",0,J,green,8,"","",1.79,552,"","",4,84.17
592711,304,304,block_Trng,3,task_Trng,2,1,"","",16,17,"","","","",Block17,"","","","","","",J,Stim10,LR,63,"",0,J,red,10,"","",1.79,554,"","",4,84.44
592711,305,305,block_Trng,3,task_Trng,2,0,"","",17,17,"","","","",Block17,"","","","","","",J,Stim14,HR,16,"",0,K,green,13,"","",1.79,554,"","",4,84.72
592711,306,306,block_Trng,3,task_Trng,2,0,"","",18,17,"","","","",Block17,"","","","","","",J,Stim12,LR,12,"",0,K,red,11,"","",1.79,554,"","",4,85
592711,307,307,block_Trng,3,task_Trng,2,0,"","",1,18,"","","","",Block18,"","","","","","",K,Stim10,HR,68,"",0,J,green,10,"","",1.79,554,"","",4,85.28
592711,308,308,block_Trng,3,task_Trng,2,1,"","",2,18,"","","","",Block18,"","","","","","",J,Stim8,HR,64,"",0,J,green,8,"","",1.79,564,"","",4,85.56
592711,309,309,block_Trng,3,task_Trng,2,1,"","",3,18,"","","","",Block18,"","","","","","",J,Stim12,HR,71,"",0,J,green,12,"","",1.79,574,"","",4,85.83
592711,310,310,block_Trng,3,task_Trng,2,1,"","",4,18,"","","","",Block18,"","","","","","",K,Stim12,LR,1,"",0,K,red,11,"","",1.79,576,"","",4,86.11
592711,311,311,block_Trng,3,task_Trng,2,1,"","",5,18,"","","","",Block18,"","","","","","",K,Stim10,LR,50,"",0,K,red,9,"","",1.79,578,"","",4,86.39
592711,312,312,block_Trng,3,task_Trng,2,0,"","",6,18,"","","","",Block18,"","","","","","",K,Stim9,NR,14,"",0,J,blue,9,"","",1.79,578,"","",4,86.67
592711,313,313,block_Trng,3,task_Trng,2,1,"","",7,18,"","","","",Block18,"","","","","","",J,Stim12,NR,44,"",0,J,blue,11,"","",1.79,578,"","",4,86.94
592711,314,314,block_Trng,3,task_Trng,2,1,"","",8,18,"","","","",Block18,"","","","","","",J,Stim11,LR,11,"",0,J,red,10,"","",1.79,580,"","",4,87.22
592711,315,315,block_Trng,3,task_Trng,2,1,"","",9,18,"","","","",Block18,"","","","","","",K,Stim10,NR,23,"",0,K,blue,10,"","",1.79,580,"","",4,87.5
592711,316,316,block_Trng,3,task_Trng,2,1,"","",10,18,"","","","",Block18,"","","","","","",J,Stim8,LR,61,"",0,J,red,8,"","",1.79,582,"","",4,87.78
592711,317,317,block_Trng,3,task_Trng,2,1,"","",11,18,"","","","",Block18,"","","","","","",K,Stim13,HR,96,"",0,K,green,13,"","",1.79,592,"","",4,88.06
592711,318,318,block_Trng,3,task_Trng,2,1,"","",12,18,"","","","",Block18,"","","","","","",J,Stim13,LR,27,"",0,J,red,12,"","",1.79,594,"","",4,88.33
592711,319,319,block_Trng,3,task_Trng,2,1,"","",13,18,"","","","",Block18,"","","","","","",J,Stim14,NR,6,"",0,J,blue,13,"","",1.79,594,"","",4,88.61
592711,320,320,block_Trng,3,task_Trng,2,1,"","",14,18,"","","","",Block18,"","","","","","",K,Stim11,HR,12,"",0,K,green,11,"","",1.79,604,"","",4,88.89
592711,321,321,block_Trng,3,task_Trng,2,1,"","",15,18,"","","","",Block18,"","","","","","",K,Stim12,NR,12,"",0,K,blue,12,"","",1.79,604,"","",4,89.17
592711,322,322,block_Trng,3,task_Trng,2,1,"","",16,18,"","","","",Block18,Slow!,"","","","","",K,PreISI2,LR,991,"",1,K,red,13,"","",1.79,604,"","",4,89.44
592711,323,323,block_Trng,3,task_Trng,2,0,"","",17,18,"","","","",Block18,"","","","","","",J,Stim8,NR,20,"",0,K,blue,8,"","",1.79,604,"","",4,89.72
592711,324,324,block_Trng,3,task_Trng,2,1,"","",18,18,"","","","",Block18,"","","","","","",K,Stim9,HR,109,"",0,K,green,9,"","",1.79,614,"","",4,90
592711,325,325,block_Trng,3,task_Trng,2,0,"","",1,19,"","","","",Block19,Slow!,"","","","","","","",NR,0,"",1,K,blue,12,"","",1.79,614,"","",4,90.28
592711,326,326,block_Trng,3,task_Trng,2,0,"","",2,19,"","","","",Block19,"","","","","","",K,Stim11,LR,23,"",0,J,red,10,"","",1.79,614,"","",4,90.56
592711,327,327,block_Trng,3,task_Trng,2,1,"","",3,19,"","","","",Block19,"","","","","","",K,Stim11,HR,102,"",0,K,green,11,"","",1.79,624,"","",4,90.83
592711,328,328,block_Trng,3,task_Trng,2,1,"","",4,19,"","","","",Block19,"","","","","","",K,Stim10,NR,46,"",0,K,blue,10,"","",1.79,624,"","",4,91.11
592711,329,329,block_Trng,3,task_Trng,2,0,"","",5,19,"","","","",Block19,"","","","","","",K,Stim11,NR,2,"",0,J,blue,11,"","",1.79,624,"","",4,91.39
592711,330,330,block_Trng,3,task_Trng,2,1,"","",6,19,"","","","",Block19,"","","","","","",K,Stim11,LR,38,"",0,K,red,11,"","",1.79,626,"","",4,91.67
592711,331,331,block_Trng,3,task_Trng,2,1,"","",7,19,"","","","",Block19,"","","","","","",J,Stim12,HR,25,"",0,J,green,12,"","",1.79,636,"","",4,91.94
592711,332,332,block_Trng,3,task_Trng,2,0,"","",8,19,"","","","",Block19,"","","","","","",K,Stim13,NR,12,"",0,J,blue,13,"","",1.79,636,"","",4,92.22
592711,333,333,block_Trng,3,task_Trng,2,1,"","",9,19,"","","","",Block19,"","","","","","",K,Stim13,HR,0,"",0,K,green,13,"","",1.79,646,"","",4,92.5
592711,334,334,block_Trng,3,task_Trng,2,0,"","",10,19,"","","","",Block19,"","","","","","",K,Stim10,HR,9,"",0,J,green,10,"","",1.79,646,"","",4,92.78
592711,335,335,block_Trng,3,task_Trng,2,0,"","",11,19,"","","","",Block19,"","","","","","",K,Stim12,LR,91,"",0,J,red,12,"","",1.79,646,"","",4,93.06
592711,336,336,block_Trng,3,task_Trng,2,0,"","",12,19,"","","","",Block19,"","","","","","",J,Stim13,LR,108,"",0,K,red,13,"","",1.79,646,"","",4,93.33
592711,337,337,block_Trng,3,task_Trng,2,0,"","",13,19,"","","","",Block19,"","","","","","",J,Stim8,NR,93,"",0,K,blue,8,"","",1.79,646,"","",4,93.61
592711,338,338,block_Trng,3,task_Trng,2,0,"","",14,19,"","","","",Block19,"","","","","","",K,Stim8,LR,21,"",0,J,red,8,"","",1.79,646,"","",4,93.89
592711,339,339,block_Trng,3,task_Trng,2,1,"","",15,19,"","","","",Block19,"","","","","","",K,Stim9,HR,1,"",0,K,green,9,"","",1.79,656,"","",4,94.17
592711,340,340,block_Trng,3,task_Trng,2,0,"","",16,19,"","","","",Block19,"","","","","","",K,Stim9,NR,10,"",0,J,blue,9,"","",1.79,656,"","",4,94.44
592711,341,341,block_Trng,3,task_Trng,2,1,"","",17,19,"","","","",Block19,"","","","","","",K,Stim10,LR,14,"",0,K,red,9,"","",1.79,658,"","",4,94.72
592711,342,342,block_Trng,3,task_Trng,2,1,"","",18,19,"","","","",Block19,"","","","","","",J,Stim9,HR,24,"",0,J,green,8,"","",1.79,668,"","",4,95
592711,343,343,block_Trng,3,task_Trng,2,1,"","",1,20,"","","","",Block20,"","","","","","",K,Stim8,NR,26,"",0,K,blue,8,"","",1.79,668,"","",4,95.28
592711,344,344,block_Trng,3,task_Trng,2,0,"","",2,20,"","","","",Block20,"","","","","","",J,Stim13,LR,12,"",0,K,red,13,"","",1.79,668,"","",4,95.56
592711,345,345,block_Trng,3,task_Trng,2,1,"","",3,20,"","","","",Block20,"","","","","","",J,Stim11,HR,23,"",0,J,green,10,"","",1.79,678,"","",4,95.83
592711,346,346,block_Trng,3,task_Trng,2,1,"","",4,20,"","","","",Block20,"","","","","","",J,Stim10,LR,56,"",0,J,red,10,"","",1.79,680,"","",4,96.11
592711,347,347,block_Trng,3,task_Trng,2,1,"","",5,20,"","","","",Block20,"","","","","","",K,Stim9,HR,59,"",0,K,green,9,"","",1.79,690,"","",4,96.39
592711,348,348,block_Trng,3,task_Trng,2,1,"","",6,20,"","","","",Block20,"","","","","","",J,Stim12,HR,11,"",0,J,green,12,"","",1.79,700,"","",4,96.67
592711,349,349,block_Trng,3,task_Trng,2,0,"","",7,20,"","","","",Block20,"","","","","","",K,Stim8,LR,75,"",0,J,red,8,"","",1.79,700,"","",4,96.94
592711,350,350,block_Trng,3,task_Trng,2,0,"","",8,20,"","","","",Block20,"","","","","","",J,Stim10,NR,41,"",0,K,blue,10,"","",1.79,700,"","",4,97.22
592711,351,351,block_Trng,3,task_Trng,2,1,"","",9,20,"","","","",Block20,"","","","","","",K,Stim9,LR,92,"",0,K,red,9,"","",1.79,702,"","",4,97.5
592711,352,352,block_Trng,3,task_Trng,2,1,"","",10,20,"","","","",Block20,"","","","","","",K,Stim11,HR,96,"",0,K,green,11,"","",1.79,712,"","",4,97.78
592711,353,353,block_Trng,3,task_Trng,2,0,"","",11,20,"","","","",Block20,"","","","","","",J,Stim13,HR,12,"",0,K,green,13,"","",1.79,712,"","",4,98.06
592711,354,354,block_Trng,3,task_Trng,2,1,"","",12,20,"","","","",Block20,"","","","","","",J,Stim8,HR,42,"",0,J,green,8,"","",1.79,722,"","",4,98.33
592711,355,355,block_Trng,3,task_Trng,2,0,"","",13,20,"","","","",Block20,"","","","","","",J,Stim12,NR,22,"",0,K,blue,12,"","",1.79,722,"","",4,98.61
592711,356,356,block_Trng,3,task_Trng,2,1,"","",14,20,"","","","",Block20,"","","","","","",J,Stim10,NR,20,"",0,J,blue,9,"","",1.79,722,"","",4,98.89
592711,357,357,block_Trng,3,task_Trng,2,1,"","",15,20,"","","","",Block20,"","","","","","",J,Stim12,LR,12,"",0,J,red,12,"","",1.79,724,"","",4,99.17
592711,358,358,block_Trng,3,task_Trng,2,1,"","",16,20,"","","","",Block20,"","","","","","",J,Stim13,NR,36,"",0,J,blue,13,"","",1.79,724,"","",4,99.44
592711,359,359,block_Trng,3,task_Trng,2,0,"","",17,20,"","","","",Block20,"","","","","","",J,Stim11,LR,116,"",0,K,red,11,"","",1.79,724,"","",4,99.72
592711,360,360,block_Trng,3,task_Trng,2,0,"","",18,20,"","","","",Block20,"","","","","","",K,Stim11,NR,82,"",0,J,blue,11,"","",1.79,724,"","",4,100
592711,1,1,block_Testing,4,task_Testing_Instructions,1,"","","","",1,"","","","","","","","","","","","","","","","","","","","","","","","","","","",""
592711,1,1,block_Trng,3,task_Trng_End,3,"","","","",1,"","","","","","","","","","","","","","","","","","","","","","",2.46,724,"","","",""
592711,1,1,block_Testing,4,task_Testing,2,0,"","",1,1,"","",Block1,"","","","","","","","",K,Stim12,HR,26,"",0,J,green,12,0,0.56,"",724,"","","",""
592711,2,2,block_Testing,4,task_Testing,2,1,"","",2,1,"","",Block1,"","","","","","","","",J,Stim13,NR,20,"",0,J,blue,13,0,1.11,"",724,"","","",""
592711,3,3,block_Testing,4,task_Testing,2,0,"","",3,1,"","",Block1,"","","","","","","","",K,Stim8,LR,18,"",0,J,red,8,0,1.67,"",724,"","","",""
592711,4,4,block_Testing,4,task_Testing,2,1,"","",4,1,"","",Block1,"","","","","","","","",K,Stim10,HR,9,"",0,K,green,9,0,2.22,"",724,"","","",""
592711,5,5,block_Testing,4,task_Testing,2,1,"","",5,1,"","",Block1,"","","","","","","","",J,Stim8,HR,102,"",0,J,green,8,0,2.78,"",724,"","","",""
592711,6,6,block_Testing,4,task_Testing,2,0,"","",6,1,"","",Block1,"","","","","","","","",J,Stim14,LR,28,"",0,K,red,13,0,3.33,"",724,"","","",""
592711,7,7,block_Testing,4,task_Testing,2,1,"","",7,1,"","",Block1,"","","","","","","","",J,Stim10,LR,25,"",0,J,red,10,0,3.89,"",724,"","","",""
592711,8,8,block_Testing,4,task_Testing,2,0,"","",8,1,"","",Block1,"","","","","","","","",J,Stim11,LR,32,"",0,K,red,11,0,4.44,"",724,"","","",""
592711,9,9,block_Testing,4,task_Testing,2,0,"","",9,1,"","",Block1,"","","","","","","","",J,Stim10,NR,6,"",0,K,blue,10,0,5,"",724,"","","",""
592711,10,10,block_Testing,4,task_Testing,2,1,"","",10,1,"","",Block1,"","","","","","","","",K,Stim8,NR,13,"",0,K,blue,8,0,5.56,"",724,"","","",""
592711,11,11,block_Testing,4,task_Testing,2,0,"","",11,1,"","",Block1,"","","","","","","","",K,Stim12,LR,25,"",0,J,red,12,0,6.11,"",724,"","","",""
592711,12,12,block_Testing,4,task_Testing,2,1,"","",12,1,"","",Block1,"","","","","","","","",K,Stim12,NR,34,"",0,K,blue,12,0,6.67,"",724,"","","",""
592711,13,13,block_Testing,4,task_Testing,2,0,"","",13,1,"","",Block1,"","","","","","","","",K,Stim11,NR,25,"",0,J,blue,11,0,7.22,"",724,"","","",""
592711,14,14,block_Testing,4,task_Testing,2,0,"","",14,1,"","",Block1,"","",Slow!,"","","","","","","",HR,0,"",1,J,green,10,0,7.78,"",724,"","","",""
592711,15,15,block_Testing,4,task_Testing,2,1,"","",15,1,"","",Block1,"","",Slow!,"","","","","",K,PreISI2,LR,197,"",2,K,red,9,0,8.33,"",724,"","","",""
592711,16,16,block_Testing,4,task_Testing,2,0,"","",16,1,"","",Block1,"","","","","","","","",J,Stim16,HR,77,"",0,K,green,11,0,8.89,"",724,"","","",""
592711,17,17,block_Testing,4,task_Testing,2,1,"","",17,1,"","",Block1,"","","","","","","","",K,PreISI2,HR,4,"",0,K,green,13,0,9.44,"",724,"","","",""
592711,18,18,block_Testing,4,task_Testing,2,1,"","",18,1,"","",Block1,"","","","","","","","",J,PreISI1,NR,5,"",0,J,blue,9,0,10,"",724,"","","",""
592711,19,19,block_Testing,4,task_Testing,2,1,"","",1,2,"","",Block2,"","","","","","","","",J,PreISI1,LR,188,"",0,J,red,10,0,10.56,"",724,"","","",""
592711,20,20,block_Testing,4,task_Testing,2,1,"","",2,2,"","",Block2,"","","","","","","","",J,PreISI1,NR,154,"",0,J,blue,11,0,11.11,"",724,"","","",""
592711,21,21,block_Testing,4,task_Testing,2,1,"","",3,2,"","",Block2,"","","","","","","","",K,PreISI1,HR,298,"",0,K,green,11,0,11.67,"",724,"","","",""
592711,22,22,block_Testing,4,task_Testing,2,1,"","",4,2,"","",Block2,"","","","","","","","",K,PreISI1,NR,345,"",0,K,blue,12,0,12.22,"",724,"","","",""
592711,23,23,block_Testing,4,task_Testing,2,1,"","",5,2,"","",Block2,"","","","","","","","",K,PreISI1,LR,249,"",0,K,red,11,0,12.78,"",724,"","","",""
592711,24,24,block_Testing,4,task_Testing,2,1,"","",6,2,"","",Block2,"","","","","","","","",J,PreISI1,HR,220,"",0,J,green,8,0,13.33,"",724,"","","",""
592711,25,25,block_Testing,4,task_Testing,2,1,"","",7,2,"","",Block2,"","","","","","","","",K,Stim16,LR,5,"",0,K,red,9,0,13.89,"",724,"","","",""
592711,26,26,block_Testing,4,task_Testing,2,1,"","",8,2,"","",Block2,"","","","","","","","",K,PreISI1,NR,57,"",0,K,blue,8,0,14.44,"",724,"","","",""
592711,27,27,block_Testing,4,task_Testing,2,0,"","",9,2,"","",Block2,"","",Slow!,"","","","","",K,PreISI2,LR,36,"",1,J,red,12,0,15,"",724,"","","",""
592711,28,28,block_Testing,4,task_Testing,2,1,"","",10,2,"","",Block2,"","","","","","","","",J,PreISI1,LR,27,"",0,J,red,8,0,15.56,"",724,"","","",""
592711,29,29,block_Testing,4,task_Testing,2,1,"","",11,2,"","",Block2,"","","","","","","","",K,Stim16,NR,81,"",0,K,blue,10,0,16.11,"",724,"","","",""
592711,30,30,block_Testing,4,task_Testing,2,1,"","",12,2,"","",Block2,"","","","","","","","",J,PreISI1,HR,108,"",0,J,green,10,0,16.67,"",724,"","","",""
592711,31,31,block_Testing,4,task_Testing,2,1,"","",13,2,"","",Block2,"","","","","","","","",J,PreISI1,HR,500,"",0,J,green,12,0,17.22,"",724,"","","",""
592711,32,32,block_Testing,4,task_Testing,2,1,"","",14,2,"","",Block2,"","","","","","","","",J,PreISI1,NR,58,"",0,J,blue,9,0,17.78,"",724,"","","",""
592711,33,33,block_Testing,4,task_Testing,2,1,"","",15,2,"","",Block2,"","","","","","","","",J,PreISI1,NR,490,"",0,J,blue,13,0,18.33,"",724,"","","",""
592711,34,34,block_Testing,4,task_Testing,2,1,"","",16,2,"","",Block2,"","",Slow!,"","","","","",K,PreISI2,LR,70,"",1,K,red,13,0,18.89,"",724,"","","",""
592711,35,35,block_Testing,4,task_Testing,2,1,"","",17,2,"","",Block2,"","",Slow!,"","","","","",K,PreISI2,HR,313,"",2,K,green,13,0,19.44,"",724,"","","",""
592711,36,36,block_Testing,4,task_Testing,2,1,"","",18,2,"","",Block2,"","","","","","","","",K,PreISI1,HR,327,"",0,K,green,9,0,20,"",724,"","","",""
592711,37,37,block_Testing,4,task_Testing,2,1,"","",1,3,"","",Block3,"","","","","","","","",J,Stim16,LR,82,"",0,J,red,8,0,20.56,"",724,"","","",""
592711,38,38,block_Testing,4,task_Testing,2,1,"","",2,3,"","",Block3,"","","","","","","","",J,PreISI1,HR,360,"",0,J,green,12,0,21.11,"",724,"","","",""
592711,39,39,block_Testing,4,task_Testing,2,1,"","",3,3,"","",Block3,"","","","","","","","",K,PreISI1,LR,417,"",0,K,red,13,0,21.67,"",724,"","","",""
592711,40,40,block_Testing,4,task_Testing,2,1,"","",4,3,"","",Block3,"","","","","","","","",K,PreISI1,LR,295,"",0,K,red,11,0,22.22,"",724,"","","",""
592711,41,41,block_Testing,4,task_Testing,2,1,"","",5,3,"","",Block3,"","","","","","","","",K,Stim16,NR,13,"",0,K,blue,10,0,22.78,"",724,"","","",""
592711,42,42,block_Testing,4,task_Testing,2,1,"","",6,3,"","",Block3,"","","","","","","","",K,Stim16,NR,15,"",0,K,blue,8,0,23.33,"",724,"","","",""
592711,43,43,block_Testing,4,task_Testing,2,1,"","",7,3,"","",Block3,"","","","","","","","",J,Stim16,HR,52,"",0,J,green,8,0,23.89,"",724,"","","",""
592711,44,44,block_Testing,4,task_Testing,2,1,"","",8,3,"","",Block3,"","","","","","","","",J,PreISI1,NR,244,"",0,J,blue,9,0,24.44,"",724,"","","",""
592711,45,45,block_Testing,4,task_Testing,2,0,"","",9,3,"","",Block3,"","",Slow!,"","","","","","","",NR,0,"",1,J,blue,13,0,25,"",724,"","","",""
592711,46,46,block_Testing,4,task_Testing,2,0,"","",10,3,"","",Block3,"","",Slow!,"","","","","","","",HR,0,"",2,K,green,9,0,25.56,"",724,"","","",""
592711,47,47,block_Testing,4,task_Testing,2,0,"","",11,3,"","",Block3,"","",Slow!,"","","","","","","",LR,0,"",3,J,red,10,0,26.11,"",724,"","","",""
592711,48,48,block_Testing,4,task_Testing,2,0,"","",12,3,"","",Block3,"","","","","","","","",J,Stim14,HR,95,"",0,K,green,13,0,26.67,"",724,"","","",""
592711,49,49,block_Testing,4,task_Testing,2,1,"","",13,3,"","",Block3,"","","","","","","","",J,Stim11,HR,19,"",0,J,green,10,0,27.22,"",724,"","","",""
592711,50,50,block_Testing,4,task_Testing,2,0,"","",14,3,"","",Block3,"","","","","","","","",J,Stim12,NR,9,"",0,K,blue,12,0,27.78,"",724,"","","",""
592711,51,51,block_Testing,4,task_Testing,2,0,"","",15,3,"","",Block3,"","","","","","","","",J,Stim11,HR,77,"",0,K,green,11,0,28.33,"",724,"","","",""
592711,52,52,block_Testing,4,task_Testing,2,1,"","",16,3,"","",Block3,"","","","","","","","",K,PreISI1,LR,455,"",0,K,red,9,0,28.89,"",724,"","","",""
592711,53,53,block_Testing,4,task_Testing,2,1,"","",17,3,"","",Block3,"","","","","","","","",J,PreISI1,LR,528,"",0,J,red,12,0,29.44,"",724,"","","",""
592711,54,54,block_Testing,4,task_Testing,2,1,"","",18,3,"","",Block3,"","",Slow!,"","","","","",J,PreISI2,NR,481,"",1,J,blue,11,1,30,"",724,"","","",""
592711,55,55,block_Testing,4,task_Testing,2,1,"","",1,4,"","",Block4,"","",Slow!,"","","","","",K,PreISI2,HR,113,"",2,K,green,13,1,30.56,"",724,"","","",""
592711,56,56,block_Testing,4,task_Testing,2,1,"","",2,4,"","",Block4,"","","","","","","","",J,Stim15,NR,115,"",0,J,blue,9,1,31.11,"",724,"","","",""
592711,57,57,block_Testing,4,task_Testing,2,1,"","",3,4,"","",Block4,"","","","","","","","",K,PreISI1,LR,127,"",0,K,red,11,1,31.67,"",724,"","","",""
592711,58,58,block_Testing,4,task_Testing,2,1,"","",4,4,"","",Block4,"","","","","","","","",K,Stim16,NR,29,"",0,K,blue,8,1,32.22,"",724,"","","",""
592711,59,59,block_Testing,4,task_Testing,2,1,"","",5,4,"","",Block4,"","","","","","","","",J,PreISI1,LR,79,"",0,J,red,10,1,32.78,"",724,"","","",""
592711,60,60,block_Testing,4,task_Testing,2,1,"","",6,4,"","",Block4,"","","","","","","","",K,PreISI1,NR,337,"",0,K,blue,12,1,33.33,"",724,"","","",""
592711,61,61,block_Testing,4,task_Testing,2,1,"","",7,4,"","",Block4,"","","","","","","","",J,Stim14,HR,110,"",0,J,green,8,1,33.89,"",724,"","","",""
592711,62,62,block_Testing,4,task_Testing,2,1,"","",8,4,"","",Block4,"","","","","","","","",J,Stim15,LR,29,"",0,J,red,8,1,34.44,"",724,"","","",""
592711,63,63,block_Testing,4,task_Testing,2,1,"","",9,4,"","",Block4,"","",Slow!,"","","","","",J,PreISI2,LR,257,"",1,J,red,12,1,35,"",724,"","","",""
592711,64,64,block_Testing,4,task_Testing,2,0,"","",10,4,"","",Block4,"","",Slow!,"","","","","","","",HR,0,"",2,K,green,11,1,35.56,"",724,"","","",""
592711,65,65,block_Testing,4,task_Testing,2,0,"","",11,4,"","",Block4,"","",Slow!,"","","","","","","",HR,0,"",3,J,green,10,1,36.11,"",724,"","","",""
592711,66,66,block_Testing,4,task_Testing,2,0,"","",12,4,"","",Block4,"","",Slow!,"","","","","","","",HR,0,"",4,K,green,9,1,36.67,"",724,"","","",""
592711,67,67,block_Testing,4,task_Testing,2,1,"","",13,4,"","",Block4,"","","","","","","","",J,PreISI1,NR,481,"",0,J,blue,11,1,37.22,"",724,"","","",""
592711,68,68,block_Testing,4,task_Testing,2,1,"","",14,4,"","",Block4,"","",Slow!,"","","","","",J,PreISI2,NR,110,"",1,J,blue,13,1,37.78,"",724,"","","",""
592711,69,69,block_Testing,4,task_Testing,2,1,"","",15,4,"","",Block4,"","","","","","","","",K,Stim16,LR,15,"",0,K,red,9,1,38.33,"",724,"","","",""
592711,70,70,block_Testing,4,task_Testing,2,1,"","",16,4,"","",Block4,"","","","","","","","",J,PreISI1,HR,309,"",0,J,green,12,1,38.89,"",724,"","","",""
592711,71,71,block_Testing,4,task_Testing,2,1,"","",17,4,"","",Block4,"","","","","","","","",K,PreISI1,NR,266,"",0,K,blue,10,1,39.44,"",724,"","","",""
592711,72,72,block_Testing,4,task_Testing,2,1,"","",18,4,"","",Block4,"","","","","","","","",K,PreISI1,LR,382,"",0,K,red,13,1,40,"",724,"","","",""
592711,73,73,block_Testing,4,task_Testing,2,1,"","",1,5,"","",Block5,"","","","","","","","",K,PreISI1,HR,387,"",0,K,green,9,1,40.56,"",724,"","","",""
592711,74,74,block_Testing,4,task_Testing,2,1,"","",2,5,"","",Block5,"","","","","","","","",J,Stim14,LR,107,"",0,J,red,8,1,41.11,"",724,"","","",""
592711,75,75,block_Testing,4,task_Testing,2,1,"","",3,5,"","",Block5,"","","","","","","","",J,Stim16,HR,60,"",0,J,green,10,1,41.67,"",724,"","","",""
592711,76,76,block_Testing,4,task_Testing,2,1,"","",4,5,"","",Block5,"","","","","","","","",K,PreISI1,LR,292,"",0,K,red,11,1,42.22,"",724,"","","",""
592711,77,77,block_Testing,4,task_Testing,2,1,"","",5,5,"","",Block5,"","","","","","","","",K,Stim16,NR,18,"",0,K,blue,8,1,42.78,"",724,"","","",""
592711,78,78,block_Testing,4,task_Testing,2,1,"","",6,5,"","",Block5,"","","","","","","","",J,PreISI1,NR,112,"",0,J,blue,11,1,43.33,"",724,"","","",""
592711,79,79,block_Testing,4,task_Testing,2,1,"","",7,5,"","",Block5,"","","","","","","","",J,PreISI1,HR,76,"",0,J,green,12,1,43.89,"",724,"","","",""
592711,80,80,block_Testing,4,task_Testing,2,1,"","",8,5,"","",Block5,"","","","","","","","",J,Stim16,NR,67,"",0,J,blue,9,1,44.44,"",724,"","","",""
592711,81,81,block_Testing,4,task_Testing,2,1,"","",9,5,"","",Block5,"","","","","","","","",K,PreISI1,HR,268,"",0,K,green,13,1,45,"",724,"","","",""
592711,82,82,block_Testing,4,task_Testing,2,1,"","",10,5,"","",Block5,"","","","","","","","",J,PreISI1,LR,222,"",0,J,red,12,1,45.56,"",724,"","","",""
592711,83,83,block_Testing,4,task_Testing,2,1,"","",11,5,"","",Block5,"","","","","","","","",K,PreISI1,HR,327,"",0,K,green,11,1,46.11,"",724,"","","",""
592711,84,84,block_Testing,4,task_Testing,2,0,"","",12,5,"","",Block5,"","",Slow!,"","","","","",K,PreISI2,NR,248,"",1,J,blue,13,1,46.67,"",724,"","","",""
592711,85,85,block_Testing,4,task_Testing,2,1,"","",13,5,"","",Block5,"","","","","","","","",K,PreISI1,NR,469,"",0,K,blue,12,1,47.22,"",724,"","","",""
592711,86,86,block_Testing,4,task_Testing,2,1,"","",14,5,"","",Block5,"","","","","","","","",K,Stim16,NR,98,"",0,K,blue,10,1,47.78,"",724,"","","",""
592711,87,87,block_Testing,4,task_Testing,2,0,"","",15,5,"","",Block5,"","","","","","","","",K,Stim15,HR,55,"",0,J,green,8,1,48.33,"",724,"","","",""
592711,88,88,block_Testing,4,task_Testing,2,1,"","",16,5,"","",Block5,"","","","","","","","",K,Stim16,LR,8,"",0,K,red,9,1,48.89,"",724,"","","",""
592711,89,89,block_Testing,4,task_Testing,2,1,"","",17,5,"","",Block5,"","","","","","","","",K,PreISI1,LR,373,"",0,K,red,13,1,49.44,"",724,"","","",""
592711,90,90,block_Testing,4,task_Testing,2,0,"","",18,5,"","",Block5,"","","","","","","","",K,PreISI1,LR,164,"",0,J,red,10,1,50,"",724,"","","",""
592711,91,91,block_Testing,4,task_Testing,2,1,"","",1,6,"","",Block6,"","","","","","","","",J,PreISI1,LR,16,"",0,J,red,10,1,50.56,"",724,"","","",""
592711,92,92,block_Testing,4,task_Testing,2,1,"","",2,6,"","",Block6,"","","","","","","","",K,Stim15,LR,52,"",0,K,red,9,1,51.11,"",724,"","","",""
592711,93,93,block_Testing,4,task_Testing,2,1,"","",3,6,"","",Block6,"","","","","","","","",J,Stim14,HR,100,"",0,J,green,8,1,51.67,"",724,"","","",""
592711,94,94,block_Testing,4,task_Testing,2,1,"","",4,6,"","",Block6,"","","","","","","","",J,PreISI1,HR,24,"",0,J,green,10,1,52.22,"",724,"","","",""
592711,95,95,block_Testing,4,task_Testing,2,1,"","",5,6,"","",Block6,"","","","","","","","",J,PreISI1,LR,153,"",0,J,red,12,1,52.78,"",724,"","","",""
592711,96,96,block_Testing,4,task_Testing,2,1,"","",6,6,"","",Block6,"","","","","","","","",J,PreISI1,HR,349,"",0,J,green,12,1,53.33,"",724,"","","",""
592711,97,97,block_Testing,4,task_Testing,2,1,"","",7,6,"","",Block6,"","","","","","","","",K,PreISI1,LR,510,"",0,K,red,13,1,53.89,"",724,"","","",""
592711,98,98,block_Testing,4,task_Testing,2,1,"","",8,6,"","",Block6,"","","","","","","","",K,Stim15,NR,46,"",0,K,blue,8,1,54.44,"",724,"","","",""
592711,99,99,block_Testing,4,task_Testing,2,1,"","",9,6,"","",Block6,"","","","","","","","",K,PreISI1,LR,158,"",0,K,red,11,1,55,"",724,"","","",""
592711,100,100,block_Testing,4,task_Testing,2,1,"","",10,6,"","",Block6,"","","","","","","","",K,PreISI1,NR,81,"",0,K,blue,10,1,55.56,"",724,"","","",""
592711,101,101,block_Testing,4,task_Testing,2,1,"","",11,6,"","",Block6,"","","","","","","","",K,PreISI1,HR,446,"",0,K,green,13,1,56.11,"",724,"","","",""
592711,102,102,block_Testing,4,task_Testing,2,1,"","",12,6,"","",Block6,"","","","","","","","",K,PreISI1,HR,92,"",0,K,green,9,1,56.67,"",724,"","","",""
592711,103,103,block_Testing,4,task_Testing,2,1,"","",13,6,"","",Block6,"","","","","","","","",K,PreISI1,HR,200,"",0,K,green,11,1,57.22,"",724,"","","",""
592711,104,104,block_Testing,4,task_Testing,2,1,"","",14,6,"","",Block6,"","","","","","","","",K,PreISI1,NR,366,"",0,K,blue,12,1,57.78,"",724,"","","",""
592711,105,105,block_Testing,4,task_Testing,2,1,"","",15,6,"","",Block6,"","","","","","","","",J,PreISI1,NR,444,"",0,J,blue,13,1,58.33,"",724,"","","",""
592711,106,106,block_Testing,4,task_Testing,2,1,"","",16,6,"","",Block6,"","","","","","","","",J,PreISI1,NR,112,"",0,J,blue,11,1,58.89,"",724,"","","",""
592711,107,107,block_Testing,4,task_Testing,2,0,"","",17,6,"","",Block6,"","","","","","","","",K,Stim12,NR,74,"",0,J,blue,9,1,59.44,"",724,"","","",""
592711,108,108,block_Testing,4,task_Testing,2,1,"","",18,6,"","",Block6,"","","","","","","","",J,Stim15,LR,19,"",0,J,red,8,2,60,"",724,"","","",""
592711,109,109,block_Testing,4,task_Testing,2,1,"","",1,7,"","",Block7,"","","","","","","","",J,Stim15,NR,102,"",0,J,blue,9,2,60.56,"",724,"","","",""
592711,110,110,block_Testing,4,task_Testing,2,1,"","",2,7,"","",Block7,"","","","","","","","",K,PreISI1,LR,366,"",0,K,red,13,2,61.11,"",724,"","","",""
592711,111,111,block_Testing,4,task_Testing,2,1,"","",3,7,"","",Block7,"","","","","","","","",J,Stim16,LR,70,"",0,J,red,10,2,61.67,"",724,"","","",""
592711,112,112,block_Testing,4,task_Testing,2,1,"","",4,7,"","",Block7,"","","","","","","","",K,PreISI1,NR,43,"",0,K,blue,10,2,62.22,"",724,"","","",""
592711,113,113,block_Testing,4,task_Testing,2,1,"","",5,7,"","",Block7,"","","","","","","","",K,PreISI1,LR,206,"",0,K,red,11,2,62.78,"",724,"","","",""
592711,114,114,block_Testing,4,task_Testing,2,1,"","",6,7,"","",Block7,"","","","","","","","",J,PreISI1,HR,65,"",0,J,green,12,2,63.33,"",724,"","","",""
592711,115,115,block_Testing,4,task_Testing,2,1,"","",7,7,"","",Block7,"","","","","","","","",K,Stim15,HR,82,"",0,K,green,9,2,63.89,"",724,"","","",""
592711,116,116,block_Testing,4,task_Testing,2,1,"","",8,7,"","",Block7,"","","","","","","","",J,PreISI1,HR,20,"",0,J,green,10,2,64.44,"",724,"","","",""
592711,117,117,block_Testing,4,task_Testing,2,0,"","",9,7,"","",Block7,"","",Slow!,"","","","","","","",NR,0,"",1,J,blue,11,2,65,"",724,"","","",""
592711,118,118,block_Testing,4,task_Testing,2,1,"","",10,7,"","",Block7,"","","","","","","","",K,PreISI1,NR,238,"",0,K,blue,12,2,65.56,"",724,"","","",""
592711,119,119,block_Testing,4,task_Testing,2,1,"","",11,7,"","",Block7,"","","","","","","","",K,Stim14,NR,6,"",0,K,blue,8,2,66.11,"",724,"","","",""
592711,120,120,block_Testing,4,task_Testing,2,1,"","",12,7,"","",Block7,"","","","","","","","",K,Stim16,LR,39,"",0,K,red,9,2,66.67,"",724,"","","",""
592711,121,121,block_Testing,4,task_Testing,2,1,"","",13,7,"","",Block7,"","","","","","","","",K,PreISI1,HR,332,"",0,K,green,13,2,67.22,"",724,"","","",""
592711,122,122,block_Testing,4,task_Testing,2,1,"","",14,7,"","",Block7,"","","","","","","","",J,Stim15,LR,41,"",0,J,red,8,2,67.78,"",724,"","","",""
592711,123,123,block_Testing,4,task_Testing,2,1,"","",15,7,"","",Block7,"","","","","","","","",K,PreISI1,HR,148,"",0,K,green,11,2,68.33,"",724,"","","",""
592711,124,124,block_Testing,4,task_Testing,2,1,"","",16,7,"","",Block7,"","","","","","","","",J,PreISI1,LR,180,"",0,J,red,12,2,68.89,"",724,"","","",""
592711,125,125,block_Testing,4,task_Testing,2,1,"","",17,7,"","",Block7,"","","","","","","","",J,Stim16,HR,31,"",0,J,green,8,2,69.44,"",724,"","","",""
592711,126,126,block_Testing,4,task_Testing,2,1,"","",18,7,"","",Block7,"","",Slow!,"","","","","",J,ISI,NR,503,"",1,J,blue,13,2,70,"",724,"","","",""
592711,127,127,block_Testing,4,task_Testing,2,1,"","",1,8,"","",Block8,"","","","","","","","",J,PreISI1,NR,372,"",0,J,blue,13,2,70.56,"",724,"","","",""
592711,128,128,block_Testing,4,task_Testing,2,1,"","",2,8,"","",Block8,"","","","","","","","",J,Stim15,HR,56,"",0,J,green,8,2,71.11,"",724,"","","",""
592711,129,129,block_Testing,4,task_Testing,2,1,"","",3,8,"","",Block8,"","","","","","","","",K,Stim15,LR,61,"",0,K,red,9,2,71.67,"",724,"","","",""
592711,130,130,block_Testing,4,task_Testing,2,1,"","",4,8,"","",Block8,"","","","","","","","",J,PreISI1,HR,150,"",0,J,green,12,2,72.22,"",724,"","","",""
592711,131,131,block_Testing,4,task_Testing,2,1,"","",5,8,"","",Block8,"","","","","","","","",J,Stim16,NR,88,"",0,J,blue,9,2,72.78,"",724,"","","",""
592711,132,132,block_Testing,4,task_Testing,2,1,"","",6,8,"","",Block8,"","","","","","","","",K,Stim15,HR,63,"",0,K,green,9,2,73.33,"",724,"","","",""
592711,133,133,block_Testing,4,task_Testing,2,1,"","",7,8,"","",Block8,"","","","","","","","",J,PreISI1,NR,70,"",0,J,blue,11,2,73.89,"",724,"","","",""
592711,134,134,block_Testing,4,task_Testing,2,1,"","",8,8,"","",Block8,"","","","","","","","",K,Stim16,NR,77,"",0,K,blue,10,2,74.44,"",724,"","","",""
592711,135,135,block_Testing,4,task_Testing,2,1,"","",9,8,"","",Block8,"","","","","","","","",J,Stim16,HR,71,"",0,J,green,10,2,75,"",724,"","","",""
592711,136,136,block_Testing,4,task_Testing,2,1,"","",10,8,"","",Block8,"","","","","","","","",J,PreISI1,LR,315,"",0,J,red,12,2,75.56,"",724,"","","",""
592711,137,137,block_Testing,4,task_Testing,2,1,"","",11,8,"","",Block8,"","","","","","","","",J,Stim14,LR,69,"",0,J,red,8,2,76.11,"",724,"","","",""
592711,138,138,block_Testing,4,task_Testing,2,1,"","",12,8,"","",Block8,"","","","","","","","",J,Stim16,LR,59,"",0,J,red,10,2,76.67,"",724,"","","",""
592711,139,139,block_Testing,4,task_Testing,2,1,"","",13,8,"","",Block8,"","","","","","","","",K,PreISI1,HR,151,"",0,K,green,11,2,77.22,"",724,"","","",""
592711,140,140,block_Testing,4,task_Testing,2,1,"","",14,8,"","",Block8,"","","","","","","","",K,Stim14,NR,84,"",0,K,blue,8,2,77.78,"",724,"","","",""
592711,141,141,block_Testing,4,task_Testing,2,1,"","",15,8,"","",Block8,"","","","","","","","",K,PreISI1,NR,289,"",0,K,blue,12,2,78.33,"",724,"","","",""
592711,142,142,block_Testing,4,task_Testing,2,1,"","",16,8,"","",Block8,"","","","","","","","",K,PreISI1,HR,446,"",0,K,green,13,2,78.89,"",724,"","","",""
592711,143,143,block_Testing,4,task_Testing,2,1,"","",17,8,"","",Block8,"","","","","","","","",K,PreISI1,LR,150,"",0,K,red,11,2,79.44,"",724,"","","",""
592711,144,144,block_Testing,4,task_Testing,2,1,"","",18,8,"","",Block8,"","","","","","","","",K,PreISI1,LR,275,"",0,K,red,13,2,80,"",724,"","","",""
592711,145,145,block_Testing,4,task_Testing,2,1,"","",1,9,"","",Block9,"","","","","","","","",J,Stim14,LR,95,"",0,J,red,8,2,80.56,"",724,"","","",""
592711,146,146,block_Testing,4,task_Testing,2,1,"","",2,9,"","",Block9,"","","","","","","","",J,PreISI1,NR,118,"",0,J,blue,11,2,81.11,"",724,"","","",""
592711,147,147,block_Testing,4,task_Testing,2,1,"","",3,9,"","",Block9,"","","","","","","","",K,PreISI1,NR,366,"",0,K,blue,12,2,81.67,"",724,"","","",""
592711,148,148,block_Testing,4,task_Testing,2,1,"","",4,9,"","",Block9,"","","","","","","","",J,PreISI1,HR,4,"",0,J,green,10,2,82.22,"",724,"","","",""
592711,149,149,block_Testing,4,task_Testing,2,1,"","",5,9,"","",Block9,"","","","","","","","",J,Stim16,HR,22,"",0,J,green,8,2,82.78,"",724,"","","",""
592711,150,150,block_Testing,4,task_Testing,2,1,"","",6,9,"","",Block9,"","","","","","","","",K,PreISI1,LR,4,"",0,K,red,9,2,83.33,"",724,"","","",""
592711,151,151,block_Testing,4,task_Testing,2,1,"","",7,9,"","",Block9,"","","","","","","","",K,Stim16,HR,21,"",0,K,green,9,2,83.89,"",724,"","","",""
592711,152,152,block_Testing,4,task_Testing,2,1,"","",8,9,"","",Block9,"","","","","","","","",K,Stim14,NR,67,"",0,K,blue,8,2,84.44,"",724,"","","",""
592711,153,153,block_Testing,4,task_Testing,2,1,"","",9,9,"","",Block9,"","","","","","","","",J,PreISI1,NR,507,"",0,J,blue,13,2,85,"",724,"","","",""
592711,154,154,block_Testing,4,task_Testing,2,1,"","",10,9,"","",Block9,"","","","","","","","",J,Stim15,NR,71,"",0,J,blue,9,2,85.56,"",724,"","","",""
592711,155,155,block_Testing,4,task_Testing,2,1,"","",11,9,"","",Block9,"","","","","","","","",J,PreISI1,LR,47,"",0,J,red,10,2,86.11,"",724,"","","",""
592711,156,156,block_Testing,4,task_Testing,2,1,"","",12,9,"","",Block9,"","","","","","","","",J,PreISI1,HR,338,"",0,J,green,12,2,86.67,"",724,"","","",""
592711,157,157,block_Testing,4,task_Testing,2,1,"","",13,9,"","",Block9,"","","","","","","","",K,PreISI1,LR,89,"",0,K,red,11,2,87.22,"",724,"","","",""
592711,158,158,block_Testing,4,task_Testing,2,1,"","",14,9,"","",Block9,"","","","","","","","",K,PreISI1,HR,245,"",0,K,green,13,2,87.78,"",724,"","","",""
592711,159,159,block_Testing,4,task_Testing,2,1,"","",15,9,"","",Block9,"","","","","","","","",K,PreISI1,HR,8,"",0,K,green,11,2,88.33,"",724,"","","",""
592711,160,160,block_Testing,4,task_Testing,2,1,"","",16,9,"","",Block9,"","","","","","","","",K,PreISI1,NR,298,"",0,K,blue,10,2,88.89,"",724,"","","",""
592711,161,161,block_Testing,4,task_Testing,2,1,"","",17,9,"","",Block9,"","","","","","","","",K,PreISI1,LR,435,"",0,K,red,13,2,89.44,"",724,"","","",""
592711,162,162,block_Testing,4,task_Testing,2,1,"","",18,9,"","",Block9,"","","","","","","","",J,PreISI1,LR,243,"",0,J,red,12,2,90,"",724,"","","",""
592711,163,163,block_Testing,4,task_Testing,2,1,"","",1,10,"","",Block10,"","","","","","","","",J,PreISI1,NR,408,"",0,J,blue,13,2,90.56,"",724,"","","",""
592711,164,164,block_Testing,4,task_Testing,2,1,"","",2,10,"","",Block10,"","","","","","","","",K,PreISI1,LR,180,"",0,K,red,11,2,91.11,"",724,"","","",""
592711,165,165,block_Testing,4,task_Testing,2,1,"","",3,10,"","",Block10,"","","","","","","","",K,PreISI1,LR,329,"",0,K,red,13,2,91.67,"",724,"","","",""
592711,166,166,block_Testing,4,task_Testing,2,1,"","",4,10,"","",Block10,"","","","","","","","",J,PreISI1,LR,162,"",0,J,red,12,2,92.22,"",724,"","","",""
592711,167,167,block_Testing,4,task_Testing,2,1,"","",5,10,"","",Block10,"","","","","","","","",K,Stim15,NR,102,"",0,K,blue,8,2,92.78,"",724,"","","",""
592711,168,168,block_Testing,4,task_Testing,2,1,"","",6,10,"","",Block10,"","","","","","","","",K,PreISI1,NR,145,"",0,K,blue,10,2,93.33,"",724,"","","",""
592711,169,169,block_Testing,4,task_Testing,2,1,"","",7,10,"","",Block10,"","","","","","","","",K,PreISI1,HR,243,"",0,K,green,9,2,93.89,"",724,"","","",""
592711,170,170,block_Testing,4,task_Testing,2,1,"","",8,10,"","",Block10,"","","","","","","","",J,Stim16,LR,79,"",0,J,red,10,2,94.44,"",724,"","","",""
592711,171,171,block_Testing,4,task_Testing,2,1,"","",9,10,"","",Block10,"","","","","","","","",J,PreISI1,HR,147,"",0,J,green,10,2,95,"",724,"","","",""
592711,172,172,block_Testing,4,task_Testing,2,0,"","",10,10,"","",Block10,"","","","","","","","",J,PreISI1,NR,485,"",0,K,blue,12,2,95.56,"",724,"","","",""
592711,173,173,block_Testing,4,task_Testing,2,1,"","",11,10,"","",Block10,"","","","","","","","",J,Stim15,NR,69,"",0,J,blue,9,2,96.11,"",724,"","","",""
592711,174,174,block_Testing,4,task_Testing,2,1,"","",12,10,"","",Block10,"","","","","","","","",J,Stim15,HR,37,"",0,J,green,8,2,96.67,"",724,"","","",""
592711,175,175,block_Testing,4,task_Testing,2,1,"","",13,10,"","",Block10,"","",Slow!,"","","","","",K,PreISI2,HR,134,"",1,K,green,13,2,97.22,"",724,"","","",""
592711,176,176,block_Testing,4,task_Testing,2,0,"","",14,10,"","",Block10,"","","","","","","","",K,PreISI1,LR,371,"",0,J,red,8,2,97.78,"",724,"","","",""
592711,177,177,block_Testing,4,task_Testing,2,1,"","",15,10,"","",Block10,"","","","","","","","",K,PreISI1,HR,103,"",0,K,green,11,2,98.33,"",724,"","","",""
592711,178,178,block_Testing,4,task_Testing,2,1,"","",16,10,"","",Block10,"","","","","","","","",K,Stim15,LR,44,"",0,K,red,9,2,98.89,"",724,"","","",""
592711,179,179,block_Testing,4,task_Testing,2,1,"","",17,10,"","",Block10,"","","","","","","","",J,PreISI1,NR,312,"",0,J,blue,11,2,99.44,"",724,"","","",""
592711,180,180,block_Testing,4,task_Testing,2,1,"","",18,10,"","",Block10,"","","","","","","","",J,PreISI1,HR,347,"",0,J,green,12,2,100,"",724,"","","",""
592711,1,1,block_End,5,task_Demog_End,1,"","",33,"",1,"","","","","","","","","","","","","","","",Male,"","","","","","","","","","","",""
