Rec_Session_Id,Trial_Nr,Trial_Id,Block_Name,Block_Nr,Task_Name,Task_Nr,ACC,ACC_Total_Prac,Age,BlkTrial_Nr,Condition_Id,Consent,Contact,copy_of_factor1_tg1_task2,Email,factor1_tg1_task2,Fdbck_Slow,Feedback,MatricNo,Name,PAYNOW,Recontact,RESP,RESP_Frame,Reward,RT_FromFramePress,Sex,SlowResp,Targ,TargCol,TargPos,Testing_BreakCount,Testing_Progress,TotalMoney,TotalPoints,TotalPoints_prac,Trial_Nr_prac,Trng_BreakCount,Trng_Progress
590627,1,1,block_TrngInstructions,1,task_Trng_Instructions,1,"","","","",1,"","","","","","","","","","","","","","","","","","","","","","","","","","","",""
590627,1,1,block_Practice,2,task_GetReady,1,"","","","",1,"","","","","","","","","","","","","","","","","","","","","","","","","","","",""
590627,1,1,block_Practice,2,task_Trng_Prac,2,0,0,"","",1,"","","","","","","","","","","",K,PreISI1,Disallowed,482,"",0,J,blue,13,"","","",0,0,"","",""
590627,2,2,block_Practice,2,task_Trng_Prac,2,0,0,"","",1,"","","","","","","","","","","",J,PreISI1,Disallowed,287,"",0,K,green,11,"","","",0,0,"","",""
590627,3,3,block_Practice,2,task_Trng_Prac,2,1,1,"","",1,"","","","","","","","","","","",K,Stim15,Disallowed,89,"",0,K,red,8,"","","",0,0,"","",""
590627,4,4,block_Practice,2,task_Trng_Prac,2,1,2,"","",1,"","","","","","","","","","","",J,Stim9,Disallowed,10,"",0,J,green,9,"","","",0,0,"","",""
590627,5,5,block_Practice,2,task_Trng_Prac,2,1,3,"","",1,"","","","","","","","","","","",J,Stim12,Disallowed,38,"",0,J,blue,12,"","","",0,0,"","",""
590627,6,6,block_Practice,2,task_Trng_Prac,2,0,0,"","",1,"","","","","","","","","","","",J,Stim10,Disallowed,4,"",0,K,red,10,"","","",0,0,"","",""
590627,1,1,block_Practice,2,task_GetReady,1,"","","","",1,"","","","","","","","","","","","","","","","","","","","","","","","","","","",""
590627,1,1,block_Practice,2,task_Trng_Prac,2,1,1,"","",1,"","","","","","","","","","","",K,Stim12,Disallowed,83,"",0,K,green,11,"","","",0,0,"","",""
590627,2,2,block_Practice,2,task_Trng_Prac,2,0,1,"","",1,"","","","","","","","","","","",K,Stim12,Disallowed,118,"",0,J,green,9,"","","",0,0,"","",""
590627,3,3,block_Practice,2,task_Trng_Prac,2,1,2,"","",1,"","","","","","","","","","","",K,Stim12,Disallowed,5,"",0,K,red,8,"","","",0,0,"","",""
590627,4,4,block_Practice,2,task_Trng_Prac,2,1,3,"","",1,"","","","","","","","","","","",J,Stim14,Disallowed,72,"",0,J,blue,13,"","","",0,0,"","",""
590627,5,5,block_Practice,2,task_Trng_Prac,2,0,3,"","",1,"","","","","","","","","","","",J,Stim10,Disallowed,4,"",0,K,red,10,"","","",0,0,"","",""
590627,6,6,block_Practice,2,task_Trng_Prac,2,0,0,"","",1,"","","","","","","","","","","",K,Stim12,Disallowed,39,"",0,J,blue,12,"","","",0,0,"","",""
590627,1,1,block_Practice,2,task_GetReady,1,"","","","",1,"","","","","","","","","","","","","","","","","","","","","","","","","","","",""
590627,1,1,block_Practice,2,task_Trng_Prac,2,1,1,"","",1,"","","","","","","","","","","",K,Stim8,Disallowed,41,"",0,K,red,8,"","","",0,0,"","",""
590627,2,2,block_Practice,2,task_Trng_Prac,2,1,2,"","",1,"","","","","","","","","","","",K,Stim11,Disallowed,8,"",0,K,green,11,"","","",0,0,"","",""
590627,3,3,block_Practice,2,task_Trng_Prac,2,0,2,"","",1,"","","","","","","","","","","",K,Stim12,Disallowed,84,"",0,J,blue,12,"","","",0,0,"","",""
590627,4,4,block_Practice,2,task_Trng_Prac,2,0,2,"","",1,"","","","","","","","","","","",J,Stim10,Disallowed,40,"",0,K,red,10,"","","",0,0,"","",""
590627,5,5,block_Practice,2,task_Trng_Prac,2,0,2,"","",1,"","","","","","","","","","","",K,Stim13,Disallowed,68,"",0,J,blue,13,"","","",0,0,"","",""
590627,6,6,block_Practice,2,task_Trng_Prac,2,0,0,"","",1,"","","","","","","","","","","",K,Stim9,Disallowed,63,"",0,J,green,9,"","","",0,0,"","",""
590627,1,1,block_Practice,2,task_GetReady,1,"","","","",1,"","","","","","","","","","","","","","","","","","","","","","","","","","","",""
590627,1,1,block_Practice,2,task_Trng_Prac,2,1,1,"","",1,"","","","","","","","","","","",J,Stim10,Disallowed,14,"",0,J,green,9,"","","",0,0,"","",""
590627,2,2,block_Practice,2,task_Trng_Prac,2,0,1,"","",1,"","","","","","","","","","","",K,Stim13,Disallowed,80,"",0,J,blue,13,"","","",0,0,"","",""
590627,3,3,block_Practice,2,task_Trng_Prac,2,1,2,"","",1,"","","","","","","","","","","",K,Stim12,Disallowed,15,"",0,K,green,11,"","","",0,0,"","",""
590627,4,4,block_Practice,2,task_Trng_Prac,2,0,2,"","",1,"","","","","","","","","","","",J,Stim10,Disallowed,94,"",0,K,red,10,"","","",0,0,"","",""
590627,5,5,block_Practice,2,task_Trng_Prac,2,1,3,"","",1,"","","","","","","","","","","",K,Stim8,Disallowed,73,"",0,K,red,8,"","","",0,0,"","",""
590627,6,6,block_Practice,2,task_Trng_Prac,2,1,4,"","",1,"","","","","","","","","","","",J,Stim12,Disallowed,23,"",0,J,blue,12,"","","",0,0,"","",""
590627,1,1,block_Trng,3,task_GetReady,1,"","","","",1,"","","","","","","","","","","","","","","","","","","","","","","","","","","",""
590627,1,1,block_Trng,3,task_Trng,2,0,"","",1,1,"","","","",Block1,"","","","","","",J,Stim8,NR,4,"",0,K,blue,8,"","",0,0,"","",0,0.28
590627,2,2,block_Trng,3,task_Trng,2,0,"","",2,1,"","","","",Block1,"","","","","","",K,Stim13,HR,2,"",0,J,green,12,"","",0,0,"","",0,0.56
590627,3,3,block_Trng,3,task_Trng,2,0,"","",3,1,"","","","",Block1,"","","","","","",K,Stim10,HR,6,"",0,J,green,10,"","",0,0,"","",0,0.83
590627,4,4,block_Trng,3,task_Trng,2,0,"","",4,1,"","","","",Block1,"","","","","","",J,Stim9,HR,40,"",0,K,green,9,"","",0,0,"","",0,1.11
590627,5,5,block_Trng,3,task_Trng,2,0,"","",5,1,"","","","",Block1,"","","","","","",K,Stim9,LR,10,"",0,J,red,8,"","",0,0,"","",0,1.39
590627,6,6,block_Trng,3,task_Trng,2,1,"","",6,1,"","","","",Block1,"","","","","","",J,Stim13,NR,79,"",0,J,blue,13,"","",0,0,"","",0,1.67
590627,7,7,block_Trng,3,task_Trng,2,0,"","",7,1,"","","","",Block1,"","","","","","",K,Stim10,LR,25,"",0,J,red,10,"","",0,0,"","",0,1.94
590627,8,8,block_Trng,3,task_Trng,2,1,"","",8,1,"","","","",Block1,"","","","","","",J,Stim8,HR,77,"",0,J,green,8,"","",0,10,"","",0,2.22
590627,9,9,block_Trng,3,task_Trng,2,1,"","",9,1,"","","","",Block1,"","","","","","",J,Stim9,NR,59,"",0,J,blue,9,"","",0,10,"","",0,2.5
590627,10,10,block_Trng,3,task_Trng,2,0,"","",10,1,"","","","",Block1,"","","","","","",J,Stim12,LR,64,"",0,K,red,11,"","",0,10,"","",0,2.78
590627,11,11,block_Trng,3,task_Trng,2,1,"","",11,1,"","","","",Block1,"","","","","","",K,Stim13,LR,22,"",0,K,red,13,"","",0,12,"","",0,3.06
590627,12,12,block_Trng,3,task_Trng,2,1,"","",12,1,"","","","",Block1,"","","","","","",K,Stim10,NR,48,"",0,K,blue,10,"","",0,12,"","",0,3.33
590627,13,13,block_Trng,3,task_Trng,2,0,"","",13,1,"","","","",Block1,"","","","","","",J,Stim10,LR,26,"",0,K,red,9,"","",0,12,"","",0,3.61
590627,14,14,block_Trng,3,task_Trng,2,1,"","",14,1,"","","","",Block1,"","","","","","",J,Stim12,LR,10,"",0,J,red,12,"","",0,14,"","",0,3.89
590627,15,15,block_Trng,3,task_Trng,2,0,"","",15,1,"","","","",Block1,"","","","","","",J,Stim12,NR,32,"",0,K,blue,12,"","",0,14,"","",0,4.17
590627,16,16,block_Trng,3,task_Trng,2,0,"","",16,1,"","","","",Block1,"","","","","","",J,Stim12,HR,116,"",0,K,green,11,"","",0,14,"","",0,4.44
590627,17,17,block_Trng,3,task_Trng,2,0,"","",17,1,"","","","",Block1,"","","","","","",J,Stim13,HR,108,"",0,K,green,13,"","",0,14,"","",0,4.72
590627,18,18,block_Trng,3,task_Trng,2,0,"","",18,1,"","","","",Block1,"","","","","","",K,Stim12,NR,26,"",0,J,blue,11,"","",0,14,"","",0,5
590627,19,19,block_Trng,3,task_Trng,2,0,"","",1,2,"","","","",Block2,"","","","","","",K,Stim12,NR,98,"",0,J,blue,11,"","",0,14,"","",0,5.28
590627,20,20,block_Trng,3,task_Trng,2,1,"","",2,2,"","","","",Block2,"","","","","","",K,Stim10,NR,23,"",0,K,blue,10,"","",0,14,"","",0,5.56
590627,21,21,block_Trng,3,task_Trng,2,1,"","",3,2,"","","","",Block2,"","","","","","",K,Stim11,HR,64,"",0,K,green,11,"","",0,24,"","",0,5.83
590627,22,22,block_Trng,3,task_Trng,2,0,"","",4,2,"","","","",Block2,"","","","","","",J,Stim11,LR,33,"",0,K,red,11,"","",0,24,"","",0,6.11
590627,23,23,block_Trng,3,task_Trng,2,0,"","",5,2,"","","","",Block2,"","","","","","",K,Stim12,LR,65,"",0,J,red,12,"","",0,24,"","",0,6.39
590627,24,24,block_Trng,3,task_Trng,2,1,"","",6,2,"","","","",Block2,"","","","","","",K,Stim12,NR,95,"",0,K,blue,8,"","",0,24,"","",0,6.67
590627,25,25,block_Trng,3,task_Trng,2,1,"","",7,2,"","","","",Block2,"","","","","","",J,Stim15,LR,51,"",0,J,red,10,"","",0,26,"","",0,6.94
590627,26,26,block_Trng,3,task_Trng,2,0,"","",8,2,"","","","",Block2,"","","","","","",J,Stim14,HR,57,"",0,K,green,9,"","",0,26,"","",0,7.22
590627,27,27,block_Trng,3,task_Trng,2,1,"","",9,2,"","","","",Block2,"","","","","","",K,PreISI1,HR,216,"",0,K,green,13,"","",0,36,"","",0,7.5
590627,28,28,block_Trng,3,task_Trng,2,0,"","",10,2,"","","","",Block2,"","","","","","",K,PreISI1,NR,50,"",0,J,blue,9,"","",0,36,"","",0,7.78
590627,29,29,block_Trng,3,task_Trng,2,0,"","",11,2,"","","","",Block2,"","","","","","",J,Stim16,NR,80,"",0,K,blue,12,"","",0,36,"","",0,8.06
590627,30,30,block_Trng,3,task_Trng,2,1,"","",12,2,"","","","",Block2,"","","","","","",J,Stim12,HR,13,"",0,J,green,8,"","",0,46,"","",0,8.33
590627,31,31,block_Trng,3,task_Trng,2,1,"","",13,2,"","","","",Block2,"","","","","","",K,Stim13,LR,26,"",0,K,red,9,"","",0,48,"","",0,8.61
590627,32,32,block_Trng,3,task_Trng,2,0,"","",14,2,"","","","",Block2,"","","","","","",J,Stim16,LR,102,"",0,K,red,13,"","",0,48,"","",0,8.89
590627,33,33,block_Trng,3,task_Trng,2,0,"","",15,2,"","","","",Block2,"","","","","","",K,Stim14,HR,61,"",0,J,green,10,"","",0,48,"","",0,9.17
590627,34,34,block_Trng,3,task_Trng,2,0,"","",16,2,"","","","",Block2,"","","","","","",K,Stim16,HR,48,"",0,J,green,12,"","",0,48,"","",0,9.44
590627,35,35,block_Trng,3,task_Trng,2,1,"","",17,2,"","","","",Block2,"","","","","","",J,Stim14,LR,113,"",0,J,red,8,"","",0,50,"","",0,9.72
590627,36,36,block_Trng,3,task_Trng,2,1,"","",18,2,"","","","",Block2,"","","","","","",J,PreISI1,NR,269,"",0,J,blue,13,"","",0,50,"","",0,10
590627,37,37,block_Trng,3,task_Trng,2,1,"","",1,3,"","","","",Block3,"","","","","","",J,Stim16,HR,13,"",0,J,green,10,"","",0,60,"","",0,10.28
590627,38,38,block_Trng,3,task_Trng,2,1,"","",2,3,"","","","",Block3,"","","","","","",K,Stim14,HR,93,"",0,K,green,9,"","",0,70,"","",0,10.56
590627,39,39,block_Trng,3,task_Trng,2,1,"","",3,3,"","","","",Block3,"","","","","","",J,Stim14,HR,19,"",0,J,green,8,"","",0,80,"","",0,10.83
590627,40,40,block_Trng,3,task_Trng,2,1,"","",4,3,"","","","",Block3,"","","","","","",K,PreISI1,HR,149,"",0,K,green,13,"","",0,90,"","",0,11.11
590627,41,41,block_Trng,3,task_Trng,2,1,"","",5,3,"","","","",Block3,"","","","","","",K,PreISI1,HR,125,"",0,K,green,11,"","",0,100,"","",0,11.39
590627,42,42,block_Trng,3,task_Trng,2,1,"","",6,3,"","","","",Block3,"","","","","","",J,Stim15,LR,60,"",0,J,red,8,"","",0,102,"","",0,11.67
590627,43,43,block_Trng,3,task_Trng,2,1,"","",7,3,"","","","",Block3,"","","","","","",K,Stim16,LR,13,"",0,K,red,9,"","",0,104,"","",0,11.94
590627,44,44,block_Trng,3,task_Trng,2,1,"","",8,3,"","","","",Block3,"","","","","","",J,Stim16,NR,48,"",0,J,blue,11,"","",0,104,"","",0,12.22
590627,45,45,block_Trng,3,task_Trng,2,1,"","",9,3,"","","","",Block3,"","","","","","",J,PreISI1,HR,227,"",0,J,green,12,"","",0,114,"","",0,12.5
590627,46,46,block_Trng,3,task_Trng,2,0,"","",10,3,"","","","",Block3,"","","","","","",J,Stim13,NR,20,"",0,K,blue,8,"","",0,114,"","",0,12.78
590627,47,47,block_Trng,3,task_Trng,2,1,"","",11,3,"","","","",Block3,"","","","","","",K,Stim12,NR,36,"",0,K,blue,12,"","",0,114,"","",0,13.06
590627,48,48,block_Trng,3,task_Trng,2,1,"","",12,3,"","","","",Block3,"","","","","","",J,Stim14,LR,78,"",0,J,red,10,"","",0,116,"","",0,13.33
590627,49,49,block_Trng,3,task_Trng,2,1,"","",13,3,"","","","",Block3,"","","","","","",K,PreISI1,LR,234,"",0,K,red,13,"","",0,118,"","",0,13.61
590627,50,50,block_Trng,3,task_Trng,2,1,"","",14,3,"","","","",Block3,Slow!,"","","","","",J,PreISI2,NR,411,"",1,J,blue,13,"","",0,118,"","",0,13.89
590627,51,51,block_Trng,3,task_Trng,2,1,"","",15,3,"","","","",Block3,"","","","","","",K,Stim10,NR,39,"",0,K,blue,10,"","",0,118,"","",0,14.17
590627,52,52,block_Trng,3,task_Trng,2,0,"","",16,3,"","","","",Block3,"","","","","","",J,Stim16,LR,102,"",0,K,red,11,"","",0,118,"","",0,14.44
590627,53,53,block_Trng,3,task_Trng,2,1,"","",17,3,"","","","",Block3,"","","","","","",J,PreISI1,LR,103,"",0,J,red,12,"","",0,120,"","",0,14.72
590627,54,54,block_Trng,3,task_Trng,2,0,"","",18,3,"","","","",Block3,"","","","","","",K,Stim15,NR,6,"",0,J,blue,9,"","",0,120,"","",0,15
590627,55,55,block_Trng,3,task_Trng,2,1,"","",1,4,"","","","",Block4,"","","","","","",J,Stim14,HR,56,"",0,J,green,8,"","",0,130,"","",0,15.28
590627,56,56,block_Trng,3,task_Trng,2,0,"","",2,4,"","","","",Block4,"","","","","","",K,Stim16,NR,17,"",0,J,blue,9,"","",0,130,"","",0,15.56
590627,57,57,block_Trng,3,task_Trng,2,1,"","",3,4,"","","","",Block4,"","","","","","",J,PreISI1,HR,147,"",0,J,green,10,"","",0,140,"","",0,15.83
590627,58,58,block_Trng,3,task_Trng,2,0,"","",4,4,"","","","",Block4,"","","","","","",K,Stim15,LR,33,"",0,J,red,12,"","",0,140,"","",0,16.11
590627,59,59,block_Trng,3,task_Trng,2,1,"","",5,4,"","","","",Block4,Slow!,"","","","","",K,PreISI2,HR,233,"",1,K,green,9,"","",0,140,"","",0,16.39
590627,60,60,block_Trng,3,task_Trng,2,0,"","",6,4,"","","","",Block4,"","","","","","",J,Stim12,HR,115,"",0,K,green,11,"","",0,140,"","",0,16.67
590627,61,61,block_Trng,3,task_Trng,2,1,"","",7,4,"","","","",Block4,"","","","","","",K,PreISI1,NR,180,"",0,K,blue,10,"","",0,140,"","",0,16.94
590627,62,62,block_Trng,3,task_Trng,2,0,"","",8,4,"","","","",Block4,"","","","","","",J,PreISI1,HR,295,"",0,K,green,13,"","",0,140,"","",0,17.22
590627,63,63,block_Trng,3,task_Trng,2,1,"","",9,4,"","","","",Block4,"","","","","","",K,PreISI1,NR,299,"",0,K,blue,12,"","",0,140,"","",0,17.5
590627,64,64,block_Trng,3,task_Trng,2,1,"","",10,4,"","","","",Block4,"","","","","","",K,PreISI1,LR,240,"",0,K,red,13,"","",0,142,"","",0,17.78
590627,65,65,block_Trng,3,task_Trng,2,0,"","",11,4,"","","","",Block4,"","","","","","",K,PreISI1,NR,321,"",0,J,blue,11,"","",0,142,"","",0,18.06
590627,66,66,block_Trng,3,task_Trng,2,1,"","",12,4,"","","","",Block4,"","","","","","",J,PreISI1,NR,363,"",0,J,blue,13,"","",0,142,"","",0,18.33
590627,67,67,block_Trng,3,task_Trng,2,0,"","",13,4,"","","","",Block4,"","","","","","",K,Stim11,LR,61,"",0,J,red,10,"","",0,142,"","",0,18.61
590627,68,68,block_Trng,3,task_Trng,2,0,"","",14,4,"","","","",Block4,"","","","","","",K,Stim12,HR,54,"",0,J,green,12,"","",0,142,"","",0,18.89
590627,69,69,block_Trng,3,task_Trng,2,0,"","",15,4,"","","","",Block4,"","","","","","",K,Stim8,LR,7,"",0,J,red,8,"","",0,142,"","",0,19.17
590627,70,70,block_Trng,3,task_Trng,2,1,"","",16,4,"","","","",Block4,"","","","","","",K,Stim9,NR,13,"",0,K,blue,8,"","",0,142,"","",0,19.44
590627,71,71,block_Trng,3,task_Trng,2,1,"","",17,4,"","","","",Block4,"","","","","","",K,Stim11,LR,79,"",0,K,red,11,"","",0,144,"","",0,19.72
590627,72,72,block_Trng,3,task_Trng,2,0,"","",18,4,"","","","",Block4,"","","","","","",J,Stim9,LR,22,"",0,K,red,9,"","",0.49,144,"","",1,20
590627,73,73,block_Trng,3,task_Trng,2,1,"","",1,5,"","","","",Block5,"","","","","","",J,Stim9,NR,34,"",0,J,blue,9,"","",0.49,144,"","",1,20.28
590627,74,74,block_Trng,3,task_Trng,2,1,"","",2,5,"","","","",Block5,"","","","","","",K,Stim9,HR,56,"",0,K,green,9,"","",0.49,154,"","",1,20.56
590627,75,75,block_Trng,3,task_Trng,2,1,"","",3,5,"","","","",Block5,"","","","","","",K,Stim8,NR,2,"",0,K,blue,8,"","",0.49,154,"","",1,20.83
590627,76,76,block_Trng,3,task_Trng,2,1,"","",4,5,"","","","",Block5,"","","","","","",K,Stim9,LR,11,"",0,K,red,9,"","",0.49,156,"","",1,21.11
590627,77,77,block_Trng,3,task_Trng,2,0,"","",5,5,"","","","",Block5,"","","","","","",K,Stim11,NR,15,"",0,J,blue,11,"","",0.49,156,"","",1,21.39
590627,78,78,block_Trng,3,task_Trng,2,0,"","",6,5,"","","","",Block5,"","","","","","",J,Stim16,LR,82,"",0,K,red,11,"","",0.49,156,"","",1,21.67
590627,79,79,block_Trng,3,task_Trng,2,1,"","",7,5,"","","","",Block5,"","","","","","",J,PreISI1,LR,74,"",0,J,red,10,"","",0.49,158,"","",1,21.94
590627,80,80,block_Trng,3,task_Trng,2,0,"","",8,5,"","","","",Block5,Slow!,"","","","","",J,PreISI2,HR,75,"",1,K,green,13,"","",0.49,158,"","",1,22.22
590627,81,81,block_Trng,3,task_Trng,2,1,"","",9,5,"","","","",Block5,"","","","","","",K,Stim10,NR,66,"",0,K,blue,10,"","",0.49,158,"","",1,22.5
590627,82,82,block_Trng,3,task_Trng,2,1,"","",10,5,"","","","",Block5,"","","","","","",K,Stim12,NR,96,"",0,K,blue,12,"","",0.49,158,"","",1,22.78
590627,83,83,block_Trng,3,task_Trng,2,1,"","",11,5,"","","","",Block5,"","","","","","",K,Stim13,LR,85,"",0,K,red,13,"","",0.49,160,"","",1,23.06
590627,84,84,block_Trng,3,task_Trng,2,1,"","",12,5,"","","","",Block5,"","","","","","",K,Stim11,HR,108,"",0,K,green,11,"","",0.49,170,"","",1,23.33
590627,85,85,block_Trng,3,task_Trng,2,1,"","",13,5,"","","","",Block5,"","","","","","",J,Stim13,NR,4,"",0,J,blue,13,"","",0.49,170,"","",1,23.61
590627,86,86,block_Trng,3,task_Trng,2,1,"","",14,5,"","","","",Block5,"","","","","","",J,Stim12,LR,11,"",0,J,red,12,"","",0.49,172,"","",1,23.89
590627,87,87,block_Trng,3,task_Trng,2,0,"","",15,5,"","","","",Block5,"","","","","","",K,Stim8,LR,55,"",0,J,red,8,"","",0.49,172,"","",1,24.17
590627,88,88,block_Trng,3,task_Trng,2,1,"","",16,5,"","","","",Block5,"","","","","","",J,Stim13,HR,37,"",0,J,green,12,"","",0.49,182,"","",1,24.44
590627,89,89,block_Trng,3,task_Trng,2,1,"","",17,5,"","","","",Block5,"","","","","","",J,Stim10,HR,75,"",0,J,green,10,"","",0.49,192,"","",1,24.72
590627,90,90,block_Trng,3,task_Trng,2,0,"","",18,5,"","","","",Block5,"","","","","","",K,Stim8,HR,13,"",0,J,green,8,"","",0.49,192,"","",1,25
590627,91,91,block_Trng,3,task_Trng,2,0,"","",1,6,"","","","",Block6,"","","","","","",J,Stim9,LR,68,"",0,K,red,9,"","",0.49,192,"","",1,25.28
590627,92,92,block_Trng,3,task_Trng,2,0,"","",2,6,"","","","",Block6,"","","","","","",K,Stim9,NR,42,"",0,J,blue,9,"","",0.49,192,"","",1,25.56
590627,93,93,block_Trng,3,task_Trng,2,1,"","",3,6,"","","","",Block6,"","","","","","",J,Stim10,HR,13,"",0,J,green,10,"","",0.49,202,"","",1,25.83
590627,94,94,block_Trng,3,task_Trng,2,1,"","",4,6,"","","","",Block6,"","","","","","",J,Stim11,NR,39,"",0,J,blue,11,"","",0.49,202,"","",1,26.11
590627,95,95,block_Trng,3,task_Trng,2,1,"","",5,6,"","","","",Block6,"","","","","","",J,Stim10,LR,53,"",0,J,red,10,"","",0.49,204,"","",1,26.39
590627,96,96,block_Trng,3,task_Trng,2,1,"","",6,6,"","","","",Block6,"","","","","","",K,Stim9,HR,80,"",0,K,green,9,"","",0.49,214,"","",1,26.67
590627,97,97,block_Trng,3,task_Trng,2,0,"","",7,6,"","","","",Block6,"","","","","","",K,Stim12,HR,115,"",0,J,green,12,"","",0.49,214,"","",1,26.94
590627,98,98,block_Trng,3,task_Trng,2,0,"","",8,6,"","","","",Block6,"","","","","","",J,Stim14,HR,16,"",0,K,green,13,"","",0.49,214,"","",1,27.22
590627,99,99,block_Trng,3,task_Trng,2,1,"","",9,6,"","","","",Block6,"","","","","","",J,Stim8,HR,76,"",0,J,green,8,"","",0.49,224,"","",1,27.5
590627,100,100,block_Trng,3,task_Trng,2,0,"","",10,6,"","","","",Block6,"","","","","","",K,Stim9,LR,20,"",0,J,red,8,"","",0.49,224,"","",1,27.78
590627,101,101,block_Trng,3,task_Trng,2,0,"","",11,6,"","","","",Block6,"","","","","","",J,Stim12,LR,19,"",0,K,red,11,"","",0.49,224,"","",1,28.06
590627,102,102,block_Trng,3,task_Trng,2,1,"","",12,6,"","","","",Block6,"","","","","","",K,Stim11,HR,3,"",0,K,green,11,"","",0.49,234,"","",1,28.33
590627,103,103,block_Trng,3,task_Trng,2,1,"","",13,6,"","","","",Block6,"","","","","","",K,Stim13,NR,20,"",0,K,blue,12,"","",0.49,234,"","",1,28.61
590627,104,104,block_Trng,3,task_Trng,2,1,"","",14,6,"","","","",Block6,"","","","","","",J,Stim13,NR,1,"",0,J,blue,13,"","",0.49,234,"","",1,28.89
590627,105,105,block_Trng,3,task_Trng,2,0,"","",15,6,"","","","",Block6,"","","","","","",J,Stim10,NR,16,"",0,K,blue,10,"","",0.49,234,"","",1,29.17
590627,106,106,block_Trng,3,task_Trng,2,1,"","",16,6,"","","","",Block6,"","","","","","",J,Stim13,LR,56,"",0,J,red,12,"","",0.49,236,"","",1,29.44
590627,107,107,block_Trng,3,task_Trng,2,1,"","",17,6,"","","","",Block6,"","","","","","",K,Stim14,LR,21,"",0,K,red,13,"","",0.49,238,"","",1,29.72
590627,108,108,block_Trng,3,task_Trng,2,0,"","",18,6,"","","","",Block6,"","","","","","",J,Stim9,NR,5,"",0,K,blue,8,"","",0.49,238,"","",1,30
590627,109,109,block_Trng,3,task_Trng,2,0,"","",1,7,"","","","",Block7,"","","","","","",J,Stim10,LR,98,"",0,K,red,9,"","",0.49,238,"","",1,30.28
590627,110,110,block_Trng,3,task_Trng,2,1,"","",2,7,"","","","",Block7,"","","","","","",J,Stim13,NR,92,"",0,J,blue,13,"","",0.49,238,"","",1,30.56
590627,111,111,block_Trng,3,task_Trng,2,1,"","",3,7,"","","","",Block7,"","","","","","",J,Stim13,HR,60,"",0,J,green,12,"","",0.49,248,"","",1,30.83
590627,112,112,block_Trng,3,task_Trng,2,1,"","",4,7,"","","","",Block7,"","","","","","",J,Stim11,LR,3,"",0,J,red,10,"","",0.49,250,"","",1,31.11
590627,113,113,block_Trng,3,task_Trng,2,1,"","",5,7,"","","","",Block7,"","","","","","",K,Stim12,LR,56,"",0,K,red,11,"","",0.49,252,"","",1,31.39
590627,114,114,block_Trng,3,task_Trng,2,1,"","",6,7,"","","","",Block7,"","","","","","",J,Stim8,LR,63,"",0,J,red,8,"","",0.49,254,"","",1,31.67
590627,115,115,block_Trng,3,task_Trng,2,1,"","",7,7,"","","","",Block7,"","","","","","",J,Stim9,NR,69,"",0,J,blue,9,"","",0.49,254,"","",1,31.94
590627,116,116,block_Trng,3,task_Trng,2,1,"","",8,7,"","","","",Block7,"","","","","","",J,Stim11,HR,3,"",0,J,green,10,"","",0.49,264,"","",1,32.22
590627,117,117,block_Trng,3,task_Trng,2,0,"","",9,7,"","","","",Block7,"","","","","","",J,Stim14,HR,15,"",0,K,green,13,"","",0.49,264,"","",1,32.5
590627,118,118,block_Trng,3,task_Trng,2,0,"","",10,7,"","","","",Block7,"","","","","","",J,Stim10,NR,8,"",0,K,blue,10,"","",0.49,264,"","",1,32.78
590627,119,119,block_Trng,3,task_Trng,2,0,"","",11,7,"","","","",Block7,"","","","","","",K,Stim12,NR,35,"",0,J,blue,11,"","",0.49,264,"","",1,33.06
590627,120,120,block_Trng,3,task_Trng,2,1,"","",12,7,"","","","",Block7,"","","","","","",K,Stim13,NR,5,"",0,K,blue,12,"","",0.49,264,"","",1,33.33
590627,121,121,block_Trng,3,task_Trng,2,1,"","",13,7,"","","","",Block7,"","","","","","",J,Stim12,LR,28,"",0,J,red,12,"","",0.49,266,"","",1,33.61
590627,122,122,block_Trng,3,task_Trng,2,1,"","",14,7,"","","","",Block7,"","","","","","",K,Stim14,LR,34,"",0,K,red,13,"","",0.49,268,"","",1,33.89
590627,123,123,block_Trng,3,task_Trng,2,1,"","",15,7,"","","","",Block7,"","","","","","",J,Stim9,HR,73,"",0,J,green,8,"","",0.49,278,"","",1,34.17
590627,124,124,block_Trng,3,task_Trng,2,1,"","",16,7,"","","","",Block7,"","","","","","",K,Stim13,HR,93,"",0,K,green,9,"","",0.49,288,"","",1,34.44
590627,125,125,block_Trng,3,task_Trng,2,1,"","",17,7,"","","","",Block7,"","","","","","",K,PreISI1,HR,66,"",0,K,green,11,"","",0.49,298,"","",1,34.72
590627,126,126,block_Trng,3,task_Trng,2,0,"","",18,7,"","","","",Block7,"","","","","","",J,Stim8,NR,108,"",0,K,blue,8,"","",0.49,298,"","",1,35
590627,127,127,block_Trng,3,task_Trng,2,1,"","",1,8,"","","","",Block8,"","","","","","",J,Stim8,HR,66,"",0,J,green,8,"","",0.49,308,"","",1,35.28
590627,128,128,block_Trng,3,task_Trng,2,0,"","",2,8,"","","","",Block8,"","","","","","",J,Stim9,HR,28,"",0,K,green,9,"","",0.49,308,"","",1,35.56
590627,129,129,block_Trng,3,task_Trng,2,0,"","",3,8,"","","","",Block8,"","","","","","",J,Stim14,HR,50,"",0,K,green,13,"","",0.49,308,"","",1,35.83
590627,130,130,block_Trng,3,task_Trng,2,0,"","",4,8,"","","","",Block8,"","","","","","",K,Stim11,NR,21,"",0,J,blue,11,"","",0.49,308,"","",1,36.11
590627,131,131,block_Trng,3,task_Trng,2,1,"","",5,8,"","","","",Block8,"","","","","","",K,PreISI1,LR,329,"",0,K,red,13,"","",0.49,310,"","",1,36.39
590627,132,132,block_Trng,3,task_Trng,2,0,"","",6,8,"","","","",Block8,"","","","","","",J,Stim11,NR,115,"",0,K,blue,8,"","",0.49,310,"","",1,36.67
590627,133,133,block_Trng,3,task_Trng,2,0,"","",7,8,"","","","",Block8,"","","","","","",K,Stim9,NR,16,"",0,J,blue,9,"","",0.49,310,"","",1,36.94
590627,134,134,block_Trng,3,task_Trng,2,1,"","",8,8,"","","","",Block8,"","","","","","",J,Stim9,LR,20,"",0,J,red,8,"","",0.49,312,"","",1,37.22
590627,135,135,block_Trng,3,task_Trng,2,0,"","",9,8,"","","","",Block8,"","","","","","",J,Stim10,NR,93,"",0,K,blue,10,"","",0.49,312,"","",1,37.5
590627,136,136,block_Trng,3,task_Trng,2,1,"","",10,8,"","","","",Block8,"","","","","","",J,Stim10,LR,16,"",0,J,red,10,"","",0.49,314,"","",1,37.78
590627,137,137,block_Trng,3,task_Trng,2,0,"","",11,8,"","","","",Block8,"","","","","","",J,Stim11,LR,74,"",0,K,red,11,"","",0.49,314,"","",1,38.06
590627,138,138,block_Trng,3,task_Trng,2,1,"","",12,8,"","","","",Block8,"","","","","","",K,Stim12,HR,51,"",0,K,green,11,"","",0.49,324,"","",1,38.33
590627,139,139,block_Trng,3,task_Trng,2,0,"","",13,8,"","","","",Block8,"","","","","","",J,Stim13,NR,95,"",0,K,blue,12,"","",0.49,324,"","",1,38.61
590627,140,140,block_Trng,3,task_Trng,2,0,"","",14,8,"","","","",Block8,"","","","","","",K,Stim12,HR,8,"",0,J,green,12,"","",0.49,324,"","",1,38.89
590627,141,141,block_Trng,3,task_Trng,2,0,"","",15,8,"","","","",Block8,"","","","","","",J,Stim9,LR,42,"",0,K,red,9,"","",0.49,324,"","",1,39.17
590627,142,142,block_Trng,3,task_Trng,2,0,"","",16,8,"","","","",Block8,"","","","","","",K,Stim15,HR,94,"",0,J,green,10,"","",0.49,324,"","",1,39.44
590627,143,143,block_Trng,3,task_Trng,2,0,"","",17,8,"","","","",Block8,"","","","","","",K,PreISI1,LR,338,"",0,J,red,12,"","",0.49,324,"","",1,39.72
590627,144,144,block_Trng,3,task_Trng,2,1,"","",18,8,"","","","",Block8,"","","","","","",J,PreISI1,NR,453,"",0,J,blue,13,"","",1.1,324,"","",2,40
590627,145,145,block_Trng,3,task_Trng,2,0,"","",1,9,"","","","",Block9,"","","","","","",J,Stim12,NR,96,"",0,K,blue,12,"","",1.1,324,"","",2,40.28
590627,146,146,block_Trng,3,task_Trng,2,1,"","",2,9,"","","","",Block9,"","","","","","",J,Stim10,HR,88,"",0,J,green,10,"","",1.1,334,"","",2,40.56
590627,147,147,block_Trng,3,task_Trng,2,0,"","",3,9,"","","","",Block9,"","","","","","",K,Stim10,LR,116,"",0,J,red,10,"","",1.1,334,"","",2,40.83
590627,148,148,block_Trng,3,task_Trng,2,0,"","",4,9,"","","","",Block9,"","","","","","",J,Stim8,NR,27,"",0,K,blue,8,"","",1.1,334,"","",2,41.11
590627,149,149,block_Trng,3,task_Trng,2,1,"","",5,9,"","","","",Block9,"","","","","","",J,Stim13,HR,63,"",0,J,green,12,"","",1.1,344,"","",2,41.39
590627,150,150,block_Trng,3,task_Trng,2,1,"","",6,9,"","","","",Block9,"","","","","","",K,Stim12,HR,37,"",0,K,green,11,"","",1.1,354,"","",2,41.67
590627,151,151,block_Trng,3,task_Trng,2,1,"","",7,9,"","","","",Block9,"","","","","","",J,Stim13,NR,2,"",0,J,blue,11,"","",1.1,354,"","",2,41.94
590627,152,152,block_Trng,3,task_Trng,2,1,"","",8,9,"","","","",Block9,"","","","","","",J,Stim8,HR,22,"",0,J,green,8,"","",1.1,364,"","",2,42.22
590627,153,153,block_Trng,3,task_Trng,2,1,"","",9,9,"","","","",Block9,"","","","","","",J,Stim8,LR,18,"",0,J,red,8,"","",1.1,366,"","",2,42.5
590627,154,154,block_Trng,3,task_Trng,2,0,"","",10,9,"","","","",Block9,"","","","","","",J,Stim9,HR,64,"",0,K,green,9,"","",1.1,366,"","",2,42.78
590627,155,155,block_Trng,3,task_Trng,2,0,"","",11,9,"","","","",Block9,"","","","","","",K,Stim12,LR,18,"",0,J,red,12,"","",1.1,366,"","",2,43.06
590627,156,156,block_Trng,3,task_Trng,2,1,"","",12,9,"","","","",Block9,"","","","","","",K,Stim11,NR,2,"",0,K,blue,10,"","",1.1,366,"","",2,43.33
590627,157,157,block_Trng,3,task_Trng,2,1,"","",13,9,"","","","",Block9,"","","","","","",K,Stim13,LR,14,"",0,K,red,13,"","",1.1,368,"","",2,43.61
590627,158,158,block_Trng,3,task_Trng,2,1,"","",14,9,"","","","",Block9,"","","","","","",K,Stim9,LR,64,"",0,K,red,9,"","",1.1,370,"","",2,43.89
590627,159,159,block_Trng,3,task_Trng,2,0,"","",15,9,"","","","",Block9,"","","","","","",J,Stim11,LR,103,"",0,K,red,11,"","",1.1,370,"","",2,44.17
590627,160,160,block_Trng,3,task_Trng,2,0,"","",16,9,"","","","",Block9,"","","","","","",J,Stim13,HR,23,"",0,K,green,13,"","",1.1,370,"","",2,44.44
590627,161,161,block_Trng,3,task_Trng,2,1,"","",17,9,"","","","",Block9,"","","","","","",J,Stim13,NR,102,"",0,J,blue,13,"","",1.1,370,"","",2,44.72
590627,162,162,block_Trng,3,task_Trng,2,0,"","",18,9,"","","","",Block9,"","","","","","",K,Stim9,NR,93,"",0,J,blue,9,"","",1.1,370,"","",2,45
590627,163,163,block_Trng,3,task_Trng,2,0,"","",1,10,"","","","",Block10,"","","","","","",J,Stim16,HR,15,"",0,K,green,9,"","",1.1,370,"","",2,45.28
590627,164,164,block_Trng,3,task_Trng,2,1,"","",2,10,"","","","",Block10,"","","","","","",J,Stim12,LR,3,"",0,J,red,12,"","",1.1,372,"","",2,45.56
590627,165,165,block_Trng,3,task_Trng,2,1,"","",3,10,"","","","",Block10,"","","","","","",J,Stim12,HR,38,"",0,J,green,12,"","",1.1,382,"","",2,45.83
590627,166,166,block_Trng,3,task_Trng,2,0,"","",4,10,"","","","",Block10,"","","","","","",J,Stim10,NR,29,"",0,K,blue,10,"","",1.1,382,"","",2,46.11
590627,167,167,block_Trng,3,task_Trng,2,1,"","",5,10,"","","","",Block10,"","","","","","",J,Stim11,NR,71,"",0,J,blue,11,"","",1.1,382,"","",2,46.39
590627,168,168,block_Trng,3,task_Trng,2,1,"","",6,10,"","","","",Block10,"","","","","","",J,Stim8,LR,24,"",0,J,red,8,"","",1.1,384,"","",2,46.67
590627,169,169,block_Trng,3,task_Trng,2,0,"","",7,10,"","","","",Block10,"","","","","","",K,Stim14,NR,29,"",0,J,blue,13,"","",1.1,384,"","",2,46.94
590627,170,170,block_Trng,3,task_Trng,2,1,"","",8,10,"","","","",Block10,"","","","","","",J,Stim8,HR,13,"",0,J,green,8,"","",1.1,394,"","",2,47.22
590627,171,171,block_Trng,3,task_Trng,2,1,"","",9,10,"","","","",Block10,"","","","","","",J,Stim10,HR,70,"",0,J,green,10,"","",1.1,404,"","",2,47.5
590627,172,172,block_Trng,3,task_Trng,2,0,"","",10,10,"","","","",Block10,"","","","","","",K,Stim10,LR,26,"",0,J,red,10,"","",1.1,404,"","",2,47.78
590627,173,173,block_Trng,3,task_Trng,2,1,"","",11,10,"","","","",Block10,"","","","","","",K,Stim12,NR,61,"",0,K,blue,12,"","",1.1,404,"","",2,48.06
590627,174,174,block_Trng,3,task_Trng,2,1,"","",12,10,"","","","",Block10,"","","","","","",J,Stim10,NR,19,"",0,J,blue,9,"","",1.1,404,"","",2,48.33
590627,175,175,block_Trng,3,task_Trng,2,1,"","",13,10,"","","","",Block10,"","","","","","",K,Stim11,LR,24,"",0,K,red,11,"","",1.1,406,"","",2,48.61
590627,176,176,block_Trng,3,task_Trng,2,1,"","",14,10,"","","","",Block10,"","","","","","",K,Stim9,LR,81,"",0,K,red,9,"","",1.1,408,"","",2,48.89
590627,177,177,block_Trng,3,task_Trng,2,1,"","",15,10,"","","","",Block10,"","","","","","",K,Stim13,LR,11,"",0,K,red,13,"","",1.1,410,"","",2,49.17
590627,178,178,block_Trng,3,task_Trng,2,0,"","",16,10,"","","","",Block10,"","","","","","",J,PreISI1,HR,170,"",0,K,green,13,"","",1.1,410,"","",2,49.44
590627,179,179,block_Trng,3,task_Trng,2,0,"","",17,10,"","","","",Block10,"","","","","","",J,Stim8,NR,46,"",0,K,blue,8,"","",1.1,410,"","",2,49.72
590627,180,180,block_Trng,3,task_Trng,2,0,"","",18,10,"","","","",Block10,"","","","","","",J,Stim11,HR,99,"",0,K,green,11,"","",1.1,410,"","",2,50
590627,181,181,block_Trng,3,task_Trng,2,1,"","",1,11,"","","","",Block11,"","","","","","",J,Stim13,NR,108,"",0,J,blue,13,"","",1.1,410,"","",2,50.28
590627,182,182,block_Trng,3,task_Trng,2,0,"","",2,11,"","","","",Block11,"","","","","","",K,Stim12,NR,5,"",0,J,blue,11,"","",1.1,410,"","",2,50.56
590627,183,183,block_Trng,3,task_Trng,2,1,"","",3,11,"","","","",Block11,"","","","","","",K,Stim10,NR,68,"",0,K,blue,10,"","",1.1,410,"","",2,50.83
590627,184,184,block_Trng,3,task_Trng,2,0,"","",4,11,"","","","",Block11,"","","","","","",J,Stim8,NR,6,"",0,K,blue,8,"","",1.1,410,"","",2,51.11
590627,185,185,block_Trng,3,task_Trng,2,0,"","",5,11,"","","","",Block11,"","","","","","",K,Stim12,HR,35,"",0,J,green,12,"","",1.1,410,"","",2,51.39
590627,186,186,block_Trng,3,task_Trng,2,1,"","",6,11,"","","","",Block11,"","","","","","",K,Stim15,HR,23,"",0,K,green,9,"","",1.1,420,"","",2,51.67
590627,187,187,block_Trng,3,task_Trng,2,1,"","",7,11,"","","","",Block11,"","","","","","",J,Stim13,LR,53,"",0,J,red,8,"","",1.1,422,"","",2,51.94
590627,188,188,block_Trng,3,task_Trng,2,1,"","",8,11,"","","","",Block11,"","","","","","",K,PreISI1,LR,24,"",0,K,red,13,"","",1.1,424,"","",2,52.22
590627,189,189,block_Trng,3,task_Trng,2,1,"","",9,11,"","","","",Block11,"","","","","","",J,Stim15,NR,10,"",0,J,blue,9,"","",1.1,424,"","",2,52.5
590627,190,190,block_Trng,3,task_Trng,2,1,"","",10,11,"","","","",Block11,"","","","","","",J,Stim16,LR,56,"",0,J,red,10,"","",1.1,426,"","",2,52.78
590627,191,191,block_Trng,3,task_Trng,2,1,"","",11,11,"","","","",Block11,"","","","","","",K,PreISI1,LR,322,"",0,K,red,11,"","",1.1,428,"","",2,53.06
590627,192,192,block_Trng,3,task_Trng,2,0,"","",12,11,"","","","",Block11,"","","","","","",K,Stim12,LR,3,"",0,J,red,12,"","",1.1,428,"","",2,53.33
590627,193,193,block_Trng,3,task_Trng,2,0,"","",13,11,"","","","",Block11,"","","","","","",J,Stim13,HR,105,"",0,K,green,13,"","",1.1,428,"","",2,53.61
590627,194,194,block_Trng,3,task_Trng,2,1,"","",14,11,"","","","",Block11,"","","","","","",K,Stim13,NR,9,"",0,K,blue,12,"","",1.1,428,"","",2,53.89
590627,195,195,block_Trng,3,task_Trng,2,0,"","",15,11,"","","","",Block11,"","","","","","",J,Stim12,HR,57,"",0,K,green,11,"","",1.1,428,"","",2,54.17
590627,196,196,block_Trng,3,task_Trng,2,0,"","",16,11,"","","","",Block11,"","","","","","",K,Stim11,HR,78,"",0,J,green,10,"","",1.1,428,"","",2,54.44
590627,197,197,block_Trng,3,task_Trng,2,1,"","",17,11,"","","","",Block11,"","","","","","",K,Stim13,LR,15,"",0,K,red,9,"","",1.1,430,"","",2,54.72
590627,198,198,block_Trng,3,task_Trng,2,1,"","",18,11,"","","","",Block11,"","","","","","",J,Stim13,HR,28,"",0,J,green,8,"","",1.1,440,"","",2,55
590627,199,199,block_Trng,3,task_Trng,2,1,"","",1,12,"","","","",Block12,"","","","","","",J,Stim14,LR,11,"",0,J,red,8,"","",1.1,442,"","",2,55.28
590627,200,200,block_Trng,3,task_Trng,2,1,"","",2,12,"","","","",Block12,"","","","","","",K,Stim15,HR,117,"",0,K,green,9,"","",1.1,452,"","",2,55.56
590627,201,201,block_Trng,3,task_Trng,2,1,"","",3,12,"","","","",Block12,"","","","","","",K,Stim14,NR,72,"",0,K,blue,8,"","",1.1,452,"","",2,55.83
590627,202,202,block_Trng,3,task_Trng,2,1,"","",4,12,"","","","",Block12,"","","","","","",J,Stim13,HR,9,"",0,J,green,8,"","",1.1,462,"","",2,56.11
590627,203,203,block_Trng,3,task_Trng,2,0,"","",5,12,"","","","",Block12,"","","","","","",J,PreISI1,NR,507,"",0,K,blue,12,"","",1.1,462,"","",2,56.39
590627,204,204,block_Trng,3,task_Trng,2,1,"","",6,12,"","","","",Block12,"","","","","","",J,Stim15,HR,68,"",0,J,green,10,"","",1.1,472,"","",2,56.67
590627,205,205,block_Trng,3,task_Trng,2,1,"","",7,12,"","","","",Block12,"","","","","","",J,PreISI1,HR,150,"",0,J,green,12,"","",1.1,482,"","",2,56.94
590627,206,206,block_Trng,3,task_Trng,2,1,"","",8,12,"","","","",Block12,"","","","","","",K,Stim16,LR,94,"",0,K,red,11,"","",1.1,484,"","",2,57.22
590627,207,207,block_Trng,3,task_Trng,2,0,"","",9,12,"","","","",Block12,"","","","","","",J,PreISI1,HR,264,"",0,K,green,13,"","",1.1,484,"","",2,57.5
590627,208,208,block_Trng,3,task_Trng,2,0,"","",10,12,"","","","",Block12,"","","","","","",K,PreISI1,NR,490,"",0,J,blue,13,"","",1.1,484,"","",2,57.78
590627,209,209,block_Trng,3,task_Trng,2,1,"","",11,12,"","","","",Block12,"","","","","","",J,PreISI1,LR,367,"",0,J,red,12,"","",1.1,486,"","",2,58.06
590627,210,210,block_Trng,3,task_Trng,2,1,"","",12,12,"","","","",Block12,"","","","","","",K,PreISI1,LR,14,"",0,K,red,9,"","",1.1,488,"","",2,58.33
590627,211,211,block_Trng,3,task_Trng,2,0,"","",13,12,"","","","",Block12,"","","","","","",J,PreISI1,LR,187,"",0,K,red,13,"","",1.1,488,"","",2,58.61
590627,212,212,block_Trng,3,task_Trng,2,0,"","",14,12,"","","","",Block12,"","","","","","",K,PreISI1,LR,140,"",0,J,red,10,"","",1.1,488,"","",2,58.89
590627,213,213,block_Trng,3,task_Trng,2,1,"","",15,12,"","","","",Block12,"","","","","","",J,Stim14,NR,116,"",0,J,blue,9,"","",1.1,488,"","",2,59.17
590627,214,214,block_Trng,3,task_Trng,2,1,"","",16,12,"","","","",Block12,"","","","","","",J,PreISI1,NR,123,"",0,J,blue,11,"","",1.1,488,"","",2,59.44
590627,215,215,block_Trng,3,task_Trng,2,0,"","",17,12,"","","","",Block12,"","","","","","",J,Stim16,NR,44,"",0,K,blue,10,"","",1.1,488,"","",2,59.72
590627,216,216,block_Trng,3,task_Trng,2,1,"","",18,12,"","","","",Block12,"","","","","","",K,PreISI1,HR,181,"",0,K,green,11,"","",1.69,498,"","",3,60
590627,217,217,block_Trng,3,task_Trng,2,1,"","",1,13,"","","","",Block13,"","","","","","",K,Stim9,LR,104,"",0,K,red,9,"","",1.69,500,"","",3,60.28
590627,218,218,block_Trng,3,task_Trng,2,0,"","",2,13,"","","","",Block13,"","","","","","",K,Stim14,NR,10,"",0,J,blue,13,"","",1.69,500,"","",3,60.56
590627,219,219,block_Trng,3,task_Trng,2,0,"","",3,13,"","","","",Block13,"","","","","","",J,Stim13,LR,61,"",0,K,red,13,"","",1.69,500,"","",3,60.83
590627,220,220,block_Trng,3,task_Trng,2,0,"","",4,13,"","","","",Block13,"","","","","","",J,Stim12,NR,19,"",0,K,blue,12,"","",1.69,500,"","",3,61.11
590627,221,221,block_Trng,3,task_Trng,2,0,"","",5,13,"","","","",Block13,"","","","","","",K,Stim12,LR,89,"",0,J,red,12,"","",1.69,500,"","",3,61.39
590627,222,222,block_Trng,3,task_Trng,2,1,"","",6,13,"","","","",Block13,"","","","","","",K,Stim11,LR,24,"",0,K,red,11,"","",1.69,502,"","",3,61.67
590627,223,223,block_Trng,3,task_Trng,2,0,"","",7,13,"","","","",Block13,"","","","","","",J,Stim10,NR,21,"",0,K,blue,10,"","",1.69,502,"","",3,61.94
590627,224,224,block_Trng,3,task_Trng,2,1,"","",8,13,"","","","",Block13,"","","","","","",J,Stim8,HR,72,"",0,J,green,8,"","",1.69,512,"","",3,62.22
590627,225,225,block_Trng,3,task_Trng,2,0,"","",9,13,"","","","",Block13,"","","","","","",J,Stim12,HR,34,"",0,K,green,11,"","",1.69,512,"","",3,62.5
590627,226,226,block_Trng,3,task_Trng,2,1,"","",10,13,"","","","",Block13,"","","","","","",J,Stim10,NR,1,"",0,J,blue,9,"","",1.69,512,"","",3,62.78
590627,227,227,block_Trng,3,task_Trng,2,1,"","",11,13,"","","","",Block13,"","","","","","",K,Stim13,HR,76,"",0,K,green,13,"","",1.69,522,"","",3,63.06
590627,228,228,block_Trng,3,task_Trng,2,1,"","",12,13,"","","","",Block13,"","","","","","",J,Stim8,LR,34,"",0,J,red,8,"","",1.69,524,"","",3,63.33
590627,229,229,block_Trng,3,task_Trng,2,0,"","",13,13,"","","","",Block13,"","","","","","",K,Stim12,HR,40,"",0,J,green,12,"","",1.69,524,"","",3,63.61
590627,230,230,block_Trng,3,task_Trng,2,0,"","",14,13,"","","","",Block13,"","","","","","",K,Stim11,NR,61,"",0,J,blue,11,"","",1.69,524,"","",3,63.89
590627,231,231,block_Trng,3,task_Trng,2,1,"","",15,13,"","","","",Block13,"","","","","","",K,Stim9,HR,75,"",0,K,green,9,"","",1.69,534,"","",3,64.17
590627,232,232,block_Trng,3,task_Trng,2,0,"","",16,13,"","","","",Block13,"","","","","","",K,Stim10,LR,51,"",0,J,red,10,"","",1.69,534,"","",3,64.44
590627,233,233,block_Trng,3,task_Trng,2,0,"","",17,13,"","","","",Block13,"","","","","","",K,Stim10,HR,85,"",0,J,green,10,"","",1.69,534,"","",3,64.72
590627,234,234,block_Trng,3,task_Trng,2,1,"","",18,13,"","","","",Block13,"","","","","","",K,Stim9,NR,11,"",0,K,blue,8,"","",1.69,534,"","",3,65
590627,235,235,block_Trng,3,task_Trng,2,0,"","",1,14,"","","","",Block14,"","","","","","",J,Stim9,LR,20,"",0,K,red,9,"","",1.69,534,"","",3,65.28
590627,236,236,block_Trng,3,task_Trng,2,1,"","",2,14,"","","","",Block14,"","","","","","",J,Stim11,NR,6,"",0,J,blue,11,"","",1.69,534,"","",3,65.56
590627,237,237,block_Trng,3,task_Trng,2,0,"","",3,14,"","","","",Block14,"","","","","","",J,Stim14,LR,20,"",0,K,red,13,"","",1.69,534,"","",3,65.83
590627,238,238,block_Trng,3,task_Trng,2,1,"","",4,14,"","","","",Block14,"","","","","","",K,Stim10,HR,14,"",0,K,green,9,"","",1.69,544,"","",3,66.11
590627,239,239,block_Trng,3,task_Trng,2,1,"","",5,14,"","","","",Block14,"","","","","","",K,Stim11,LR,2,"",0,K,red,11,"","",1.69,546,"","",3,66.39
590627,240,240,block_Trng,3,task_Trng,2,0,"","",6,14,"","","","",Block14,"","","","","","",K,Stim12,LR,7,"",0,J,red,12,"","",1.69,546,"","",3,66.67
590627,241,241,block_Trng,3,task_Trng,2,0,"","",7,14,"","","","",Block14,"","","","","","",K,Stim9,NR,104,"",0,J,blue,9,"","",1.69,546,"","",3,66.94
590627,242,242,block_Trng,3,task_Trng,2,1,"","",8,14,"","","","",Block14,"","","","","","",K,Stim13,HR,22,"",0,K,green,13,"","",1.69,556,"","",3,67.22
590627,243,243,block_Trng,3,task_Trng,2,0,"","",9,14,"","","","",Block14,"","","","","","",K,Stim12,HR,27,"",0,J,green,12,"","",1.69,556,"","",3,67.5
590627,244,244,block_Trng,3,task_Trng,2,1,"","",10,14,"","","","",Block14,"","","","","","",K,Stim13,NR,25,"",0,K,blue,12,"","",1.69,556,"","",3,67.78
590627,245,245,block_Trng,3,task_Trng,2,1,"","",11,14,"","","","",Block14,"","","","","","",K,Stim10,NR,40,"",0,K,blue,10,"","",1.69,556,"","",3,68.06
590627,246,246,block_Trng,3,task_Trng,2,1,"","",12,14,"","","","",Block14,"","","","","","",J,Stim10,HR,108,"",0,J,green,10,"","",1.69,566,"","",3,68.33
590627,247,247,block_Trng,3,task_Trng,2,0,"","",13,14,"","","","",Block14,"","","","","","",J,Stim8,NR,6,"",0,K,blue,8,"","",1.69,566,"","",3,68.61
590627,248,248,block_Trng,3,task_Trng,2,1,"","",14,14,"","","","",Block14,"","","","","","",J,Stim8,HR,73,"",0,J,green,8,"","",1.69,576,"","",3,68.89
590627,249,249,block_Trng,3,task_Trng,2,0,"","",15,14,"","","","",Block14,"","","","","","",K,Stim10,LR,23,"",0,J,red,10,"","",1.69,576,"","",3,69.17
590627,250,250,block_Trng,3,task_Trng,2,0,"","",16,14,"","","","",Block14,"","","","","","",K,Stim13,NR,25,"",0,J,blue,13,"","",1.69,576,"","",3,69.44
590627,251,251,block_Trng,3,task_Trng,2,0,"","",17,14,"","","","",Block14,"","","","","","",J,Stim11,HR,27,"",0,K,green,11,"","",1.69,576,"","",3,69.72
590627,252,252,block_Trng,3,task_Trng,2,1,"","",18,14,"","","","",Block14,"","","","","","",J,Stim9,LR,16,"",0,J,red,8,"","",1.69,578,"","",3,70
590627,253,253,block_Trng,3,task_Trng,2,0,"","",1,15,"","","","",Block15,"","","","","","",K,Stim8,LR,21,"",0,J,red,8,"","",1.69,578,"","",3,70.28
590627,254,254,block_Trng,3,task_Trng,2,1,"","",2,15,"","","","",Block15,"","","","","","",K,Stim11,HR,117,"",0,K,green,11,"","",1.69,588,"","",3,70.56
590627,255,255,block_Trng,3,task_Trng,2,0,"","",3,15,"","","","",Block15,"","","","","","",K,Stim12,LR,44,"",0,J,red,12,"","",1.69,588,"","",3,70.83
590627,256,256,block_Trng,3,task_Trng,2,1,"","",4,15,"","","","",Block15,"","","","","","",J,Stim10,HR,14,"",0,J,green,10,"","",1.69,598,"","",3,71.11
590627,257,257,block_Trng,3,task_Trng,2,1,"","",5,15,"","","","",Block15,"","","","","","",J,Stim13,NR,71,"",0,J,blue,13,"","",1.69,598,"","",3,71.39
590627,258,258,block_Trng,3,task_Trng,2,1,"","",6,15,"","","","",Block15,"","","","","","",K,Stim10,NR,42,"",0,K,blue,10,"","",1.69,598,"","",3,71.67
590627,259,259,block_Trng,3,task_Trng,2,1,"","",7,15,"","","","",Block15,"","","","","","",K,Stim9,HR,37,"",0,K,green,9,"","",1.69,608,"","",3,71.94
590627,260,260,block_Trng,3,task_Trng,2,1,"","",8,15,"","","","",Block15,"","","","","","",K,Stim13,HR,1,"",0,K,green,13,"","",1.69,618,"","",3,72.22
590627,261,261,block_Trng,3,task_Trng,2,1,"","",9,15,"","","","",Block15,"","","","","","",J,Stim10,LR,67,"",0,J,red,10,"","",1.69,620,"","",3,72.5
590627,262,262,block_Trng,3,task_Trng,2,1,"","",10,15,"","","","",Block15,"","","","","","",J,Stim12,NR,13,"",0,J,blue,11,"","",1.69,620,"","",3,72.78
590627,263,263,block_Trng,3,task_Trng,2,0,"","",11,15,"","","","",Block15,"","","","","","",J,Stim9,LR,15,"",0,K,red,9,"","",1.69,620,"","",3,73.06
590627,264,264,block_Trng,3,task_Trng,2,0,"","",12,15,"","","","",Block15,"","","","","","",K,Stim12,HR,63,"",0,J,green,12,"","",1.69,620,"","",3,73.33
590627,265,265,block_Trng,3,task_Trng,2,0,"","",13,15,"","","","",Block15,"","","","","","",K,Stim8,HR,60,"",0,J,green,8,"","",1.69,620,"","",3,73.61
590627,266,266,block_Trng,3,task_Trng,2,1,"","",14,15,"","","","",Block15,"","","","","","",K,Stim13,LR,68,"",0,K,red,13,"","",1.69,622,"","",3,73.89
590627,267,267,block_Trng,3,task_Trng,2,0,"","",15,15,"","","","",Block15,"","","","","","",J,Stim9,NR,40,"",0,K,blue,8,"","",1.69,622,"","",3,74.17
590627,268,268,block_Trng,3,task_Trng,2,0,"","",16,15,"","","","",Block15,"","","","","","",J,Stim12,LR,97,"",0,K,red,11,"","",1.69,622,"","",3,74.44
590627,269,269,block_Trng,3,task_Trng,2,1,"","",17,15,"","","","",Block15,"","","","","","",K,Stim12,NR,97,"",0,K,blue,12,"","",1.69,622,"","",3,74.72
590627,270,270,block_Trng,3,task_Trng,2,0,"","",18,15,"","","","",Block15,"","","","","","",K,Stim9,NR,61,"",0,J,blue,9,"","",1.69,622,"","",3,75
590627,271,271,block_Trng,3,task_Trng,2,1,"","",1,16,"","","","",Block16',"","","","","","",K,Stim13,LR,91,"",0,K,red,13,"","",1.69,624,"","",3,75.28
590627,272,272,block_Trng,3,task_Trng,2,0,"","",2,16,"","","","",Block16',"","","","","","",K,Stim10,HR,9,"",0,J,green,10,"","",1.69,624,"","",3,75.56
590627,273,273,block_Trng,3,task_Trng,2,1,"","",3,16,"","","","",Block16',"","","","","","",J,PreISI1,NR,162,"",0,J,blue,13,"","",1.69,624,"","",3,75.83
590627,274,274,block_Trng,3,task_Trng,2,1,"","",4,16,"","","","",Block16',"","","","","","",K,Stim15,LR,15,"",0,K,red,9,"","",1.69,626,"","",3,76.11
590627,275,275,block_Trng,3,task_Trng,2,1,"","",5,16,"","","","",Block16',"","","","","","",J,Stim16,LR,14,"",0,J,red,12,"","",1.69,628,"","",3,76.39
590627,276,276,block_Trng,3,task_Trng,2,1,"","",6,16,"","","","",Block16',"","","","","","",J,Stim14,HR,114,"",0,J,green,8,"","",1.69,638,"","",3,76.67
590627,277,277,block_Trng,3,task_Trng,2,0,"","",7,16,"","","","",Block16',"","","","","","",J,Stim11,LR,44,"",0,K,red,11,"","",1.69,638,"","",3,76.94
590627,278,278,block_Trng,3,task_Trng,2,1,"","",8,16,"","","","",Block16',"","","","","","",K,Stim8,NR,88,"",0,K,blue,8,"","",1.69,638,"","",3,77.22
590627,279,279,block_Trng,3,task_Trng,2,0,"","",9,16,"","","","",Block16',"","","","","","",K,Stim11,NR,9,"",0,J,blue,11,"","",1.69,638,"","",3,77.5
590627,280,280,block_Trng,3,task_Trng,2,1,"","",10,16,"","","","",Block16',"","","","","","",J,Stim10,LR,3,"",0,J,red,10,"","",1.69,640,"","",3,77.78
590627,281,281,block_Trng,3,task_Trng,2,1,"","",11,16,"","","","",Block16',"","","","","","",J,Stim12,HR,22,"",0,J,green,12,"","",1.69,650,"","",3,78.06
590627,282,282,block_Trng,3,task_Trng,2,1,"","",12,16,"","","","",Block16',"","","","","","",K,Stim13,HR,117,"",0,K,green,13,"","",1.69,660,"","",3,78.33
590627,283,283,block_Trng,3,task_Trng,2,0,"","",13,16,"","","","",Block16',"","","","","","",K,Stim9,NR,3,"",0,J,blue,9,"","",1.69,660,"","",3,78.61
590627,284,284,block_Trng,3,task_Trng,2,0,"","",14,16,"","","","",Block16',"","","","","","",J,Stim10,NR,60,"",0,K,blue,10,"","",1.69,660,"","",3,78.89
590627,285,285,block_Trng,3,task_Trng,2,0,"","",15,16,"","","","",Block16',"","","","","","",J,Stim11,HR,31,"",0,K,green,11,"","",1.69,660,"","",3,79.17
590627,286,286,block_Trng,3,task_Trng,2,1,"","",16,16,"","","","",Block16',"","","","","","",K,Stim9,HR,19,"",0,K,green,9,"","",1.69,670,"","",3,79.44
590627,287,287,block_Trng,3,task_Trng,2,1,"","",17,16,"","","","",Block16',"","","","","","",J,Stim8,LR,98,"",0,J,red,8,"","",1.69,672,"","",3,79.72
590627,288,288,block_Trng,3,task_Trng,2,1,"","",18,16,"","","","",Block16',"","","","","","",K,Stim12,NR,25,"",0,K,blue,12,"","",2.28,672,"","",4,80
590627,289,289,block_Trng,3,task_Trng,2,1,"","",1,17,"","","","",Block17,"","","","","","",J,Stim13,NR,36,"",0,J,blue,13,"","",2.28,672,"","",4,80.28
590627,290,290,block_Trng,3,task_Trng,2,0,"","",2,17,"","","","",Block17,"","","","","","",J,Stim9,LR,15,"",0,K,red,9,"","",2.28,672,"","",4,80.56
590627,291,291,block_Trng,3,task_Trng,2,0,"","",3,17,"","","","",Block17,"","","","","","",K,Stim10,LR,97,"",0,J,red,10,"","",2.28,672,"","",4,80.83
590627,292,292,block_Trng,3,task_Trng,2,1,"","",4,17,"","","","",Block17,"","","","","","",K,Stim10,NR,83,"",0,K,blue,10,"","",2.28,672,"","",4,81.11
590627,293,293,block_Trng,3,task_Trng,2,1,"","",5,17,"","","","",Block17,"","","","","","",K,Stim12,NR,96,"",0,K,blue,12,"","",2.28,672,"","",4,81.39
590627,294,294,block_Trng,3,task_Trng,2,1,"","",6,17,"","","","",Block17,"","","","","","",J,Stim11,NR,32,"",0,J,blue,11,"","",2.28,672,"","",4,81.67
590627,295,295,block_Trng,3,task_Trng,2,1,"","",7,17,"","","","",Block17,"","","","","","",J,Stim12,HR,21,"",0,J,green,12,"","",2.28,682,"","",4,81.94
590627,296,296,block_Trng,3,task_Trng,2,0,"","",8,17,"","","","",Block17,"","","","","","",J,Stim13,LR,9,"",0,K,red,13,"","",2.28,682,"","",4,82.22
590627,297,297,block_Trng,3,task_Trng,2,1,"","",9,17,"","","","",Block17,"","","","","","",K,Stim8,NR,2,"",0,K,blue,8,"","",2.28,682,"","",4,82.5
590627,298,298,block_Trng,3,task_Trng,2,1,"","",10,17,"","","","",Block17,"","","","","","",J,Stim10,HR,11,"",0,J,green,10,"","",2.28,692,"","",4,82.78
590627,299,299,block_Trng,3,task_Trng,2,1,"","",11,17,"","","","",Block17,"","","","","","",J,Stim13,LR,85,"",0,J,red,12,"","",2.28,694,"","",4,83.06
590627,300,300,block_Trng,3,task_Trng,2,0,"","",12,17,"","","","",Block17,"","","","","","",J,Stim12,LR,20,"",0,K,red,11,"","",2.28,694,"","",4,83.33
590627,301,301,block_Trng,3,task_Trng,2,1,"","",13,17,"","","","",Block17,"","","","","","",J,Stim8,HR,92,"",0,J,green,8,"","",2.28,704,"","",4,83.61
590627,302,302,block_Trng,3,task_Trng,2,0,"","",14,17,"","","","",Block17,"","","","","","",K,Stim8,LR,84,"",0,J,red,8,"","",2.28,704,"","",4,83.89
590627,303,303,block_Trng,3,task_Trng,2,0,"","",15,17,"","","","",Block17,"","","","","","",J,Stim9,HR,55,"",0,K,green,9,"","",2.28,704,"","",4,84.17
590627,304,304,block_Trng,3,task_Trng,2,1,"","",16,17,"","","","",Block17,"","","","","","",J,Stim9,NR,25,"",0,J,blue,9,"","",2.28,704,"","",4,84.44
590627,305,305,block_Trng,3,task_Trng,2,0,"","",17,17,"","","","",Block17,"","","","","","",J,Stim11,HR,6,"",0,K,green,11,"","",2.28,704,"","",4,84.72
590627,306,306,block_Trng,3,task_Trng,2,0,"","",18,17,"","","","",Block17,"","","","","","",J,Stim13,HR,26,"",0,K,green,13,"","",2.28,704,"","",4,85
590627,307,307,block_Trng,3,task_Trng,2,1,"","",1,18,"","","","",Block18,"","","","","","",J,Stim10,LR,83,"",0,J,red,10,"","",2.28,706,"","",4,85.28
590627,308,308,block_Trng,3,task_Trng,2,1,"","",2,18,"","","","",Block18,"","","","","","",J,Stim13,NR,30,"",0,J,blue,13,"","",2.28,706,"","",4,85.56
590627,309,309,block_Trng,3,task_Trng,2,0,"","",3,18,"","","","",Block18,"","","","","","",J,Stim11,HR,97,"",0,K,green,11,"","",2.28,706,"","",4,85.83
590627,310,310,block_Trng,3,task_Trng,2,1,"","",4,18,"","","","",Block18,"","","","","","",K,Stim8,NR,69,"",0,K,blue,8,"","",2.28,706,"","",4,86.11
590627,311,311,block_Trng,3,task_Trng,2,0,"","",5,18,"","","","",Block18,"","","","","","",J,Stim10,NR,20,"",0,K,blue,10,"","",2.28,706,"","",4,86.39
590627,312,312,block_Trng,3,task_Trng,2,0,"","",6,18,"","","","",Block18,"","","","","","",K,Stim8,HR,84,"",0,J,green,8,"","",2.28,706,"","",4,86.67
590627,313,313,block_Trng,3,task_Trng,2,0,"","",7,18,"","","","",Block18,"","","","","","",J,Stim14,LR,36,"",0,K,red,13,"","",2.28,706,"","",4,86.94
590627,314,314,block_Trng,3,task_Trng,2,0,"","",8,18,"","","","",Block18,"","","","","","",J,Stim12,NR,6,"",0,K,blue,12,"","",2.28,706,"","",4,87.22
590627,315,315,block_Trng,3,task_Trng,2,1,"","",9,18,"","","","",Block18,"","","","","","",K,Stim9,LR,117,"",0,K,red,9,"","",2.28,708,"","",4,87.5
590627,316,316,block_Trng,3,task_Trng,2,0,"","",10,18,"","","","",Block18,"","","","","","",K,Stim13,HR,30,"",0,J,green,12,"","",2.28,708,"","",4,87.78
590627,317,317,block_Trng,3,task_Trng,2,1,"","",11,18,"","","","",Block18,"","","","","","",K,Stim11,LR,40,"",0,K,red,11,"","",2.28,710,"","",4,88.06
590627,318,318,block_Trng,3,task_Trng,2,1,"","",12,18,"","","","",Block18,"","","","","","",J,Stim11,NR,42,"",0,J,blue,11,"","",2.28,710,"","",4,88.33
590627,319,319,block_Trng,3,task_Trng,2,1,"","",13,18,"","","","",Block18,"","","","","","",J,Stim12,LR,10,"",0,J,red,12,"","",2.28,712,"","",4,88.61
590627,320,320,block_Trng,3,task_Trng,2,1,"","",14,18,"","","","",Block18,"","","","","","",K,Stim13,HR,60,"",0,K,green,13,"","",2.28,722,"","",4,88.89
590627,321,321,block_Trng,3,task_Trng,2,0,"","",15,18,"","","","",Block18,"","","","","","",J,Stim9,HR,51,"",0,K,green,9,"","",2.28,722,"","",4,89.17
590627,322,322,block_Trng,3,task_Trng,2,0,"","",16,18,"","","","",Block18,"","","","","","",K,Stim9,LR,32,"",0,J,red,8,"","",2.28,722,"","",4,89.44
590627,323,323,block_Trng,3,task_Trng,2,1,"","",17,18,"","","","",Block18,"","","","","","",J,Stim9,NR,18,"",0,J,blue,9,"","",2.28,722,"","",4,89.72
590627,324,324,block_Trng,3,task_Trng,2,0,"","",18,18,"","","","",Block18,"","","","","","",K,Stim10,HR,23,"",0,J,green,10,"","",2.28,722,"","",4,90
590627,325,325,block_Trng,3,task_Trng,2,1,"","",1,19,"","","","",Block19,"","","","","","",J,Stim12,NR,4,"",0,J,blue,11,"","",2.28,722,"","",4,90.28
590627,326,326,block_Trng,3,task_Trng,2,0,"","",2,19,"","","","",Block19,"","","","","","",J,Stim10,NR,76,"",0,K,blue,10,"","",2.28,722,"","",4,90.56
590627,327,327,block_Trng,3,task_Trng,2,0,"","",3,19,"","","","",Block19,"","","","","","",J,Stim9,LR,61,"",0,K,red,9,"","",2.28,722,"","",4,90.83
590627,328,328,block_Trng,3,task_Trng,2,1,"","",4,19,"","","","",Block19,"","","","","","",J,Stim13,NR,51,"",0,J,blue,13,"","",2.28,722,"","",4,91.11
590627,329,329,block_Trng,3,task_Trng,2,0,"","",5,19,"","","","",Block19,"","","","","","",J,Stim13,HR,78,"",0,K,green,13,"","",2.28,722,"","",4,91.39
590627,330,330,block_Trng,3,task_Trng,2,1,"","",6,19,"","","","",Block19,"","","","","","",J,Stim14,HR,92,"",0,J,green,10,"","",2.28,732,"","",4,91.67
590627,331,331,block_Trng,3,task_Trng,2,1,"","",7,19,"","","","",Block19,"","","","","","",J,Stim14,LR,24,"",0,J,red,8,"","",2.28,734,"","",4,91.94
590627,332,332,block_Trng,3,task_Trng,2,1,"","",8,19,"","","","",Block19,"","","","","","",K,PreISI1,NR,186,"",0,K,blue,12,"","",2.28,734,"","",4,92.22
590627,333,333,block_Trng,3,task_Trng,2,1,"","",9,19,"","","","",Block19,"","","","","","",J,PreISI1,NR,379,"",0,J,blue,9,"","",2.28,734,"","",4,92.5
590627,334,334,block_Trng,3,task_Trng,2,1,"","",10,19,"","","","",Block19,"","","","","","",K,PreISI1,LR,11,"",0,K,red,13,"","",2.28,736,"","",4,92.78
590627,335,335,block_Trng,3,task_Trng,2,1,"","",11,19,"","","","",Block19,"","","","","","",K,Stim14,NR,70,"",0,K,blue,8,"","",2.28,736,"","",4,93.06
590627,336,336,block_Trng,3,task_Trng,2,1,"","",12,19,"","","","",Block19,"","","","","","",J,Stim13,LR,5,"",0,J,red,10,"","",2.28,738,"","",4,93.33
590627,337,337,block_Trng,3,task_Trng,2,1,"","",13,19,"","","","",Block19,"","","","","","",K,Stim16,HR,53,"",0,K,green,11,"","",2.28,748,"","",4,93.61
590627,338,338,block_Trng,3,task_Trng,2,1,"","",14,19,"","","","",Block19,"","","","","","",J,Stim9,HR,40,"",0,J,green,8,"","",2.28,758,"","",4,93.89
590627,339,339,block_Trng,3,task_Trng,2,0,"","",15,19,"","","","",Block19,"","","","","","",J,Stim11,LR,10,"",0,K,red,11,"","",2.28,758,"","",4,94.17
590627,340,340,block_Trng,3,task_Trng,2,0,"","",16,19,"","","","",Block19,"","","","","","",J,Stim16,HR,83,"",0,K,green,9,"","",2.28,758,"","",4,94.44
590627,341,341,block_Trng,3,task_Trng,2,0,"","",17,19,"","","","",Block19,"","","","","","",K,Stim12,LR,83,"",0,J,red,12,"","",2.28,758,"","",4,94.72
590627,342,342,block_Trng,3,task_Trng,2,1,"","",18,19,"","","","",Block19,"","","","","","",J,Stim12,HR,48,"",0,J,green,12,"","",2.28,768,"","",4,95
590627,343,343,block_Trng,3,task_Trng,2,1,"","",1,20,"","","","",Block20,"","","","","","",K,Stim11,HR,12,"",0,K,green,11,"","",2.28,778,"","",4,95.28
590627,344,344,block_Trng,3,task_Trng,2,1,"","",2,20,"","","","",Block20,"","","","","","",J,Stim10,LR,63,"",0,J,red,10,"","",2.28,780,"","",4,95.56
590627,345,345,block_Trng,3,task_Trng,2,1,"","",3,20,"","","","",Block20,"","","","","","",J,Stim13,HR,69,"",0,J,green,12,"","",2.28,790,"","",4,95.83
590627,346,346,block_Trng,3,task_Trng,2,1,"","",4,20,"","","","",Block20,"","","","","","",K,Stim13,HR,13,"",0,K,green,13,"","",2.28,800,"","",4,96.11
590627,347,347,block_Trng,3,task_Trng,2,1,"","",5,20,"","","","",Block20,"","","","","","",J,Stim9,HR,21,"",0,J,green,8,"","",2.28,810,"","",4,96.39
590627,348,348,block_Trng,3,task_Trng,2,0,"","",6,20,"","","","",Block20,"","","","","","",J,Stim10,HR,46,"",0,K,green,9,"","",2.28,810,"","",4,96.67
590627,349,349,block_Trng,3,task_Trng,2,1,"","",7,20,"","","","",Block20,"","","","","","",J,Stim16,NR,11,"",0,J,blue,11,"","",2.28,810,"","",4,96.94
590627,350,350,block_Trng,3,task_Trng,2,0,"","",8,20,"","","","",Block20,"","","","","","",J,Stim12,LR,84,"",0,K,red,11,"","",2.28,810,"","",4,97.22
590627,351,351,block_Trng,3,task_Trng,2,1,"","",9,20,"","","","",Block20,"","","","","","",K,Stim13,LR,68,"",0,K,red,13,"","",2.28,812,"","",4,97.5
590627,352,352,block_Trng,3,task_Trng,2,1,"","",10,20,"","","","",Block20,"","","","","","",J,Stim10,HR,114,"",0,J,green,10,"","",2.28,822,"","",4,97.78
590627,353,353,block_Trng,3,task_Trng,2,0,"","",11,20,"","","","",Block20,"","","","","","",K,Stim12,LR,102,"",0,J,red,12,"","",2.28,822,"","",4,98.06
590627,354,354,block_Trng,3,task_Trng,2,1,"","",12,20,"","","","",Block20,"","","","","","",J,Stim13,NR,28,"",0,J,blue,13,"","",2.28,822,"","",4,98.33
590627,355,355,block_Trng,3,task_Trng,2,0,"","",13,20,"","","","",Block20,"","","","","","",J,Stim9,LR,42,"",0,K,red,9,"","",2.28,822,"","",4,98.61
590627,356,356,block_Trng,3,task_Trng,2,0,"","",14,20,"","","","",Block20,"","","","","","",K,Stim9,LR,69,"",0,J,red,8,"","",2.28,822,"","",4,98.89
590627,357,357,block_Trng,3,task_Trng,2,0,"","",15,20,"","","","",Block20,"","","","","","",J,Stim13,NR,17,"",0,K,blue,12,"","",2.28,822,"","",4,99.17
590627,358,358,block_Trng,3,task_Trng,2,1,"","",16,20,"","","","",Block20,"","","","","","",K,Stim13,NR,114,"",0,K,blue,8,"","",2.28,822,"","",4,99.44
590627,359,359,block_Trng,3,task_Trng,2,1,"","",17,20,"","","","",Block20,"","","","","","",K,Stim16,NR,93,"",0,K,blue,10,"","",2.28,822,"","",4,99.72
590627,360,360,block_Trng,3,task_Trng,2,1,"","",18,20,"","","","",Block20,"","","","","","",J,Stim15,NR,36,"",0,J,blue,9,"","",2.28,822,"","",4,100
590627,1,1,block_Trng,3,task_Trng_End,3,"","","","",1,"","","","","","","","","","","","","","","","","","","","","","",2.79,822,"","","",""
590627,1,1,block_Testing,4,task_Testing_Instructions,1,"","","","",1,"","","","","","","","","","","","","","","","","","","","","","","","","","","",""
590627,1,1,block_Testing,4,task_Testing,2,1,"","",1,1,"","",Block1,"","","","","","","","",J,Stim15,NR,37,"",0,J,blue,9,0,0.56,"",822,"","","",""
590627,2,2,block_Testing,4,task_Testing,2,0,"","",2,1,"","",Block1,"","","","","","","","",K,Stim12,HR,6,"",0,J,green,12,0,1.11,"",822,"","","",""
590627,3,3,block_Testing,4,task_Testing,2,1,"","",3,1,"","",Block1,"","","","","","","","",K,Stim13,LR,46,"",0,K,red,13,0,1.67,"",822,"","","",""
590627,4,4,block_Testing,4,task_Testing,2,1,"","",4,1,"","",Block1,"","","","","","","","",J,Stim8,HR,43,"",0,J,green,8,0,2.22,"",822,"","","",""
590627,5,5,block_Testing,4,task_Testing,2,1,"","",5,1,"","",Block1,"","","","","","","","",J,Stim12,LR,52,"",0,J,red,12,0,2.78,"",822,"","","",""
590627,6,6,block_Testing,4,task_Testing,2,0,"","",6,1,"","",Block1,"","","","","","","","",J,Stim8,NR,13,"",0,K,blue,8,0,3.33,"",822,"","","",""
590627,7,7,block_Testing,4,task_Testing,2,1,"","",7,1,"","",Block1,"","","","","","","","",K,Stim11,LR,57,"",0,K,red,11,0,3.89,"",822,"","","",""
590627,8,8,block_Testing,4,task_Testing,2,1,"","",8,1,"","",Block1,"","","","","","","","",K,Stim13,HR,64,"",0,K,green,13,0,4.44,"",822,"","","",""
590627,9,9,block_Testing,4,task_Testing,2,0,"","",9,1,"","",Block1,"","","","","","","","",K,Stim11,NR,19,"",0,J,blue,11,0,5,"",822,"","","",""
590627,10,10,block_Testing,4,task_Testing,2,0,"","",10,1,"","",Block1,"","","","","","","","",J,Stim12,NR,54,"",0,K,blue,12,0,5.56,"",822,"","","",""
590627,11,11,block_Testing,4,task_Testing,2,0,"","",11,1,"","",Block1,"","","","","","","","",K,Stim10,LR,17,"",0,J,red,10,0,6.11,"",822,"","","",""
590627,12,12,block_Testing,4,task_Testing,2,1,"","",12,1,"","",Block1,"","","","","","","","",J,Stim10,HR,58,"",0,J,green,10,0,6.67,"",822,"","","",""
590627,13,13,block_Testing,4,task_Testing,2,0,"","",13,1,"","",Block1,"","","","","","","","",K,Stim8,LR,75,"",0,J,red,8,0,7.22,"",822,"","","",""
590627,14,14,block_Testing,4,task_Testing,2,0,"","",14,1,"","",Block1,"","","","","","","","",K,Stim13,NR,67,"",0,J,blue,13,0,7.78,"",822,"","","",""
590627,15,15,block_Testing,4,task_Testing,2,0,"","",15,1,"","",Block1,"","","","","","","","",J,Stim10,LR,15,"",0,K,red,9,0,8.33,"",822,"","","",""
590627,16,16,block_Testing,4,task_Testing,2,1,"","",16,1,"","",Block1,"","","","","","","","",K,Stim9,HR,15,"",0,K,green,9,0,8.89,"",822,"","","",""
590627,17,17,block_Testing,4,task_Testing,2,0,"","",17,1,"","",Block1,"","","","","","","","",J,Stim11,HR,77,"",0,K,green,11,0,9.44,"",822,"","","",""
590627,18,18,block_Testing,4,task_Testing,2,1,"","",18,1,"","",Block1,"","","","","","","","",K,Stim10,NR,29,"",0,K,blue,10,0,10,"",822,"","","",""
590627,19,19,block_Testing,4,task_Testing,2,0,"","",1,2,"","",Block2,"","","","","","","","",K,Stim8,LR,38,"",0,J,red,8,0,10.56,"",822,"","","",""
590627,20,20,block_Testing,4,task_Testing,2,1,"","",2,2,"","",Block2,"","","","","","","","",K,Stim10,NR,3,"",0,K,blue,10,0,11.11,"",822,"","","",""
590627,21,21,block_Testing,4,task_Testing,2,0,"","",3,2,"","",Block2,"","","","","","","","",K,Stim8,HR,37,"",0,J,green,8,0,11.67,"",822,"","","",""
590627,22,22,block_Testing,4,task_Testing,2,1,"","",4,2,"","",Block2,"","","","","","","","",K,Stim9,LR,19,"",0,K,red,9,0,12.22,"",822,"","","",""
590627,23,23,block_Testing,4,task_Testing,2,1,"","",5,2,"","",Block2,"","","","","","","","",K,Stim12,NR,7,"",0,K,blue,12,0,12.78,"",822,"","","",""
590627,24,24,block_Testing,4,task_Testing,2,0,"","",6,2,"","",Block2,"","","","","","","","",K,Stim11,NR,55,"",0,J,blue,11,0,13.33,"",822,"","","",""
590627,25,25,block_Testing,4,task_Testing,2,0,"","",7,2,"","",Block2,"","","","","","","","",J,Stim9,HR,101,"",0,K,green,9,0,13.89,"",822,"","","",""
590627,26,26,block_Testing,4,task_Testing,2,0,"","",8,2,"","",Block2,"","","","","","","","",K,Stim13,NR,15,"",0,J,blue,13,0,14.44,"",822,"","","",""
590627,27,27,block_Testing,4,task_Testing,2,0,"","",9,2,"","",Block2,"","","","","","","","",J,Stim13,HR,95,"",0,K,green,13,0,15,"",822,"","","",""
590627,28,28,block_Testing,4,task_Testing,2,0,"","",10,2,"","",Block2,"","","","","","","","",J,Stim12,LR,16,"",0,K,red,11,0,15.56,"",822,"","","",""
590627,29,29,block_Testing,4,task_Testing,2,1,"","",11,2,"","",Block2,"","","","","","","","",J,Stim11,HR,9,"",0,J,green,10,0,16.11,"",822,"","","",""
590627,30,30,block_Testing,4,task_Testing,2,0,"","",12,2,"","",Block2,"","","","","","","","",K,Stim10,LR,11,"",0,J,red,10,0,16.67,"",822,"","","",""
590627,31,31,block_Testing,4,task_Testing,2,0,"","",13,2,"","",Block2,"","","","","","","","",K,Stim9,NR,44,"",0,J,blue,9,0,17.22,"",822,"","","",""
590627,32,32,block_Testing,4,task_Testing,2,0,"","",14,2,"","",Block2,"","","","","","","","",K,Stim12,LR,56,"",0,J,red,12,0,17.78,"",822,"","","",""
590627,33,33,block_Testing,4,task_Testing,2,1,"","",15,2,"","",Block2,"","","","","","","","",K,Stim13,LR,13,"",0,K,red,13,0,18.33,"",822,"","","",""
590627,34,34,block_Testing,4,task_Testing,2,0,"","",16,2,"","",Block2,"","","","","","","","",J,Stim12,HR,44,"",0,K,green,11,0,18.89,"",822,"","","",""
590627,35,35,block_Testing,4,task_Testing,2,1,"","",17,2,"","",Block2,"","","","","","","","",K,Stim8,NR,103,"",0,K,blue,8,0,19.44,"",822,"","","",""
590627,36,36,block_Testing,4,task_Testing,2,1,"","",18,2,"","",Block2,"","","","","","","","",J,Stim12,HR,5,"",0,J,green,12,0,20,"",822,"","","",""
590627,37,37,block_Testing,4,task_Testing,2,1,"","",1,3,"","",Block3,"","","","","","","","",J,Stim11,NR,48,"",0,J,blue,11,0,20.56,"",822,"","","",""
590627,38,38,block_Testing,4,task_Testing,2,0,"","",2,3,"","",Block3,"","","","","","","","",K,Stim10,HR,113,"",0,J,green,10,0,21.11,"",822,"","","",""
590627,39,39,block_Testing,4,task_Testing,2,0,"","",3,3,"","",Block3,"","","","","","","","",J,Stim10,NR,23,"",0,K,blue,10,0,21.67,"",822,"","","",""
590627,40,40,block_Testing,4,task_Testing,2,0,"","",4,3,"","",Block3,"","","","","","","","",J,Stim13,HR,103,"",0,K,green,13,0,22.22,"",822,"","","",""
590627,41,41,block_Testing,4,task_Testing,2,1,"","",5,3,"","",Block3,"","","","","","","","",K,Stim12,HR,62,"",0,K,green,9,0,22.78,"",822,"","","",""
590627,42,42,block_Testing,4,task_Testing,2,0,"","",6,3,"","",Block3,"","","","","","","","",K,Stim13,NR,15,"",0,J,blue,13,0,23.33,"",822,"","","",""
590627,43,43,block_Testing,4,task_Testing,2,0,"","",7,3,"","",Block3,"","","","","","","","",J,Stim9,LR,115,"",0,K,red,9,0,23.89,"",822,"","","",""
590627,44,44,block_Testing,4,task_Testing,2,1,"","",8,3,"","",Block3,"","","","","","","","",K,Stim11,HR,24,"",0,K,green,11,0,24.44,"",822,"","","",""
590627,45,45,block_Testing,4,task_Testing,2,0,"","",9,3,"","",Block3,"","","","","","","","",J,Stim8,NR,59,"",0,K,blue,8,0,25,"",822,"","","",""
590627,46,46,block_Testing,4,task_Testing,2,0,"","",10,3,"","",Block3,"","","","","","","","",J,Stim14,LR,57,"",0,K,red,13,0,25.56,"",822,"","","",""
590627,47,47,block_Testing,4,task_Testing,2,0,"","",11,3,"","",Block3,"","","","","","","","",K,Stim10,LR,79,"",0,J,red,10,0,26.11,"",822,"","","",""
590627,48,48,block_Testing,4,task_Testing,2,1,"","",12,3,"","",Block3,"","","","","","","","",J,Stim8,HR,115,"",0,J,green,8,0,26.67,"",822,"","","",""
590627,49,49,block_Testing,4,task_Testing,2,0,"","",13,3,"","",Block3,"","","","","","","","",J,Stim12,NR,82,"",0,K,blue,12,0,27.22,"",822,"","","",""
590627,50,50,block_Testing,4,task_Testing,2,1,"","",14,3,"","",Block3,"","","","","","","","",J,Stim8,LR,93,"",0,J,red,8,0,27.78,"",822,"","","",""
590627,51,51,block_Testing,4,task_Testing,2,1,"","",15,3,"","",Block3,"","","","","","","","",J,Stim10,NR,6,"",0,J,blue,9,0,28.33,"",822,"","","",""
590627,52,52,block_Testing,4,task_Testing,2,0,"","",16,3,"","",Block3,"","","","","","","","",K,Stim13,LR,9,"",0,J,red,12,0,28.89,"",822,"","","",""
590627,53,53,block_Testing,4,task_Testing,2,0,"","",17,3,"","",Block3,"","","","","","","","",K,Stim12,HR,95,"",0,J,green,12,0,29.44,"",822,"","","",""
590627,54,54,block_Testing,4,task_Testing,2,1,"","",18,3,"","",Block3,"","","","","","","","",K,Stim11,LR,59,"",0,K,red,11,1,30,"",822,"","","",""
590627,55,55,block_Testing,4,task_Testing,2,0,"","",1,4,"","",Block4,"","","","","","","","",K,Stim11,NR,25,"",0,J,blue,11,1,30.56,"",822,"","","",""
590627,56,56,block_Testing,4,task_Testing,2,0,"","",2,4,"","",Block4,"","","","","","","","",J,Stim9,LR,61,"",0,K,red,9,1,31.11,"",822,"","","",""
590627,57,57,block_Testing,4,task_Testing,2,0,"","",3,4,"","",Block4,"","","","","","","","",K,Stim12,HR,18,"",0,J,green,12,1,31.67,"",822,"","","",""
590627,58,58,block_Testing,4,task_Testing,2,1,"","",4,4,"","",Block4,"","","","","","","","",K,Stim16,HR,9,"",0,K,green,11,1,32.22,"",822,"","","",""
590627,59,59,block_Testing,4,task_Testing,2,1,"","",5,4,"","",Block4,"","","","","","","","",K,Stim9,HR,59,"",0,K,green,9,1,32.78,"",822,"","","",""
590627,60,60,block_Testing,4,task_Testing,2,0,"","",6,4,"","",Block4,"","","","","","","","",K,Stim8,LR,22,"",0,J,red,8,1,33.33,"",822,"","","",""
590627,61,61,block_Testing,4,task_Testing,2,0,"","",7,4,"","",Block4,"","","","","","","","",K,Stim13,NR,75,"",0,J,blue,13,1,33.89,"",822,"","","",""
590627,62,62,block_Testing,4,task_Testing,2,1,"","",8,4,"","",Block4,"","","","","","","","",J,Stim9,NR,112,"",0,J,blue,9,1,34.44,"",822,"","","",""
590627,63,63,block_Testing,4,task_Testing,2,0,"","",9,4,"","",Block4,"","","","","","","","",J,Stim8,NR,95,"",0,K,blue,8,1,35,"",822,"","","",""
590627,64,64,block_Testing,4,task_Testing,2,0,"","",10,4,"","",Block4,"","","","","","","","",K,Stim12,LR,26,"",0,J,red,10,1,35.56,"",822,"","","",""
590627,65,65,block_Testing,4,task_Testing,2,1,"","",11,4,"","",Block4,"","","","","","","","",J,Stim12,LR,65,"",0,J,red,12,1,36.11,"",822,"","","",""
590627,66,66,block_Testing,4,task_Testing,2,1,"","",12,4,"","",Block4,"","","","","","","","",K,Stim11,LR,9,"",0,K,red,11,1,36.67,"",822,"","","",""
590627,67,67,block_Testing,4,task_Testing,2,0,"","",13,4,"","",Block4,"","","","","","","","",J,Stim10,NR,100,"",0,K,blue,10,1,37.22,"",822,"","","",""
590627,68,68,block_Testing,4,task_Testing,2,0,"","",14,4,"","",Block4,"","","","","","","","",J,Stim12,NR,14,"",0,K,blue,12,1,37.78,"",822,"","","",""
590627,69,69,block_Testing,4,task_Testing,2,0,"","",15,4,"","",Block4,"","","","","","","","",K,Stim8,HR,62,"",0,J,green,8,1,38.33,"",822,"","","",""
590627,70,70,block_Testing,4,task_Testing,2,0,"","",16,4,"","",Block4,"","","","","","","","",J,Stim13,HR,9,"",0,K,green,13,1,38.89,"",822,"","","",""
590627,71,71,block_Testing,4,task_Testing,2,1,"","",17,4,"","",Block4,"","","","","","","","",K,Stim14,LR,14,"",0,K,red,13,1,39.44,"",822,"","","",""
590627,72,72,block_Testing,4,task_Testing,2,0,"","",18,4,"","",Block4,"","","","","","","","",K,Stim10,HR,17,"",0,J,green,10,1,40,"",822,"","","",""
590627,73,73,block_Testing,4,task_Testing,2,1,"","",1,5,"","",Block5,"","","","","","","","",J,Stim12,HR,5,"",0,J,green,12,1,40.56,"",822,"","","",""
590627,74,74,block_Testing,4,task_Testing,2,1,"","",2,5,"","",Block5,"","","","","","","","",J,Stim11,NR,47,"",0,J,blue,11,1,41.11,"",822,"","","",""
590627,75,75,block_Testing,4,task_Testing,2,0,"","",3,5,"","",Block5,"","","","","","","","",K,Stim12,LR,50,"",0,J,red,12,1,41.67,"",822,"","","",""
590627,76,76,block_Testing,4,task_Testing,2,1,"","",4,5,"","",Block5,"","","","","","","","",J,Stim10,NR,23,"",0,J,blue,9,1,42.22,"",822,"","","",""
590627,77,77,block_Testing,4,task_Testing,2,1,"","",5,5,"","",Block5,"","","","","","","","",J,Stim8,LR,53,"",0,J,red,8,1,42.78,"",822,"","","",""
590627,78,78,block_Testing,4,task_Testing,2,0,"","",6,5,"","",Block5,"","","","","","","","",K,Stim11,LR,27,"",0,J,red,10,1,43.33,"",822,"","","",""
590627,79,79,block_Testing,4,task_Testing,2,0,"","",7,5,"","",Block5,"","","","","","","","",J,Stim11,HR,90,"",0,K,green,11,1,43.89,"",822,"","","",""
590627,80,80,block_Testing,4,task_Testing,2,0,"","",8,5,"","",Block5,"","","","","","","","",J,Stim8,NR,19,"",0,K,blue,8,1,44.44,"",822,"","","",""
590627,81,81,block_Testing,4,task_Testing,2,1,"","",9,5,"","",Block5,"","","","","","","","",K,Stim12,NR,48,"",0,K,blue,12,1,45,"",822,"","","",""
590627,82,82,block_Testing,4,task_Testing,2,1,"","",10,5,"","",Block5,"","","","","","","","",J,Stim10,HR,84,"",0,J,green,10,1,45.56,"",822,"","","",""
590627,83,83,block_Testing,4,task_Testing,2,0,"","",11,5,"","",Block5,"","","","","","","","",J,Stim13,HR,30,"",0,K,green,13,1,46.11,"",822,"","","",""
590627,84,84,block_Testing,4,task_Testing,2,0,"","",12,5,"","",Block5,"","","","","","","","",J,Stim15,LR,93,"",0,K,red,9,1,46.67,"",822,"","","",""
590627,85,85,block_Testing,4,task_Testing,2,0,"","",13,5,"","",Block5,"","","","","","","","",J,Stim13,LR,16,"",0,K,red,13,1,47.22,"",822,"","","",""
590627,86,86,block_Testing,4,task_Testing,2,1,"","",14,5,"","",Block5,"","","","","","","","",K,Stim11,LR,16,"",0,K,red,11,1,47.78,"",822,"","","",""
590627,87,87,block_Testing,4,task_Testing,2,0,"","",15,5,"","",Block5,"","","","","","","","",K,Stim8,HR,72,"",0,J,green,8,1,48.33,"",822,"","","",""
590627,88,88,block_Testing,4,task_Testing,2,0,"","",16,5,"","",Block5,"","","","","","","","",J,Stim9,HR,2,"",0,K,green,9,1,48.89,"",822,"","","",""
590627,89,89,block_Testing,4,task_Testing,2,1,"","",17,5,"","",Block5,"","","","","","","","",K,Stim10,NR,99,"",0,K,blue,10,1,49.44,"",822,"","","",""
590627,90,90,block_Testing,4,task_Testing,2,1,"","",18,5,"","",Block5,"","","","","","","","",J,Stim13,NR,48,"",0,J,blue,13,1,50,"",822,"","","",""
590627,91,91,block_Testing,4,task_Testing,2,0,"","",1,6,"","",Block6,"","","","","","","","",J,Stim11,LR,67,"",0,K,red,11,1,50.56,"",822,"","","",""
590627,92,92,block_Testing,4,task_Testing,2,1,"","",2,6,"","",Block6,"","","","","","","","",J,Stim11,NR,106,"",0,J,blue,11,1,51.11,"",822,"","","",""
590627,93,93,block_Testing,4,task_Testing,2,1,"","",3,6,"","",Block6,"","","","","","","","",J,Stim12,HR,97,"",0,J,green,12,1,51.67,"",822,"","","",""
590627,94,94,block_Testing,4,task_Testing,2,1,"","",4,6,"","",Block6,"","","","","","","","",J,Stim10,HR,82,"",0,J,green,10,1,52.22,"",822,"","","",""
590627,95,95,block_Testing,4,task_Testing,2,1,"","",5,6,"","",Block6,"","","","","","","","",K,Stim11,NR,35,"",0,K,blue,10,1,52.78,"",822,"","","",""
590627,96,96,block_Testing,4,task_Testing,2,1,"","",6,6,"","",Block6,"","","","","","","","",K,Stim13,LR,3,"",0,K,red,13,1,53.33,"",822,"","","",""
590627,97,97,block_Testing,4,task_Testing,2,0,"","",7,6,"","",Block6,"","","","","","","","",J,Stim9,HR,71,"",0,K,green,9,1,53.89,"",822,"","","",""
590627,98,98,block_Testing,4,task_Testing,2,0,"","",8,6,"","",Block6,"","","","","","","","",J,Stim12,HR,17,"",0,K,green,11,1,54.44,"",822,"","","",""
590627,99,99,block_Testing,4,task_Testing,2,0,"","",9,6,"","",Block6,"","","","","","","","",K,Stim9,NR,17,"",0,J,blue,9,1,55,"",822,"","","",""
590627,100,100,block_Testing,4,task_Testing,2,1,"","",10,6,"","",Block6,"","","","","","","","",K,Stim14,HR,14,"",0,K,green,13,1,55.56,"",822,"","","",""
590627,101,101,block_Testing,4,task_Testing,2,0,"","",11,6,"","",Block6,"","","","","","","","",J,Stim12,NR,70,"",0,K,blue,12,1,56.11,"",822,"","","",""
590627,102,102,block_Testing,4,task_Testing,2,1,"","",12,6,"","",Block6,"","","","","","","","",J,Stim12,LR,46,"",0,J,red,12,1,56.67,"",822,"","","",""
590627,103,103,block_Testing,4,task_Testing,2,0,"","",13,6,"","",Block6,"","","","","","","","",K,Stim10,LR,79,"",0,J,red,10,1,57.22,"",822,"","","",""
590627,104,104,block_Testing,4,task_Testing,2,1,"","",14,6,"","",Block6,"","","","","","","","",J,Stim8,HR,20,"",0,J,green,8,1,57.78,"",822,"","","",""
590627,105,105,block_Testing,4,task_Testing,2,1,"","",15,6,"","",Block6,"","","","","","","","",J,Stim8,LR,16,"",0,J,red,8,1,58.33,"",822,"","","",""
590627,106,106,block_Testing,4,task_Testing,2,1,"","",16,6,"","",Block6,"","","","","","","","",K,Stim9,NR,11,"",0,K,blue,8,1,58.89,"",822,"","","",""
590627,107,107,block_Testing,4,task_Testing,2,0,"","",17,6,"","",Block6,"","","","","","","","",J,Stim9,LR,29,"",0,K,red,9,1,59.44,"",822,"","","",""
590627,108,108,block_Testing,4,task_Testing,2,1,"","",18,6,"","",Block6,"","","","","","","","",J,Stim13,NR,62,"",0,J,blue,13,2,60,"",822,"","","",""
590627,109,109,block_Testing,4,task_Testing,2,1,"","",1,7,"","",Block7,"","","","","","","","",K,Stim13,HR,110,"",0,K,green,13,2,60.56,"",822,"","","",""
590627,110,110,block_Testing,4,task_Testing,2,0,"","",2,7,"","",Block7,"","","","","","","","",J,Stim8,NR,36,"",0,K,blue,8,2,61.11,"",822,"","","",""
590627,111,111,block_Testing,4,task_Testing,2,0,"","",3,7,"","",Block7,"","","","","","","","",K,Stim11,NR,110,"",0,J,blue,11,2,61.67,"",822,"","","",""
590627,112,112,block_Testing,4,task_Testing,2,0,"","",4,7,"","",Block7,"","","","","","","","",J,Stim10,NR,94,"",0,K,blue,10,2,62.22,"",822,"","","",""
590627,113,113,block_Testing,4,task_Testing,2,1,"","",5,7,"","",Block7,"","","","","","","","",J,Stim8,HR,13,"",0,J,green,8,2,62.78,"",822,"","","",""
590627,114,114,block_Testing,4,task_Testing,2,1,"","",6,7,"","",Block7,"","","","","","","","",J,Stim8,LR,17,"",0,J,red,8,2,63.33,"",822,"","","",""
590627,115,115,block_Testing,4,task_Testing,2,0,"","",7,7,"","",Block7,"","","","","","","","",K,Stim12,LR,75,"",0,J,red,12,2,63.89,"",822,"","","",""
590627,116,116,block_Testing,4,task_Testing,2,0,"","",8,7,"","",Block7,"","","","","","","","",J,Stim9,LR,9,"",0,K,red,9,2,64.44,"",822,"","","",""
590627,117,117,block_Testing,4,task_Testing,2,0,"","",9,7,"","",Block7,"","","","","","","","",J,Stim9,HR,60,"",0,K,green,9,2,65,"",822,"","","",""
590627,118,118,block_Testing,4,task_Testing,2,0,"","",10,7,"","",Block7,"","","","","","","","",J,Stim11,LR,8,"",0,K,red,11,2,65.56,"",822,"","","",""
590627,119,119,block_Testing,4,task_Testing,2,1,"","",11,7,"","",Block7,"","","","","","","","",J,Stim12,HR,52,"",0,J,green,12,2,66.11,"",822,"","","",""
590627,120,120,block_Testing,4,task_Testing,2,0,"","",12,7,"","",Block7,"","","","","","","","",K,Stim14,NR,34,"",0,J,blue,13,2,66.67,"",822,"","","",""
590627,121,121,block_Testing,4,task_Testing,2,1,"","",13,7,"","",Block7,"","","","","","","","",J,Stim10,LR,86,"",0,J,red,10,2,67.22,"",822,"","","",""
590627,122,122,block_Testing,4,task_Testing,2,1,"","",14,7,"","",Block7,"","","","","","","","",J,Stim10,HR,84,"",0,J,green,10,2,67.78,"",822,"","","",""
590627,123,123,block_Testing,4,task_Testing,2,1,"","",15,7,"","",Block7,"","","","","","","","",J,Stim9,NR,101,"",0,J,blue,9,2,68.33,"",822,"","","",""
590627,124,124,block_Testing,4,task_Testing,2,0,"","",16,7,"","",Block7,"","","","","","","","",J,Stim13,LR,1,"",0,K,red,13,2,68.89,"",822,"","","",""
590627,125,125,block_Testing,4,task_Testing,2,0,"","",17,7,"","",Block7,"","","","","","","","",J,Stim12,NR,79,"",0,K,blue,12,2,69.44,"",822,"","","",""
590627,126,126,block_Testing,4,task_Testing,2,1,"","",18,7,"","",Block7,"","","","","","","","",K,Stim11,HR,42,"",0,K,green,11,2,70,"",822,"","","",""
590627,127,127,block_Testing,4,task_Testing,2,0,"","",1,8,"","",Block8,"","","","","","","","",J,Stim12,NR,54,"",0,K,blue,12,2,70.56,"",822,"","","",""
590627,128,128,block_Testing,4,task_Testing,2,1,"","",2,8,"","",Block8,"","","","","","","","",J,Stim8,HR,77,"",0,J,green,8,2,71.11,"",822,"","","",""
590627,129,129,block_Testing,4,task_Testing,2,0,"","",3,8,"","",Block8,"","","","","","","","",J,Stim8,NR,48,"",0,K,blue,8,2,71.67,"",822,"","","",""
590627,130,130,block_Testing,4,task_Testing,2,0,"","",4,8,"","",Block8,"","","","","","","","",K,Stim12,LR,1,"",0,J,red,12,2,72.22,"",822,"","","",""
590627,131,131,block_Testing,4,task_Testing,2,1,"","",5,8,"","",Block8,"","","","","","","","",K,Stim11,LR,71,"",0,K,red,11,2,72.78,"",822,"","","",""
590627,132,132,block_Testing,4,task_Testing,2,0,"","",6,8,"","",Block8,"","","","","","","","",J,Stim14,HR,26,"",0,K,green,13,2,73.33,"",822,"","","",""
590627,133,133,block_Testing,4,task_Testing,2,0,"","",7,8,"","",Block8,"","","","","","","","",K,Stim9,NR,105,"",0,J,blue,9,2,73.89,"",822,"","","",""
590627,134,134,block_Testing,4,task_Testing,2,0,"","",8,8,"","",Block8,"","","","","","","","",K,Stim10,HR,9,"",0,J,green,10,2,74.44,"",822,"","","",""
590627,135,135,block_Testing,4,task_Testing,2,0,"","",9,8,"","",Block8,"","","","","","","","",K,Stim13,NR,32,"",0,J,blue,13,2,75,"",822,"","","",""
590627,136,136,block_Testing,4,task_Testing,2,1,"","",10,8,"","",Block8,"","","","","","","","",J,Stim11,NR,9,"",0,J,blue,11,2,75.56,"",822,"","","",""
590627,137,137,block_Testing,4,task_Testing,2,1,"","",11,8,"","",Block8,"","","","","","","","",K,Stim9,HR,113,"",0,K,green,9,2,76.11,"",822,"","","",""
590627,138,138,block_Testing,4,task_Testing,2,0,"","",12,8,"","",Block8,"","","","","","","","",K,Stim10,LR,11,"",0,J,red,10,2,76.67,"",822,"","","",""
590627,139,139,block_Testing,4,task_Testing,2,1,"","",13,8,"","",Block8,"","","","","","","","",K,Stim12,HR,10,"",0,K,green,11,2,77.22,"",822,"","","",""
590627,140,140,block_Testing,4,task_Testing,2,0,"","",14,8,"","",Block8,"","","","","","","","",J,Stim10,LR,25,"",0,K,red,9,2,77.78,"",822,"","","",""
590627,141,141,block_Testing,4,task_Testing,2,0,"","",15,8,"","",Block8,"","","","","","","","",J,Stim10,NR,53,"",0,K,blue,10,2,78.33,"",822,"","","",""
590627,142,142,block_Testing,4,task_Testing,2,1,"","",16,8,"","",Block8,"","","","","","","","",J,Stim8,LR,31,"",0,J,red,8,2,78.89,"",822,"","","",""
590627,143,143,block_Testing,4,task_Testing,2,0,"","",17,8,"","",Block8,"","","","","","","","",K,Stim13,HR,22,"",0,J,green,12,2,79.44,"",822,"","","",""
590627,144,144,block_Testing,4,task_Testing,2,1,"","",18,8,"","",Block8,"","","","","","","","",K,Stim14,LR,6,"",0,K,red,13,2,80,"",822,"","","",""
590627,145,145,block_Testing,4,task_Testing,2,0,"","",1,9,"","",Block9,"","","","","","","","",J,Stim13,NR,28,"",0,K,blue,12,2,80.56,"",822,"","","",""
590627,146,146,block_Testing,4,task_Testing,2,0,"","",2,9,"","",Block9,"","","","","","","","",J,Stim12,LR,13,"",0,K,red,11,2,81.11,"",822,"","","",""
590627,147,147,block_Testing,4,task_Testing,2,0,"","",3,9,"","",Block9,"","","","","","","","",J,Stim8,NR,30,"",0,K,blue,8,2,81.67,"",822,"","","",""
590627,148,148,block_Testing,4,task_Testing,2,1,"","",4,9,"","",Block9,"","","","","","","","",J,Stim14,NR,16,"",0,J,blue,13,2,82.22,"",822,"","","",""
590627,149,149,block_Testing,4,task_Testing,2,0,"","",5,9,"","",Block9,"","","","","","","","",J,Stim10,LR,23,"",0,K,red,9,2,82.78,"",822,"","","",""
590627,150,150,block_Testing,4,task_Testing,2,0,"","",6,9,"","",Block9,"","","","","","","","",J,Stim11,HR,103,"",0,K,green,11,2,83.33,"",822,"","","",""
590627,151,151,block_Testing,4,task_Testing,2,1,"","",7,9,"","",Block9,"","","","","","","","",J,Stim8,HR,72,"",0,J,green,8,2,83.89,"",822,"","","",""
590627,152,152,block_Testing,4,task_Testing,2,1,"","",8,9,"","",Block9,"","","","","","","","",J,Stim13,LR,54,"",0,J,red,12,2,84.44,"",822,"","","",""
590627,153,153,block_Testing,4,task_Testing,2,1,"","",9,9,"","",Block9,"","","","","","","","",J,Stim10,LR,76,"",0,J,red,10,2,85,"",822,"","","",""
590627,154,154,block_Testing,4,task_Testing,2,1,"","",10,9,"","",Block9,"","","","","","","","",J,Stim11,HR,65,"",0,J,green,10,2,85.56,"",822,"","","",""
590627,155,155,block_Testing,4,task_Testing,2,1,"","",11,9,"","",Block9,"","","","","","","","",K,Stim13,LR,11,"",0,K,red,13,2,86.11,"",822,"","","",""
590627,156,156,block_Testing,4,task_Testing,2,0,"","",12,9,"","",Block9,"","","","","","","","",J,Stim10,NR,79,"",0,K,blue,10,2,86.67,"",822,"","","",""
590627,157,157,block_Testing,4,task_Testing,2,1,"","",13,9,"","",Block9,"","","","","","","","",K,Stim13,HR,52,"",0,K,green,13,2,87.22,"",822,"","","",""
590627,158,158,block_Testing,4,task_Testing,2,0,"","",14,9,"","",Block9,"","","","","","","","",K,Stim12,HR,17,"",0,J,green,12,2,87.78,"",822,"","","",""
590627,159,159,block_Testing,4,task_Testing,2,0,"","",15,9,"","",Block9,"","","","","","","","",K,Stim9,NR,44,"",0,J,blue,9,2,88.33,"",822,"","","",""
590627,160,160,block_Testing,4,task_Testing,2,0,"","",16,9,"","",Block9,"","","","","","","","",J,Stim9,HR,8,"",0,K,green,9,2,88.89,"",822,"","","",""
590627,161,161,block_Testing,4,task_Testing,2,0,"","",17,9,"","",Block9,"","","","","","","","",K,Stim8,LR,54,"",0,J,red,8,2,89.44,"",822,"","","",""
590627,162,162,block_Testing,4,task_Testing,2,0,"","",18,9,"","",Block9,"","","","","","","","",K,Stim11,NR,22,"",0,J,blue,11,2,90,"",822,"","","",""
590627,163,163,block_Testing,4,task_Testing,2,0,"","",1,10,"","",Block10,"","","","","","","","",J,Stim11,LR,39,"",0,K,red,11,2,90.56,"",822,"","","",""
590627,164,164,block_Testing,4,task_Testing,2,0,"","",2,10,"","",Block10,"","","","","","","","",K,Stim13,LR,0,"",0,J,red,12,2,91.11,"",822,"","","",""
590627,165,165,block_Testing,4,task_Testing,2,0,"","",3,10,"","",Block10,"","","","","","","","",K,Stim8,LR,13,"",0,J,red,8,2,91.67,"",822,"","","",""
590627,166,166,block_Testing,4,task_Testing,2,0,"","",4,10,"","",Block10,"","","","","","","","",J,Stim11,HR,10,"",0,K,green,11,2,92.22,"",822,"","","",""
590627,167,167,block_Testing,4,task_Testing,2,1,"","",5,10,"","",Block10,"","","","","","","","",K,Stim12,NR,9,"",0,K,blue,12,2,92.78,"",822,"","","",""
590627,168,168,block_Testing,4,task_Testing,2,1,"","",6,10,"","",Block10,"","","","","","","","",J,Stim13,NR,14,"",0,J,blue,13,2,93.33,"",822,"","","",""
590627,169,169,block_Testing,4,task_Testing,2,1,"","",7,10,"","",Block10,"","","","","","","","",J,Stim16,NR,108,"",0,J,blue,11,2,93.89,"",822,"","","",""
590627,170,170,block_Testing,4,task_Testing,2,0,"","",8,10,"","",Block10,"","","","","","","","",K,Stim15,HR,57,"",0,J,green,10,2,94.44,"",822,"","","",""
590627,171,171,block_Testing,4,task_Testing,2,0,"","",9,10,"","",Block10,"","","","","","","","",J,Stim14,LR,35,"",0,K,red,13,2,95,"",822,"","","",""
590627,172,172,block_Testing,4,task_Testing,2,0,"","",10,10,"","",Block10,"","","","","","","","",J,Stim14,HR,72,"",0,K,green,13,2,95.56,"",822,"","","",""
590627,173,173,block_Testing,4,task_Testing,2,0,"","",11,10,"","",Block10,"","","","","","","","",K,Stim8,HR,28,"",0,J,green,8,2,96.11,"",822,"","","",""
590627,174,174,block_Testing,4,task_Testing,2,0,"","",12,10,"","",Block10,"","","","","","","","",J,Stim10,NR,6,"",0,K,blue,10,2,96.67,"",822,"","","",""
590627,175,175,block_Testing,4,task_Testing,2,0,"","",13,10,"","",Block10,"","","","","","","","",J,Stim10,HR,54,"",0,K,green,9,2,97.22,"",822,"","","",""
590627,176,176,block_Testing,4,task_Testing,2,1,"","",14,10,"","",Block10,"","","","","","","","",K,Stim9,LR,87,"",0,K,red,9,2,97.78,"",822,"","","",""
590627,177,177,block_Testing,4,task_Testing,2,0,"","",15,10,"","",Block10,"","","","","","","","",J,Stim8,NR,32,"",0,K,blue,8,2,98.33,"",822,"","","",""
590627,178,178,block_Testing,4,task_Testing,2,0,"","",16,10,"","",Block10,"","","","","","","","",K,Stim16,HR,116,"",0,J,green,12,2,98.89,"",822,"","","",""
590627,179,179,block_Testing,4,task_Testing,2,0,"","",17,10,"","",Block10,"","","","","","","","",K,PreISI1,NR,171,"",0,J,blue,9,2,99.44,"",822,"","","",""
590627,180,180,block_Testing,4,task_Testing,2,1,"","",18,10,"","",Block10,"","","","","","","","",J,PreISI1,LR,85,"",0,J,red,10,2,100,"",822,"","","",""
590627,1,1,block_End,5,task_Demog_End,1,"","",26,"",1,"","","","","","",this experiment is very mind game and sharp on brain this study is very very useful of everyone's...,"","","","","","","","",Male,"","","","","","","","","","","",""
