Rec_Session_Id,Trial_Nr,Trial_Id,Block_Name,Block_Nr,Task_Name,Task_Nr,ACC,ACC_Total_Prac,Age,BlkTrial_Nr,Condition_Id,Consent,Contact,copy_of_factor1_tg1_task2,Email,factor1_tg1_task2,Fdbck_Slow,Feedback,MatricNo,Name,PAYNOW,Recontact,RESP,RESP_Frame,Reward,RT_FromFramePress,Sex,SlowResp,Targ,TargCol,TargPos,Testing_BreakCount,Testing_Progress,TotalMoney,TotalPoints,TotalPoints_prac,Trial_Nr_prac,Trng_BreakCount,Trng_Progress
595482,1,1,block_TrngInstructions,1,task_Trng_Instructions,1,"","","","",1,"","","","","","","","","","","","","","","","","","","","","","","","","","","",""
595482,1,1,block_Practice,2,task_GetReady,1,"","","","",1,"","","","","","","","","","","","","","","","","","","","","","","","","","","",""
595482,1,1,block_Practice,2,task_Trng_Prac,2,1,0,"","",1,"","","","","",Slow!,"","","","","",K,PreISI2,Disallowed,559,"",1,K,red,10,"","","",0,0,"","",""
595482,2,2,block_Practice,2,task_Trng_Prac,2,1,0,"","",1,"","","","","",Slow!,"","","","","",J,PreISI2,Disallowed,564,"",2,J,blue,13,"","","",0,0,"","",""
595482,3,3,block_Practice,2,task_Trng_Prac,2,1,0,"","",1,"","","","","",Slow!,"","","","","",J,PreISI2,Disallowed,505,"",3,J,blue,12,"","","",0,0,"","",""
595482,4,4,block_Practice,2,task_Trng_Prac,2,1,0,"","",1,"","","","","",Slow!,"","","","","",K,PreISI2,Disallowed,83,"",4,K,red,8,"","","",0,0,"","",""
595482,5,5,block_Practice,2,task_Trng_Prac,2,1,1,"","",1,"","","","","","","","","","","",K,PreISI1,Disallowed,470,"",4,K,green,11,"","","",0,0,"","",""
595482,6,6,block_Practice,2,task_Trng_Prac,2,1,0,"","",1,"","","","","",Slow!,"","","","","",J,PreISI2,Disallowed,209,"",5,J,green,9,"","","",0,0,"","",""
595482,1,1,block_Practice,2,task_GetReady,1,"","","","",1,"","","","","","","","","","","","","","","","","","","","","","","","","","","",""
595482,1,1,block_Practice,2,task_Trng_Prac,2,1,1,"","",1,"","","","","","","","","","","",J,PreISI1,Disallowed,355,"",5,J,blue,13,"","","",0,0,"","",""
595482,2,2,block_Practice,2,task_Trng_Prac,2,1,2,"","",1,"","","","","","","","","","","",K,PreISI1,Disallowed,10,"",5,K,green,11,"","","",0,0,"","",""
595482,3,3,block_Practice,2,task_Trng_Prac,2,1,3,"","",1,"","","","","","","","","","","",K,PreISI1,Disallowed,135,"",5,K,red,10,"","","",0,0,"","",""
595482,4,4,block_Practice,2,task_Trng_Prac,2,0,0,"","",1,"","","","","",Slow!,"","","","","",K,PreISI2,Disallowed,222,"",6,J,blue,12,"","","",0,0,"","",""
595482,5,5,block_Practice,2,task_Trng_Prac,2,1,1,"","",1,"","","","","","","","","","","",J,Stim16,Disallowed,111,"",6,J,green,9,"","","",0,0,"","",""
595482,6,6,block_Practice,2,task_Trng_Prac,2,1,0,"","",1,"","","","","","","","","","","",K,Stim13,Disallowed,117,"",6,K,red,8,"","","",0,0,"","",""
595482,1,1,block_Practice,2,task_GetReady,1,"","","","",1,"","","","","","","","","","","","","","","","","","","","","","","","","","","",""
595482,1,1,block_Practice,2,task_Trng_Prac,2,1,1,"","",1,"","","","","","","","","","","",K,Stim15,Disallowed,68,"",6,K,red,10,"","","",0,0,"","",""
595482,2,2,block_Practice,2,task_Trng_Prac,2,0,1,"","",1,"","","","","","","","","","","",J,Stim16,Disallowed,106,"",6,K,green,11,"","","",0,0,"","",""
595482,3,3,block_Practice,2,task_Trng_Prac,2,1,2,"","",1,"","","","","","","","","","","",J,PreISI1,Disallowed,350,"",6,J,blue,13,"","","",0,0,"","",""
595482,4,4,block_Practice,2,task_Trng_Prac,2,1,3,"","",1,"","","","","","","","","","","",J,Stim14,Disallowed,41,"",6,J,green,9,"","","",0,0,"","",""
595482,5,5,block_Practice,2,task_Trng_Prac,2,1,4,"","",1,"","","","","","","","","","","",K,Stim14,Disallowed,26,"",6,K,red,8,"","","",0,0,"","",""
595482,6,6,block_Practice,2,task_Trng_Prac,2,1,0,"","",1,"","","","","",Slow!,"","","","","",J,PreISI2,Disallowed,425,"",7,J,blue,12,"","","",0,0,"","",""
595482,1,1,block_Practice,2,task_GetReady,1,"","","","",1,"","","","","","","","","","","","","","","","","","","","","","","","","","","",""
595482,1,1,block_Practice,2,task_Trng_Prac,2,1,1,"","",1,"","","","","","","","","","","",J,PreISI1,Disallowed,191,"",7,J,blue,13,"","","",0,0,"","",""
595482,2,2,block_Practice,2,task_Trng_Prac,2,1,2,"","",1,"","","","","","","","","","","",K,Stim14,Disallowed,1,"",7,K,red,8,"","","",0,0,"","",""
595482,3,3,block_Practice,2,task_Trng_Prac,2,1,3,"","",1,"","","","","","","","","","","",K,PreISI1,Disallowed,49,"",7,K,green,11,"","","",0,0,"","",""
595482,4,4,block_Practice,2,task_Trng_Prac,2,1,4,"","",1,"","","","","","","","","","","",K,Stim15,Disallowed,70,"",7,K,red,10,"","","",0,0,"","",""
595482,5,5,block_Practice,2,task_Trng_Prac,2,1,5,"","",1,"","","","","","","","","","","",J,PreISI1,Disallowed,6,"",7,J,blue,12,"","","",0,0,"","",""
595482,6,6,block_Practice,2,task_Trng_Prac,2,1,6,"","",1,"","","","","","","","","","","",J,Stim14,Disallowed,74,"",7,J,green,9,"","","",0,0,"","",""
595482,1,1,block_Trng,3,task_GetReady,1,"","","","",1,"","","","","","","","","","","","","","","","","","","","","","","","","","","",""
595482,1,1,block_Trng,3,task_Trng,2,1,"","",1,1,"","","","",Block1,"","","","","","",K,Stim15,HR,10,"",0,K,green,9,"","",0,10,"","",0,0.28
595482,2,2,block_Trng,3,task_Trng,2,1,"","",2,1,"","","","",Block1,"","","","","","",K,Stim16,HR,47,"",0,K,green,11,"","",0,20,"","",0,0.56
595482,3,3,block_Trng,3,task_Trng,2,1,"","",3,1,"","","","",Block1,"","","","","","",J,Stim15,LR,29,"",0,J,red,10,"","",0,22,"","",0,0.83
595482,4,4,block_Trng,3,task_Trng,2,1,"","",4,1,"","","","",Block1,Slow!,"","","","","",J,PreISI2,HR,435,"",1,J,green,10,"","",0,22,"","",0,1.11
595482,5,5,block_Trng,3,task_Trng,2,1,"","",5,1,"","","","",Block1,"","","","","","",K,Stim13,NR,80,"",0,K,blue,8,"","",0,22,"","",0,1.39
595482,6,6,block_Trng,3,task_Trng,2,1,"","",6,1,"","","","",Block1,"","","","","","",K,PreISI1,LR,221,"",0,K,red,13,"","",0,24,"","",0,1.67
595482,7,7,block_Trng,3,task_Trng,2,1,"","",7,1,"","","","",Block1,"","","","","","",J,Stim13,LR,63,"",0,J,red,8,"","",0,26,"","",0,1.94
595482,8,8,block_Trng,3,task_Trng,2,1,"","",8,1,"","","","",Block1,"","","","","","",J,PreISI1,HR,89,"",0,J,green,12,"","",0,36,"","",0,2.22
595482,9,9,block_Trng,3,task_Trng,2,1,"","",9,1,"","","","",Block1,"","","","","","",J,Stim13,HR,68,"",0,J,green,8,"","",0,46,"","",0,2.5
595482,10,10,block_Trng,3,task_Trng,2,1,"","",10,1,"","","","",Block1,"","","","","","",J,Stim14,NR,55,"",0,J,blue,9,"","",0,46,"","",0,2.78
595482,11,11,block_Trng,3,task_Trng,2,1,"","",11,1,"","","","",Block1,"","","","","","",J,Stim16,NR,110,"",0,J,blue,11,"","",0,46,"","",0,3.06
595482,12,12,block_Trng,3,task_Trng,2,1,"","",12,1,"","","","",Block1,"","","","","","",J,PreISI1,LR,113,"",0,J,red,12,"","",0,48,"","",0,3.33
595482,13,13,block_Trng,3,task_Trng,2,0,"","",13,1,"","","","",Block1,"","","","","","",J,Stim15,LR,44,"",0,K,red,9,"","",0,48,"","",0,3.61
595482,14,14,block_Trng,3,task_Trng,2,1,"","",14,1,"","","","",Block1,"","","","","","",K,Stim16,NR,10,"",0,K,blue,10,"","",0,48,"","",0,3.89
595482,15,15,block_Trng,3,task_Trng,2,1,"","",15,1,"","","","",Block1,"","","","","","",K,PreISI1,HR,433,"",0,K,green,13,"","",0,58,"","",0,4.17
595482,16,16,block_Trng,3,task_Trng,2,1,"","",16,1,"","","","",Block1,"","","","","","",K,PreISI1,NR,136,"",0,K,blue,12,"","",0,58,"","",0,4.44
595482,17,17,block_Trng,3,task_Trng,2,1,"","",17,1,"","","","",Block1,"","","","","","",K,Stim16,LR,74,"",0,K,red,11,"","",0,60,"","",0,4.72
595482,18,18,block_Trng,3,task_Trng,2,1,"","",18,1,"","","","",Block1,"","","","","","",J,PreISI1,NR,231,"",0,J,blue,13,"","",0,60,"","",0,5
595482,19,19,block_Trng,3,task_Trng,2,1,"","",1,2,"","","","",Block2,"","","","","","",J,PreISI1,NR,12,"",0,J,blue,11,"","",0,60,"","",0,5.28
595482,20,20,block_Trng,3,task_Trng,2,1,"","",2,2,"","","","",Block2,"","","","","","",J,Stim15,HR,106,"",0,J,green,10,"","",0,70,"","",0,5.56
595482,21,21,block_Trng,3,task_Trng,2,1,"","",3,2,"","","","",Block2,"","","","","","",K,Stim13,NR,77,"",0,K,blue,8,"","",0,70,"","",0,5.83
595482,22,22,block_Trng,3,task_Trng,2,1,"","",4,2,"","","","",Block2,"","","","","","",K,Stim15,HR,83,"",0,K,green,11,"","",0,80,"","",0,6.11
595482,23,23,block_Trng,3,task_Trng,2,1,"","",5,2,"","","","",Block2,"","","","","","",K,Stim16,NR,55,"",0,K,blue,10,"","",0,80,"","",0,6.39
595482,24,24,block_Trng,3,task_Trng,2,1,"","",6,2,"","","","",Block2,"","","","","","",K,PreISI1,LR,324,"",0,K,red,13,"","",0,82,"","",0,6.67
595482,25,25,block_Trng,3,task_Trng,2,1,"","",7,2,"","","","",Block2,"","","","","","",K,PreISI1,NR,270,"",0,K,blue,12,"","",0,82,"","",0,6.94
595482,26,26,block_Trng,3,task_Trng,2,1,"","",8,2,"","","","",Block2,"","","","","","",J,Stim14,LR,8,"",0,J,red,8,"","",0,84,"","",0,7.22
595482,27,27,block_Trng,3,task_Trng,2,1,"","",9,2,"","","","",Block2,"","","","","","",J,Stim16,LR,8,"",0,J,red,10,"","",0,86,"","",0,7.5
595482,28,28,block_Trng,3,task_Trng,2,1,"","",10,2,"","","","",Block2,"","","","","","",J,PreISI1,LR,129,"",0,J,red,12,"","",0,88,"","",0,7.78
595482,29,29,block_Trng,3,task_Trng,2,1,"","",11,2,"","","","",Block2,"","","","","","",K,Stim14,HR,88,"",0,K,green,9,"","",0,98,"","",0,8.06
595482,30,30,block_Trng,3,task_Trng,2,1,"","",12,2,"","","","",Block2,"","","","","","",K,Stim14,LR,102,"",0,K,red,9,"","",0,100,"","",0,8.33
595482,31,31,block_Trng,3,task_Trng,2,1,"","",13,2,"","","","",Block2,"","","","","","",J,PreISI1,HR,45,"",0,J,green,12,"","",0,110,"","",0,8.61
595482,32,32,block_Trng,3,task_Trng,2,1,"","",14,2,"","","","",Block2,"","","","","","",K,PreISI1,LR,191,"",0,K,red,11,"","",0,112,"","",0,8.89
595482,33,33,block_Trng,3,task_Trng,2,1,"","",15,2,"","","","",Block2,"","","","","","",J,Stim15,NR,2,"",0,J,blue,9,"","",0,112,"","",0,9.17
595482,34,34,block_Trng,3,task_Trng,2,1,"","",16,2,"","","","",Block2,"","","","","","",K,PreISI1,HR,123,"",0,K,green,13,"","",0,122,"","",0,9.44
595482,35,35,block_Trng,3,task_Trng,2,1,"","",17,2,"","","","",Block2,"","","","","","",J,Stim13,HR,44,"",0,J,green,8,"","",0,132,"","",0,9.72
595482,36,36,block_Trng,3,task_Trng,2,0,"","",18,2,"","","","",Block2,"","","","","","",K,PreISI1,NR,143,"",0,J,blue,13,"","",0,132,"","",0,10
595482,37,37,block_Trng,3,task_Trng,2,1,"","",1,3,"","","","",Block3,"","","","","","",J,PreISI1,LR,122,"",0,J,red,12,"","",0,134,"","",0,10.28
595482,38,38,block_Trng,3,task_Trng,2,1,"","",2,3,"","","","",Block3,"","","","","","",J,Stim13,HR,102,"",0,J,green,8,"","",0,144,"","",0,10.56
595482,39,39,block_Trng,3,task_Trng,2,1,"","",3,3,"","","","",Block3,"","","","","","",K,Stim16,HR,8,"",0,K,green,11,"","",0,154,"","",0,10.83
595482,40,40,block_Trng,3,task_Trng,2,1,"","",4,3,"","","","",Block3,"","","","","","",K,PreISI1,HR,257,"",0,K,green,13,"","",0,164,"","",0,11.11
595482,41,41,block_Trng,3,task_Trng,2,1,"","",5,3,"","","","",Block3,"","","","","","",J,Stim14,NR,31,"",0,J,blue,9,"","",0,164,"","",0,11.39
595482,42,42,block_Trng,3,task_Trng,2,1,"","",6,3,"","","","",Block3,"","","","","","",K,PreISI1,LR,65,"",0,K,red,11,"","",0,166,"","",0,11.67
595482,43,43,block_Trng,3,task_Trng,2,1,"","",7,3,"","","","",Block3,"","","","","","",J,PreISI1,HR,278,"",0,J,green,12,"","",0,176,"","",0,11.94
595482,44,44,block_Trng,3,task_Trng,2,1,"","",8,3,"","","","",Block3,"","","","","","",K,Stim15,NR,93,"",0,K,blue,10,"","",0,176,"","",0,12.22
595482,45,45,block_Trng,3,task_Trng,2,1,"","",9,3,"","","","",Block3,"","","","","","",K,PreISI1,LR,149,"",0,K,red,13,"","",0,178,"","",0,12.5
595482,46,46,block_Trng,3,task_Trng,2,1,"","",10,3,"","","","",Block3,"","","","","","",K,Stim13,NR,85,"",0,K,blue,8,"","",0,178,"","",0,12.78
595482,47,47,block_Trng,3,task_Trng,2,1,"","",11,3,"","","","",Block3,"","","","","","",J,Stim15,HR,41,"",0,J,green,10,"","",0,188,"","",0,13.06
595482,48,48,block_Trng,3,task_Trng,2,1,"","",12,3,"","","","",Block3,"","","","","","",K,PreISI1,NR,31,"",0,K,blue,12,"","",0,188,"","",0,13.33
595482,49,49,block_Trng,3,task_Trng,2,1,"","",13,3,"","","","",Block3,"","","","","","",J,Stim16,NR,24,"",0,J,blue,11,"","",0,188,"","",0,13.61
595482,50,50,block_Trng,3,task_Trng,2,1,"","",14,3,"","","","",Block3,"","","","","","",K,Stim14,HR,40,"",0,K,green,9,"","",0,198,"","",0,13.89
595482,51,51,block_Trng,3,task_Trng,2,1,"","",15,3,"","","","",Block3,"","","","","","",K,Stim14,LR,63,"",0,K,red,9,"","",0,200,"","",0,14.17
595482,52,52,block_Trng,3,task_Trng,2,1,"","",16,3,"","","","",Block3,"","","","","","",J,Stim16,LR,16,"",0,J,red,10,"","",0,202,"","",0,14.44
595482,53,53,block_Trng,3,task_Trng,2,1,"","",17,3,"","","","",Block3,"","","","","","",J,Stim13,LR,64,"",0,J,red,8,"","",0,204,"","",0,14.72
595482,54,54,block_Trng,3,task_Trng,2,1,"","",18,3,"","","","",Block3,"","","","","","",J,PreISI1,NR,297,"",0,J,blue,13,"","",0,204,"","",0,15
595482,55,55,block_Trng,3,task_Trng,2,1,"","",1,4,"","","","",Block4,"","","","","","",J,Stim15,NR,2,"",0,J,blue,9,"","",0,204,"","",0,15.28
595482,56,56,block_Trng,3,task_Trng,2,1,"","",2,4,"","","","",Block4,"","","","","","",K,PreISI1,NR,69,"",0,K,blue,12,"","",0,204,"","",0,15.56
595482,57,57,block_Trng,3,task_Trng,2,1,"","",3,4,"","","","",Block4,"","","","","","",K,Stim15,HR,91,"",0,K,green,9,"","",0,214,"","",0,15.83
595482,58,58,block_Trng,3,task_Trng,2,1,"","",4,4,"","","","",Block4,"","","","","","",J,PreISI1,NR,126,"",0,J,blue,13,"","",0,214,"","",0,16.11
595482,59,59,block_Trng,3,task_Trng,2,1,"","",5,4,"","","","",Block4,"","","","","","",J,Stim13,HR,64,"",0,J,green,8,"","",0,224,"","",0,16.39
595482,60,60,block_Trng,3,task_Trng,2,1,"","",6,4,"","","","",Block4,"","","","","","",J,PreISI1,LR,198,"",0,J,red,12,"","",0,226,"","",0,16.67
595482,61,61,block_Trng,3,task_Trng,2,1,"","",7,4,"","","","",Block4,"","","","","","",K,PreISI1,LR,181,"",0,K,red,13,"","",0,228,"","",0,16.94
595482,62,62,block_Trng,3,task_Trng,2,1,"","",8,4,"","","","",Block4,"","","","","","",J,PreISI1,HR,82,"",0,J,green,12,"","",0,238,"","",0,17.22
595482,63,63,block_Trng,3,task_Trng,2,1,"","",9,4,"","","","",Block4,"","","","","","",K,Stim15,NR,71,"",0,K,blue,10,"","",0,238,"","",0,17.5
595482,64,64,block_Trng,3,task_Trng,2,1,"","",10,4,"","","","",Block4,"","","","","","",K,PreISI1,HR,319,"",0,K,green,13,"","",0,248,"","",0,17.78
595482,65,65,block_Trng,3,task_Trng,2,1,"","",11,4,"","","","",Block4,"","","","","","",J,Stim13,LR,28,"",0,J,red,8,"","",0,250,"","",0,18.06
595482,66,66,block_Trng,3,task_Trng,2,1,"","",12,4,"","","","",Block4,"","","","","","",J,PreISI1,NR,6,"",0,J,blue,11,"","",0,250,"","",0,18.33
595482,67,67,block_Trng,3,task_Trng,2,1,"","",13,4,"","","","",Block4,"","","","","","",K,Stim15,LR,12,"",0,K,red,9,"","",0,252,"","",0,18.61
595482,68,68,block_Trng,3,task_Trng,2,1,"","",14,4,"","","","",Block4,Slow!,"","","","","",J,PreISI2,LR,366,"",1,J,red,10,"","",0,252,"","",0,18.89
595482,69,69,block_Trng,3,task_Trng,2,0,"","",15,4,"","","","",Block4,"","","","","","",K,PreISI1,HR,116,"",0,J,green,10,"","",0,252,"","",0,19.17
595482,70,70,block_Trng,3,task_Trng,2,1,"","",16,4,"","","","",Block4,"","","","","","",K,Stim14,NR,23,"",0,K,blue,8,"","",0,252,"","",0,19.44
595482,71,71,block_Trng,3,task_Trng,2,1,"","",17,4,"","","","",Block4,"","","","","","",K,PreISI1,HR,40,"",0,K,green,11,"","",0,262,"","",0,19.72
595482,72,72,block_Trng,3,task_Trng,2,1,"","",18,4,"","","","",Block4,"","","","","","",K,PreISI1,LR,183,"",0,K,red,11,"","",0.9,264,"","",1,20
595482,73,73,block_Trng,3,task_Trng,2,1,"","",1,5,"","","","",Block5,"","","","","","",K,PreISI1,HR,362,"",0,K,green,13,"","",0.9,274,"","",1,20.28
595482,74,74,block_Trng,3,task_Trng,2,1,"","",2,5,"","","","",Block5,"","","","","","",K,Stim14,LR,74,"",0,K,red,9,"","",0.9,276,"","",1,20.56
595482,75,75,block_Trng,3,task_Trng,2,1,"","",3,5,"","","","",Block5,"","","","","","",K,PreISI1,HR,6,"",0,K,green,11,"","",0.9,286,"","",1,20.83
595482,76,76,block_Trng,3,task_Trng,2,1,"","",4,5,"","","","",Block5,"","","","","","",K,Stim13,NR,119,"",0,K,blue,8,"","",0.9,286,"","",1,21.11
595482,77,77,block_Trng,3,task_Trng,2,1,"","",5,5,"","","","",Block5,"","","","","","",J,Stim16,NR,95,"",0,J,blue,11,"","",0.9,286,"","",1,21.39
595482,78,78,block_Trng,3,task_Trng,2,1,"","",6,5,"","","","",Block5,"","","","","","",J,Stim16,LR,90,"",0,J,red,10,"","",0.9,288,"","",1,21.67
595482,79,79,block_Trng,3,task_Trng,2,1,"","",7,5,"","","","",Block5,"","","","","","",J,Stim14,NR,3,"",0,J,blue,9,"","",0.9,288,"","",1,21.94
595482,80,80,block_Trng,3,task_Trng,2,1,"","",8,5,"","","","",Block5,"","","","","","",J,PreISI1,LR,71,"",0,J,red,12,"","",0.9,290,"","",1,22.22
595482,81,81,block_Trng,3,task_Trng,2,1,"","",9,5,"","","","",Block5,"","","","","","",J,Stim13,HR,62,"",0,J,green,8,"","",0.9,300,"","",1,22.5
595482,82,82,block_Trng,3,task_Trng,2,1,"","",10,5,"","","","",Block5,"","","","","","",J,Stim14,LR,10,"",0,J,red,8,"","",0.9,302,"","",1,22.78
595482,83,83,block_Trng,3,task_Trng,2,1,"","",11,5,"","","","",Block5,"","","","","","",K,PreISI1,LR,149,"",0,K,red,13,"","",0.9,304,"","",1,23.06
595482,84,84,block_Trng,3,task_Trng,2,1,"","",12,5,"","","","",Block5,"","","","","","",J,PreISI1,NR,242,"",0,J,blue,13,"","",0.9,304,"","",1,23.33
595482,85,85,block_Trng,3,task_Trng,2,1,"","",13,5,"","","","",Block5,"","","","","","",K,Stim15,HR,90,"",0,K,green,9,"","",0.9,314,"","",1,23.61
595482,86,86,block_Trng,3,task_Trng,2,1,"","",14,5,"","","","",Block5,"","","","","","",K,Stim16,LR,30,"",0,K,red,11,"","",0.9,316,"","",1,23.89
595482,87,87,block_Trng,3,task_Trng,2,1,"","",15,5,"","","","",Block5,"","","","","","",K,PreISI1,NR,68,"",0,K,blue,12,"","",0.9,316,"","",1,24.17
595482,88,88,block_Trng,3,task_Trng,2,1,"","",16,5,"","","","",Block5,"","","","","","",J,Stim16,HR,39,"",0,J,green,10,"","",0.9,326,"","",1,24.44
595482,89,89,block_Trng,3,task_Trng,2,1,"","",17,5,"","","","",Block5,"","","","","","",J,PreISI1,HR,96,"",0,J,green,12,"","",0.9,336,"","",1,24.72
595482,90,90,block_Trng,3,task_Trng,2,1,"","",18,5,"","","","",Block5,"","","","","","",K,PreISI1,NR,25,"",0,K,blue,10,"","",0.9,336,"","",1,25
595482,91,91,block_Trng,3,task_Trng,2,1,"","",1,6,"","","","",Block6,"","","","","","",J,PreISI1,NR,107,"",0,J,blue,11,"","",0.9,336,"","",1,25.28
595482,92,92,block_Trng,3,task_Trng,2,1,"","",2,6,"","","","",Block6,"","","","","","",J,Stim14,NR,106,"",0,J,blue,9,"","",0.9,336,"","",1,25.56
595482,93,93,block_Trng,3,task_Trng,2,1,"","",3,6,"","","","",Block6,"","","","","","",J,Stim13,LR,121,"",0,J,red,8,"","",0.9,338,"","",1,25.83
595482,94,94,block_Trng,3,task_Trng,2,1,"","",4,6,"","","","",Block6,"","","","","","",J,Stim14,LR,117,"",0,J,red,10,"","",0.9,340,"","",1,26.11
595482,95,95,block_Trng,3,task_Trng,2,1,"","",5,6,"","","","",Block6,"","","","","","",K,Stim16,LR,114,"",0,K,red,11,"","",0.9,342,"","",1,26.39
595482,96,96,block_Trng,3,task_Trng,2,1,"","",6,6,"","","","",Block6,"","","","","","",K,Stim14,NR,62,"",0,K,blue,8,"","",0.9,342,"","",1,26.67
595482,97,97,block_Trng,3,task_Trng,2,1,"","",7,6,"","","","",Block6,"","","","","","",K,Stim15,LR,6,"",0,K,red,9,"","",0.9,344,"","",1,26.94
595482,98,98,block_Trng,3,task_Trng,2,1,"","",8,6,"","","","",Block6,"","","","","","",J,PreISI1,LR,112,"",0,J,red,12,"","",0.9,346,"","",1,27.22
595482,99,99,block_Trng,3,task_Trng,2,1,"","",9,6,"","","","",Block6,"","","","","","",J,Stim16,HR,23,"",0,J,green,10,"","",0.9,356,"","",1,27.5
595482,100,100,block_Trng,3,task_Trng,2,1,"","",10,6,"","","","",Block6,"","","","","","",K,PreISI1,HR,263,"",0,K,green,13,"","",0.9,366,"","",1,27.78
595482,101,101,block_Trng,3,task_Trng,2,1,"","",11,6,"","","","",Block6,"","","","","","",J,PreISI1,HR,94,"",0,J,green,12,"","",0.9,376,"","",1,28.06
595482,102,102,block_Trng,3,task_Trng,2,1,"","",12,6,"","","","",Block6,"","","","","","",K,PreISI1,NR,32,"",0,K,blue,12,"","",0.9,376,"","",1,28.33
595482,103,103,block_Trng,3,task_Trng,2,1,"","",13,6,"","","","",Block6,"","","","","","",J,PreISI1,NR,196,"",0,J,blue,13,"","",0.9,376,"","",1,28.61
595482,104,104,block_Trng,3,task_Trng,2,1,"","",14,6,"","","","",Block6,"","","","","","",K,PreISI1,LR,166,"",0,K,red,13,"","",0.9,378,"","",1,28.89
595482,105,105,block_Trng,3,task_Trng,2,1,"","",15,6,"","","","",Block6,"","","","","","",K,Stim16,NR,45,"",0,K,blue,10,"","",0.9,378,"","",1,29.17
595482,106,106,block_Trng,3,task_Trng,2,1,"","",16,6,"","","","",Block6,"","","","","","",K,Stim14,HR,97,"",0,K,green,9,"","",0.9,388,"","",1,29.44
595482,107,107,block_Trng,3,task_Trng,2,0,"","",17,6,"","","","",Block6,"","","","","","",J,Stim16,HR,103,"",0,K,green,11,"","",0.9,388,"","",1,29.72
595482,108,108,block_Trng,3,task_Trng,2,1,"","",18,6,"","","","",Block6,"","","","","","",J,Stim14,HR,10,"",0,J,green,8,"","",0.9,398,"","",1,30
595482,109,109,block_Trng,3,task_Trng,2,1,"","",1,7,"","","","",Block7,"","","","","","",K,Stim14,HR,64,"",0,K,green,9,"","",0.9,408,"","",1,30.28
595482,110,110,block_Trng,3,task_Trng,2,1,"","",2,7,"","","","",Block7,"","","","","","",J,PreISI1,NR,217,"",0,J,blue,13,"","",0.9,408,"","",1,30.56
595482,111,111,block_Trng,3,task_Trng,2,1,"","",3,7,"","","","",Block7,"","","","","","",J,Stim13,LR,117,"",0,J,red,8,"","",0.9,410,"","",1,30.83
595482,112,112,block_Trng,3,task_Trng,2,1,"","",4,7,"","","","",Block7,"","","","","","",J,PreISI1,LR,118,"",0,J,red,12,"","",0.9,412,"","",1,31.11
595482,113,113,block_Trng,3,task_Trng,2,1,"","",5,7,"","","","",Block7,"","","","","","",J,Stim13,HR,102,"",0,J,green,8,"","",0.9,422,"","",1,31.39
595482,114,114,block_Trng,3,task_Trng,2,1,"","",6,7,"","","","",Block7,"","","","","","",J,PreISI1,HR,56,"",0,J,green,12,"","",0.9,432,"","",1,31.67
595482,115,115,block_Trng,3,task_Trng,2,1,"","",7,7,"","","","",Block7,"","","","","","",J,PreISI1,NR,93,"",0,J,blue,11,"","",0.9,432,"","",1,31.94
595482,116,116,block_Trng,3,task_Trng,2,1,"","",8,7,"","","","",Block7,"","","","","","",J,Stim14,NR,69,"",0,J,blue,9,"","",0.9,432,"","",1,32.22
595482,117,117,block_Trng,3,task_Trng,2,1,"","",9,7,"","","","",Block7,"","","","","","",J,Stim15,LR,101,"",0,J,red,10,"","",0.9,434,"","",1,32.5
595482,118,118,block_Trng,3,task_Trng,2,1,"","",10,7,"","","","",Block7,"","","","","","",K,PreISI1,LR,161,"",0,K,red,13,"","",0.9,436,"","",1,32.78
595482,119,119,block_Trng,3,task_Trng,2,1,"","",11,7,"","","","",Block7,"","","","","","",J,Stim15,HR,83,"",0,J,green,10,"","",0.9,446,"","",1,33.06
595482,120,120,block_Trng,3,task_Trng,2,1,"","",12,7,"","","","",Block7,"","","","","","",K,PreISI1,HR,221,"",0,K,green,13,"","",0.9,456,"","",1,33.33
595482,121,121,block_Trng,3,task_Trng,2,1,"","",13,7,"","","","",Block7,"","","","","","",K,Stim14,NR,35,"",0,K,blue,8,"","",0.9,456,"","",1,33.61
595482,122,122,block_Trng,3,task_Trng,2,1,"","",14,7,"","","","",Block7,"","","","","","",K,Stim16,NR,52,"",0,K,blue,10,"","",0.9,456,"","",1,33.89
595482,123,123,block_Trng,3,task_Trng,2,1,"","",15,7,"","","","",Block7,"","","","","","",K,PreISI1,HR,7,"",0,K,green,11,"","",0.9,466,"","",1,34.17
595482,124,124,block_Trng,3,task_Trng,2,1,"","",16,7,"","","","",Block7,"","","","","","",K,PreISI1,LR,3,"",0,K,red,11,"","",0.9,468,"","",1,34.44
595482,125,125,block_Trng,3,task_Trng,2,1,"","",17,7,"","","","",Block7,"","","","","","",K,Stim14,LR,111,"",0,K,red,9,"","",0.9,470,"","",1,34.72
595482,126,126,block_Trng,3,task_Trng,2,1,"","",18,7,"","","","",Block7,"","","","","","",K,PreISI1,NR,129,"",0,K,blue,12,"","",0.9,470,"","",1,35
595482,127,127,block_Trng,3,task_Trng,2,1,"","",1,8,"","","","",Block8,"","","","","","",J,PreISI1,NR,175,"",0,J,blue,13,"","",0.9,470,"","",1,35.28
595482,128,128,block_Trng,3,task_Trng,2,1,"","",2,8,"","","","",Block8,"","","","","","",K,Stim14,NR,111,"",0,K,blue,10,"","",0.9,470,"","",1,35.56
595482,129,129,block_Trng,3,task_Trng,2,1,"","",3,8,"","","","",Block8,"","","","","","",K,PreISI1,HR,11,"",0,K,green,11,"","",0.9,480,"","",1,35.83
595482,130,130,block_Trng,3,task_Trng,2,1,"","",4,8,"","","","",Block8,"","","","","","",J,PreISI1,LR,73,"",0,J,red,12,"","",0.9,482,"","",1,36.11
595482,131,131,block_Trng,3,task_Trng,2,1,"","",5,8,"","","","",Block8,"","","","","","",K,PreISI1,LR,13,"",0,K,red,11,"","",0.9,484,"","",1,36.39
595482,132,132,block_Trng,3,task_Trng,2,1,"","",6,8,"","","","",Block8,"","","","","","",J,PreISI1,HR,193,"",0,J,green,12,"","",0.9,494,"","",1,36.67
595482,133,133,block_Trng,3,task_Trng,2,1,"","",7,8,"","","","",Block8,"","","","","","",K,Stim13,NR,110,"",0,K,blue,8,"","",0.9,494,"","",1,36.94
595482,134,134,block_Trng,3,task_Trng,2,1,"","",8,8,"","","","",Block8,"","","","","","",J,Stim16,LR,1,"",0,J,red,10,"","",0.9,496,"","",1,37.22
595482,135,135,block_Trng,3,task_Trng,2,1,"","",9,8,"","","","",Block8,"","","","","","",J,Stim14,HR,16,"",0,J,green,8,"","",0.9,506,"","",1,37.5
595482,136,136,block_Trng,3,task_Trng,2,1,"","",10,8,"","","","",Block8,"","","","","","",K,PreISI1,NR,85,"",0,K,blue,12,"","",0.9,506,"","",1,37.78
595482,137,137,block_Trng,3,task_Trng,2,1,"","",11,8,"","","","",Block8,"","","","","","",K,Stim15,HR,12,"",0,K,green,9,"","",0.9,516,"","",1,38.06
595482,138,138,block_Trng,3,task_Trng,2,1,"","",12,8,"","","","",Block8,"","","","","","",K,PreISI1,HR,250,"",0,K,green,13,"","",0.9,526,"","",1,38.33
595482,139,139,block_Trng,3,task_Trng,2,1,"","",13,8,"","","","",Block8,"","","","","","",J,Stim14,LR,22,"",0,J,red,8,"","",0.9,528,"","",1,38.61
595482,140,140,block_Trng,3,task_Trng,2,1,"","",14,8,"","","","",Block8,"","","","","","",J,Stim16,HR,53,"",0,J,green,10,"","",0.9,538,"","",1,38.89
595482,141,141,block_Trng,3,task_Trng,2,1,"","",15,8,"","","","",Block8,"","","","","","",K,PreISI1,LR,227,"",0,K,red,13,"","",0.9,540,"","",1,39.17
595482,142,142,block_Trng,3,task_Trng,2,1,"","",16,8,"","","","",Block8,"","","","","","",K,Stim15,LR,14,"",0,K,red,9,"","",0.9,542,"","",1,39.44
595482,143,143,block_Trng,3,task_Trng,2,1,"","",17,8,"","","","",Block8,"","","","","","",J,Stim14,NR,109,"",0,J,blue,9,"","",0.9,542,"","",1,39.72
595482,144,144,block_Trng,3,task_Trng,2,1,"","",18,8,"","","","",Block8,"","","","","","",J,PreISI1,NR,4,"",0,J,blue,11,"","",1.84,542,"","",2,40
595482,145,145,block_Trng,3,task_Trng,2,1,"","",1,9,"","","","",Block9,"","","","","","",K,PreISI1,LR,61,"",0,K,red,11,"","",1.84,544,"","",2,40.28
595482,146,146,block_Trng,3,task_Trng,2,1,"","",2,9,"","","","",Block9,"","","","","","",J,Stim14,LR,53,"",0,J,red,8,"","",1.84,546,"","",2,40.56
595482,147,147,block_Trng,3,task_Trng,2,1,"","",3,9,"","","","",Block9,"","","","","","",K,PreISI1,LR,237,"",0,K,red,13,"","",1.84,548,"","",2,40.83
595482,148,148,block_Trng,3,task_Trng,2,1,"","",4,9,"","","","",Block9,"","","","","","",J,Stim16,NR,95,"",0,J,blue,11,"","",1.84,548,"","",2,41.11
595482,149,149,block_Trng,3,task_Trng,2,1,"","",5,9,"","","","",Block9,"","","","","","",J,PreISI1,NR,288,"",0,J,blue,13,"","",1.84,548,"","",2,41.39
595482,150,150,block_Trng,3,task_Trng,2,1,"","",6,9,"","","","",Block9,"","","","","","",J,Stim15,HR,22,"",0,J,green,10,"","",1.84,558,"","",2,41.67
595482,151,151,block_Trng,3,task_Trng,2,0,"","",7,9,"","","","",Block9,"","","","","","",K,Stim16,LR,121,"",0,J,red,10,"","",1.84,558,"","",2,41.94
595482,152,152,block_Trng,3,task_Trng,2,1,"","",8,9,"","","","",Block9,"","","","","","",K,Stim14,HR,35,"",0,K,green,9,"","",1.84,568,"","",2,42.22
595482,153,153,block_Trng,3,task_Trng,2,1,"","",9,9,"","","","",Block9,"","","","","","",J,PreISI1,LR,117,"",0,J,red,12,"","",1.84,570,"","",2,42.5
595482,154,154,block_Trng,3,task_Trng,2,1,"","",10,9,"","","","",Block9,"","","","","","",J,PreISI1,HR,79,"",0,J,green,12,"","",1.84,580,"","",2,42.78
595482,155,155,block_Trng,3,task_Trng,2,1,"","",11,9,"","","","",Block9,"","","","","","",J,Stim13,HR,92,"",0,J,green,8,"","",1.84,590,"","",2,43.06
595482,156,156,block_Trng,3,task_Trng,2,1,"","",12,9,"","","","",Block9,"","","","","","",K,Stim15,NR,99,"",0,K,blue,10,"","",1.84,590,"","",2,43.33
595482,157,157,block_Trng,3,task_Trng,2,1,"","",13,9,"","","","",Block9,"","","","","","",K,Stim16,HR,59,"",0,K,green,11,"","",1.84,600,"","",2,43.61
595482,158,158,block_Trng,3,task_Trng,2,1,"","",14,9,"","","","",Block9,"","","","","","",K,PreISI1,HR,280,"",0,K,green,13,"","",1.84,610,"","",2,43.89
595482,159,159,block_Trng,3,task_Trng,2,1,"","",15,9,"","","","",Block9,"","","","","","",K,Stim15,LR,6,"",0,K,red,9,"","",1.84,612,"","",2,44.17
595482,160,160,block_Trng,3,task_Trng,2,1,"","",16,9,"","","","",Block9,"","","","","","",K,Stim14,NR,31,"",0,K,blue,8,"","",1.84,612,"","",2,44.44
595482,161,161,block_Trng,3,task_Trng,2,1,"","",17,9,"","","","",Block9,"","","","","","",K,PreISI1,NR,126,"",0,K,blue,12,"","",1.84,612,"","",2,44.72
595482,162,162,block_Trng,3,task_Trng,2,1,"","",18,9,"","","","",Block9,"","","","","","",J,Stim14,NR,83,"",0,J,blue,9,"","",1.84,612,"","",2,45
595482,163,163,block_Trng,3,task_Trng,2,1,"","",1,10,"","","","",Block10,"","","","","","",J,PreISI1,NR,5,"",0,J,blue,11,"","",1.84,612,"","",2,45.28
595482,164,164,block_Trng,3,task_Trng,2,1,"","",2,10,"","","","",Block10,"","","","","","",K,Stim15,HR,28,"",0,K,green,9,"","",1.84,622,"","",2,45.56
595482,165,165,block_Trng,3,task_Trng,2,1,"","",3,10,"","","","",Block10,"","","","","","",J,Stim15,HR,16,"",0,J,green,10,"","",1.84,632,"","",2,45.83
595482,166,166,block_Trng,3,task_Trng,2,1,"","",4,10,"","","","",Block10,"","","","","","",K,Stim16,HR,98,"",0,K,green,11,"","",1.84,642,"","",2,46.11
595482,167,167,block_Trng,3,task_Trng,2,1,"","",5,10,"","","","",Block10,"","","","","","",J,Stim13,HR,69,"",0,J,green,8,"","",1.84,652,"","",2,46.39
595482,168,168,block_Trng,3,task_Trng,2,1,"","",6,10,"","","","",Block10,"","","","","","",J,PreISI1,HR,77,"",0,J,green,12,"","",1.84,662,"","",2,46.67
595482,169,169,block_Trng,3,task_Trng,2,1,"","",7,10,"","","","",Block10,"","","","","","",K,Stim16,NR,30,"",0,K,blue,10,"","",1.84,662,"","",2,46.94
595482,170,170,block_Trng,3,task_Trng,2,1,"","",8,10,"","","","",Block10,"","","","","","",J,Stim14,NR,47,"",0,J,blue,9,"","",1.84,662,"","",2,47.22
595482,171,171,block_Trng,3,task_Trng,2,1,"","",9,10,"","","","",Block10,"","","","","","",K,PreISI1,HR,164,"",0,K,green,13,"","",1.84,672,"","",2,47.5
595482,172,172,block_Trng,3,task_Trng,2,1,"","",10,10,"","","","",Block10,"","","","","","",K,Stim16,LR,98,"",0,K,red,11,"","",1.84,674,"","",2,47.78
595482,173,173,block_Trng,3,task_Trng,2,1,"","",11,10,"","","","",Block10,"","","","","","",K,PreISI1,NR,104,"",0,K,blue,12,"","",1.84,674,"","",2,48.06
595482,174,174,block_Trng,3,task_Trng,2,1,"","",12,10,"","","","",Block10,"","","","","","",K,Stim14,NR,87,"",0,K,blue,8,"","",1.84,674,"","",2,48.33
595482,175,175,block_Trng,3,task_Trng,2,1,"","",13,10,"","","","",Block10,"","","","","","",J,PreISI1,NR,298,"",0,J,blue,13,"","",1.84,674,"","",2,48.61
595482,176,176,block_Trng,3,task_Trng,2,1,"","",14,10,"","","","",Block10,"","","","","","",J,PreISI1,LR,261,"",0,J,red,12,"","",1.84,676,"","",2,48.89
595482,177,177,block_Trng,3,task_Trng,2,1,"","",15,10,"","","","",Block10,"","","","","","",K,Stim14,LR,33,"",0,K,red,9,"","",1.84,678,"","",2,49.17
595482,178,178,block_Trng,3,task_Trng,2,1,"","",16,10,"","","","",Block10,"","","","","","",K,PreISI1,LR,211,"",0,K,red,13,"","",1.84,680,"","",2,49.44
595482,179,179,block_Trng,3,task_Trng,2,1,"","",17,10,"","","","",Block10,"","","","","","",J,Stim13,LR,95,"",0,J,red,8,"","",1.84,682,"","",2,49.72
595482,180,180,block_Trng,3,task_Trng,2,1,"","",18,10,"","","","",Block10,"","","","","","",J,Stim16,LR,14,"",0,J,red,10,"","",1.84,684,"","",2,50
595482,181,181,block_Trng,3,task_Trng,2,0,"","",1,11,"","","","",Block11,"","","","","","",J,Stim16,NR,7,"",0,K,blue,10,"","",1.84,684,"","",2,50.28
595482,182,182,block_Trng,3,task_Trng,2,1,"","",2,11,"","","","",Block11,"","","","","","",J,PreISI1,LR,179,"",0,J,red,12,"","",1.84,686,"","",2,50.56
595482,183,183,block_Trng,3,task_Trng,2,1,"","",3,11,"","","","",Block11,"","","","","","",J,PreISI1,HR,101,"",0,J,green,12,"","",1.84,696,"","",2,50.83
595482,184,184,block_Trng,3,task_Trng,2,1,"","",4,11,"","","","",Block11,"","","","","","",K,PreISI1,LR,231,"",0,K,red,13,"","",1.84,698,"","",2,51.11
595482,185,185,block_Trng,3,task_Trng,2,1,"","",5,11,"","","","",Block11,"","","","","","",K,PreISI1,NR,277,"",0,K,blue,12,"","",1.84,698,"","",2,51.39
595482,186,186,block_Trng,3,task_Trng,2,0,"","",6,11,"","","","",Block11,"","","","","","",J,Stim15,NR,77,"",0,K,blue,8,"","",1.84,698,"","",2,51.67
595482,187,187,block_Trng,3,task_Trng,2,1,"","",7,11,"","","","",Block11,"","","","","","",K,Stim16,LR,111,"",0,K,red,11,"","",1.84,700,"","",2,51.94
595482,188,188,block_Trng,3,task_Trng,2,1,"","",8,11,"","","","",Block11,"","","","","","",J,PreISI1,NR,331,"",0,J,blue,13,"","",1.84,700,"","",2,52.22
595482,189,189,block_Trng,3,task_Trng,2,1,"","",9,11,"","","","",Block11,"","","","","","",K,PreISI1,HR,79,"",0,K,green,11,"","",1.84,710,"","",2,52.5
595482,190,190,block_Trng,3,task_Trng,2,1,"","",10,11,"","","","",Block11,"","","","","","",J,Stim14,NR,115,"",0,J,blue,9,"","",1.84,710,"","",2,52.78
595482,191,191,block_Trng,3,task_Trng,2,1,"","",11,11,"","","","",Block11,"","","","","","",K,Stim14,LR,74,"",0,K,red,9,"","",1.84,712,"","",2,53.06
595482,192,192,block_Trng,3,task_Trng,2,1,"","",12,11,"","","","",Block11,"","","","","","",J,Stim16,HR,48,"",0,J,green,10,"","",1.84,722,"","",2,53.33
595482,193,193,block_Trng,3,task_Trng,2,1,"","",13,11,"","","","",Block11,"","","","","","",K,Stim15,HR,36,"",0,K,green,9,"","",1.84,732,"","",2,53.61
595482,194,194,block_Trng,3,task_Trng,2,1,"","",14,11,"","","","",Block11,"","","","","","",J,Stim13,LR,83,"",0,J,red,8,"","",1.84,734,"","",2,53.89
595482,195,195,block_Trng,3,task_Trng,2,1,"","",15,11,"","","","",Block11,"","","","","","",K,PreISI1,HR,263,"",0,K,green,13,"","",1.84,744,"","",2,54.17
595482,196,196,block_Trng,3,task_Trng,2,1,"","",16,11,"","","","",Block11,"","","","","","",J,Stim16,LR,8,"",0,J,red,10,"","",1.84,746,"","",2,54.44
595482,197,197,block_Trng,3,task_Trng,2,1,"","",17,11,"","","","",Block11,Slow!,"","","","","",J,PreISI2,HR,467,"",1,J,green,8,"","",1.84,746,"","",2,54.72
595482,198,198,block_Trng,3,task_Trng,2,1,"","",18,11,"","","","",Block11,"","","","","","",J,PreISI1,NR,10,"",0,J,blue,11,"","",1.84,746,"","",2,55
595482,199,199,block_Trng,3,task_Trng,2,1,"","",1,12,"","","","",Block12,"","","","","","",K,Stim14,LR,104,"",0,K,red,9,"","",1.84,748,"","",2,55.28
595482,200,200,block_Trng,3,task_Trng,2,1,"","",2,12,"","","","",Block12,"","","","","","",K,PreISI1,LR,213,"",0,K,red,13,"","",1.84,750,"","",2,55.56
595482,201,201,block_Trng,3,task_Trng,2,1,"","",3,12,"","","","",Block12,"","","","","","",J,Stim15,NR,52,"",0,J,blue,9,"","",1.84,750,"","",2,55.83
595482,202,202,block_Trng,3,task_Trng,2,1,"","",4,12,"","","","",Block12,"","","","","","",J,PreISI1,NR,123,"",0,J,blue,11,"","",1.84,750,"","",2,56.11
595482,203,203,block_Trng,3,task_Trng,2,1,"","",5,12,"","","","",Block12,"","","","","","",J,PreISI1,HR,136,"",0,J,green,10,"","",1.84,760,"","",2,56.39
595482,204,204,block_Trng,3,task_Trng,2,1,"","",6,12,"","","","",Block12,"","","","","","",J,PreISI1,LR,78,"",0,J,red,10,"","",1.84,762,"","",2,56.67
595482,205,205,block_Trng,3,task_Trng,2,1,"","",7,12,"","","","",Block12,"","","","","","",J,PreISI1,NR,241,"",0,J,blue,13,"","",1.84,762,"","",2,56.94
595482,206,206,block_Trng,3,task_Trng,2,1,"","",8,12,"","","","",Block12,"","","","","","",J,Stim13,LR,98,"",0,J,red,8,"","",1.84,764,"","",2,57.22
595482,207,207,block_Trng,3,task_Trng,2,1,"","",9,12,"","","","",Block12,"","","","","","",J,PreISI1,HR,90,"",0,J,green,12,"","",1.84,774,"","",2,57.5
595482,208,208,block_Trng,3,task_Trng,2,1,"","",10,12,"","","","",Block12,"","","","","","",J,Stim13,HR,111,"",0,J,green,8,"","",1.84,784,"","",2,57.78
595482,209,209,block_Trng,3,task_Trng,2,1,"","",11,12,"","","","",Block12,"","","","","","",K,Stim16,LR,67,"",0,K,red,11,"","",1.84,786,"","",2,58.06
595482,210,210,block_Trng,3,task_Trng,2,1,"","",12,12,"","","","",Block12,"","","","","","",K,PreISI1,NR,305,"",0,K,blue,12,"","",1.84,786,"","",2,58.33
595482,211,211,block_Trng,3,task_Trng,2,1,"","",13,12,"","","","",Block12,"","","","","","",K,Stim16,NR,80,"",0,K,blue,10,"","",1.84,786,"","",2,58.61
595482,212,212,block_Trng,3,task_Trng,2,1,"","",14,12,"","","","",Block12,"","","","","","",K,Stim14,HR,108,"",0,K,green,9,"","",1.84,796,"","",2,58.89
595482,213,213,block_Trng,3,task_Trng,2,0,"","",15,12,"","","","",Block12,"","","","","","",J,Stim14,NR,77,"",0,K,blue,8,"","",1.84,796,"","",2,59.17
595482,214,214,block_Trng,3,task_Trng,2,1,"","",16,12,"","","","",Block12,"","","","","","",K,PreISI1,HR,16,"",0,K,green,11,"","",1.84,806,"","",2,59.44
595482,215,215,block_Trng,3,task_Trng,2,1,"","",17,12,"","","","",Block12,"","","","","","",J,PreISI1,LR,122,"",0,J,red,12,"","",1.84,808,"","",2,59.72
595482,216,216,block_Trng,3,task_Trng,2,1,"","",18,12,"","","","",Block12,"","","","","","",K,PreISI1,HR,225,"",0,K,green,13,"","",2.78,818,"","",3,60
595482,217,217,block_Trng,3,task_Trng,2,1,"","",1,13,"","","","",Block13,"","","","","","",J,Stim13,LR,106,"",0,J,red,8,"","",2.78,820,"","",3,60.28
595482,218,218,block_Trng,3,task_Trng,2,1,"","",2,13,"","","","",Block13,"","","","","","",K,Stim15,NR,71,"",0,K,blue,10,"","",2.78,820,"","",3,60.56
595482,219,219,block_Trng,3,task_Trng,2,1,"","",3,13,"","","","",Block13,"","","","","","",K,Stim14,NR,52,"",0,K,blue,8,"","",2.78,820,"","",3,60.83
595482,220,220,block_Trng,3,task_Trng,2,1,"","",4,13,"","","","",Block13,"","","","","","",K,PreISI1,NR,54,"",0,K,blue,12,"","",2.78,820,"","",3,61.11
595482,221,221,block_Trng,3,task_Trng,2,1,"","",5,13,"","","","",Block13,"","","","","","",J,PreISI1,NR,193,"",0,J,blue,13,"","",2.78,820,"","",3,61.39
595482,222,222,block_Trng,3,task_Trng,2,0,"","",6,13,"","","","",Block13,Slow!,"","","","","","","",HR,0,"",1,J,green,10,"","",2.78,820,"","",3,61.67
595482,223,223,block_Trng,3,task_Trng,2,1,"","",7,13,"","","","",Block13,"","","","","","",K,Stim14,LR,119,"",0,K,red,9,"","",2.78,822,"","",3,61.94
595482,224,224,block_Trng,3,task_Trng,2,1,"","",8,13,"","","","",Block13,"","","","","","",J,Stim14,HR,29,"",0,J,green,8,"","",2.78,832,"","",3,62.22
595482,225,225,block_Trng,3,task_Trng,2,1,"","",9,13,"","","","",Block13,"","","","","","",K,PreISI1,LR,183,"",0,K,red,13,"","",2.78,834,"","",3,62.5
595482,226,226,block_Trng,3,task_Trng,2,1,"","",10,13,"","","","",Block13,"","","","","","",J,Stim15,LR,19,"",0,J,red,10,"","",2.78,836,"","",3,62.78
595482,227,227,block_Trng,3,task_Trng,2,0,"","",11,13,"","","","",Block13,"","","","","","",J,Stim15,HR,88,"",0,K,green,9,"","",2.78,836,"","",3,63.06
595482,228,228,block_Trng,3,task_Trng,2,1,"","",12,13,"","","","",Block13,"","","","","","",J,PreISI1,LR,90,"",0,J,red,12,"","",2.78,838,"","",3,63.33
595482,229,229,block_Trng,3,task_Trng,2,1,"","",13,13,"","","","",Block13,"","","","","","",J,Stim14,NR,128,"",0,J,blue,9,"","",2.78,838,"","",3,63.61
595482,230,230,block_Trng,3,task_Trng,2,1,"","",14,13,"","","","",Block13,"","","","","","",K,PreISI1,HR,245,"",0,K,green,13,"","",2.78,848,"","",3,63.89
595482,231,231,block_Trng,3,task_Trng,2,0,"","",15,13,"","","","",Block13,"","","","","","",J,PreISI1,HR,3,"",0,K,green,11,"","",2.78,848,"","",3,64.17
595482,232,232,block_Trng,3,task_Trng,2,1,"","",16,13,"","","","",Block13,"","","","","","",K,PreISI1,LR,66,"",0,K,red,11,"","",2.78,850,"","",3,64.44
595482,233,233,block_Trng,3,task_Trng,2,1,"","",17,13,"","","","",Block13,"","","","","","",J,PreISI1,NR,18,"",0,J,blue,11,"","",2.78,850,"","",3,64.72
595482,234,234,block_Trng,3,task_Trng,2,1,"","",18,13,"","","","",Block13,"","","","","","",J,PreISI1,HR,94,"",0,J,green,12,"","",2.78,860,"","",3,65
595482,235,235,block_Trng,3,task_Trng,2,1,"","",1,14,"","","","",Block14,"","","","","","",J,Stim15,NR,62,"",0,J,blue,9,"","",2.78,860,"","",3,65.28
595482,236,236,block_Trng,3,task_Trng,2,1,"","",2,14,"","","","",Block14,"","","","","","",J,Stim15,LR,57,"",0,J,red,10,"","",2.78,862,"","",3,65.56
595482,237,237,block_Trng,3,task_Trng,2,1,"","",3,14,"","","","",Block14,"","","","","","",K,Stim16,HR,9,"",0,K,green,9,"","",2.78,872,"","",3,65.83
595482,238,238,block_Trng,3,task_Trng,2,1,"","",4,14,"","","","",Block14,"","","","","","",J,Stim13,HR,80,"",0,J,green,8,"","",2.78,882,"","",3,66.11
595482,239,239,block_Trng,3,task_Trng,2,1,"","",5,14,"","","","",Block14,"","","","","","",J,PreISI1,HR,147,"",0,J,green,12,"","",2.78,892,"","",3,66.39
595482,240,240,block_Trng,3,task_Trng,2,1,"","",6,14,"","","","",Block14,"","","","","","",K,PreISI1,NR,50,"",0,K,blue,10,"","",2.78,892,"","",3,66.67
595482,241,241,block_Trng,3,task_Trng,2,1,"","",7,14,"","","","",Block14,"","","","","","",K,Stim14,NR,17,"",0,K,blue,8,"","",2.78,892,"","",3,66.94
595482,242,242,block_Trng,3,task_Trng,2,1,"","",8,14,"","","","",Block14,"","","","","","",J,PreISI1,LR,363,"",0,J,red,12,"","",2.78,894,"","",3,67.22
595482,243,243,block_Trng,3,task_Trng,2,1,"","",9,14,"","","","",Block14,"","","","","","",K,PreISI1,NR,126,"",0,K,blue,12,"","",2.78,894,"","",3,67.5
595482,244,244,block_Trng,3,task_Trng,2,1,"","",10,14,"","","","",Block14,"","","","","","",K,PreISI1,LR,300,"",0,K,red,13,"","",2.78,896,"","",3,67.78
595482,245,245,block_Trng,3,task_Trng,2,1,"","",11,14,"","","","",Block14,"","","","","","",K,Stim15,LR,18,"",0,K,red,9,"","",2.78,898,"","",3,68.06
595482,246,246,block_Trng,3,task_Trng,2,1,"","",12,14,"","","","",Block14,"","","","","","",K,PreISI1,HR,216,"",0,K,green,11,"","",2.78,908,"","",3,68.33
595482,247,247,block_Trng,3,task_Trng,2,1,"","",13,14,"","","","",Block14,"","","","","","",K,PreISI1,LR,8,"",0,K,red,11,"","",2.78,910,"","",3,68.61
595482,248,248,block_Trng,3,task_Trng,2,0,"","",14,14,"","","","",Block14,"","","","","","",K,PreISI1,HR,128,"",0,J,green,10,"","",2.78,910,"","",3,68.89
595482,249,249,block_Trng,3,task_Trng,2,1,"","",15,14,"","","","",Block14,"","","","","","",J,Stim14,LR,18,"",0,J,red,8,"","",2.78,912,"","",3,69.17
595482,250,250,block_Trng,3,task_Trng,2,1,"","",16,14,"","","","",Block14,"","","","","","",J,PreISI1,NR,287,"",0,J,blue,13,"","",2.78,912,"","",3,69.44
595482,251,251,block_Trng,3,task_Trng,2,1,"","",17,14,"","","","",Block14,"","","","","","",J,PreISI1,NR,106,"",0,J,blue,11,"","",2.78,912,"","",3,69.72
595482,252,252,block_Trng,3,task_Trng,2,1,"","",18,14,"","","","",Block14,Slow!,"","","","","",K,PreISI2,HR,374,"",1,K,green,13,"","",2.78,912,"","",3,70
595482,253,253,block_Trng,3,task_Trng,2,1,"","",1,15,"","","","",Block15,"","","","","","",K,PreISI1,LR,29,"",0,K,red,11,"","",2.78,914,"","",3,70.28
595482,254,254,block_Trng,3,task_Trng,2,1,"","",2,15,"","","","",Block15,"","","","","","",J,PreISI1,NR,255,"",0,J,blue,13,"","",2.78,914,"","",3,70.56
595482,255,255,block_Trng,3,task_Trng,2,1,"","",3,15,"","","","",Block15,"","","","","","",K,Stim14,HR,56,"",0,K,green,9,"","",2.78,924,"","",3,70.83
595482,256,256,block_Trng,3,task_Trng,2,1,"","",4,15,"","","","",Block15,"","","","","","",K,Stim16,HR,87,"",0,K,green,11,"","",2.78,934,"","",3,71.11
595482,257,257,block_Trng,3,task_Trng,2,1,"","",5,15,"","","","",Block15,"","","","","","",K,Stim16,NR,96,"",0,K,blue,10,"","",2.78,934,"","",3,71.39
595482,258,258,block_Trng,3,task_Trng,2,1,"","",6,15,"","","","",Block15,"","","","","","",J,PreISI1,HR,75,"",0,J,green,12,"","",2.78,944,"","",3,71.67
595482,259,259,block_Trng,3,task_Trng,2,1,"","",7,15,"","","","",Block15,"","","","","","",K,PreISI1,HR,283,"",0,K,green,13,"","",2.78,954,"","",3,71.94
595482,260,260,block_Trng,3,task_Trng,2,1,"","",8,15,"","","","",Block15,"","","","","","",J,Stim14,HR,81,"",0,J,green,8,"","",2.78,964,"","",3,72.22
595482,261,261,block_Trng,3,task_Trng,2,1,"","",9,15,"","","","",Block15,"","","","","","",J,Stim15,HR,111,"",0,J,green,10,"","",2.78,974,"","",3,72.5
595482,262,262,block_Trng,3,task_Trng,2,1,"","",10,15,"","","","",Block15,"","","","","","",K,Stim15,LR,19,"",0,K,red,9,"","",2.78,976,"","",3,72.78
595482,263,263,block_Trng,3,task_Trng,2,1,"","",11,15,"","","","",Block15,"","","","","","",K,PreISI1,LR,509,"",0,K,red,13,"","",2.78,978,"","",3,73.06
595482,264,264,block_Trng,3,task_Trng,2,1,"","",12,15,"","","","",Block15,"","","","","","",K,PreISI1,NR,151,"",0,K,blue,12,"","",2.78,978,"","",3,73.33
595482,265,265,block_Trng,3,task_Trng,2,1,"","",13,15,"","","","",Block15,"","","","","","",J,Stim15,NR,14,"",0,J,blue,9,"","",2.78,978,"","",3,73.61
595482,266,266,block_Trng,3,task_Trng,2,1,"","",14,15,"","","","",Block15,"","","","","","",K,Stim14,NR,10,"",0,K,blue,8,"","",2.78,978,"","",3,73.89
595482,267,267,block_Trng,3,task_Trng,2,0,"","",15,15,"","","","",Block15,"","","","","","",K,Stim14,LR,14,"",0,J,red,8,"","",2.78,978,"","",3,74.17
595482,268,268,block_Trng,3,task_Trng,2,1,"","",16,15,"","","","",Block15,"","","","","","",J,PreISI1,LR,220,"",0,J,red,12,"","",2.78,980,"","",3,74.44
595482,269,269,block_Trng,3,task_Trng,2,1,"","",17,15,"","","","",Block15,"","","","","","",J,Stim15,LR,90,"",0,J,red,10,"","",2.78,982,"","",3,74.72
595482,270,270,block_Trng,3,task_Trng,2,1,"","",18,15,"","","","",Block15,"","","","","","",J,PreISI1,NR,127,"",0,J,blue,11,"","",2.78,982,"","",3,75
595482,271,271,block_Trng,3,task_Trng,2,1,"","",1,16,"","","","",Block16',"","","","","","",J,PreISI1,LR,88,"",0,J,red,12,"","",2.78,984,"","",3,75.28
595482,272,272,block_Trng,3,task_Trng,2,1,"","",2,16,"","","","",Block16',"","","","","","",K,PreISI1,NR,413,"",0,K,blue,12,"","",2.78,984,"","",3,75.56
595482,273,273,block_Trng,3,task_Trng,2,1,"","",3,16,"","","","",Block16',"","","","","","",J,Stim16,HR,2,"",0,J,green,10,"","",2.78,994,"","",3,75.83
595482,274,274,block_Trng,3,task_Trng,2,1,"","",4,16,"","","","",Block16',"","","","","","",J,PreISI1,HR,180,"",0,J,green,12,"","",2.78,1004,"","",3,76.11
595482,275,275,block_Trng,3,task_Trng,2,1,"","",5,16,"","","","",Block16',"","","","","","",J,PreISI1,NR,68,"",0,J,blue,11,"","",2.78,1004,"","",3,76.39
595482,276,276,block_Trng,3,task_Trng,2,1,"","",6,16,"","","","",Block16',"","","","","","",K,Stim14,NR,18,"",0,K,blue,8,"","",2.78,1004,"","",3,76.67
595482,277,277,block_Trng,3,task_Trng,2,1,"","",7,16,"","","","",Block16',"","","","","","",J,PreISI1,NR,385,"",0,J,blue,13,"","",2.78,1004,"","",3,76.94
595482,278,278,block_Trng,3,task_Trng,2,1,"","",8,16,"","","","",Block16',"","","","","","",J,Stim13,LR,98,"",0,J,red,8,"","",2.78,1006,"","",3,77.22
595482,279,279,block_Trng,3,task_Trng,2,1,"","",9,16,"","","","",Block16',"","","","","","",K,Stim16,LR,92,"",0,K,red,11,"","",2.78,1008,"","",3,77.5
595482,280,280,block_Trng,3,task_Trng,2,1,"","",10,16,"","","","",Block16',"","","","","","",K,PreISI1,HR,34,"",0,K,green,11,"","",2.78,1018,"","",3,77.78
595482,281,281,block_Trng,3,task_Trng,2,1,"","",11,16,"","","","",Block16',"","","","","","",K,PreISI1,LR,247,"",0,K,red,13,"","",2.78,1020,"","",3,78.06
595482,282,282,block_Trng,3,task_Trng,2,1,"","",12,16,"","","","",Block16',Slow!,"","","","","",J,PreISI2,LR,508,"",1,J,red,10,"","",2.78,1020,"","",3,78.33
595482,283,283,block_Trng,3,task_Trng,2,1,"","",13,16,"","","","",Block16',"","","","","","",K,Stim15,NR,112,"",0,K,blue,10,"","",2.78,1020,"","",3,78.61
595482,284,284,block_Trng,3,task_Trng,2,1,"","",14,16,"","","","",Block16',"","","","","","",K,PreISI1,HR,252,"",0,K,green,13,"","",2.78,1030,"","",3,78.89
595482,285,285,block_Trng,3,task_Trng,2,1,"","",15,16,"","","","",Block16',"","","","","","",K,Stim15,HR,9,"",0,K,green,9,"","",2.78,1040,"","",3,79.17
595482,286,286,block_Trng,3,task_Trng,2,1,"","",16,16,"","","","",Block16',"","","","","","",J,Stim13,HR,96,"",0,J,green,8,"","",2.78,1050,"","",3,79.44
595482,287,287,block_Trng,3,task_Trng,2,1,"","",17,16,"","","","",Block16',"","","","","","",K,Stim16,LR,12,"",0,K,red,9,"","",2.78,1052,"","",3,79.72
595482,288,288,block_Trng,3,task_Trng,2,1,"","",18,16,"","","","",Block16',"","","","","","",J,Stim15,NR,49,"",0,J,blue,9,"","",3.58,1052,"","",4,80
595482,289,289,block_Trng,3,task_Trng,2,1,"","",1,17,"","","","",Block17,"","","","","","",K,PreISI1,NR,81,"",0,K,blue,12,"","",3.58,1052,"","",4,80.28
595482,290,290,block_Trng,3,task_Trng,2,1,"","",2,17,"","","","",Block17,"","","","","","",K,Stim14,NR,29,"",0,K,blue,8,"","",3.58,1052,"","",4,80.56
595482,291,291,block_Trng,3,task_Trng,2,1,"","",3,17,"","","","",Block17,"","","","","","",J,Stim13,HR,29,"",0,J,green,8,"","",3.58,1062,"","",4,80.83
595482,292,292,block_Trng,3,task_Trng,2,1,"","",4,17,"","","","",Block17,"","","","","","",J,Stim16,LR,76,"",0,J,red,10,"","",3.58,1064,"","",4,81.11
595482,293,293,block_Trng,3,task_Trng,2,1,"","",5,17,"","","","",Block17,"","","","","","",K,PreISI1,LR,175,"",0,K,red,13,"","",3.58,1066,"","",4,81.39
595482,294,294,block_Trng,3,task_Trng,2,0,"","",6,17,"","","","",Block17,"","","","","","",J,PreISI1,HR,47,"",0,K,green,11,"","",3.58,1066,"","",4,81.67
595482,295,295,block_Trng,3,task_Trng,2,1,"","",7,17,"","","","",Block17,"","","","","","",K,Stim16,LR,14,"",0,K,red,11,"","",3.58,1068,"","",4,81.94
595482,296,296,block_Trng,3,task_Trng,2,1,"","",8,17,"","","","",Block17,"","","","","","",J,Stim14,NR,85,"",0,J,blue,9,"","",3.58,1068,"","",4,82.22
595482,297,297,block_Trng,3,task_Trng,2,1,"","",9,17,"","","","",Block17,"","","","","","",J,PreISI1,LR,215,"",0,J,red,12,"","",3.58,1070,"","",4,82.5
595482,298,298,block_Trng,3,task_Trng,2,1,"","",10,17,"","","","",Block17,"","","","","","",J,Stim16,NR,86,"",0,J,blue,11,"","",3.58,1070,"","",4,82.78
595482,299,299,block_Trng,3,task_Trng,2,1,"","",11,17,"","","","",Block17,"","","","","","",K,Stim16,HR,35,"",0,K,green,9,"","",3.58,1080,"","",4,83.06
595482,300,300,block_Trng,3,task_Trng,2,1,"","",12,17,"","","","",Block17,"","","","","","",K,Stim14,LR,62,"",0,K,red,9,"","",3.58,1082,"","",4,83.33
595482,301,301,block_Trng,3,task_Trng,2,1,"","",13,17,"","","","",Block17,"","","","","","",J,Stim14,LR,33,"",0,J,red,8,"","",3.58,1084,"","",4,83.61
595482,302,302,block_Trng,3,task_Trng,2,1,"","",14,17,"","","","",Block17,"","","","","","",J,Stim16,HR,118,"",0,J,green,10,"","",3.58,1094,"","",4,83.89
595482,303,303,block_Trng,3,task_Trng,2,1,"","",15,17,"","","","",Block17,"","","","","","",J,PreISI1,HR,234,"",0,J,green,12,"","",3.58,1104,"","",4,84.17
595482,304,304,block_Trng,3,task_Trng,2,1,"","",16,17,"","","","",Block17,"","","","","","",K,Stim16,NR,75,"",0,K,blue,10,"","",3.58,1104,"","",4,84.44
595482,305,305,block_Trng,3,task_Trng,2,1,"","",17,17,"","","","",Block17,"","","","","","",J,PreISI1,NR,292,"",0,J,blue,13,"","",3.58,1104,"","",4,84.72
595482,306,306,block_Trng,3,task_Trng,2,1,"","",18,17,"","","","",Block17,"","","","","","",K,PreISI1,HR,334,"",0,K,green,13,"","",3.58,1114,"","",4,85
595482,307,307,block_Trng,3,task_Trng,2,1,"","",1,18,"","","","",Block18,"","","","","","",J,PreISI1,LR,128,"",0,J,red,12,"","",3.58,1116,"","",4,85.28
595482,308,308,block_Trng,3,task_Trng,2,1,"","",2,18,"","","","",Block18,"","","","","","",K,PreISI1,HR,288,"",0,K,green,13,"","",3.58,1126,"","",4,85.56
595482,309,309,block_Trng,3,task_Trng,2,1,"","",3,18,"","","","",Block18,"","","","","","",K,Stim14,LR,79,"",0,K,red,9,"","",3.58,1128,"","",4,85.83
595482,310,310,block_Trng,3,task_Trng,2,1,"","",4,18,"","","","",Block18,"","","","","","",K,Stim14,HR,91,"",0,K,green,9,"","",3.58,1138,"","",4,86.11
595482,311,311,block_Trng,3,task_Trng,2,1,"","",5,18,"","","","",Block18,"","","","","","",K,Stim16,LR,76,"",0,K,red,11,"","",3.58,1140,"","",4,86.39
595482,312,312,block_Trng,3,task_Trng,2,1,"","",6,18,"","","","",Block18,"","","","","","",J,Stim16,HR,13,"",0,J,green,10,"","",3.58,1150,"","",4,86.67
595482,313,313,block_Trng,3,task_Trng,2,1,"","",7,18,"","","","",Block18,"","","","","","",J,Stim13,HR,83,"",0,J,green,8,"","",3.58,1160,"","",4,86.94
595482,314,314,block_Trng,3,task_Trng,2,1,"","",8,18,"","","","",Block18,"","","","","","",K,PreISI1,HR,181,"",0,K,green,11,"","",3.58,1170,"","",4,87.22
595482,315,315,block_Trng,3,task_Trng,2,1,"","",9,18,"","","","",Block18,"","","","","","",K,Stim15,NR,106,"",0,K,blue,10,"","",3.58,1170,"","",4,87.5
595482,316,316,block_Trng,3,task_Trng,2,1,"","",10,18,"","","","",Block18,"","","","","","",J,Stim14,NR,82,"",0,J,blue,9,"","",3.58,1170,"","",4,87.78
595482,317,317,block_Trng,3,task_Trng,2,1,"","",11,18,"","","","",Block18,"","","","","","",J,PreISI1,NR,241,"",0,J,blue,13,"","",3.58,1170,"","",4,88.06
595482,318,318,block_Trng,3,task_Trng,2,1,"","",12,18,"","","","",Block18,"","","","","","",J,Stim16,LR,12,"",0,J,red,10,"","",3.58,1172,"","",4,88.33
595482,319,319,block_Trng,3,task_Trng,2,1,"","",13,18,"","","","",Block18,"","","","","","",K,Stim16,NR,4,"",0,K,blue,8,"","",3.58,1172,"","",4,88.61
595482,320,320,block_Trng,3,task_Trng,2,1,"","",14,18,"","","","",Block18,"","","","","","",K,PreISI1,NR,393,"",0,K,blue,12,"","",3.58,1172,"","",4,88.89
595482,321,321,block_Trng,3,task_Trng,2,1,"","",15,18,"","","","",Block18,"","","","","","",J,PreISI1,HR,167,"",0,J,green,12,"","",3.58,1182,"","",4,89.17
595482,322,322,block_Trng,3,task_Trng,2,1,"","",16,18,"","","","",Block18,"","","","","","",J,PreISI1,NR,100,"",0,J,blue,11,"","",3.58,1182,"","",4,89.44
595482,323,323,block_Trng,3,task_Trng,2,1,"","",17,18,"","","","",Block18,"","","","","","",K,PreISI1,LR,262,"",0,K,red,13,"","",3.58,1184,"","",4,89.72
595482,324,324,block_Trng,3,task_Trng,2,1,"","",18,18,"","","","",Block18,"","","","","","",J,Stim14,LR,35,"",0,J,red,8,"","",3.58,1186,"","",4,90
595482,325,325,block_Trng,3,task_Trng,2,1,"","",1,19,"","","","",Block19,"","","","","","",J,Stim16,LR,36,"",0,J,red,10,"","",3.58,1188,"","",4,90.28
595482,326,326,block_Trng,3,task_Trng,2,1,"","",2,19,"","","","",Block19,"","","","","","",K,Stim16,HR,13,"",0,K,green,9,"","",3.58,1198,"","",4,90.56
595482,327,327,block_Trng,3,task_Trng,2,1,"","",3,19,"","","","",Block19,Slow!,"","","","","",J,PreISI2,LR,387,"",1,J,red,12,"","",3.58,1198,"","",4,90.83
595482,328,328,block_Trng,3,task_Trng,2,1,"","",4,19,"","","","",Block19,"","","","","","",K,Stim16,HR,74,"",0,K,green,11,"","",3.58,1208,"","",4,91.11
595482,329,329,block_Trng,3,task_Trng,2,1,"","",5,19,"","","","",Block19,"","","","","","",K,Stim15,NR,85,"",0,K,blue,10,"","",3.58,1208,"","",4,91.39
595482,330,330,block_Trng,3,task_Trng,2,1,"","",6,19,"","","","",Block19,"","","","","","",J,PreISI1,HR,136,"",0,J,green,12,"","",3.58,1218,"","",4,91.67
595482,331,331,block_Trng,3,task_Trng,2,1,"","",7,19,"","","","",Block19,"","","","","","",J,Stim16,HR,46,"",0,J,green,10,"","",3.58,1228,"","",4,91.94
595482,332,332,block_Trng,3,task_Trng,2,1,"","",8,19,"","","","",Block19,"","","","","","",K,Stim16,LR,65,"",0,K,red,11,"","",3.58,1230,"","",4,92.22
595482,333,333,block_Trng,3,task_Trng,2,1,"","",9,19,"","","","",Block19,"","","","","","",K,PreISI1,HR,443,"",0,K,green,13,"","",3.58,1240,"","",4,92.5
595482,334,334,block_Trng,3,task_Trng,2,1,"","",10,19,"","","","",Block19,"","","","","","",K,Stim14,NR,25,"",0,K,blue,8,"","",3.58,1240,"","",4,92.78
595482,335,335,block_Trng,3,task_Trng,2,1,"","",11,19,"","","","",Block19,"","","","","","",K,Stim14,LR,82,"",0,K,red,9,"","",3.58,1242,"","",4,93.06
595482,336,336,block_Trng,3,task_Trng,2,1,"","",12,19,"","","","",Block19,"","","","","","",K,PreISI1,NR,83,"",0,K,blue,12,"","",3.58,1242,"","",4,93.33
595482,337,337,block_Trng,3,task_Trng,2,1,"","",13,19,"","","","",Block19,"","","","","","",J,Stim14,HR,9,"",0,J,green,8,"","",3.58,1252,"","",4,93.61
595482,338,338,block_Trng,3,task_Trng,2,1,"","",14,19,"","","","",Block19,"","","","","","",J,Stim16,NR,28,"",0,J,blue,11,"","",3.58,1252,"","",4,93.89
595482,339,339,block_Trng,3,task_Trng,2,1,"","",15,19,"","","","",Block19,"","","","","","",J,Stim13,LR,83,"",0,J,red,8,"","",3.58,1254,"","",4,94.17
595482,340,340,block_Trng,3,task_Trng,2,1,"","",16,19,"","","","",Block19,"","","","","","",K,PreISI1,LR,190,"",0,K,red,13,"","",3.58,1256,"","",4,94.44
595482,341,341,block_Trng,3,task_Trng,2,1,"","",17,19,"","","","",Block19,"","","","","","",J,PreISI1,NR,385,"",0,J,blue,13,"","",3.58,1256,"","",4,94.72
595482,342,342,block_Trng,3,task_Trng,2,1,"","",18,19,"","","","",Block19,"","","","","","",J,Stim15,NR,76,"",0,J,blue,9,"","",3.58,1256,"","",4,95
595482,343,343,block_Trng,3,task_Trng,2,1,"","",1,20,"","","","",Block20,"","","","","","",J,Stim14,LR,16,"",0,J,red,8,"","",3.58,1258,"","",4,95.28
595482,344,344,block_Trng,3,task_Trng,2,1,"","",2,20,"","","","",Block20,"","","","","","",K,Stim16,LR,93,"",0,K,red,11,"","",3.58,1260,"","",4,95.56
595482,345,345,block_Trng,3,task_Trng,2,1,"","",3,20,"","","","",Block20,"","","","","","",K,Stim16,NR,18,"",0,K,blue,10,"","",3.58,1260,"","",4,95.83
595482,346,346,block_Trng,3,task_Trng,2,0,"","",4,20,"","","","",Block20,"","","","","","",K,PreISI1,LR,86,"",0,J,red,10,"","",3.58,1260,"","",4,96.11
595482,347,347,block_Trng,3,task_Trng,2,1,"","",5,20,"","","","",Block20,"","","","","","",K,Stim14,LR,48,"",0,K,red,9,"","",3.58,1262,"","",4,96.39
595482,348,348,block_Trng,3,task_Trng,2,1,"","",6,20,"","","","",Block20,"","","","","","",J,Stim16,NR,64,"",0,J,blue,9,"","",3.58,1262,"","",4,96.67
595482,349,349,block_Trng,3,task_Trng,2,1,"","",7,20,"","","","",Block20,"","","","","","",K,PreISI1,HR,342,"",0,K,green,13,"","",3.58,1272,"","",4,96.94
595482,350,350,block_Trng,3,task_Trng,2,1,"","",8,20,"","","","",Block20,"","","","","","",J,PreISI1,NR,33,"",0,J,blue,11,"","",3.58,1272,"","",4,97.22
595482,351,351,block_Trng,3,task_Trng,2,1,"","",9,20,"","","","",Block20,"","","","","","",J,Stim15,HR,77,"",0,J,green,10,"","",3.58,1282,"","",4,97.5
595482,352,352,block_Trng,3,task_Trng,2,1,"","",10,20,"","","","",Block20,"","","","","","",K,PreISI1,LR,182,"",0,K,red,13,"","",3.58,1284,"","",4,97.78
595482,353,353,block_Trng,3,task_Trng,2,1,"","",11,20,"","","","",Block20,"","","","","","",J,PreISI1,LR,346,"",0,J,red,12,"","",3.58,1286,"","",4,98.06
595482,354,354,block_Trng,3,task_Trng,2,1,"","",12,20,"","","","",Block20,"","","","","","",J,PreISI1,HR,120,"",0,J,green,12,"","",3.58,1296,"","",4,98.33
595482,355,355,block_Trng,3,task_Trng,2,1,"","",13,20,"","","","",Block20,"","","","","","",J,PreISI1,NR,256,"",0,J,blue,13,"","",3.58,1296,"","",4,98.61
595482,356,356,block_Trng,3,task_Trng,2,1,"","",14,20,"","","","",Block20,"","","","","","",J,Stim14,HR,5,"",0,J,green,8,"","",3.58,1306,"","",4,98.89
595482,357,357,block_Trng,3,task_Trng,2,1,"","",15,20,"","","","",Block20,"","","","","","",K,Stim15,HR,113,"",0,K,green,9,"","",3.58,1316,"","",4,99.17
595482,358,358,block_Trng,3,task_Trng,2,1,"","",16,20,"","","","",Block20,"","","","","","",K,PreISI1,NR,397,"",0,K,blue,12,"","",3.58,1316,"","",4,99.44
595482,359,359,block_Trng,3,task_Trng,2,1,"","",17,20,"","","","",Block20,"","","","","","",K,PreISI1,HR,143,"",0,K,green,11,"","",3.58,1326,"","",4,99.72
595482,360,360,block_Trng,3,task_Trng,2,1,"","",18,20,"","","","",Block20,"","","","","","",K,Stim15,NR,2,"",0,K,blue,8,"","",3.58,1326,"","",4,100
595482,1,1,block_Trng,3,task_Trng_End,3,"","","","",1,"","","","","","","","","","","","","","","","","","","","","","",4.51,1326,"","","",""
595482,1,1,block_Testing,4,task_Testing_Instructions,1,"","","","",1,"","","","","","","","","","","","","","","","","","","","","","","","","","","",""
595482,1,1,block_Testing,4,task_Testing,2,1,"","",1,1,"","",Block1,"","","","","","","","",K,PreISI1,NR,162,"",0,K,blue,12,0,0.56,"",1326,"","","",""
595482,2,2,block_Testing,4,task_Testing,2,1,"","",2,1,"","",Block1,"","","","","","","","",J,Stim14,LR,7,"",0,J,red,8,0,1.11,"",1326,"","","",""
595482,3,3,block_Testing,4,task_Testing,2,1,"","",3,1,"","",Block1,"","","","","","","","",J,Stim15,HR,57,"",0,J,green,10,0,1.67,"",1326,"","","",""
595482,4,4,block_Testing,4,task_Testing,2,1,"","",4,1,"","",Block1,"","","","","","","","",J,PreISI1,LR,104,"",0,J,red,12,0,2.22,"",1326,"","","",""
595482,5,5,block_Testing,4,task_Testing,2,1,"","",5,1,"","",Block1,"","","","","","","","",K,Stim16,NR,55,"",0,K,blue,8,0,2.78,"",1326,"","","",""
595482,6,6,block_Testing,4,task_Testing,2,1,"","",6,1,"","",Block1,"","","","","","","","",J,Stim14,NR,16,"",0,J,blue,9,0,3.33,"",1326,"","","",""
595482,7,7,block_Testing,4,task_Testing,2,1,"","",7,1,"","",Block1,"","","","","","","","",J,PreISI1,HR,116,"",0,J,green,12,0,3.89,"",1326,"","","",""
595482,8,8,block_Testing,4,task_Testing,2,1,"","",8,1,"","",Block1,"","","","","","","","",K,PreISI1,HR,17,"",0,K,green,11,0,4.44,"",1326,"","","",""
595482,9,9,block_Testing,4,task_Testing,2,1,"","",9,1,"","",Block1,"","","","","","","","",J,PreISI1,NR,253,"",0,J,blue,13,0,5,"",1326,"","","",""
595482,10,10,block_Testing,4,task_Testing,2,1,"","",10,1,"","",Block1,"","","","","","","","",K,Stim14,HR,73,"",0,K,green,9,0,5.56,"",1326,"","","",""
595482,11,11,block_Testing,4,task_Testing,2,1,"","",11,1,"","",Block1,"","","","","","","","",K,PreISI1,HR,277,"",0,K,green,13,0,6.11,"",1326,"","","",""
595482,12,12,block_Testing,4,task_Testing,2,1,"","",12,1,"","",Block1,"","","","","","","","",J,Stim15,LR,95,"",0,J,red,10,0,6.67,"",1326,"","","",""
595482,13,13,block_Testing,4,task_Testing,2,1,"","",13,1,"","",Block1,"","","","","","","","",K,PreISI1,LR,202,"",0,K,red,13,0,7.22,"",1326,"","","",""
595482,14,14,block_Testing,4,task_Testing,2,1,"","",14,1,"","",Block1,"","","","","","","","",K,Stim14,LR,50,"",0,K,red,9,0,7.78,"",1326,"","","",""
595482,15,15,block_Testing,4,task_Testing,2,1,"","",15,1,"","",Block1,"","","","","","","","",J,PreISI1,NR,50,"",0,J,blue,11,0,8.33,"",1326,"","","",""
595482,16,16,block_Testing,4,task_Testing,2,1,"","",16,1,"","",Block1,"","","","","","","","",K,Stim16,NR,8,"",0,K,blue,10,0,8.89,"",1326,"","","",""
595482,17,17,block_Testing,4,task_Testing,2,1,"","",17,1,"","",Block1,"","","","","","","","",K,PreISI1,LR,54,"",0,K,red,11,0,9.44,"",1326,"","","",""
595482,18,18,block_Testing,4,task_Testing,2,1,"","",18,1,"","",Block1,"","","","","","","","",J,Stim14,HR,24,"",0,J,green,8,0,10,"",1326,"","","",""
595482,19,19,block_Testing,4,task_Testing,2,1,"","",1,2,"","",Block2,"","","","","","","","",K,PreISI1,HR,200,"",0,K,green,13,0,10.56,"",1326,"","","",""
595482,20,20,block_Testing,4,task_Testing,2,1,"","",2,2,"","",Block2,"","","","","","","","",J,PreISI1,NR,181,"",0,J,blue,11,0,11.11,"",1326,"","","",""
595482,21,21,block_Testing,4,task_Testing,2,1,"","",3,2,"","",Block2,"","","","","","","","",J,Stim13,LR,113,"",0,J,red,8,0,11.67,"",1326,"","","",""
595482,22,22,block_Testing,4,task_Testing,2,1,"","",4,2,"","",Block2,"","","","","","","","",K,PreISI1,NR,68,"",0,K,blue,12,0,12.22,"",1326,"","","",""
595482,23,23,block_Testing,4,task_Testing,2,1,"","",5,2,"","",Block2,"","","","","","","","",J,Stim15,HR,19,"",0,J,green,10,0,12.78,"",1326,"","","",""
595482,24,24,block_Testing,4,task_Testing,2,1,"","",6,2,"","",Block2,"","","","","","","","",J,PreISI1,HR,148,"",0,J,green,12,0,13.33,"",1326,"","","",""
595482,25,25,block_Testing,4,task_Testing,2,1,"","",7,2,"","",Block2,"","","","","","","","",J,Stim14,NR,69,"",0,J,blue,9,0,13.89,"",1326,"","","",""
595482,26,26,block_Testing,4,task_Testing,2,1,"","",8,2,"","",Block2,"","","","","","","","",K,Stim16,NR,4,"",0,K,blue,10,0,14.44,"",1326,"","","",""
595482,27,27,block_Testing,4,task_Testing,2,1,"","",9,2,"","",Block2,"","","","","","","","",J,Stim15,LR,107,"",0,J,red,10,0,15,"",1326,"","","",""
595482,28,28,block_Testing,4,task_Testing,2,1,"","",10,2,"","",Block2,"","","","","","","","",K,Stim15,HR,11,"",0,K,green,9,0,15.56,"",1326,"","","",""
595482,29,29,block_Testing,4,task_Testing,2,1,"","",11,2,"","",Block2,"","","","","","","","",J,Stim15,HR,66,"",0,J,green,8,0,16.11,"",1326,"","","",""
595482,30,30,block_Testing,4,task_Testing,2,1,"","",12,2,"","",Block2,"","","","","","","","",K,Stim16,LR,76,"",0,K,red,11,0,16.67,"",1326,"","","",""
595482,31,31,block_Testing,4,task_Testing,2,1,"","",13,2,"","",Block2,"","","","","","","","",J,PreISI1,LR,151,"",0,J,red,12,0,17.22,"",1326,"","","",""
595482,32,32,block_Testing,4,task_Testing,2,1,"","",14,2,"","",Block2,"","","","","","","","",J,PreISI1,NR,256,"",0,J,blue,13,0,17.78,"",1326,"","","",""
595482,33,33,block_Testing,4,task_Testing,2,1,"","",15,2,"","",Block2,"","","","","","","","",K,PreISI1,HR,10,"",0,K,green,11,0,18.33,"",1326,"","","",""
595482,34,34,block_Testing,4,task_Testing,2,1,"","",16,2,"","",Block2,"","","","","","","","",K,Stim14,NR,22,"",0,K,blue,8,0,18.89,"",1326,"","","",""
595482,35,35,block_Testing,4,task_Testing,2,1,"","",17,2,"","",Block2,"","","","","","","","",K,PreISI1,LR,238,"",0,K,red,13,0,19.44,"",1326,"","","",""
595482,36,36,block_Testing,4,task_Testing,2,1,"","",18,2,"","",Block2,"","","","","","","","",K,Stim14,LR,43,"",0,K,red,9,0,20,"",1326,"","","",""
595482,37,37,block_Testing,4,task_Testing,2,1,"","",1,3,"","",Block3,"","","","","","","","",K,Stim13,NR,117,"",0,K,blue,8,0,20.56,"",1326,"","","",""
595482,38,38,block_Testing,4,task_Testing,2,1,"","",2,3,"","",Block3,"","","","","","","","",K,PreISI1,HR,149,"",0,K,green,13,0,21.11,"",1326,"","","",""
595482,39,39,block_Testing,4,task_Testing,2,1,"","",3,3,"","",Block3,"","","","","","","","",K,PreISI1,LR,228,"",0,K,red,13,0,21.67,"",1326,"","","",""
595482,40,40,block_Testing,4,task_Testing,2,1,"","",4,3,"","",Block3,"","","","","","","","",J,Stim13,LR,59,"",0,J,red,8,0,22.22,"",1326,"","","",""
595482,41,41,block_Testing,4,task_Testing,2,1,"","",5,3,"","",Block3,"","","","","","","","",J,PreISI1,NR,180,"",0,J,blue,13,0,22.78,"",1326,"","","",""
595482,42,42,block_Testing,4,task_Testing,2,1,"","",6,3,"","",Block3,"","","","","","","","",K,Stim14,HR,90,"",0,K,green,9,0,23.33,"",1326,"","","",""
595482,43,43,block_Testing,4,task_Testing,2,1,"","",7,3,"","",Block3,"","","","","","","","",J,Stim15,LR,67,"",0,J,red,10,0,23.89,"",1326,"","","",""
595482,44,44,block_Testing,4,task_Testing,2,1,"","",8,3,"","",Block3,"","","","","","","","",K,PreISI1,LR,4,"",0,K,red,11,0,24.44,"",1326,"","","",""
595482,45,45,block_Testing,4,task_Testing,2,1,"","",9,3,"","",Block3,"","","","","","","","",J,Stim16,HR,8,"",0,J,green,10,0,25,"",1326,"","","",""
595482,46,46,block_Testing,4,task_Testing,2,1,"","",10,3,"","",Block3,"","","","","","","","",J,PreISI1,NR,5,"",0,J,blue,11,0,25.56,"",1326,"","","",""
595482,47,47,block_Testing,4,task_Testing,2,1,"","",11,3,"","",Block3,"","","","","","","","",J,PreISI1,HR,162,"",0,J,green,12,0,26.11,"",1326,"","","",""
595482,48,48,block_Testing,4,task_Testing,2,0,"","",12,3,"","",Block3,"","",Slow!,"","","","","",J,PreISI2,NR,807,"",1,K,blue,12,0,26.67,"",1326,"","","",""
595482,49,49,block_Testing,4,task_Testing,2,1,"","",13,3,"","",Block3,"","","","","","","","",K,Stim16,HR,89,"",0,K,green,11,0,27.22,"",1326,"","","",""
595482,50,50,block_Testing,4,task_Testing,2,1,"","",14,3,"","",Block3,"","","","","","","","",J,PreISI1,LR,60,"",0,J,red,12,0,27.78,"",1326,"","","",""
595482,51,51,block_Testing,4,task_Testing,2,1,"","",15,3,"","",Block3,"","","","","","","","",J,Stim14,NR,103,"",0,J,blue,9,0,28.33,"",1326,"","","",""
595482,52,52,block_Testing,4,task_Testing,2,1,"","",16,3,"","",Block3,"","","","","","","","",J,Stim14,HR,37,"",0,J,green,8,0,28.89,"",1326,"","","",""
595482,53,53,block_Testing,4,task_Testing,2,1,"","",17,3,"","",Block3,"","","","","","","","",K,Stim16,NR,59,"",0,K,blue,10,0,29.44,"",1326,"","","",""
595482,54,54,block_Testing,4,task_Testing,2,1,"","",18,3,"","",Block3,"","","","","","","","",K,Stim14,LR,66,"",0,K,red,9,1,30,"",1326,"","","",""
595482,55,55,block_Testing,4,task_Testing,2,1,"","",1,4,"","",Block4,"","","","","","","","",K,PreISI1,NR,84,"",0,K,blue,12,1,30.56,"",1326,"","","",""
595482,56,56,block_Testing,4,task_Testing,2,1,"","",2,4,"","",Block4,"","","","","","","","",K,Stim15,LR,7,"",0,K,red,9,1,31.11,"",1326,"","","",""
595482,57,57,block_Testing,4,task_Testing,2,1,"","",3,4,"","",Block4,"","","","","","","","",K,PreISI1,LR,211,"",0,K,red,13,1,31.67,"",1326,"","","",""
595482,58,58,block_Testing,4,task_Testing,2,1,"","",4,4,"","",Block4,"","","","","","","","",J,Stim15,HR,59,"",0,J,green,10,1,32.22,"",1326,"","","",""
595482,59,59,block_Testing,4,task_Testing,2,1,"","",5,4,"","",Block4,"","","","","","","","",J,Stim13,LR,55,"",0,J,red,8,1,32.78,"",1326,"","","",""
595482,60,60,block_Testing,4,task_Testing,2,1,"","",6,4,"","",Block4,"","","","","","","","",J,Stim15,LR,83,"",0,J,red,10,1,33.33,"",1326,"","","",""
595482,61,61,block_Testing,4,task_Testing,2,1,"","",7,4,"","",Block4,"","","","","","","","",J,PreISI1,HR,36,"",0,J,green,12,1,33.89,"",1326,"","","",""
595482,62,62,block_Testing,4,task_Testing,2,1,"","",8,4,"","",Block4,"","","","","","","","",K,Stim16,LR,18,"",0,K,red,11,1,34.44,"",1326,"","","",""
595482,63,63,block_Testing,4,task_Testing,2,1,"","",9,4,"","",Block4,"","","","","","","","",K,Stim15,HR,19,"",0,K,green,9,1,35,"",1326,"","","",""
595482,64,64,block_Testing,4,task_Testing,2,1,"","",10,4,"","",Block4,"","","","","","","","",J,Stim14,NR,9,"",0,J,blue,9,1,35.56,"",1326,"","","",""
595482,65,65,block_Testing,4,task_Testing,2,1,"","",11,4,"","",Block4,"","","","","","","","",J,PreISI1,LR,28,"",0,J,red,12,1,36.11,"",1326,"","","",""
595482,66,66,block_Testing,4,task_Testing,2,1,"","",12,4,"","",Block4,"","","","","","","","",K,PreISI1,HR,224,"",0,K,green,13,1,36.67,"",1326,"","","",""
595482,67,67,block_Testing,4,task_Testing,2,1,"","",13,4,"","",Block4,"","","","","","","","",K,Stim14,NR,62,"",0,K,blue,8,1,37.22,"",1326,"","","",""
595482,68,68,block_Testing,4,task_Testing,2,1,"","",14,4,"","",Block4,"","","","","","","","",K,Stim16,HR,13,"",0,K,green,11,1,37.78,"",1326,"","","",""
595482,69,69,block_Testing,4,task_Testing,2,1,"","",15,4,"","",Block4,"","","","","","","","",J,Stim13,HR,52,"",0,J,green,8,1,38.33,"",1326,"","","",""
595482,70,70,block_Testing,4,task_Testing,2,1,"","",16,4,"","",Block4,"","","","","","","","",J,Stim16,NR,92,"",0,J,blue,11,1,38.89,"",1326,"","","",""
595482,71,71,block_Testing,4,task_Testing,2,1,"","",17,4,"","",Block4,"","","","","","","","",K,Stim15,NR,66,"",0,K,blue,10,1,39.44,"",1326,"","","",""
595482,72,72,block_Testing,4,task_Testing,2,1,"","",18,4,"","",Block4,"","","","","","","","",J,PreISI1,NR,158,"",0,J,blue,13,1,40,"",1326,"","","",""
595482,73,73,block_Testing,4,task_Testing,2,1,"","",1,5,"","",Block5,"","","","","","","","",J,PreISI1,LR,68,"",0,J,red,12,1,40.56,"",1326,"","","",""
595482,74,74,block_Testing,4,task_Testing,2,0,"","",2,5,"","",Block5,"","","","","","","","",J,PreISI1,LR,171,"",0,K,red,11,1,41.11,"",1326,"","","",""
595482,75,75,block_Testing,4,task_Testing,2,1,"","",3,5,"","",Block5,"","","","","","","","",J,Stim13,NR,115,"",0,J,blue,9,1,41.67,"",1326,"","","",""
595482,76,76,block_Testing,4,task_Testing,2,1,"","",4,5,"","",Block5,"","","","","","","","",J,Stim12,LR,116,"",0,J,red,8,1,42.22,"",1326,"","","",""
595482,77,77,block_Testing,4,task_Testing,2,1,"","",5,5,"","",Block5,"","","","","","","","",J,Stim15,HR,13,"",0,J,green,10,1,42.78,"",1326,"","","",""
595482,78,78,block_Testing,4,task_Testing,2,1,"","",6,5,"","",Block5,"","",Slow!,"","","","","",K,PreISI2,LR,176,"",1,K,red,9,1,43.33,"",1326,"","","",""
595482,79,79,block_Testing,4,task_Testing,2,1,"","",7,5,"","",Block5,"","","","","","","","",K,PreISI1,NR,83,"",0,K,blue,12,1,43.89,"",1326,"","","",""
595482,80,80,block_Testing,4,task_Testing,2,1,"","",8,5,"","",Block5,"","","","","","","","",J,Stim16,LR,27,"",0,J,red,10,1,44.44,"",1326,"","","",""
595482,81,81,block_Testing,4,task_Testing,2,1,"","",9,5,"","",Block5,"","","","","","","","",K,Stim14,HR,75,"",0,K,green,9,1,45,"",1326,"","","",""
595482,82,82,block_Testing,4,task_Testing,2,1,"","",10,5,"","",Block5,"","","","","","","","",K,Stim15,NR,16,"",0,K,blue,10,1,45.56,"",1326,"","","",""
595482,83,83,block_Testing,4,task_Testing,2,1,"","",11,5,"","",Block5,"","","","","","","","",K,PreISI1,LR,301,"",0,K,red,13,1,46.11,"",1326,"","","",""
595482,84,84,block_Testing,4,task_Testing,2,1,"","",12,5,"","",Block5,"","","","","","","","",K,PreISI1,HR,159,"",0,K,green,13,1,46.67,"",1326,"","","",""
595482,85,85,block_Testing,4,task_Testing,2,1,"","",13,5,"","",Block5,"","","","","","","","",J,Stim14,HR,48,"",0,J,green,8,1,47.22,"",1326,"","","",""
595482,86,86,block_Testing,4,task_Testing,2,1,"","",14,5,"","",Block5,"","","","","","","","",K,Stim13,NR,88,"",0,K,blue,8,1,47.78,"",1326,"","","",""
595482,87,87,block_Testing,4,task_Testing,2,1,"","",15,5,"","",Block5,"","","","","","","","",J,PreISI1,NR,118,"",0,J,blue,13,1,48.33,"",1326,"","","",""
595482,88,88,block_Testing,4,task_Testing,2,1,"","",16,5,"","",Block5,"","","","","","","","",J,Stim16,NR,9,"",0,J,blue,11,1,48.89,"",1326,"","","",""
595482,89,89,block_Testing,4,task_Testing,2,1,"","",17,5,"","",Block5,"","","","","","","","",K,Stim16,HR,9,"",0,K,green,11,1,49.44,"",1326,"","","",""
595482,90,90,block_Testing,4,task_Testing,2,1,"","",18,5,"","",Block5,"","","","","","","","",J,PreISI1,HR,140,"",0,J,green,12,1,50,"",1326,"","","",""
595482,91,91,block_Testing,4,task_Testing,2,1,"","",1,6,"","",Block6,"","","","","","","","",K,PreISI1,LR,256,"",0,K,red,13,1,50.56,"",1326,"","","",""
595482,92,92,block_Testing,4,task_Testing,2,1,"","",2,6,"","",Block6,"","","","","","","","",J,Stim16,NR,61,"",0,J,blue,11,1,51.11,"",1326,"","","",""
595482,93,93,block_Testing,4,task_Testing,2,1,"","",3,6,"","",Block6,"","","","","","","","",K,Stim16,LR,54,"",0,K,red,11,1,51.67,"",1326,"","","",""
595482,94,94,block_Testing,4,task_Testing,2,1,"","",4,6,"","",Block6,"","","","","","","","",J,PreISI1,HR,86,"",0,J,green,12,1,52.22,"",1326,"","","",""
595482,95,95,block_Testing,4,task_Testing,2,1,"","",5,6,"","",Block6,"","","","","","","","",K,Stim14,HR,52,"",0,K,green,9,1,52.78,"",1326,"","","",""
595482,96,96,block_Testing,4,task_Testing,2,1,"","",6,6,"","",Block6,"","","","","","","","",J,Stim14,HR,39,"",0,J,green,8,1,53.33,"",1326,"","","",""
595482,97,97,block_Testing,4,task_Testing,2,1,"","",7,6,"","",Block6,"","","","","","","","",K,PreISI1,NR,131,"",0,K,blue,12,1,53.89,"",1326,"","","",""
595482,98,98,block_Testing,4,task_Testing,2,1,"","",8,6,"","",Block6,"","","","","","","","",K,Stim16,HR,73,"",0,K,green,11,1,54.44,"",1326,"","","",""
595482,99,99,block_Testing,4,task_Testing,2,0,"","",9,6,"","",Block6,"","","","","","","","",J,PreISI1,HR,257,"",0,K,green,13,1,55,"",1326,"","","",""
595482,100,100,block_Testing,4,task_Testing,2,1,"","",10,6,"","",Block6,"","","","","","","","",J,PreISI1,LR,177,"",0,J,red,12,1,55.56,"",1326,"","","",""
595482,101,101,block_Testing,4,task_Testing,2,1,"","",11,6,"","",Block6,"","","","","","","","",K,Stim16,NR,5,"",0,K,blue,10,1,56.11,"",1326,"","","",""
595482,102,102,block_Testing,4,task_Testing,2,1,"","",12,6,"","",Block6,"","","","","","","","",J,Stim13,LR,21,"",0,J,red,8,1,56.67,"",1326,"","","",""
595482,103,103,block_Testing,4,task_Testing,2,1,"","",13,6,"","",Block6,"","","","","","","","",J,PreISI1,NR,267,"",0,J,blue,13,1,57.22,"",1326,"","","",""
595482,104,104,block_Testing,4,task_Testing,2,1,"","",14,6,"","",Block6,"","","","","","","","",K,Stim14,LR,114,"",0,K,red,9,1,57.78,"",1326,"","","",""
595482,105,105,block_Testing,4,task_Testing,2,1,"","",15,6,"","",Block6,"","","","","","","","",J,Stim15,HR,70,"",0,J,green,10,1,58.33,"",1326,"","","",""
595482,106,106,block_Testing,4,task_Testing,2,1,"","",16,6,"","",Block6,"","","","","","","","",J,Stim15,LR,85,"",0,J,red,10,1,58.89,"",1326,"","","",""
595482,107,107,block_Testing,4,task_Testing,2,1,"","",17,6,"","",Block6,"","","","","","","","",K,Stim13,NR,23,"",0,K,blue,8,1,59.44,"",1326,"","","",""
595482,108,108,block_Testing,4,task_Testing,2,1,"","",18,6,"","",Block6,"","","","","","","","",J,Stim14,NR,103,"",0,J,blue,9,2,60,"",1326,"","","",""
595482,109,109,block_Testing,4,task_Testing,2,1,"","",1,7,"","",Block7,"","","","","","","","",K,Stim14,HR,83,"",0,K,green,9,2,60.56,"",1326,"","","",""
595482,110,110,block_Testing,4,task_Testing,2,1,"","",2,7,"","",Block7,"","","","","","","","",J,Stim12,HR,117,"",0,J,green,8,2,61.11,"",1326,"","","",""
595482,111,111,block_Testing,4,task_Testing,2,1,"","",3,7,"","",Block7,"","","","","","","","",J,Stim15,HR,3,"",0,J,green,10,2,61.67,"",1326,"","","",""
595482,112,112,block_Testing,4,task_Testing,2,0,"","",4,7,"","",Block7,"","",Slow!,"","","","","",J,PreISI2,LR,336,"",1,K,red,9,2,62.22,"",1326,"","","",""
595482,113,113,block_Testing,4,task_Testing,2,1,"","",5,7,"","",Block7,"","","","","","","","",K,Stim15,NR,22,"",0,K,blue,10,2,62.78,"",1326,"","","",""
595482,114,114,block_Testing,4,task_Testing,2,1,"","",6,7,"","",Block7,"","","","","","","","",J,Stim14,NR,46,"",0,J,blue,9,2,63.33,"",1326,"","","",""
595482,115,115,block_Testing,4,task_Testing,2,1,"","",7,7,"","",Block7,"","","","","","","","",K,PreISI1,LR,193,"",0,K,red,13,2,63.89,"",1326,"","","",""
595482,116,116,block_Testing,4,task_Testing,2,1,"","",8,7,"","",Block7,"","","","","","","","",J,Stim16,NR,107,"",0,J,blue,11,2,64.44,"",1326,"","","",""
595482,117,117,block_Testing,4,task_Testing,2,1,"","",9,7,"","",Block7,"","","","","","","","",K,Stim16,HR,63,"",0,K,green,11,2,65,"",1326,"","","",""
595482,118,118,block_Testing,4,task_Testing,2,1,"","",10,7,"","",Block7,"","","","","","","","",J,PreISI1,LR,27,"",0,J,red,12,2,65.56,"",1326,"","","",""
595482,119,119,block_Testing,4,task_Testing,2,1,"","",11,7,"","",Block7,"","","","","","","","",K,Stim14,NR,22,"",0,K,blue,8,2,66.11,"",1326,"","","",""
595482,120,120,block_Testing,4,task_Testing,2,1,"","",12,7,"","",Block7,"","","","","","","","",K,Stim16,LR,76,"",0,K,red,11,2,66.67,"",1326,"","","",""
595482,121,121,block_Testing,4,task_Testing,2,1,"","",13,7,"","",Block7,"","","","","","","","",J,PreISI1,NR,284,"",0,J,blue,13,2,67.22,"",1326,"","","",""
595482,122,122,block_Testing,4,task_Testing,2,1,"","",14,7,"","",Block7,"","","","","","","","",J,PreISI1,HR,13,"",0,J,green,12,2,67.78,"",1326,"","","",""
595482,123,123,block_Testing,4,task_Testing,2,1,"","",15,7,"","",Block7,"","","","","","","","",J,Stim13,LR,48,"",0,J,red,8,2,68.33,"",1326,"","","",""
595482,124,124,block_Testing,4,task_Testing,2,1,"","",16,7,"","",Block7,"","","","","","","","",K,PreISI1,NR,64,"",0,K,blue,12,2,68.89,"",1326,"","","",""
595482,125,125,block_Testing,4,task_Testing,2,1,"","",17,7,"","",Block7,"","","","","","","","",K,PreISI1,HR,133,"",0,K,green,13,2,69.44,"",1326,"","","",""
595482,126,126,block_Testing,4,task_Testing,2,1,"","",18,7,"","",Block7,"","","","","","","","",J,Stim15,LR,62,"",0,J,red,10,2,70,"",1326,"","","",""
595482,127,127,block_Testing,4,task_Testing,2,1,"","",1,8,"","",Block8,"","","","","","","","",J,PreISI1,LR,78,"",0,J,red,12,2,70.56,"",1326,"","","",""
595482,128,128,block_Testing,4,task_Testing,2,1,"","",2,8,"","",Block8,"","","","","","","","",K,Stim14,NR,1,"",0,K,blue,8,2,71.11,"",1326,"","","",""
595482,129,129,block_Testing,4,task_Testing,2,1,"","",3,8,"","",Block8,"","","","","","","","",K,PreISI1,HR,279,"",0,K,green,13,2,71.67,"",1326,"","","",""
595482,130,130,block_Testing,4,task_Testing,2,1,"","",4,8,"","",Block8,"","","","","","","","",J,Stim13,LR,89,"",0,J,red,8,2,72.22,"",1326,"","","",""
595482,131,131,block_Testing,4,task_Testing,2,1,"","",5,8,"","",Block8,"","","","","","","","",K,PreISI1,NR,17,"",0,K,blue,12,2,72.78,"",1326,"","","",""
595482,132,132,block_Testing,4,task_Testing,2,1,"","",6,8,"","",Block8,"","","","","","","","",K,Stim14,LR,36,"",0,K,red,9,2,73.33,"",1326,"","","",""
595482,133,133,block_Testing,4,task_Testing,2,1,"","",7,8,"","",Block8,"","","","","","","","",K,Stim14,HR,59,"",0,K,green,9,2,73.89,"",1326,"","","",""
595482,134,134,block_Testing,4,task_Testing,2,1,"","",8,8,"","",Block8,"","","","","","","","",J,PreISI1,NR,193,"",0,J,blue,13,2,74.44,"",1326,"","","",""
595482,135,135,block_Testing,4,task_Testing,2,1,"","",9,8,"","",Block8,"","","","","","","","",J,Stim15,NR,4,"",0,J,blue,9,2,75,"",1326,"","","",""
595482,136,136,block_Testing,4,task_Testing,2,1,"","",10,8,"","",Block8,"","","","","","","","",K,PreISI1,LR,145,"",0,K,red,13,2,75.56,"",1326,"","","",""
595482,137,137,block_Testing,4,task_Testing,2,1,"","",11,8,"","",Block8,"","","","","","","","",J,PreISI1,HR,90,"",0,J,green,12,2,76.11,"",1326,"","","",""
595482,138,138,block_Testing,4,task_Testing,2,1,"","",12,8,"","",Block8,"","",Slow!,"","","","","",J,PreISI2,NR,191,"",1,J,blue,11,2,76.67,"",1326,"","","",""
595482,139,139,block_Testing,4,task_Testing,2,1,"","",13,8,"","",Block8,"","","","","","","","",J,Stim13,HR,77,"",0,J,green,8,2,77.22,"",1326,"","","",""
595482,140,140,block_Testing,4,task_Testing,2,1,"","",14,8,"","",Block8,"","","","","","","","",K,Stim16,HR,81,"",0,K,green,11,2,77.78,"",1326,"","","",""
595482,141,141,block_Testing,4,task_Testing,2,1,"","",15,8,"","",Block8,"","","","","","","","",J,Stim15,LR,111,"",0,J,red,10,2,78.33,"",1326,"","","",""
595482,142,142,block_Testing,4,task_Testing,2,1,"","",16,8,"","",Block8,"","","","","","","","",J,Stim15,HR,32,"",0,J,green,10,2,78.89,"",1326,"","","",""
595482,143,143,block_Testing,4,task_Testing,2,1,"","",17,8,"","",Block8,"","","","","","","","",K,Stim16,LR,60,"",0,K,red,11,2,79.44,"",1326,"","","",""
595482,144,144,block_Testing,4,task_Testing,2,1,"","",18,8,"","",Block8,"","","","","","","","",K,Stim15,NR,44,"",0,K,blue,10,2,80,"",1326,"","","",""
595482,145,145,block_Testing,4,task_Testing,2,1,"","",1,9,"","",Block9,"","","","","","","","",K,Stim16,LR,118,"",0,K,red,11,2,80.56,"",1326,"","","",""
595482,146,146,block_Testing,4,task_Testing,2,1,"","",2,9,"","",Block9,"","","","","","","","",K,Stim15,HR,37,"",0,K,green,9,2,81.11,"",1326,"","","",""
595482,147,147,block_Testing,4,task_Testing,2,1,"","",3,9,"","",Block9,"","","","","","","","",K,Stim15,NR,29,"",0,K,blue,10,2,81.67,"",1326,"","","",""
595482,148,148,block_Testing,4,task_Testing,2,0,"","",4,9,"","",Block9,"","","","","","","","",K,PreISI1,LR,48,"",0,J,red,12,2,82.22,"",1326,"","","",""
595482,149,149,block_Testing,4,task_Testing,2,1,"","",5,9,"","",Block9,"","","","","","","","",J,Stim14,LR,89,"",0,J,red,8,2,82.78,"",1326,"","","",""
595482,150,150,block_Testing,4,task_Testing,2,1,"","",6,9,"","",Block9,"","","","","","","","",K,Stim14,LR,109,"",0,K,red,9,2,83.33,"",1326,"","","",""
595482,151,151,block_Testing,4,task_Testing,2,1,"","",7,9,"","",Block9,"","","","","","","","",J,PreISI1,NR,407,"",0,J,blue,9,2,83.89,"",1326,"","","",""
595482,152,152,block_Testing,4,task_Testing,2,1,"","",8,9,"","",Block9,"","","","","","","","",J,Stim16,HR,11,"",0,J,green,10,2,84.44,"",1326,"","","",""
595482,153,153,block_Testing,4,task_Testing,2,1,"","",9,9,"","",Block9,"","","","","","","","",J,Stim15,LR,113,"",0,J,red,10,2,85,"",1326,"","","",""
595482,154,154,block_Testing,4,task_Testing,2,1,"","",10,9,"","",Block9,"","","","","","","","",J,PreISI1,HR,66,"",0,J,green,12,2,85.56,"",1326,"","","",""
595482,155,155,block_Testing,4,task_Testing,2,1,"","",11,9,"","",Block9,"","","","","","","","",K,PreISI1,NR,131,"",0,K,blue,12,2,86.11,"",1326,"","","",""
595482,156,156,block_Testing,4,task_Testing,2,1,"","",12,9,"","",Block9,"","","","","","","","",J,PreISI1,NR,250,"",0,J,blue,13,2,86.67,"",1326,"","","",""
595482,157,157,block_Testing,4,task_Testing,2,1,"","",13,9,"","",Block9,"","","","","","","","",K,Stim13,NR,71,"",0,K,blue,8,2,87.22,"",1326,"","","",""
595482,158,158,block_Testing,4,task_Testing,2,1,"","",14,9,"","",Block9,"","","","","","","","",J,PreISI1,NR,28,"",0,J,blue,11,2,87.78,"",1326,"","","",""
595482,159,159,block_Testing,4,task_Testing,2,1,"","",15,9,"","",Block9,"","","","","","","","",K,Stim16,HR,65,"",0,K,green,11,2,88.33,"",1326,"","","",""
595482,160,160,block_Testing,4,task_Testing,2,1,"","",16,9,"","",Block9,"","","","","","","","",K,PreISI1,HR,286,"",0,K,green,13,2,88.89,"",1326,"","","",""
595482,161,161,block_Testing,4,task_Testing,2,1,"","",17,9,"","",Block9,"","","","","","","","",K,PreISI1,LR,246,"",0,K,red,13,2,89.44,"",1326,"","","",""
595482,162,162,block_Testing,4,task_Testing,2,1,"","",18,9,"","",Block9,"","","","","","","","",J,Stim13,HR,72,"",0,J,green,8,2,90,"",1326,"","","",""
595482,163,163,block_Testing,4,task_Testing,2,1,"","",1,10,"","",Block10,"","","","","","","","",K,Stim14,HR,75,"",0,K,green,9,2,90.56,"",1326,"","","",""
595482,164,164,block_Testing,4,task_Testing,2,1,"","",2,10,"","",Block10,"","","","","","","","",J,Stim16,LR,6,"",0,J,red,8,2,91.11,"",1326,"","","",""
595482,165,165,block_Testing,4,task_Testing,2,1,"","",3,10,"","",Block10,"","","","","","","","",J,Stim16,NR,101,"",0,J,blue,11,2,91.67,"",1326,"","","",""
595482,166,166,block_Testing,4,task_Testing,2,1,"","",4,10,"","",Block10,"","","","","","","","",J,PreISI1,HR,24,"",0,J,green,12,2,92.22,"",1326,"","","",""
595482,167,167,block_Testing,4,task_Testing,2,1,"","",5,10,"","",Block10,"","","","","","","","",K,Stim13,NR,39,"",0,K,blue,8,2,92.78,"",1326,"","","",""
595482,168,168,block_Testing,4,task_Testing,2,1,"","",6,10,"","",Block10,"","","","","","","","",K,PreISI1,HR,376,"",0,K,green,13,2,93.33,"",1326,"","","",""
595482,169,169,block_Testing,4,task_Testing,2,1,"","",7,10,"","",Block10,"","","","","","","","",J,PreISI1,LR,29,"",0,J,red,12,2,93.89,"",1326,"","","",""
595482,170,170,block_Testing,4,task_Testing,2,1,"","",8,10,"","",Block10,"","","","","","","","",K,PreISI1,NR,36,"",0,K,blue,12,2,94.44,"",1326,"","","",""
595482,171,171,block_Testing,4,task_Testing,2,1,"","",9,10,"","",Block10,"","","","","","","","",J,Stim14,NR,53,"",0,J,blue,9,2,95,"",1326,"","","",""
595482,172,172,block_Testing,4,task_Testing,2,0,"","",10,10,"","",Block10,"","","","","","","","",J,Stim13,LR,19,"",0,K,red,9,2,95.56,"",1326,"","","",""
595482,173,173,block_Testing,4,task_Testing,2,1,"","",11,10,"","",Block10,"","","","","","","","",K,Stim15,LR,105,"",0,K,red,11,2,96.11,"",1326,"","","",""
595482,174,174,block_Testing,4,task_Testing,2,1,"","",12,10,"","",Block10,"","","","","","","","",J,PreISI1,NR,224,"",0,J,blue,13,2,96.67,"",1326,"","","",""
595482,175,175,block_Testing,4,task_Testing,2,1,"","",13,10,"","",Block10,"","","","","","","","",K,Stim15,NR,96,"",0,K,blue,10,2,97.22,"",1326,"","","",""
595482,176,176,block_Testing,4,task_Testing,2,1,"","",14,10,"","",Block10,"","","","","","","","",J,Stim13,HR,66,"",0,J,green,8,2,97.78,"",1326,"","","",""
595482,177,177,block_Testing,4,task_Testing,2,1,"","",15,10,"","",Block10,"","","","","","","","",J,Stim15,LR,108,"",0,J,red,10,2,98.33,"",1326,"","","",""
595482,178,178,block_Testing,4,task_Testing,2,1,"","",16,10,"","",Block10,"","","","","","","","",K,PreISI1,LR,170,"",0,K,red,13,2,98.89,"",1326,"","","",""
595482,179,179,block_Testing,4,task_Testing,2,1,"","",17,10,"","",Block10,"","","","","","","","",J,Stim16,HR,86,"",0,J,green,10,2,99.44,"",1326,"","","",""
595482,180,180,block_Testing,4,task_Testing,2,1,"","",18,10,"","",Block10,"","","","","","","","",K,Stim16,HR,83,"",0,K,green,11,2,100,"",1326,"","","",""
595482,1,1,block_End,5,task_Demog_End,1,"","",46,"",1,"","","","","","","","","","","","","","","",Female,"","","","","","","","","","","",""
