Rec_Session_Id,Trial_Nr,Trial_Id,Block_Name,Block_Nr,Task_Name,Task_Nr,ACC,ACC_Total_Prac,Age,BlkTrial_Nr,Condition_Id,Consent,Contact,copy_of_factor1_tg1_task2,Email,factor1_tg1_task2,Fdbck_Slow,Feedback,MatricNo,Name,PAYNOW,Recontact,RESP,RESP_Frame,Reward,RT_FromFramePress,Sex,SlowResp,Targ,TargCol,TargPos,Testing_BreakCount,Testing_Progress,TotalMoney,TotalPoints,TotalPoints_prac,Trial_Nr_prac,Trng_BreakCount,Trng_Progress
588853,1,1,block_Trng,3,task_Trng_End,3,"","","","",1,"","","","","","","","","","","","","","","","","","","","","","",4.34,1276,"","","",""
588853,1,1,block_Testing,4,task_Testing,2,1,"","",1,1,"","",Block1,"","","","","","","","",K,Stim16,NR,103,"",0,K,green,13,0,0.56,"",1276,"","","",""
588853,2,2,block_Testing,4,task_Testing,2,0,"","",2,1,"","",Block1,"","","","","","","","",J,Stim12,NR,4,"",0,K,green,9,0,1.11,"",1276,"","","",""
588853,3,3,block_Testing,4,task_Testing,2,1,"","",3,1,"","",Block1,"","","","","","","","",K,Stim16,HR,34,"",0,K,red,13,0,1.67,"",1276,"","","",""
588853,4,4,block_Testing,4,task_Testing,2,1,"","",4,1,"","",Block1,"","","","","","","","",J,Stim14,LR,97,"",0,J,blue,11,0,2.22,"",1276,"","","",""
588853,5,5,block_Testing,4,task_Testing,2,1,"","",5,1,"","",Block1,"","","","","","","","",K,Stim12,HR,21,"",0,K,red,9,0,2.78,"",1276,"","","",""
588853,6,6,block_Testing,4,task_Testing,2,1,"","",6,1,"","",Block1,"","","","","","","","",K,Stim14,HR,4,"",0,K,red,11,0,3.33,"",1276,"","","",""
588853,7,7,block_Testing,4,task_Testing,2,1,"","",7,1,"","",Block1,"","","","","","","","",K,Stim14,NR,37,"",0,K,green,11,0,3.89,"",1276,"","","",""
588853,8,8,block_Testing,4,task_Testing,2,1,"","",8,1,"","",Block1,"","","","","","","","",J,Stim14,NR,29,"",0,J,green,10,0,4.44,"",1276,"","","",""
588853,9,9,block_Testing,4,task_Testing,2,1,"","",9,1,"","",Block1,"","","","","","","","",K,Stim14,LR,18,"",0,K,blue,10,0,5,"",1276,"","","",""
588853,10,10,block_Testing,4,task_Testing,2,1,"","",10,1,"","",Block1,"","","","","","","","",J,Stim12,HR,46,"",0,J,red,8,0,5.56,"",1276,"","","",""
588853,11,11,block_Testing,4,task_Testing,2,1,"","",11,1,"","",Block1,"","","","","","","","",J,Stim16,LR,111,"",0,J,blue,13,0,6.11,"",1276,"","","",""
588853,12,12,block_Testing,4,task_Testing,2,1,"","",12,1,"","",Block1,"","","","","","","","",K,Stim16,LR,108,"",0,K,blue,12,0,6.67,"",1276,"","","",""
588853,13,13,block_Testing,4,task_Testing,2,1,"","",13,1,"","",Block1,"","","","","","","","",J,Stim11,NR,42,"",0,J,green,8,0,7.22,"",1276,"","","",""
588853,14,14,block_Testing,4,task_Testing,2,1,"","",14,1,"","",Block1,"","","","","","","","",K,Stim11,LR,46,"",0,K,blue,8,0,7.78,"",1276,"","","",""
588853,15,15,block_Testing,4,task_Testing,2,1,"","",15,1,"","",Block1,"","","","","","","","",J,Stim13,LR,4,"",0,J,blue,9,0,8.33,"",1276,"","","",""
588853,16,16,block_Testing,4,task_Testing,2,1,"","",16,1,"","",Block1,"","","","","","","","",J,PreISI1,HR,114,"",0,J,red,10,0,8.89,"",1276,"","","",""
588853,17,17,block_Testing,4,task_Testing,2,1,"","",17,1,"","",Block1,"","","","","","","","",J,Stim16,HR,4,"",0,J,red,12,0,9.44,"",1276,"","","",""
588853,18,18,block_Testing,4,task_Testing,2,1,"","",18,1,"","",Block1,"","","","","","","","",J,Stim15,NR,66,"",0,J,green,12,0,10,"",1276,"","","",""
588853,19,19,block_Testing,4,task_Testing,2,1,"","",1,2,"","",Block2,"","","","","","","","",J,Stim15,NR,55,"",0,J,green,12,0,10.56,"",1276,"","","",""
588853,20,20,block_Testing,4,task_Testing,2,1,"","",2,2,"","",Block2,"","","","","","","","",K,Stim12,LR,8,"",0,K,blue,8,0,11.11,"",1276,"","","",""
588853,21,21,block_Testing,4,task_Testing,2,1,"","",3,2,"","",Block2,"","","","","","","","",J,PreISI1,LR,18,"",0,J,blue,13,0,11.67,"",1276,"","","",""
588853,22,22,block_Testing,4,task_Testing,2,1,"","",4,2,"","",Block2,"","","","","","","","",K,Stim13,LR,85,"",0,K,blue,10,0,12.22,"",1276,"","","",""
588853,23,23,block_Testing,4,task_Testing,2,1,"","",5,2,"","",Block2,"","","","","","","","",J,Stim14,LR,85,"",0,J,blue,11,0,12.78,"",1276,"","","",""
588853,24,24,block_Testing,4,task_Testing,2,1,"","",6,2,"","",Block2,"","","","","","","","",K,Stim15,NR,31,"",0,K,green,11,0,13.33,"",1276,"","","",""
588853,25,25,block_Testing,4,task_Testing,2,1,"","",7,2,"","",Block2,"","","","","","","","",K,Stim12,HR,53,"",0,K,red,9,0,13.89,"",1276,"","","",""
588853,26,26,block_Testing,4,task_Testing,2,1,"","",8,2,"","",Block2,"","","","","","","","",K,Stim16,NR,97,"",0,K,green,13,0,14.44,"",1276,"","","",""
588853,27,27,block_Testing,4,task_Testing,2,1,"","",9,2,"","",Block2,"","","","","","","","",J,Stim11,NR,45,"",0,J,green,8,0,15,"",1276,"","","",""
588853,28,28,block_Testing,4,task_Testing,2,1,"","",10,2,"","",Block2,"","","","","","","","",K,Stim14,HR,10,"",0,K,red,11,0,15.56,"",1276,"","","",""
588853,29,29,block_Testing,4,task_Testing,2,0,"","",11,2,"","",Block2,"","","","","","","","",J,Stim12,NR,35,"",0,K,green,9,0,16.11,"",1276,"","","",""
588853,30,30,block_Testing,4,task_Testing,2,1,"","",12,2,"","",Block2,"","","","","","","","",J,Stim13,LR,16,"",0,J,blue,9,0,16.67,"",1276,"","","",""
588853,31,31,block_Testing,4,task_Testing,2,1,"","",13,2,"","",Block2,"","","","","","","","",K,Stim14,LR,112,"",0,K,blue,12,0,17.22,"",1276,"","","",""
588853,32,32,block_Testing,4,task_Testing,2,1,"","",14,2,"","",Block2,"","","","","","","","",J,Stim13,NR,74,"",0,J,green,10,0,17.78,"",1276,"","","",""
588853,33,33,block_Testing,4,task_Testing,2,1,"","",15,2,"","",Block2,"","","","","","","","",K,Stim16,HR,4,"",0,K,red,13,0,18.33,"",1276,"","","",""
588853,34,34,block_Testing,4,task_Testing,2,1,"","",16,2,"","",Block2,"","","","","","","","",J,Stim13,HR,116,"",0,J,red,10,0,18.89,"",1276,"","","",""
588853,35,35,block_Testing,4,task_Testing,2,1,"","",17,2,"","",Block2,"","","","","","","","",J,Stim15,HR,55,"",0,J,red,12,0,19.44,"",1276,"","","",""
588853,36,36,block_Testing,4,task_Testing,2,0,"","",18,2,"","",Block2,"","","","","","","","",K,PreISI1,HR,423,"",0,J,red,8,0,20,"",1276,"","","",""
588853,37,37,block_Testing,4,task_Testing,2,1,"","",1,3,"","",Block3,"","","","","","","","",K,Stim16,NR,94,"",0,K,green,13,0,20.56,"",1276,"","","",""
588853,38,38,block_Testing,4,task_Testing,2,1,"","",2,3,"","",Block3,"","","","","","","","",J,Stim11,NR,73,"",0,J,green,8,0,21.11,"",1276,"","","",""
588853,39,39,block_Testing,4,task_Testing,2,1,"","",3,3,"","",Block3,"","","","","","","","",K,Stim13,LR,13,"",0,K,blue,10,0,21.67,"",1276,"","","",""
588853,40,40,block_Testing,4,task_Testing,2,1,"","",4,3,"","",Block3,"","","","","","","","",K,Stim14,NR,36,"",0,K,green,11,0,22.22,"",1276,"","","",""
588853,41,41,block_Testing,4,task_Testing,2,1,"","",5,3,"","",Block3,"","","","","","","","",J,Stim15,NR,73,"",0,J,green,12,0,22.78,"",1276,"","","",""
588853,42,42,block_Testing,4,task_Testing,2,1,"","",6,3,"","",Block3,"","","","","","","","",J,Stim14,HR,18,"",0,J,red,10,0,23.33,"",1276,"","","",""
588853,43,43,block_Testing,4,task_Testing,2,1,"","",7,3,"","",Block3,"","","","","","","","",J,Stim14,LR,45,"",0,J,blue,11,0,23.89,"",1276,"","","",""
588853,44,44,block_Testing,4,task_Testing,2,1,"","",8,3,"","",Block3,"","","","","","","","",J,Stim11,HR,102,"",0,J,red,8,0,24.44,"",1276,"","","",""
588853,45,45,block_Testing,4,task_Testing,2,1,"","",9,3,"","",Block3,"","","","","","","","",J,Stim16,LR,110,"",0,J,blue,13,0,25,"",1276,"","","",""
588853,46,46,block_Testing,4,task_Testing,2,1,"","",10,3,"","",Block3,"","","","","","","","",J,Stim13,NR,105,"",0,J,green,10,0,25.56,"",1276,"","","",""
588853,47,47,block_Testing,4,task_Testing,2,1,"","",11,3,"","",Block3,"","","","","","","","",K,Stim14,HR,18,"",0,K,red,11,0,26.11,"",1276,"","","",""
588853,48,48,block_Testing,4,task_Testing,2,1,"","",12,3,"","",Block3,"","","","","","","","",K,Stim11,LR,110,"",0,K,blue,8,0,26.67,"",1276,"","","",""
588853,49,49,block_Testing,4,task_Testing,2,1,"","",13,3,"","",Block3,"","","","","","","","",J,Stim13,LR,10,"",0,J,blue,9,0,27.22,"",1276,"","","",""
588853,50,50,block_Testing,4,task_Testing,2,1,"","",14,3,"","",Block3,"","","","","","","","",J,Stim15,HR,9,"",0,J,red,12,0,27.78,"",1276,"","","",""
588853,51,51,block_Testing,4,task_Testing,2,1,"","",15,3,"","",Block3,"","","","","","","","",K,Stim16,HR,44,"",0,K,red,13,0,28.33,"",1276,"","","",""
588853,52,52,block_Testing,4,task_Testing,2,1,"","",16,3,"","",Block3,"","","","","","","","",K,Stim15,LR,26,"",0,K,blue,12,0,28.89,"",1276,"","","",""
588853,53,53,block_Testing,4,task_Testing,2,1,"","",17,3,"","",Block3,"","","","","","","","",K,Stim12,NR,42,"",0,K,green,9,0,29.44,"",1276,"","","",""
588853,54,54,block_Testing,4,task_Testing,2,1,"","",18,3,"","",Block3,"","","","","","","","",K,Stim12,HR,29,"",0,K,red,9,1,30,"",1276,"","","",""
588853,55,55,block_Testing,4,task_Testing,2,1,"","",1,4,"","",Block4,"","","","","","","","",J,Stim12,LR,24,"",0,J,blue,9,1,30.56,"",1276,"","","",""
588853,56,56,block_Testing,4,task_Testing,2,1,"","",2,4,"","",Block4,"","","","","","","","",K,Stim12,NR,4,"",0,K,green,9,1,31.11,"",1276,"","","",""
588853,57,57,block_Testing,4,task_Testing,2,1,"","",3,4,"","",Block4,"","","","","","","","",J,Stim14,LR,77,"",0,J,blue,11,1,31.67,"",1276,"","","",""
588853,58,58,block_Testing,4,task_Testing,2,1,"","",4,4,"","",Block4,"","","","","","","","",J,PreISI1,HR,42,"",0,J,red,12,1,32.22,"",1276,"","","",""
588853,59,59,block_Testing,4,task_Testing,2,1,"","",5,4,"","",Block4,"","","","","","","","",J,Stim13,NR,16,"",0,J,green,10,1,32.78,"",1276,"","","",""
588853,60,60,block_Testing,4,task_Testing,2,1,"","",6,4,"","",Block4,"","","","","","","","",K,Stim14,LR,112,"",0,K,blue,12,1,33.33,"",1276,"","","",""
588853,61,61,block_Testing,4,task_Testing,2,1,"","",7,4,"","",Block4,"","","","","","","","",K,Stim16,NR,3,"",0,K,green,13,1,33.89,"",1276,"","","",""
588853,62,62,block_Testing,4,task_Testing,2,1,"","",8,4,"","",Block4,"","","","","","","","",K,Stim14,NR,3,"",0,K,green,11,1,34.44,"",1276,"","","",""
588853,63,63,block_Testing,4,task_Testing,2,0,"","",9,4,"","",Block4,"","","","","","","","",K,Stim14,NR,113,"",0,J,green,12,1,35,"",1276,"","","",""
588853,64,64,block_Testing,4,task_Testing,2,1,"","",10,4,"","",Block4,"","","","","","","","",J,Stim11,HR,33,"",0,J,red,8,1,35.56,"",1276,"","","",""
588853,65,65,block_Testing,4,task_Testing,2,1,"","",11,4,"","",Block4,"","","","","","","","",J,Stim11,NR,77,"",0,J,green,8,1,36.11,"",1276,"","","",""
588853,66,66,block_Testing,4,task_Testing,2,1,"","",12,4,"","",Block4,"","","","","","","","",J,PreISI1,LR,22,"",0,J,blue,13,1,36.67,"",1276,"","","",""
588853,67,67,block_Testing,4,task_Testing,2,1,"","",13,4,"","",Block4,"","","","","","","","",K,Stim12,HR,10,"",0,K,red,9,1,37.22,"",1276,"","","",""
588853,68,68,block_Testing,4,task_Testing,2,1,"","",14,4,"","",Block4,"","","","","","","","",K,Stim15,HR,83,"",0,K,red,13,1,37.78,"",1276,"","","",""
588853,69,69,block_Testing,4,task_Testing,2,1,"","",15,4,"","",Block4,"","","","","","","","",K,Stim15,LR,2,"",0,K,blue,10,1,38.33,"",1276,"","","",""
588853,70,70,block_Testing,4,task_Testing,2,1,"","",16,4,"","",Block4,"","","","","","","","",K,Stim12,LR,115,"",0,K,blue,8,1,38.89,"",1276,"","","",""
588853,71,71,block_Testing,4,task_Testing,2,1,"","",17,4,"","",Block4,"","","","","","","","",J,Stim13,HR,6,"",0,J,red,10,1,39.44,"",1276,"","","",""
588853,72,72,block_Testing,4,task_Testing,2,1,"","",18,4,"","",Block4,"","","","","","","","",K,Stim14,HR,70,"",0,K,red,11,1,40,"",1276,"","","",""
588853,73,73,block_Testing,4,task_Testing,2,1,"","",1,5,"","",Block5,"","","","","","","","",K,Stim16,LR,43,"",0,K,blue,12,1,40.56,"",1276,"","","",""
588853,74,74,block_Testing,4,task_Testing,2,1,"","",2,5,"","",Block5,"","","","","","","","",K,Stim16,NR,7,"",0,K,green,13,1,41.11,"",1276,"","","",""
588853,75,75,block_Testing,4,task_Testing,2,1,"","",3,5,"","",Block5,"","","","","","","","",K,Stim13,HR,118,"",0,K,red,9,1,41.67,"",1276,"","","",""
588853,76,76,block_Testing,4,task_Testing,2,1,"","",4,5,"","",Block5,"","","","","","","","",J,Stim13,HR,34,"",0,J,red,8,1,42.22,"",1276,"","","",""
588853,77,77,block_Testing,4,task_Testing,2,1,"","",5,5,"","",Block5,"","","","","","","","",K,Stim16,HR,0,"",0,K,red,13,1,42.78,"",1276,"","","",""
588853,78,78,block_Testing,4,task_Testing,2,1,"","",6,5,"","",Block5,"","","","","","","","",J,Stim13,LR,73,"",0,J,blue,9,1,43.33,"",1276,"","","",""
588853,79,79,block_Testing,4,task_Testing,2,1,"","",7,5,"","",Block5,"","","","","","","","",K,Stim14,NR,1,"",0,K,green,11,1,43.89,"",1276,"","","",""
588853,80,80,block_Testing,4,task_Testing,2,0,"","",8,5,"","",Block5,"","","","","","","","",K,Stim14,HR,56,"",0,J,red,12,1,44.44,"",1276,"","","",""
588853,81,81,block_Testing,4,task_Testing,2,1,"","",9,5,"","",Block5,"","","","","","","","",J,Stim13,HR,8,"",0,J,red,10,1,45,"",1276,"","","",""
588853,82,82,block_Testing,4,task_Testing,2,1,"","",10,5,"","",Block5,"","","","","","","","",J,Stim11,NR,76,"",0,J,green,8,1,45.56,"",1276,"","","",""
588853,83,83,block_Testing,4,task_Testing,2,0,"","",11,5,"","",Block5,"","","","","","","","",J,Stim13,LR,118,"",0,K,blue,10,1,46.11,"",1276,"","","",""
588853,84,84,block_Testing,4,task_Testing,2,1,"","",12,5,"","",Block5,"","","","","","","","",J,Stim14,LR,21,"",0,J,blue,11,1,46.67,"",1276,"","","",""
588853,85,85,block_Testing,4,task_Testing,2,1,"","",13,5,"","",Block5,"","","","","","","","",J,Stim13,NR,63,"",0,J,green,10,1,47.22,"",1276,"","","",""
588853,86,86,block_Testing,4,task_Testing,2,1,"","",14,5,"","",Block5,"","","","","","","","",K,Stim14,HR,38,"",0,K,red,11,1,47.78,"",1276,"","","",""
588853,87,87,block_Testing,4,task_Testing,2,1,"","",15,5,"","",Block5,"","","","","","","","",J,Stim16,LR,108,"",0,J,blue,13,1,48.33,"",1276,"","","",""
588853,88,88,block_Testing,4,task_Testing,2,1,"","",16,5,"","",Block5,"","","","","","","","",K,Stim11,LR,22,"",0,K,blue,8,1,48.89,"",1276,"","","",""
588853,89,89,block_Testing,4,task_Testing,2,1,"","",17,5,"","",Block5,"","","","","","","","",J,Stim15,NR,68,"",0,J,green,12,1,49.44,"",1276,"","","",""
588853,90,90,block_Testing,4,task_Testing,2,0,"","",18,5,"","",Block5,"","","","","","","","",J,Stim13,NR,63,"",0,K,green,9,1,50,"",1276,"","","",""
588853,91,91,block_Testing,4,task_Testing,2,1,"","",1,6,"","",Block6,"","","","","","","","",K,Stim13,LR,54,"",0,K,blue,10,1,50.56,"",1276,"","","",""
588853,92,92,block_Testing,4,task_Testing,2,1,"","",2,6,"","",Block6,"","",Slow!,"","","","","",K,PreISI2,HR,1248,"",1,K,red,11,1,51.11,"",1276,"","","",""
588853,93,93,block_Testing,4,task_Testing,2,1,"","",3,6,"","",Block6,"","","","","","","","",J,Stim11,HR,79,"",0,J,red,8,1,51.67,"",1276,"","","",""
588853,94,94,block_Testing,4,task_Testing,2,1,"","",4,6,"","",Block6,"","","","","","","","",J,Stim13,HR,118,"",0,J,red,10,1,52.22,"",1276,"","","",""
588853,95,95,block_Testing,4,task_Testing,2,1,"","",5,6,"","",Block6,"","","","","","","","",J,Stim16,LR,76,"",0,J,blue,13,1,52.78,"",1276,"","","",""
588853,96,96,block_Testing,4,task_Testing,2,1,"","",6,6,"","",Block6,"","","","","","","","",J,Stim12,LR,27,"",0,J,blue,9,1,53.33,"",1276,"","","",""
588853,97,97,block_Testing,4,task_Testing,2,1,"","",7,6,"","",Block6,"","","","","","","","",K,Stim16,HR,10,"",0,K,red,9,1,53.89,"",1276,"","","",""
588853,98,98,block_Testing,4,task_Testing,2,1,"","",8,6,"","",Block6,"","","","","","","","",K,Stim16,LR,4,"",0,K,blue,12,1,54.44,"",1276,"","","",""
588853,99,99,block_Testing,4,task_Testing,2,0,"","",9,6,"","",Block6,"","","","","","","","",J,Stim15,HR,109,"",0,K,red,13,1,55,"",1276,"","","",""
588853,100,100,block_Testing,4,task_Testing,2,1,"","",10,6,"","",Block6,"","","","","","","","",J,Stim11,NR,86,"",0,J,green,8,1,55.56,"",1276,"","","",""
588853,101,101,block_Testing,4,task_Testing,2,1,"","",11,6,"","",Block6,"","","","","","","","",K,Stim11,LR,81,"",0,K,blue,8,1,56.11,"",1276,"","","",""
588853,102,102,block_Testing,4,task_Testing,2,1,"","",12,6,"","",Block6,"","","","","","","","",J,Stim14,LR,110,"",0,J,blue,11,1,56.67,"",1276,"","","",""
588853,103,103,block_Testing,4,task_Testing,2,1,"","",13,6,"","",Block6,"","","","","","","","",J,Stim15,NR,69,"",0,J,green,12,1,57.22,"",1276,"","","",""
588853,104,104,block_Testing,4,task_Testing,2,1,"","",14,6,"","",Block6,"","","","","","","","",K,Stim12,NR,60,"",0,K,green,9,1,57.78,"",1276,"","","",""
588853,105,105,block_Testing,4,task_Testing,2,1,"","",15,6,"","",Block6,"","","","","","","","",K,Stim16,NR,25,"",0,K,green,13,1,58.33,"",1276,"","","",""
588853,106,106,block_Testing,4,task_Testing,2,1,"","",16,6,"","",Block6,"","","","","","","","",J,Stim14,NR,43,"",0,J,green,10,1,58.89,"",1276,"","","",""
588853,107,107,block_Testing,4,task_Testing,2,1,"","",17,6,"","",Block6,"","","","","","","","",J,Stim15,HR,83,"",0,J,red,12,1,59.44,"",1276,"","","",""
588853,108,108,block_Testing,4,task_Testing,2,1,"","",18,6,"","",Block6,"","","","","","","","",K,Stim14,NR,78,"",0,K,green,11,2,60,"",1276,"","","",""
588853,109,109,block_Testing,4,task_Testing,2,1,"","",1,7,"","",Block7,"","","","","","","","",J,Stim13,NR,70,"",0,J,green,10,2,60.56,"",1276,"","","",""
588853,110,110,block_Testing,4,task_Testing,2,1,"","",2,7,"","",Block7,"","","","","","","","",J,Stim11,NR,50,"",0,J,green,8,2,61.11,"",1276,"","","",""
588853,111,111,block_Testing,4,task_Testing,2,1,"","",3,7,"","",Block7,"","","","","","","","",J,Stim13,HR,36,"",0,J,red,10,2,61.67,"",1276,"","","",""
588853,112,112,block_Testing,4,task_Testing,2,1,"","",4,7,"","",Block7,"","","","","","","","",K,Stim15,LR,70,"",0,K,blue,12,2,62.22,"",1276,"","","",""
588853,113,113,block_Testing,4,task_Testing,2,1,"","",5,7,"","",Block7,"","","","","","","","",J,Stim15,NR,68,"",0,J,green,12,2,62.78,"",1276,"","","",""
588853,114,114,block_Testing,4,task_Testing,2,1,"","",6,7,"","",Block7,"","","","","","","","",K,Stim15,HR,51,"",0,K,red,11,2,63.33,"",1276,"","","",""
588853,115,115,block_Testing,4,task_Testing,2,1,"","",7,7,"","",Block7,"","","","","","","","",K,Stim14,NR,23,"",0,K,green,11,2,63.89,"",1276,"","","",""
588853,116,116,block_Testing,4,task_Testing,2,1,"","",8,7,"","",Block7,"","","","","","","","",J,Stim16,HR,36,"",0,J,red,12,2,64.44,"",1276,"","","",""
588853,117,117,block_Testing,4,task_Testing,2,1,"","",9,7,"","",Block7,"","","","","","","","",J,Stim11,HR,70,"",0,J,red,8,2,65,"",1276,"","","",""
588853,118,118,block_Testing,4,task_Testing,2,1,"","",10,7,"","",Block7,"","","","","","","","",J,Stim14,LR,14,"",0,J,blue,11,2,65.56,"",1276,"","","",""
588853,119,119,block_Testing,4,task_Testing,2,1,"","",11,7,"","",Block7,"","","","","","","","",K,Stim13,NR,1,"",0,K,green,9,2,66.11,"",1276,"","","",""
588853,120,120,block_Testing,4,task_Testing,2,0,"","",12,7,"","",Block7,"","","","","","","","",J,Stim16,HR,7,"",0,K,red,13,2,66.67,"",1276,"","","",""
588853,121,121,block_Testing,4,task_Testing,2,1,"","",13,7,"","",Block7,"","","","","","","","",K,Stim12,HR,52,"",0,K,red,9,2,67.22,"",1276,"","","",""
588853,122,122,block_Testing,4,task_Testing,2,1,"","",14,7,"","",Block7,"","","","","","","","",K,Stim13,LR,75,"",0,K,blue,10,2,67.78,"",1276,"","","",""
588853,123,123,block_Testing,4,task_Testing,2,1,"","",15,7,"","",Block7,"","","","","","","","",J,Stim16,LR,84,"",0,J,blue,13,2,68.33,"",1276,"","","",""
588853,124,124,block_Testing,4,task_Testing,2,1,"","",16,7,"","",Block7,"","","","","","","","",K,Stim11,LR,5,"",0,K,blue,8,2,68.89,"",1276,"","","",""
588853,125,125,block_Testing,4,task_Testing,2,1,"","",17,7,"","",Block7,"","","","","","","","",K,Stim16,NR,49,"",0,K,green,13,2,69.44,"",1276,"","","",""
588853,126,126,block_Testing,4,task_Testing,2,0,"","",18,7,"","",Block7,"","","","","","","","",K,Stim14,LR,8,"",0,J,blue,9,2,70,"",1276,"","","",""
588853,127,127,block_Testing,4,task_Testing,2,1,"","",1,8,"","",Block8,"","","","","","","","",J,Stim12,LR,90,"",0,J,blue,9,2,70.56,"",1276,"","","",""
588853,128,128,block_Testing,4,task_Testing,2,1,"","",2,8,"","",Block8,"","","","","","","","",K,Stim16,NR,122,"",0,K,green,13,2,71.11,"",1276,"","","",""
588853,129,129,block_Testing,4,task_Testing,2,1,"","",3,8,"","",Block8,"","","","","","","","",K,Stim14,HR,19,"",0,K,red,11,2,71.67,"",1276,"","","",""
588853,130,130,block_Testing,4,task_Testing,2,1,"","",4,8,"","",Block8,"","","","","","","","",J,Stim13,HR,107,"",0,J,red,10,2,72.22,"",1276,"","","",""
588853,131,131,block_Testing,4,task_Testing,2,1,"","",5,8,"","",Block8,"","","","","","","","",K,Stim15,LR,20,"",0,K,blue,12,2,72.78,"",1276,"","","",""
588853,132,132,block_Testing,4,task_Testing,2,1,"","",6,8,"","",Block8,"","","","","","","","",J,Stim12,HR,1,"",0,J,red,8,2,73.33,"",1276,"","","",""
588853,133,133,block_Testing,4,task_Testing,2,0,"","",7,8,"","",Block8,"","","","","","","","",J,Stim12,HR,13,"",0,K,red,9,2,73.89,"",1276,"","","",""
588853,134,134,block_Testing,4,task_Testing,2,1,"","",8,8,"","",Block8,"","","","","","","","",K,Stim11,LR,102,"",0,K,blue,8,2,74.44,"",1276,"","","",""
588853,135,135,block_Testing,4,task_Testing,2,1,"","",9,8,"","",Block8,"","","","","","","","",K,Stim16,HR,32,"",0,K,red,13,2,75,"",1276,"","","",""
588853,136,136,block_Testing,4,task_Testing,2,1,"","",10,8,"","",Block8,"","","","","","","","",J,Stim14,LR,124,"",0,J,blue,11,2,75.56,"",1276,"","","",""
588853,137,137,block_Testing,4,task_Testing,2,1,"","",11,8,"","",Block8,"","","","","","","","",J,Stim13,NR,14,"",0,J,green,8,2,76.11,"",1276,"","","",""
588853,138,138,block_Testing,4,task_Testing,2,1,"","",12,8,"","",Block8,"","","","","","","","",J,Stim15,NR,7,"",0,J,green,12,2,76.67,"",1276,"","","",""
588853,139,139,block_Testing,4,task_Testing,2,1,"","",13,8,"","",Block8,"","","","","","","","",K,Stim14,LR,62,"",0,K,blue,10,2,77.22,"",1276,"","","",""
588853,140,140,block_Testing,4,task_Testing,2,1,"","",14,8,"","",Block8,"","","","","","","","",J,Stim14,NR,93,"",0,J,green,10,2,77.78,"",1276,"","","",""
588853,141,141,block_Testing,4,task_Testing,2,1,"","",15,8,"","",Block8,"","","","","","","","",J,PreISI1,LR,81,"",0,J,blue,13,2,78.33,"",1276,"","","",""
588853,142,142,block_Testing,4,task_Testing,2,1,"","",16,8,"","",Block8,"","","","","","","","",J,Stim15,HR,86,"",0,J,red,12,2,78.89,"",1276,"","","",""
588853,143,143,block_Testing,4,task_Testing,2,0,"","",17,8,"","",Block8,"","","","","","","","",J,PreISI1,NR,26,"",0,K,green,11,2,79.44,"",1276,"","","",""
588853,144,144,block_Testing,4,task_Testing,2,0,"","",18,8,"","",Block8,"","","","","","","","",J,PreISI1,NR,314,"",0,K,green,9,2,80,"",1276,"","","",""
588853,145,145,block_Testing,4,task_Testing,2,1,"","",1,9,"","",Block9,"","","","","","","","",K,Stim11,LR,76,"",0,K,blue,8,2,80.56,"",1276,"","","",""
588853,146,146,block_Testing,4,task_Testing,2,1,"","",2,9,"","",Block9,"","","","","","","","",J,Stim13,LR,10,"",0,J,blue,9,2,81.11,"",1276,"","","",""
588853,147,147,block_Testing,4,task_Testing,2,1,"","",3,9,"","",Block9,"","","","","","","","",J,Stim13,NR,112,"",0,J,green,10,2,81.67,"",1276,"","","",""
588853,148,148,block_Testing,4,task_Testing,2,1,"","",4,9,"","",Block9,"","","","","","","","",K,PreISI1,LR,117,"",0,K,blue,12,2,82.22,"",1276,"","","",""
588853,149,149,block_Testing,4,task_Testing,2,1,"","",5,9,"","",Block9,"","","","","","","","",K,Stim13,LR,60,"",0,K,blue,10,2,82.78,"",1276,"","","",""
588853,150,150,block_Testing,4,task_Testing,2,1,"","",6,9,"","",Block9,"","","","","","","","",K,Stim15,HR,7,"",0,K,red,11,2,83.33,"",1276,"","","",""
588853,151,151,block_Testing,4,task_Testing,2,1,"","",7,9,"","",Block9,"","","","","","","","",J,Stim14,LR,74,"",0,J,blue,11,2,83.89,"",1276,"","","",""
588853,152,152,block_Testing,4,task_Testing,2,1,"","",8,9,"","",Block9,"","","","","","","","",J,Stim14,HR,43,"",0,J,red,10,2,84.44,"",1276,"","","",""
588853,153,153,block_Testing,4,task_Testing,2,0,"","",9,9,"","",Block9,"","","","","","","","",K,PreISI1,HR,446,"",0,J,red,8,2,85,"",1276,"","","",""
588853,154,154,block_Testing,4,task_Testing,2,1,"","",10,9,"","",Block9,"","","","","","","","",K,Stim14,NR,114,"",0,K,green,11,2,85.56,"",1276,"","","",""
588853,155,155,block_Testing,4,task_Testing,2,1,"","",11,9,"","",Block9,"","","","","","","","",K,Stim13,NR,1,"",0,K,green,9,2,86.11,"",1276,"","","",""
588853,156,156,block_Testing,4,task_Testing,2,1,"","",12,9,"","",Block9,"","","","","","","","",K,Stim16,HR,35,"",0,K,red,13,2,86.67,"",1276,"","","",""
588853,157,157,block_Testing,4,task_Testing,2,1,"","",13,9,"","",Block9,"","","","","","","","",J,Stim16,LR,82,"",0,J,blue,13,2,87.22,"",1276,"","","",""
588853,158,158,block_Testing,4,task_Testing,2,1,"","",14,9,"","",Block9,"","","","","","","","",J,Stim12,NR,23,"",0,J,green,8,2,87.78,"",1276,"","","",""
588853,159,159,block_Testing,4,task_Testing,2,1,"","",15,9,"","",Block9,"","","","","","","","",K,Stim16,NR,34,"",0,K,green,13,2,88.33,"",1276,"","","",""
588853,160,160,block_Testing,4,task_Testing,2,1,"","",16,9,"","",Block9,"","","","","","","","",K,Stim12,HR,106,"",0,K,red,9,2,88.89,"",1276,"","","",""
588853,161,161,block_Testing,4,task_Testing,2,1,"","",17,9,"","",Block9,"","","","","","","","",J,Stim16,HR,103,"",0,J,red,12,2,89.44,"",1276,"","","",""
588853,162,162,block_Testing,4,task_Testing,2,1,"","",18,9,"","",Block9,"","","","","","","","",J,Stim15,NR,99,"",0,J,green,12,2,90,"",1276,"","","",""
588853,163,163,block_Testing,4,task_Testing,2,1,"","",1,10,"","",Block10,"","","","","","","","",K,Stim13,NR,24,"",0,K,green,9,2,90.56,"",1276,"","","",""
588853,164,164,block_Testing,4,task_Testing,2,1,"","",2,10,"","",Block10,"","","","","","","","",K,Stim16,NR,54,"",0,K,green,13,2,91.11,"",1276,"","","",""
588853,165,165,block_Testing,4,task_Testing,2,1,"","",3,10,"","",Block10,"","","","","","","","",J,Stim12,HR,10,"",0,J,red,8,2,91.67,"",1276,"","","",""
588853,166,166,block_Testing,4,task_Testing,2,1,"","",4,10,"","",Block10,"","","","","","","","",J,Stim14,LR,108,"",0,J,blue,11,2,92.22,"",1276,"","","",""
588853,167,167,block_Testing,4,task_Testing,2,1,"","",5,10,"","",Block10,"","","","","","","","",J,Stim14,HR,66,"",0,J,red,10,2,92.78,"",1276,"","","",""
588853,168,168,block_Testing,4,task_Testing,2,1,"","",6,10,"","",Block10,"","","","","","","","",J,Stim16,HR,9,"",0,J,red,12,2,93.33,"",1276,"","","",""
588853,169,169,block_Testing,4,task_Testing,2,1,"","",7,10,"","",Block10,"","","","","","","","",J,Stim16,LR,13,"",0,J,blue,13,2,93.89,"",1276,"","","",""
588853,170,170,block_Testing,4,task_Testing,2,1,"","",8,10,"","",Block10,"","","","","","","","",K,Stim15,NR,43,"",0,K,green,11,2,94.44,"",1276,"","","",""
588853,171,171,block_Testing,4,task_Testing,2,1,"","",9,10,"","",Block10,"","","","","","","","",J,Stim15,NR,24,"",0,J,green,12,2,95,"",1276,"","","",""
588853,172,172,block_Testing,4,task_Testing,2,1,"","",10,10,"","",Block10,"","","","","","","","",K,Stim16,HR,4,"",0,K,red,13,2,95.56,"",1276,"","","",""
588853,173,173,block_Testing,4,task_Testing,2,1,"","",11,10,"","",Block10,"","","","","","","","",K,Stim13,LR,59,"",0,K,blue,10,2,96.11,"",1276,"","","",""
588853,174,174,block_Testing,4,task_Testing,2,1,"","",12,10,"","",Block10,"","","","","","","","",K,Stim12,HR,55,"",0,K,red,9,2,96.67,"",1276,"","","",""
588853,175,175,block_Testing,4,task_Testing,2,1,"","",13,10,"","",Block10,"","","","","","","","",K,Stim15,LR,77,"",0,K,blue,12,2,97.22,"",1276,"","","",""
588853,176,176,block_Testing,4,task_Testing,2,1,"","",14,10,"","",Block10,"","","","","","","","",J,Stim12,NR,4,"",0,J,green,8,2,97.78,"",1276,"","","",""
588853,177,177,block_Testing,4,task_Testing,2,1,"","",15,10,"","",Block10,"","","","","","","","",K,Stim14,HR,17,"",0,K,red,11,2,98.33,"",1276,"","","",""
588853,178,178,block_Testing,4,task_Testing,2,1,"","",16,10,"","",Block10,"","","","","","","","",J,Stim14,NR,3,"",0,J,green,10,2,98.89,"",1276,"","","",""
588853,179,179,block_Testing,4,task_Testing,2,1,"","",17,10,"","",Block10,"","","","","","","","",J,Stim13,LR,24,"",0,J,blue,9,2,99.44,"",1276,"","","",""
588853,180,180,block_Testing,4,task_Testing,2,1,"","",18,10,"","",Block10,"","","","","","","","",K,Stim11,LR,73,"",0,K,blue,8,2,100,"",1276,"","","",""
588853,1,1,block_Testing,4,task_Testing_Instructions,1,"","","","",1,"","","","","","","","","","","","","","","","","","","","","","","","","","","",""
588853,1,1,block_End,5,task_Demog_End,1,"","",34,"",1,"","","","","","","","","","","","","","","",Female,"","","","","","","","","","","",""
588853,1,1,block_TrngInstructions,1,task_Trng_Instructions,1,"","","","",1,"","","","","","","","","","","","","","","","","","","","","","","","","","","",""
588853,1,1,block_Practice,2,task_GetReady,1,"","","","",1,"","","","","","","","","","","","","","","","","","","","","","","","","","","",""
588853,1,1,block_Practice,2,task_Trng_Prac,2,1,1,"","",1,"","","","","","","","","","","",J,PreISI1,Disallowed,62,"",0,J,blue,13,"","","",0,0,"","",""
588853,2,2,block_Practice,2,task_Trng_Prac,2,1,2,"","",1,"","","","","","","","","","","",J,Stim13,Disallowed,83,"",0,J,green,9,"","","",0,0,"","",""
588853,3,3,block_Practice,2,task_Trng_Prac,2,1,3,"","",1,"","","","","","","","","","","",K,Stim13,Disallowed,69,"",0,K,red,10,"","","",0,0,"","",""
588853,4,4,block_Practice,2,task_Trng_Prac,2,1,4,"","",1,"","","","","","","","","","","",J,Stim15,Disallowed,75,"",0,J,blue,12,"","","",0,0,"","",""
588853,5,5,block_Practice,2,task_Trng_Prac,2,1,5,"","",1,"","","","","","","","","","","",K,Stim14,Disallowed,116,"",0,K,green,11,"","","",0,0,"","",""
588853,6,6,block_Practice,2,task_Trng_Prac,2,0,5,"","",1,"","","","","","","","","","","",J,Stim11,Disallowed,91,"",0,K,red,8,"","","",0,0,"","",""
588853,1,1,block_Trng,3,task_GetReady,1,"","","","",1,"","","","","","","","","","","","","","","","","","","","","","","","","","","",""
588853,1,1,block_Trng,3,task_Trng,2,1,"","",1,1,"","","","",Block1,"","","","","","",J,Stim15,NR,76,"",0,J,green,12,"","",0,0,"","",0,0.28
588853,2,2,block_Trng,3,task_Trng,2,0,"","",2,1,"","","","",Block1,"","","","","","",J,Stim13,NR,74,"",0,K,green,11,"","",0,0,"","",0,0.56
588853,3,3,block_Trng,3,task_Trng,2,1,"","",3,1,"","","","",Block1,"","","","","","",J,Stim13,LR,103,"",0,J,blue,11,"","",0,2,"","",0,0.83
588853,4,4,block_Trng,3,task_Trng,2,1,"","",4,1,"","","","",Block1,"","","","","","",J,Stim13,NR,9,"",0,J,green,10,"","",0,2,"","",0,1.11
588853,5,5,block_Trng,3,task_Trng,2,1,"","",5,1,"","","","",Block1,"","","","","","",J,Stim14,HR,106,"",0,J,red,12,"","",0,12,"","",0,1.39
588853,6,6,block_Trng,3,task_Trng,2,1,"","",6,1,"","","","",Block1,"","","","","","",K,Stim13,HR,103,"",0,K,red,11,"","",0,22,"","",0,1.67
588853,7,7,block_Trng,3,task_Trng,2,1,"","",7,1,"","","","",Block1,"","","","","","",J,Stim15,LR,67,"",0,J,blue,13,"","",0,24,"","",0,1.94
588853,8,8,block_Trng,3,task_Trng,2,0,"","",8,1,"","","","",Block1,"","","","","","",J,Stim11,NR,100,"",0,K,green,9,"","",0,24,"","",0,2.22
588853,9,9,block_Trng,3,task_Trng,2,1,"","",9,1,"","","","",Block1,"","","","","","",K,Stim14,LR,86,"",0,K,blue,12,"","",0,26,"","",0,2.5
588853,10,10,block_Trng,3,task_Trng,2,1,"","",10,1,"","","","",Block1,"","","","","","",J,Stim10,HR,68,"",0,J,red,8,"","",0,36,"","",0,2.78
588853,11,11,block_Trng,3,task_Trng,2,1,"","",11,1,"","","","",Block1,"","","","","","",J,Stim10,NR,97,"",0,J,green,8,"","",0,36,"","",0,3.06
588853,12,12,block_Trng,3,task_Trng,2,1,"","",12,1,"","","","",Block1,"","","","","","",K,Stim15,NR,58,"",0,K,green,13,"","",0,36,"","",0,3.33
588853,13,13,block_Trng,3,task_Trng,2,1,"","",13,1,"","","","",Block1,"","","","","","",K,Stim16,HR,49,"",0,K,red,13,"","",0,46,"","",0,3.61
588853,14,14,block_Trng,3,task_Trng,2,1,"","",14,1,"","","","",Block1,"","","","","","",J,Stim12,HR,94,"",0,J,red,10,"","",0,56,"","",0,3.89
588853,15,15,block_Trng,3,task_Trng,2,1,"","",15,1,"","","","",Block1,"","","","","","",K,Stim12,LR,103,"",0,K,blue,10,"","",0,58,"","",0,4.17
588853,16,16,block_Trng,3,task_Trng,2,1,"","",16,1,"","","","",Block1,"","","","","","",K,Stim10,LR,113,"",0,K,blue,8,"","",0,60,"","",0,4.44
588853,17,17,block_Trng,3,task_Trng,2,0,"","",17,1,"","","","",Block1,"","","","","","",J,Stim11,HR,90,"",0,K,red,9,"","",0,60,"","",0,4.72
588853,18,18,block_Trng,3,task_Trng,2,1,"","",18,1,"","","","",Block1,"","","","","","",J,Stim11,LR,91,"",0,J,blue,9,"","",0,62,"","",0,5
588853,19,19,block_Trng,3,task_Trng,2,1,"","",1,2,"","","","",Block2,"","","","","","",K,Stim12,LR,69,"",0,K,blue,10,"","",0,64,"","",0,5.28
588853,20,20,block_Trng,3,task_Trng,2,0,"","",2,2,"","","","",Block2,"","","","","","",K,Stim14,HR,60,"",0,J,red,12,"","",0,64,"","",0,5.56
588853,21,21,block_Trng,3,task_Trng,2,0,"","",3,2,"","","","",Block2,"","","","","","",J,Stim13,NR,104,"",0,K,green,11,"","",0,64,"","",0,5.83
588853,22,22,block_Trng,3,task_Trng,2,1,"","",4,2,"","","","",Block2,"","","","","","",J,Stim15,LR,17,"",0,J,blue,11,"","",0,66,"","",0,6.11
588853,23,23,block_Trng,3,task_Trng,2,1,"","",5,2,"","","","",Block2,"","","","","","",K,Stim11,LR,47,"",0,K,blue,8,"","",0,68,"","",0,6.39
588853,24,24,block_Trng,3,task_Trng,2,1,"","",6,2,"","","","",Block2,"","","","","","",K,Stim12,NR,2,"",0,K,green,9,"","",0,68,"","",0,6.67
588853,25,25,block_Trng,3,task_Trng,2,1,"","",7,2,"","","","",Block2,"","","","","","",J,Stim10,NR,118,"",0,J,green,8,"","",0,68,"","",0,6.94
588853,26,26,block_Trng,3,task_Trng,2,1,"","",8,2,"","","","",Block2,"","","","","","",K,Stim16,HR,83,"",0,K,red,13,"","",0,78,"","",0,7.22
588853,27,27,block_Trng,3,task_Trng,2,1,"","",9,2,"","","","",Block2,"","","","","","",K,Stim15,LR,29,"",0,K,blue,12,"","",0,80,"","",0,7.5
588853,28,28,block_Trng,3,task_Trng,2,1,"","",10,2,"","","","",Block2,"","","","","","",J,Stim12,NR,114,"",0,J,green,10,"","",0,80,"","",0,7.78
588853,29,29,block_Trng,3,task_Trng,2,1,"","",11,2,"","","","",Block2,"","","","","","",J,Stim16,LR,28,"",0,J,blue,13,"","",0,82,"","",0,8.06
588853,30,30,block_Trng,3,task_Trng,2,1,"","",12,2,"","","","",Block2,"","","","","","",J,Stim12,HR,12,"",0,J,red,8,"","",0,92,"","",0,8.33
588853,31,31,block_Trng,3,task_Trng,2,1,"","",13,2,"","","","",Block2,"","","","","","",J,Stim12,LR,86,"",0,J,blue,9,"","",0,94,"","",0,8.61
588853,32,32,block_Trng,3,task_Trng,2,1,"","",14,2,"","","","",Block2,"","","","","","",J,Stim14,NR,112,"",0,J,green,12,"","",0,94,"","",0,8.89
588853,33,33,block_Trng,3,task_Trng,2,0,"","",15,2,"","","","",Block2,"","","","","","",J,Stim12,HR,4,"",0,K,red,9,"","",0,94,"","",0,9.17
588853,34,34,block_Trng,3,task_Trng,2,1,"","",16,2,"","","","",Block2,"","","","","","",K,Stim16,NR,10,"",0,K,green,13,"","",0,94,"","",0,9.44
588853,35,35,block_Trng,3,task_Trng,2,1,"","",17,2,"","","","",Block2,"","","","","","",J,Stim13,HR,5,"",0,J,red,10,"","",0,104,"","",0,9.72
588853,36,36,block_Trng,3,task_Trng,2,1,"","",18,2,"","","","",Block2,"","","","","","",K,Stim14,HR,92,"",0,K,red,11,"","",0,114,"","",0,10
588853,37,37,block_Trng,3,task_Trng,2,1,"","",1,3,"","","","",Block3,"","","","","","",K,Stim14,HR,9,"",0,K,red,11,"","",0,124,"","",0,10.28
588853,38,38,block_Trng,3,task_Trng,2,1,"","",2,3,"","","","",Block3,"","","","","","",K,Stim11,LR,85,"",0,K,blue,8,"","",0,126,"","",0,10.56
588853,39,39,block_Trng,3,task_Trng,2,1,"","",3,3,"","","","",Block3,"","","","","","",K,Stim16,LR,36,"",0,K,blue,12,"","",0,128,"","",0,10.83
588853,40,40,block_Trng,3,task_Trng,2,1,"","",4,3,"","","","",Block3,"","","","","","",K,Stim16,NR,119,"",0,K,green,13,"","",0,128,"","",0,11.11
588853,41,41,block_Trng,3,task_Trng,2,1,"","",5,3,"","","","",Block3,"","","","","","",K,Stim14,NR,98,"",0,K,green,11,"","",0,128,"","",0,11.39
588853,42,42,block_Trng,3,task_Trng,2,1,"","",6,3,"","","","",Block3,"","","","","","",J,Stim13,LR,3,"",0,J,blue,9,"","",0,130,"","",0,11.67
588853,43,43,block_Trng,3,task_Trng,2,1,"","",7,3,"","","","",Block3,"","","","","","",K,Stim12,NR,80,"",0,K,green,9,"","",0,130,"","",0,11.94
588853,44,44,block_Trng,3,task_Trng,2,1,"","",8,3,"","","","",Block3,"","","","","","",J,Stim11,HR,109,"",0,J,red,8,"","",0,140,"","",0,12.22
588853,45,45,block_Trng,3,task_Trng,2,1,"","",9,3,"","","","",Block3,"","","","","","",K,Stim16,HR,26,"",0,K,red,13,"","",0,150,"","",0,12.5
588853,46,46,block_Trng,3,task_Trng,2,1,"","",10,3,"","","","",Block3,"","","","","","",J,Stim13,NR,54,"",0,J,green,10,"","",0,150,"","",0,12.78
588853,47,47,block_Trng,3,task_Trng,2,1,"","",11,3,"","","","",Block3,"","","","","","",J,Stim11,NR,115,"",0,J,green,8,"","",0,150,"","",0,13.06
588853,48,48,block_Trng,3,task_Trng,2,1,"","",12,3,"","","","",Block3,"","","","","","",J,Stim16,NR,2,"",0,J,green,12,"","",0,150,"","",0,13.33
588853,49,49,block_Trng,3,task_Trng,2,1,"","",13,3,"","","","",Block3,"","","","","","",K,Stim12,HR,67,"",0,K,red,9,"","",0,160,"","",0,13.61
588853,50,50,block_Trng,3,task_Trng,2,1,"","",14,3,"","","","",Block3,"","","","","","",J,PreISI1,LR,3,"",0,J,blue,13,"","",0,162,"","",0,13.89
588853,51,51,block_Trng,3,task_Trng,2,1,"","",15,3,"","","","",Block3,"","","","","","",J,Stim14,HR,18,"",0,J,red,10,"","",0,172,"","",0,14.17
588853,52,52,block_Trng,3,task_Trng,2,1,"","",16,3,"","","","",Block3,Slow!,"","","","","",J,PreISI2,LR,574,"",1,J,blue,11,"","",0,172,"","",0,14.44
588853,53,53,block_Trng,3,task_Trng,2,1,"","",17,3,"","","","",Block3,Slow!,"","","","","",J,PreISI2,HR,112,"",2,J,red,12,"","",0,172,"","",0,14.72
588853,54,54,block_Trng,3,task_Trng,2,1,"","",18,3,"","","","",Block3,"","","","","","",K,Stim13,LR,78,"",0,K,blue,10,"","",0,174,"","",0,15
588853,55,55,block_Trng,3,task_Trng,2,1,"","",1,4,"","","","",Block4,"","","","","","",J,Stim11,HR,40,"",0,J,red,8,"","",0,184,"","",0,15.28
588853,56,56,block_Trng,3,task_Trng,2,1,"","",2,4,"","","","",Block4,"","","","","","",J,Stim11,NR,94,"",0,J,green,8,"","",0,184,"","",0,15.56
588853,57,57,block_Trng,3,task_Trng,2,1,"","",3,4,"","","","",Block4,"","","","","","",K,Stim12,HR,116,"",0,K,red,9,"","",0,194,"","",0,15.83
588853,58,58,block_Trng,3,task_Trng,2,1,"","",4,4,"","","","",Block4,"","","","","","",J,Stim16,LR,119,"",0,J,blue,13,"","",0,196,"","",0,16.11
588853,59,59,block_Trng,3,task_Trng,2,1,"","",5,4,"","","","",Block4,"","","","","","",K,Stim11,LR,78,"",0,K,blue,8,"","",0,198,"","",0,16.39
588853,60,60,block_Trng,3,task_Trng,2,1,"","",6,4,"","","","",Block4,"","","","","","",J,Stim12,LR,88,"",0,J,blue,9,"","",0,200,"","",0,16.67
588853,61,61,block_Trng,3,task_Trng,2,1,"","",7,4,"","","","",Block4,"","","","","","",K,Stim14,NR,117,"",0,K,green,11,"","",0,200,"","",0,16.94
588853,62,62,block_Trng,3,task_Trng,2,1,"","",8,4,"","","","",Block4,"","","","","","",K,PreISI1,HR,73,"",0,K,red,13,"","",0,210,"","",0,17.22
588853,63,63,block_Trng,3,task_Trng,2,1,"","",9,4,"","","","",Block4,"","","","","","",K,Stim12,NR,69,"",0,K,green,9,"","",0,210,"","",0,17.5
588853,64,64,block_Trng,3,task_Trng,2,1,"","",10,4,"","","","",Block4,"","","","","","",K,Stim16,LR,3,"",0,K,blue,12,"","",0,212,"","",0,17.78
588853,65,65,block_Trng,3,task_Trng,2,1,"","",11,4,"","","","",Block4,"","","","","","",K,Stim13,LR,35,"",0,K,blue,10,"","",0,214,"","",0,18.06
588853,66,66,block_Trng,3,task_Trng,2,1,"","",12,4,"","","","",Block4,"","","","","","",J,Stim15,LR,95,"",0,J,blue,11,"","",0,216,"","",0,18.33
588853,67,67,block_Trng,3,task_Trng,2,1,"","",13,4,"","","","",Block4,"","","","","","",J,Stim13,NR,86,"",0,J,green,10,"","",0,216,"","",0,18.61
588853,68,68,block_Trng,3,task_Trng,2,0,"","",14,4,"","","","",Block4,"","","","","","",K,Stim13,HR,23,"",0,J,red,10,"","",0,216,"","",0,18.89
588853,69,69,block_Trng,3,task_Trng,2,1,"","",15,4,"","","","",Block4,"","","","","","",J,Stim15,NR,97,"",0,J,green,12,"","",0,216,"","",0,19.17
588853,70,70,block_Trng,3,task_Trng,2,1,"","",16,4,"","","","",Block4,"","","","","","",J,Stim16,HR,49,"",0,J,red,12,"","",0,226,"","",0,19.44
588853,71,71,block_Trng,3,task_Trng,2,1,"","",17,4,"","","","",Block4,"","","","","","",K,Stim16,NR,115,"",0,K,green,13,"","",0,226,"","",0,19.72
588853,72,72,block_Trng,3,task_Trng,2,1,"","",18,4,"","","","",Block4,"","","","","","",K,Stim15,HR,10,"",0,K,red,11,"","",0.8,236,"","",1,20
588853,73,73,block_Trng,3,task_Trng,2,1,"","",1,5,"","","","",Block5,"","","","","","",J,Stim14,HR,46,"",0,J,red,10,"","",0.8,246,"","",1,20.28
588853,74,74,block_Trng,3,task_Trng,2,1,"","",2,5,"","","","",Block5,"","","","","","",J,Stim15,NR,71,"",0,J,green,12,"","",0.8,246,"","",1,20.56
588853,75,75,block_Trng,3,task_Trng,2,0,"","",3,5,"","","","",Block5,"","","","","","",J,Stim14,LR,18,"",0,K,blue,8,"","",0.8,246,"","",1,20.83
588853,76,76,block_Trng,3,task_Trng,2,1,"","",4,5,"","","","",Block5,"","","","","","",K,Stim15,HR,8,"",0,K,red,11,"","",0.8,256,"","",1,21.11
588853,77,77,block_Trng,3,task_Trng,2,1,"","",5,5,"","","","",Block5,"","","","","","",K,Stim16,LR,20,"",0,K,blue,12,"","",0.8,258,"","",1,21.39
588853,78,78,block_Trng,3,task_Trng,2,1,"","",6,5,"","","","",Block5,"","","","","","",K,Stim12,HR,28,"",0,K,red,9,"","",0.8,268,"","",1,21.67
588853,79,79,block_Trng,3,task_Trng,2,1,"","",7,5,"","","","",Block5,"","","","","","",J,Stim16,HR,53,"",0,J,red,12,"","",0.8,278,"","",1,21.94
588853,80,80,block_Trng,3,task_Trng,2,1,"","",8,5,"","","","",Block5,"","","","","","",K,Stim14,NR,76,"",0,K,green,11,"","",0.8,278,"","",1,22.22
588853,81,81,block_Trng,3,task_Trng,2,1,"","",9,5,"","","","",Block5,"","","","","","",J,Stim11,HR,101,"",0,J,red,8,"","",0.8,288,"","",1,22.5
588853,82,82,block_Trng,3,task_Trng,2,1,"","",10,5,"","","","",Block5,"","","","","","",J,Stim16,LR,15,"",0,J,blue,13,"","",0.8,290,"","",1,22.78
588853,83,83,block_Trng,3,task_Trng,2,1,"","",11,5,"","","","",Block5,"","","","","","",K,Stim12,NR,18,"",0,K,green,9,"","",0.8,290,"","",1,23.06
588853,84,84,block_Trng,3,task_Trng,2,1,"","",12,5,"","","","",Block5,"","","","","","",J,Stim13,NR,59,"",0,J,green,10,"","",0.8,290,"","",1,23.33
588853,85,85,block_Trng,3,task_Trng,2,1,"","",13,5,"","","","",Block5,"","","","","","",K,Stim13,LR,46,"",0,K,blue,10,"","",0.8,292,"","",1,23.61
588853,86,86,block_Trng,3,task_Trng,2,1,"","",14,5,"","","","",Block5,"","","","","","",J,Stim15,LR,10,"",0,J,blue,11,"","",0.8,294,"","",1,23.89
588853,87,87,block_Trng,3,task_Trng,2,1,"","",15,5,"","","","",Block5,"","","","","","",K,Stim16,HR,18,"",0,K,red,13,"","",0.8,304,"","",1,24.17
588853,88,88,block_Trng,3,task_Trng,2,1,"","",16,5,"","","","",Block5,"","","","","","",J,Stim12,LR,87,"",0,J,blue,9,"","",0.8,306,"","",1,24.44
588853,89,89,block_Trng,3,task_Trng,2,1,"","",17,5,"","","","",Block5,"","","","","","",J,Stim12,NR,96,"",0,J,green,8,"","",0.8,306,"","",1,24.72
588853,90,90,block_Trng,3,task_Trng,2,1,"","",18,5,"","","","",Block5,"","","","","","",K,Stim16,NR,11,"",0,K,green,13,"","",0.8,306,"","",1,25
588853,91,91,block_Trng,3,task_Trng,2,0,"","",1,6,"","","","",Block6,"","","","","","",J,Stim12,HR,59,"",0,K,red,9,"","",0.8,306,"","",1,25.28
588853,92,92,block_Trng,3,task_Trng,2,1,"","",2,6,"","","","",Block6,"","","","","","",K,Stim14,HR,32,"",0,K,red,11,"","",0.8,316,"","",1,25.56
588853,93,93,block_Trng,3,task_Trng,2,1,"","",3,6,"","","","",Block6,"","","","","","",K,Stim12,LR,73,"",0,K,blue,8,"","",0.8,318,"","",1,25.83
588853,94,94,block_Trng,3,task_Trng,2,1,"","",4,6,"","","","",Block6,"","","","","","",J,Stim16,LR,111,"",0,J,blue,13,"","",0.8,320,"","",1,26.11
588853,95,95,block_Trng,3,task_Trng,2,1,"","",5,6,"","","","",Block6,"","","","","","",K,Stim13,NR,7,"",0,K,green,9,"","",0.8,320,"","",1,26.39
588853,96,96,block_Trng,3,task_Trng,2,1,"","",6,6,"","","","",Block6,"","","","","","",J,Stim15,NR,97,"",0,J,green,12,"","",0.8,320,"","",1,26.67
588853,97,97,block_Trng,3,task_Trng,2,1,"","",7,6,"","","","",Block6,"","","","","","",J,Stim12,LR,107,"",0,J,blue,9,"","",0.8,322,"","",1,26.94
588853,98,98,block_Trng,3,task_Trng,2,1,"","",8,6,"","","","",Block6,"","","","","","",K,Stim16,LR,13,"",0,K,blue,12,"","",0.8,324,"","",1,27.22
588853,99,99,block_Trng,3,task_Trng,2,1,"","",9,6,"","","","",Block6,"","","","","","",K,Stim16,HR,38,"",0,K,red,13,"","",0.8,334,"","",1,27.5
588853,100,100,block_Trng,3,task_Trng,2,1,"","",10,6,"","","","",Block6,"","","","","","",K,Stim16,NR,111,"",0,K,green,13,"","",0.8,334,"","",1,27.78
588853,101,101,block_Trng,3,task_Trng,2,1,"","",11,6,"","","","",Block6,"","","","","","",J,Stim15,HR,95,"",0,J,red,12,"","",0.8,344,"","",1,28.06
588853,102,102,block_Trng,3,task_Trng,2,1,"","",12,6,"","","","",Block6,"","","","","","",J,Stim14,LR,89,"",0,J,blue,11,"","",0.8,346,"","",1,28.33
588853,103,103,block_Trng,3,task_Trng,2,1,"","",13,6,"","","","",Block6,"","","","","","",J,Stim12,NR,60,"",0,J,green,8,"","",0.8,346,"","",1,28.61
588853,104,104,block_Trng,3,task_Trng,2,1,"","",14,6,"","","","",Block6,"","","","","","",J,Stim13,NR,115,"",0,J,green,10,"","",0.8,346,"","",1,28.89
588853,105,105,block_Trng,3,task_Trng,2,1,"","",15,6,"","","","",Block6,"","","","","","",J,Stim11,HR,108,"",0,J,red,8,"","",0.8,356,"","",1,29.17
588853,106,106,block_Trng,3,task_Trng,2,1,"","",16,6,"","","","",Block6,"","","","","","",K,Stim15,NR,11,"",0,K,green,11,"","",0.8,356,"","",1,29.44
588853,107,107,block_Trng,3,task_Trng,2,1,"","",17,6,"","","","",Block6,"","","","","","",J,Stim14,HR,37,"",0,J,red,10,"","",0.8,366,"","",1,29.72
588853,108,108,block_Trng,3,task_Trng,2,0,"","",18,6,"","","","",Block6,"","","","","","",J,Stim14,LR,34,"",0,K,blue,10,"","",0.8,366,"","",1,30
588853,109,109,block_Trng,3,task_Trng,2,1,"","",1,7,"","","","",Block7,"","","","","","",K,Stim12,LR,10,"",0,K,blue,8,"","",0.8,368,"","",1,30.28
588853,110,110,block_Trng,3,task_Trng,2,1,"","",2,7,"","","","",Block7,"","","","","","",K,Stim16,HR,22,"",0,K,red,13,"","",0.8,378,"","",1,30.56
588853,111,111,block_Trng,3,task_Trng,2,1,"","",3,7,"","","","",Block7,"","","","","","",K,Stim14,LR,65,"",0,K,blue,10,"","",0.8,380,"","",1,30.83
588853,112,112,block_Trng,3,task_Trng,2,1,"","",4,7,"","","","",Block7,"","","","","","",J,Stim13,HR,63,"",0,J,red,10,"","",0.8,390,"","",1,31.11
588853,113,113,block_Trng,3,task_Trng,2,1,"","",5,7,"","","","",Block7,"","","","","","",K,PreISI1,NR,25,"",0,K,green,13,"","",0.8,390,"","",1,31.39
588853,114,114,block_Trng,3,task_Trng,2,1,"","",6,7,"","","","",Block7,"","","","","","",J,Stim16,NR,10,"",0,J,green,12,"","",0.8,390,"","",1,31.67
588853,115,115,block_Trng,3,task_Trng,2,1,"","",7,7,"","","","",Block7,"","","","","","",J,Stim15,LR,12,"",0,J,blue,11,"","",0.8,392,"","",1,31.94
588853,116,116,block_Trng,3,task_Trng,2,1,"","",8,7,"","","","",Block7,"","","","","","",J,Stim14,HR,12,"",0,J,red,8,"","",0.8,402,"","",1,32.22
588853,117,117,block_Trng,3,task_Trng,2,1,"","",9,7,"","","","",Block7,"","","","","","",J,Stim12,LR,84,"",0,J,blue,9,"","",0.8,404,"","",1,32.5
588853,118,118,block_Trng,3,task_Trng,2,1,"","",10,7,"","","","",Block7,"","","","","","",K,Stim14,HR,19,"",0,K,red,11,"","",0.8,414,"","",1,32.78
588853,119,119,block_Trng,3,task_Trng,2,1,"","",11,7,"","","","",Block7,"","","","","","",K,Stim15,LR,56,"",0,K,blue,12,"","",0.8,416,"","",1,33.06
588853,120,120,block_Trng,3,task_Trng,2,1,"","",12,7,"","","","",Block7,"","","","","","",J,Stim13,NR,107,"",0,J,green,10,"","",0.8,416,"","",1,33.33
588853,121,121,block_Trng,3,task_Trng,2,1,"","",13,7,"","","","",Block7,"","","","","","",K,Stim12,NR,103,"",0,K,green,9,"","",0.8,416,"","",1,33.61
588853,122,122,block_Trng,3,task_Trng,2,1,"","",14,7,"","","","",Block7,"","","","","","",J,PreISI1,LR,50,"",0,J,blue,13,"","",0.8,418,"","",1,33.89
588853,123,123,block_Trng,3,task_Trng,2,1,"","",15,7,"","","","",Block7,"","","","","","",J,Stim12,NR,8,"",0,J,green,8,"","",0.8,418,"","",1,34.17
588853,124,124,block_Trng,3,task_Trng,2,0,"","",16,7,"","","","",Block7,"","","","","","",K,Stim15,HR,55,"",0,J,red,12,"","",0.8,418,"","",1,34.44
588853,125,125,block_Trng,3,task_Trng,2,1,"","",17,7,"","","","",Block7,"","","","","","",K,Stim13,HR,19,"",0,K,red,9,"","",0.8,428,"","",1,34.72
588853,126,126,block_Trng,3,task_Trng,2,1,"","",18,7,"","","","",Block7,"","","","","","",K,Stim14,NR,44,"",0,K,green,11,"","",0.8,428,"","",1,35
588853,127,127,block_Trng,3,task_Trng,2,1,"","",1,8,"","","","",Block8,"","","","","","",J,Stim11,HR,105,"",0,J,red,8,"","",0.8,438,"","",1,35.28
588853,128,128,block_Trng,3,task_Trng,2,1,"","",2,8,"","","","",Block8,"","","","","","",J,Stim12,NR,16,"",0,J,green,8,"","",0.8,438,"","",1,35.56
588853,129,129,block_Trng,3,task_Trng,2,1,"","",3,8,"","","","",Block8,"","","","","","",K,Stim12,HR,25,"",0,K,red,9,"","",0.8,448,"","",1,35.83
588853,130,130,block_Trng,3,task_Trng,2,0,"","",4,8,"","","","",Block8,"","","","","","",J,Stim14,HR,9,"",0,K,red,11,"","",0.8,448,"","",1,36.11
588853,131,131,block_Trng,3,task_Trng,2,1,"","",5,8,"","","","",Block8,"","","","","","",K,Stim12,LR,112,"",0,K,blue,8,"","",0.8,450,"","",1,36.39
588853,132,132,block_Trng,3,task_Trng,2,1,"","",6,8,"","","","",Block8,"","","","","","",K,Stim14,NR,25,"",0,K,green,9,"","",0.8,450,"","",1,36.67
588853,133,133,block_Trng,3,task_Trng,2,1,"","",7,8,"","","","",Block8,"","","","","","",J,Stim13,HR,47,"",0,J,red,10,"","",0.8,460,"","",1,36.94
588853,134,134,block_Trng,3,task_Trng,2,1,"","",8,8,"","","","",Block8,"","","","","","",J,Stim13,LR,4,"",0,J,blue,9,"","",0.8,462,"","",1,37.22
588853,135,135,block_Trng,3,task_Trng,2,1,"","",9,8,"","","","",Block8,"","","","","","",J,Stim15,LR,4,"",0,J,blue,11,"","",0.8,464,"","",1,37.5
588853,136,136,block_Trng,3,task_Trng,2,1,"","",10,8,"","","","",Block8,"","","","","","",J,PreISI1,LR,37,"",0,J,blue,13,"","",0.8,466,"","",1,37.78
588853,137,137,block_Trng,3,task_Trng,2,1,"","",11,8,"","","","",Block8,"","","","","","",J,Stim13,NR,92,"",0,J,green,10,"","",0.8,466,"","",1,38.06
588853,138,138,block_Trng,3,task_Trng,2,0,"","",12,8,"","","","",Block8,"","","","","","",J,Stim15,NR,0,"",0,K,green,11,"","",0.8,466,"","",1,38.33
588853,139,139,block_Trng,3,task_Trng,2,1,"","",13,8,"","","","",Block8,"","","","","","",J,Stim16,HR,10,"",0,J,red,12,"","",0.8,476,"","",1,38.61
588853,140,140,block_Trng,3,task_Trng,2,1,"","",14,8,"","","","",Block8,"","","","","","",K,Stim16,NR,47,"",0,K,green,13,"","",0.8,476,"","",1,38.89
588853,141,141,block_Trng,3,task_Trng,2,1,"","",15,8,"","","","",Block8,"","","","","","",K,Stim16,HR,85,"",0,K,red,13,"","",0.8,486,"","",1,39.17
588853,142,142,block_Trng,3,task_Trng,2,1,"","",16,8,"","","","",Block8,"","","","","","",K,Stim15,LR,58,"",0,K,blue,12,"","",0.8,488,"","",1,39.44
588853,143,143,block_Trng,3,task_Trng,2,1,"","",17,8,"","","","",Block8,"","","","","","",J,PreISI1,NR,24,"",0,J,green,12,"","",0.8,488,"","",1,39.72
588853,144,144,block_Trng,3,task_Trng,2,1,"","",18,8,"","","","",Block8,"","","","","","",K,Stim13,LR,37,"",0,K,blue,10,"","",1.67,490,"","",2,40
588853,145,145,block_Trng,3,task_Trng,2,1,"","",1,9,"","","","",Block9,"","","","","","",J,Stim15,NR,57,"",0,J,green,12,"","",1.67,490,"","",2,40.28
588853,146,146,block_Trng,3,task_Trng,2,0,"","",2,9,"","","","",Block9,"","","","","","",K,Stim13,HR,37,"",0,J,red,10,"","",1.67,490,"","",2,40.56
588853,147,147,block_Trng,3,task_Trng,2,1,"","",3,9,"","","","",Block9,"","","","","","",K,PreISI1,HR,56,"",0,K,red,13,"","",1.67,500,"","",2,40.83
588853,148,148,block_Trng,3,task_Trng,2,1,"","",4,9,"","","","",Block9,"","","","","","",K,Stim12,HR,69,"",0,K,red,9,"","",1.67,510,"","",2,41.11
588853,149,149,block_Trng,3,task_Trng,2,1,"","",5,9,"","","","",Block9,"","","","","","",J,Stim11,HR,5,"",0,J,red,8,"","",1.67,520,"","",2,41.39
588853,150,150,block_Trng,3,task_Trng,2,1,"","",6,9,"","","","",Block9,"","","","","","",K,Stim13,LR,78,"",0,K,blue,10,"","",1.67,522,"","",2,41.67
588853,151,151,block_Trng,3,task_Trng,2,1,"","",7,9,"","","","",Block9,"","","","","","",K,Stim14,NR,38,"",0,K,green,9,"","",1.67,522,"","",2,41.94
588853,152,152,block_Trng,3,task_Trng,2,1,"","",8,9,"","","","",Block9,"","","","","","",J,Stim15,LR,15,"",0,J,blue,11,"","",1.67,524,"","",2,42.22
588853,153,153,block_Trng,3,task_Trng,2,1,"","",9,9,"","","","",Block9,"","","","","","",J,Stim11,NR,87,"",0,J,green,8,"","",1.67,524,"","",2,42.5
588853,154,154,block_Trng,3,task_Trng,2,1,"","",10,9,"","","","",Block9,"","","","","","",K,Stim14,NR,10,"",0,K,green,11,"","",1.67,524,"","",2,42.78
588853,155,155,block_Trng,3,task_Trng,2,1,"","",11,9,"","","","",Block9,"","","","","","",J,Stim12,LR,29,"",0,J,blue,9,"","",1.67,526,"","",2,43.06
588853,156,156,block_Trng,3,task_Trng,2,0,"","",12,9,"","","","",Block9,"","","","","","",K,Stim15,HR,44,"",0,J,red,12,"","",1.67,526,"","",2,43.33
588853,157,157,block_Trng,3,task_Trng,2,1,"","",13,9,"","","","",Block9,"","","","","","",K,Stim14,HR,6,"",0,K,red,11,"","",1.67,536,"","",2,43.61
588853,158,158,block_Trng,3,task_Trng,2,1,"","",14,9,"","","","",Block9,"","","","","","",K,Stim16,LR,9,"",0,K,blue,12,"","",1.67,538,"","",2,43.89
588853,159,159,block_Trng,3,task_Trng,2,1,"","",15,9,"","","","",Block9,"","","","","","",K,Stim12,LR,55,"",0,K,blue,8,"","",1.67,540,"","",2,44.17
588853,160,160,block_Trng,3,task_Trng,2,1,"","",16,9,"","","","",Block9,"","","","","","",K,Stim16,NR,109,"",0,K,green,13,"","",1.67,540,"","",2,44.44
588853,161,161,block_Trng,3,task_Trng,2,1,"","",17,9,"","","","",Block9,"","","","","","",J,Stim16,LR,37,"",0,J,blue,13,"","",1.67,542,"","",2,44.72
588853,162,162,block_Trng,3,task_Trng,2,1,"","",18,9,"","","","",Block9,"","","","","","",J,Stim13,NR,68,"",0,J,green,10,"","",1.67,542,"","",2,45
588853,163,163,block_Trng,3,task_Trng,2,1,"","",1,10,"","","","",Block10,"","","","","","",J,Stim12,LR,114,"",0,J,blue,9,"","",1.67,544,"","",2,45.28
588853,164,164,block_Trng,3,task_Trng,2,1,"","",2,10,"","","","",Block10,"","","","","","",K,Stim15,NR,42,"",0,K,green,11,"","",1.67,544,"","",2,45.56
588853,165,165,block_Trng,3,task_Trng,2,1,"","",3,10,"","","","",Block10,"","","","","","",J,PreISI1,LR,20,"",0,J,blue,13,"","",1.67,546,"","",2,45.83
588853,166,166,block_Trng,3,task_Trng,2,1,"","",4,10,"","","","",Block10,"","","","","","",J,Stim14,LR,77,"",0,J,blue,11,"","",1.67,548,"","",2,46.11
588853,167,167,block_Trng,3,task_Trng,2,1,"","",5,10,"","","","",Block10,"","","","","","",J,Stim13,NR,111,"",0,J,green,10,"","",1.67,548,"","",2,46.39
588853,168,168,block_Trng,3,task_Trng,2,1,"","",6,10,"","","","",Block10,"","","","","","",K,Stim12,NR,48,"",0,K,green,9,"","",1.67,548,"","",2,46.67
588853,169,169,block_Trng,3,task_Trng,2,1,"","",7,10,"","","","",Block10,"","","","","","",K,Stim12,HR,46,"",0,K,red,9,"","",1.67,558,"","",2,46.94
588853,170,170,block_Trng,3,task_Trng,2,1,"","",8,10,"","","","",Block10,"","","","","","",K,Stim16,NR,5,"",0,K,green,13,"","",1.67,558,"","",2,47.22
588853,171,171,block_Trng,3,task_Trng,2,1,"","",9,10,"","","","",Block10,"","","","","","",K,Stim14,HR,55,"",0,K,red,11,"","",1.67,568,"","",2,47.5
588853,172,172,block_Trng,3,task_Trng,2,1,"","",10,10,"","","","",Block10,"","","","","","",K,Stim16,HR,23,"",0,K,red,13,"","",1.67,578,"","",2,47.78
588853,173,173,block_Trng,3,task_Trng,2,1,"","",11,10,"","","","",Block10,"","","","","","",K,Stim11,LR,68,"",0,K,blue,8,"","",1.67,580,"","",2,48.06
588853,174,174,block_Trng,3,task_Trng,2,1,"","",12,10,"","","","",Block10,"","","","","","",J,Stim11,NR,56,"",0,J,green,8,"","",1.67,580,"","",2,48.33
588853,175,175,block_Trng,3,task_Trng,2,1,"","",13,10,"","","","",Block10,"","","","","","",J,Stim13,HR,37,"",0,J,red,10,"","",1.67,590,"","",2,48.61
588853,176,176,block_Trng,3,task_Trng,2,1,"","",14,10,"","","","",Block10,"","","","","","",J,Stim16,NR,12,"",0,J,green,12,"","",1.67,590,"","",2,48.89
588853,177,177,block_Trng,3,task_Trng,2,1,"","",15,10,"","","","",Block10,"","","","","","",K,Stim12,LR,118,"",0,K,blue,10,"","",1.67,592,"","",2,49.17
588853,178,178,block_Trng,3,task_Trng,2,1,"","",16,10,"","","","",Block10,"","","","","","",K,Stim16,LR,11,"",0,K,blue,12,"","",1.67,594,"","",2,49.44
588853,179,179,block_Trng,3,task_Trng,2,1,"","",17,10,"","","","",Block10,"","","","","","",J,Stim16,HR,97,"",0,J,red,12,"","",1.67,604,"","",2,49.72
588853,180,180,block_Trng,3,task_Trng,2,1,"","",18,10,"","","","",Block10,"","","","","","",J,Stim11,HR,100,"",0,J,red,8,"","",1.67,614,"","",2,50
588853,181,181,block_Trng,3,task_Trng,2,1,"","",1,11,"","","","",Block11,"","","","","","",J,Stim14,LR,19,"",0,J,blue,9,"","",1.67,616,"","",2,50.28
588853,182,182,block_Trng,3,task_Trng,2,0,"","",2,11,"","","","",Block11,"","","","","","",J,Stim16,NR,50,"",0,K,green,13,"","",1.67,616,"","",2,50.56
588853,183,183,block_Trng,3,task_Trng,2,1,"","",3,11,"","","","",Block11,"","","","","","",J,Stim11,HR,86,"",0,J,red,8,"","",1.67,626,"","",2,50.83
588853,184,184,block_Trng,3,task_Trng,2,1,"","",4,11,"","","","",Block11,"","","","","","",J,Stim16,LR,113,"",0,J,blue,13,"","",1.67,628,"","",2,51.11
588853,185,185,block_Trng,3,task_Trng,2,1,"","",5,11,"","","","",Block11,"","","","","","",J,Stim13,NR,86,"",0,J,green,10,"","",1.67,628,"","",2,51.39
588853,186,186,block_Trng,3,task_Trng,2,1,"","",6,11,"","","","",Block11,"","","","","","",J,Stim11,NR,92,"",0,J,green,8,"","",1.67,628,"","",2,51.67
588853,187,187,block_Trng,3,task_Trng,2,1,"","",7,11,"","","","",Block11,"","","","","","",K,Stim13,HR,62,"",0,K,red,9,"","",1.67,638,"","",2,51.94
588853,188,188,block_Trng,3,task_Trng,2,1,"","",8,11,"","","","",Block11,"","","","","","",K,Stim16,LR,6,"",0,K,blue,12,"","",1.67,640,"","",2,52.22
588853,189,189,block_Trng,3,task_Trng,2,1,"","",9,11,"","","","",Block11,"","","","","","",J,Stim15,LR,19,"",0,J,blue,11,"","",1.67,642,"","",2,52.5
588853,190,190,block_Trng,3,task_Trng,2,1,"","",10,11,"","","","",Block11,"","","","","","",J,Stim16,HR,13,"",0,J,red,12,"","",1.67,652,"","",2,52.78
588853,191,191,block_Trng,3,task_Trng,2,0,"","",11,11,"","","","",Block11,"","","","","","",K,Stim15,NR,102,"",0,J,green,12,"","",1.67,652,"","",2,53.06
588853,192,192,block_Trng,3,task_Trng,2,1,"","",12,11,"","","","",Block11,"","","","","","",K,Stim14,LR,3,"",0,K,blue,8,"","",1.67,654,"","",2,53.33
588853,193,193,block_Trng,3,task_Trng,2,1,"","",13,11,"","","","",Block11,"","","","","","",K,Stim16,HR,28,"",0,K,red,13,"","",1.67,664,"","",2,53.61
588853,194,194,block_Trng,3,task_Trng,2,1,"","",14,11,"","","","",Block11,"","","","","","",K,Stim14,HR,53,"",0,K,red,11,"","",1.67,674,"","",2,53.89
588853,195,195,block_Trng,3,task_Trng,2,1,"","",15,11,"","","","",Block11,"","","","","","",K,Stim14,NR,80,"",0,K,green,11,"","",1.67,674,"","",2,54.17
588853,196,196,block_Trng,3,task_Trng,2,1,"","",16,11,"","","","",Block11,"","","","","","",K,Stim13,NR,3,"",0,K,green,9,"","",1.67,674,"","",2,54.44
588853,197,197,block_Trng,3,task_Trng,2,1,"","",17,11,"","","","",Block11,"","","","","","",K,Stim13,LR,58,"",0,K,blue,10,"","",1.67,676,"","",2,54.72
588853,198,198,block_Trng,3,task_Trng,2,1,"","",18,11,"","","","",Block11,"","","","","","",J,Stim13,HR,95,"",0,J,red,10,"","",1.67,686,"","",2,55
588853,199,199,block_Trng,3,task_Trng,2,1,"","",1,12,"","","","",Block12,"","","","","","",K,Stim15,HR,100,"",0,K,red,11,"","",1.67,696,"","",2,55.28
588853,200,200,block_Trng,3,task_Trng,2,1,"","",2,12,"","","","",Block12,"","","","","","",J,Stim13,HR,106,"",0,J,red,10,"","",1.67,706,"","",2,55.56
588853,201,201,block_Trng,3,task_Trng,2,0,"","",3,12,"","","","",Block12,"","","","","","",K,PreISI1,LR,271,"",0,J,blue,11,"","",1.67,706,"","",2,55.83
588853,202,202,block_Trng,3,task_Trng,2,1,"","",4,12,"","","","",Block12,"","","","","","",J,Stim15,HR,80,"",0,J,red,12,"","",1.67,716,"","",2,56.11
588853,203,203,block_Trng,3,task_Trng,2,1,"","",5,12,"","","","",Block12,"","","","","","",K,Stim16,NR,98,"",0,K,green,13,"","",1.67,716,"","",2,56.39
588853,204,204,block_Trng,3,task_Trng,2,1,"","",6,12,"","","","",Block12,"","","","","","",K,Stim12,HR,3,"",0,K,red,9,"","",1.67,726,"","",2,56.67
588853,205,205,block_Trng,3,task_Trng,2,1,"","",7,12,"","","","",Block12,"","","","","","",K,Stim16,HR,21,"",0,K,red,13,"","",1.67,736,"","",2,56.94
588853,206,206,block_Trng,3,task_Trng,2,1,"","",8,12,"","","","",Block12,"","","","","","",J,PreISI1,LR,26,"",0,J,blue,13,"","",1.67,738,"","",2,57.22
588853,207,207,block_Trng,3,task_Trng,2,1,"","",9,12,"","","","",Block12,"","","","","","",J,Stim14,NR,19,"",0,J,green,10,"","",1.67,738,"","",2,57.5
588853,208,208,block_Trng,3,task_Trng,2,1,"","",10,12,"","","","",Block12,"","","","","","",J,Stim12,HR,100,"",0,J,red,8,"","",1.67,748,"","",2,57.78
588853,209,209,block_Trng,3,task_Trng,2,1,"","",11,12,"","","","",Block12,"","","","","","",J,Stim15,NR,102,"",0,J,green,12,"","",1.67,748,"","",2,58.06
588853,210,210,block_Trng,3,task_Trng,2,1,"","",12,12,"","","","",Block12,"","","","","","",J,Stim12,LR,62,"",0,J,blue,9,"","",1.67,750,"","",2,58.33
588853,211,211,block_Trng,3,task_Trng,2,1,"","",13,12,"","","","",Block12,"","","","","","",K,Stim11,LR,122,"",0,K,blue,8,"","",1.67,752,"","",2,58.61
588853,212,212,block_Trng,3,task_Trng,2,1,"","",14,12,"","","","",Block12,"","","","","","",K,Stim13,LR,55,"",0,K,blue,10,"","",1.67,754,"","",2,58.89
588853,213,213,block_Trng,3,task_Trng,2,1,"","",15,12,"","","","",Block12,"","","","","","",J,Stim12,NR,11,"",0,J,green,8,"","",1.67,754,"","",2,59.17
588853,214,214,block_Trng,3,task_Trng,2,1,"","",16,12,"","","","",Block12,"","","","","","",K,Stim12,NR,15,"",0,K,green,9,"","",1.67,754,"","",2,59.44
588853,215,215,block_Trng,3,task_Trng,2,1,"","",17,12,"","","","",Block12,"","","","","","",K,Stim15,LR,31,"",0,K,blue,12,"","",1.67,756,"","",2,59.72
588853,216,216,block_Trng,3,task_Trng,2,1,"","",18,12,"","","","",Block12,"","","","","","",K,Stim14,NR,53,"",0,K,green,11,"","",2.57,756,"","",3,60
588853,217,217,block_Trng,3,task_Trng,2,1,"","",1,13,"","","","",Block13,"","","","","","",K,Stim12,LR,70,"",0,K,blue,8,"","",2.57,758,"","",3,60.28
588853,218,218,block_Trng,3,task_Trng,2,0,"","",2,13,"","","","",Block13,"","","","","","",J,Stim12,HR,32,"",0,K,red,9,"","",2.57,758,"","",3,60.56
588853,219,219,block_Trng,3,task_Trng,2,0,"","",3,13,"","","","",Block13,"","","","","","",K,Stim15,HR,19,"",0,J,red,12,"","",2.57,758,"","",3,60.83
588853,220,220,block_Trng,3,task_Trng,2,1,"","",4,13,"","","","",Block13,"","","","","","",J,Stim16,LR,113,"",0,J,blue,13,"","",2.57,760,"","",3,61.11
588853,221,221,block_Trng,3,task_Trng,2,1,"","",5,13,"","","","",Block13,"","","","","","",K,Stim15,NR,11,"",0,K,green,11,"","",2.57,760,"","",3,61.39
588853,222,222,block_Trng,3,task_Trng,2,1,"","",6,13,"","","","",Block13,"","","","","","",J,Stim15,LR,29,"",0,J,blue,11,"","",2.57,762,"","",3,61.67
588853,223,223,block_Trng,3,task_Trng,2,1,"","",7,13,"","","","",Block13,"","","","","","",J,Stim12,NR,51,"",0,J,green,8,"","",2.57,762,"","",3,61.94
588853,224,224,block_Trng,3,task_Trng,2,1,"","",8,13,"","","","",Block13,"","","","","","",J,Stim12,LR,62,"",0,J,blue,9,"","",2.57,764,"","",3,62.22
588853,225,225,block_Trng,3,task_Trng,2,1,"","",9,13,"","","","",Block13,"","","","","","",K,Stim15,LR,106,"",0,K,blue,12,"","",2.57,766,"","",3,62.5
588853,226,226,block_Trng,3,task_Trng,2,1,"","",10,13,"","","","",Block13,"","","","","","",J,Stim13,HR,109,"",0,J,red,10,"","",2.57,776,"","",3,62.78
588853,227,227,block_Trng,3,task_Trng,2,1,"","",11,13,"","","","",Block13,"","","","","","",J,Stim15,NR,68,"",0,J,green,12,"","",2.57,776,"","",3,63.06
588853,228,228,block_Trng,3,task_Trng,2,1,"","",12,13,"","","","",Block13,"","","","","","",J,Stim13,NR,59,"",0,J,green,10,"","",2.57,776,"","",3,63.33
588853,229,229,block_Trng,3,task_Trng,2,0,"","",13,13,"","","","",Block13,"","","","","","",J,Stim13,NR,5,"",0,K,green,9,"","",2.57,776,"","",3,63.61
588853,230,230,block_Trng,3,task_Trng,2,1,"","",14,13,"","","","",Block13,"","","","","","",K,Stim16,HR,99,"",0,K,red,13,"","",2.57,786,"","",3,63.89
588853,231,231,block_Trng,3,task_Trng,2,1,"","",15,13,"","","","",Block13,"","","","","","",K,Stim14,LR,36,"",0,K,blue,10,"","",2.57,788,"","",3,64.17
588853,232,232,block_Trng,3,task_Trng,2,1,"","",16,13,"","","","",Block13,"","","","","","",K,Stim14,HR,4,"",0,K,red,11,"","",2.57,798,"","",3,64.44
588853,233,233,block_Trng,3,task_Trng,2,1,"","",17,13,"","","","",Block13,"","","","","","",J,Stim12,HR,6,"",0,J,red,8,"","",2.57,808,"","",3,64.72
588853,234,234,block_Trng,3,task_Trng,2,1,"","",18,13,"","","","",Block13,"","","","","","",K,PreISI1,NR,3,"",0,K,green,13,"","",2.57,808,"","",3,65
588853,235,235,block_Trng,3,task_Trng,2,1,"","",1,14,"","","","",Block14,"","","","","","",K,Stim14,NR,75,"",0,K,green,11,"","",2.57,808,"","",3,65.28
588853,236,236,block_Trng,3,task_Trng,2,1,"","",2,14,"","","","",Block14,"","","","","","",J,PreISI1,NR,39,"",0,J,green,12,"","",2.57,808,"","",3,65.56
588853,237,237,block_Trng,3,task_Trng,2,1,"","",3,14,"","","","",Block14,"","","","","","",K,Stim16,HR,93,"",0,K,red,13,"","",2.57,818,"","",3,65.83
588853,238,238,block_Trng,3,task_Trng,2,1,"","",4,14,"","","","",Block14,"","","","","","",J,Stim12,HR,22,"",0,J,red,8,"","",2.57,828,"","",3,66.11
588853,239,239,block_Trng,3,task_Trng,2,1,"","",5,14,"","","","",Block14,"","","","","","",J,Stim13,HR,115,"",0,J,red,10,"","",2.57,838,"","",3,66.39
588853,240,240,block_Trng,3,task_Trng,2,1,"","",6,14,"","","","",Block14,"","","","","","",J,Stim12,NR,40,"",0,J,green,8,"","",2.57,838,"","",3,66.67
588853,241,241,block_Trng,3,task_Trng,2,1,"","",7,14,"","","","",Block14,"","","","","","",J,Stim14,LR,110,"",0,J,blue,11,"","",2.57,840,"","",3,66.94
588853,242,242,block_Trng,3,task_Trng,2,1,"","",8,14,"","","","",Block14,"","","","","","",J,Stim16,LR,107,"",0,J,blue,13,"","",2.57,842,"","",3,67.22
588853,243,243,block_Trng,3,task_Trng,2,1,"","",9,14,"","","","",Block14,"","","","","","",K,Stim12,HR,106,"",0,K,red,9,"","",2.57,852,"","",3,67.5
588853,244,244,block_Trng,3,task_Trng,2,1,"","",10,14,"","","","",Block14,"","","","","","",K,Stim13,LR,124,"",0,K,blue,10,"","",2.57,854,"","",3,67.78
588853,245,245,block_Trng,3,task_Trng,2,1,"","",11,14,"","","","",Block14,"","","","","","",K,Stim14,HR,92,"",0,K,red,11,"","",2.57,864,"","",3,68.06
588853,246,246,block_Trng,3,task_Trng,2,1,"","",12,14,"","","","",Block14,"","","","","","",J,Stim13,NR,94,"",0,J,green,10,"","",2.57,864,"","",3,68.33
588853,247,247,block_Trng,3,task_Trng,2,1,"","",13,14,"","","","",Block14,"","","","","","",K,Stim11,LR,52,"",0,K,blue,8,"","",2.57,866,"","",3,68.61
588853,248,248,block_Trng,3,task_Trng,2,1,"","",14,14,"","","","",Block14,"","","","","","",K,PreISI1,NR,21,"",0,K,green,13,"","",2.57,866,"","",3,68.89
588853,249,249,block_Trng,3,task_Trng,2,1,"","",15,14,"","","","",Block14,"","","","","","",J,Stim12,LR,109,"",0,J,blue,9,"","",2.57,868,"","",3,69.17
588853,250,250,block_Trng,3,task_Trng,2,1,"","",16,14,"","","","",Block14,"","","","","","",K,Stim13,NR,102,"",0,K,green,9,"","",2.57,868,"","",3,69.44
588853,251,251,block_Trng,3,task_Trng,2,1,"","",17,14,"","","","",Block14,"","","","","","",J,Stim15,HR,82,"",0,J,red,12,"","",2.57,878,"","",3,69.72
588853,252,252,block_Trng,3,task_Trng,2,1,"","",18,14,"","","","",Block14,"","","","","","",K,PreISI1,LR,86,"",0,K,blue,12,"","",2.57,880,"","",3,70
588853,253,253,block_Trng,3,task_Trng,2,1,"","",1,15,"","","","",Block15,"","","","","","",K,PreISI1,NR,77,"",0,K,green,13,"","",2.57,880,"","",3,70.28
588853,254,254,block_Trng,3,task_Trng,2,1,"","",2,15,"","","","",Block15,"","","","","","",K,Stim12,HR,61,"",0,K,red,9,"","",2.57,890,"","",3,70.56
588853,255,255,block_Trng,3,task_Trng,2,1,"","",3,15,"","","","",Block15,"","","","","","",J,Stim12,NR,6,"",0,J,green,8,"","",2.57,890,"","",3,70.83
588853,256,256,block_Trng,3,task_Trng,2,1,"","",4,15,"","","","",Block15,"","","","","","",J,Stim13,LR,16,"",0,J,blue,9,"","",2.57,892,"","",3,71.11
588853,257,257,block_Trng,3,task_Trng,2,1,"","",5,15,"","","","",Block15,"","","","","","",J,Stim11,HR,13,"",0,J,red,8,"","",2.57,902,"","",3,71.39
588853,258,258,block_Trng,3,task_Trng,2,1,"","",6,15,"","","","",Block15,"","","","","","",K,Stim15,LR,62,"",0,K,blue,12,"","",2.57,904,"","",3,71.67
588853,259,259,block_Trng,3,task_Trng,2,1,"","",7,15,"","","","",Block15,"","","","","","",K,Stim12,LR,57,"",0,K,blue,8,"","",2.57,906,"","",3,71.94
588853,260,260,block_Trng,3,task_Trng,2,1,"","",8,15,"","","","",Block15,"","","","","","",K,Stim16,HR,5,"",0,K,red,13,"","",2.57,916,"","",3,72.22
588853,261,261,block_Trng,3,task_Trng,2,1,"","",9,15,"","","","",Block15,"","","","","","",K,Stim13,HR,100,"",0,K,red,11,"","",2.57,926,"","",3,72.5
588853,262,262,block_Trng,3,task_Trng,2,1,"","",10,15,"","","","",Block15,"","","","","","",K,Stim13,LR,70,"",0,K,blue,10,"","",2.57,928,"","",3,72.78
588853,263,263,block_Trng,3,task_Trng,2,1,"","",11,15,"","","","",Block15,"","","","","","",J,Stim15,NR,89,"",0,J,green,12,"","",2.57,928,"","",3,73.06
588853,264,264,block_Trng,3,task_Trng,2,0,"","",12,15,"","","","",Block15,"","","","","","",K,Stim14,LR,42,"",0,J,blue,11,"","",2.57,928,"","",3,73.33
588853,265,265,block_Trng,3,task_Trng,2,1,"","",13,15,"","","","",Block15,"","","","","","",J,Stim13,NR,120,"",0,J,green,10,"","",2.57,928,"","",3,73.61
588853,266,266,block_Trng,3,task_Trng,2,1,"","",14,15,"","","","",Block15,"","","","","","",J,Stim16,LR,102,"",0,J,blue,13,"","",2.57,930,"","",3,73.89
588853,267,267,block_Trng,3,task_Trng,2,0,"","",15,15,"","","","",Block15,"","","","","","",J,Stim14,NR,101,"",0,K,green,11,"","",2.57,930,"","",3,74.17
588853,268,268,block_Trng,3,task_Trng,2,1,"","",16,15,"","","","",Block15,"","","","","","",K,Stim13,NR,7,"",0,K,green,9,"","",2.57,930,"","",3,74.44
588853,269,269,block_Trng,3,task_Trng,2,1,"","",17,15,"","","","",Block15,"","","","","","",J,Stim14,HR,28,"",0,J,red,10,"","",2.57,940,"","",3,74.72
588853,270,270,block_Trng,3,task_Trng,2,1,"","",18,15,"","","","",Block15,"","","","","","",J,Stim15,HR,33,"",0,J,red,12,"","",2.57,950,"","",3,75
588853,271,271,block_Trng,3,task_Trng,2,1,"","",1,16,"","","","",Block16',"","","","","","",J,Stim15,LR,59,"",0,J,blue,11,"","",2.57,952,"","",3,75.28
588853,272,272,block_Trng,3,task_Trng,2,1,"","",2,16,"","","","",Block16',"","","","","","",K,Stim13,NR,3,"",0,K,green,9,"","",2.57,952,"","",3,75.56
588853,273,273,block_Trng,3,task_Trng,2,1,"","",3,16,"","","","",Block16',"","","","","","",K,Stim14,LR,21,"",0,K,blue,10,"","",2.57,954,"","",3,75.83
588853,274,274,block_Trng,3,task_Trng,2,1,"","",4,16,"","","","",Block16',"","","","","","",K,Stim14,NR,46,"",0,K,green,11,"","",2.57,954,"","",3,76.11
588853,275,275,block_Trng,3,task_Trng,2,1,"","",5,16,"","","","",Block16',"","","","","","",K,Stim16,LR,34,"",0,K,blue,12,"","",2.57,956,"","",3,76.39
588853,276,276,block_Trng,3,task_Trng,2,1,"","",6,16,"","","","",Block16',"","","","","","",K,Stim13,HR,20,"",0,K,red,9,"","",2.57,966,"","",3,76.67
588853,277,277,block_Trng,3,task_Trng,2,1,"","",7,16,"","","","",Block16',"","","","","","",K,Stim16,HR,6,"",0,K,red,13,"","",2.57,976,"","",3,76.94
588853,278,278,block_Trng,3,task_Trng,2,1,"","",8,16,"","","","",Block16',Slow!,"","","","","",J,PreISI2,HR,396,"",1,J,red,10,"","",2.57,976,"","",3,77.22
588853,279,279,block_Trng,3,task_Trng,2,1,"","",9,16,"","","","",Block16',"","","","","","",J,Stim13,LR,24,"",0,J,blue,9,"","",2.57,978,"","",3,77.5
588853,280,280,block_Trng,3,task_Trng,2,1,"","",10,16,"","","","",Block16',"","","","","","",K,Stim14,HR,10,"",0,K,red,11,"","",2.57,988,"","",3,77.78
588853,281,281,block_Trng,3,task_Trng,2,1,"","",11,16,"","","","",Block16',"","","","","","",J,Stim11,NR,122,"",0,J,green,8,"","",2.57,988,"","",3,78.06
588853,282,282,block_Trng,3,task_Trng,2,1,"","",12,16,"","","","",Block16',"","","","","","",K,Stim11,LR,86,"",0,K,blue,8,"","",2.57,990,"","",3,78.33
588853,283,283,block_Trng,3,task_Trng,2,1,"","",13,16,"","","","",Block16',"","","","","","",K,Stim16,NR,105,"",0,K,green,13,"","",2.57,990,"","",3,78.61
588853,284,284,block_Trng,3,task_Trng,2,1,"","",14,16,"","","","",Block16',"","","","","","",J,Stim16,HR,35,"",0,J,red,12,"","",2.57,1000,"","",3,78.89
588853,285,285,block_Trng,3,task_Trng,2,1,"","",15,16,"","","","",Block16',"","","","","","",J,Stim13,NR,90,"",0,J,green,10,"","",2.57,1000,"","",3,79.17
588853,286,286,block_Trng,3,task_Trng,2,1,"","",16,16,"","","","",Block16',"","","","","","",J,Stim12,HR,12,"",0,J,red,8,"","",2.57,1010,"","",3,79.44
588853,287,287,block_Trng,3,task_Trng,2,1,"","",17,16,"","","","",Block16',"","","","","","",J,Stim16,LR,124,"",0,J,blue,13,"","",2.57,1012,"","",3,79.72
588853,288,288,block_Trng,3,task_Trng,2,1,"","",18,16,"","","","",Block16',"","","","","","",J,Stim15,NR,89,"",0,J,green,12,"","",3.44,1012,"","",4,80
588853,289,289,block_Trng,3,task_Trng,2,1,"","",1,17,"","","","",Block17,"","","","","","",K,Stim11,LR,101,"",0,K,blue,8,"","",3.44,1014,"","",4,80.28
588853,290,290,block_Trng,3,task_Trng,2,1,"","",2,17,"","","","",Block17,"","","","","","",J,Stim15,HR,45,"",0,J,red,12,"","",3.44,1024,"","",4,80.56
588853,291,291,block_Trng,3,task_Trng,2,1,"","",3,17,"","","","",Block17,"","","","","","",K,Stim16,HR,4,"",0,K,red,11,"","",3.44,1034,"","",4,80.83
588853,292,292,block_Trng,3,task_Trng,2,1,"","",4,17,"","","","",Block17,"","","","","","",J,Stim14,LR,62,"",0,J,blue,11,"","",3.44,1036,"","",4,81.11
588853,293,293,block_Trng,3,task_Trng,2,1,"","",5,17,"","","","",Block17,"","","","","","",J,Stim11,HR,78,"",0,J,red,8,"","",3.44,1046,"","",4,81.39
588853,294,294,block_Trng,3,task_Trng,2,1,"","",6,17,"","","","",Block17,"","","","","","",J,Stim11,NR,82,"",0,J,green,8,"","",3.44,1046,"","",4,81.67
588853,295,295,block_Trng,3,task_Trng,2,1,"","",7,17,"","","","",Block17,"","","","","","",K,PreISI1,LR,4,"",0,K,blue,12,"","",3.44,1048,"","",4,81.94
588853,296,296,block_Trng,3,task_Trng,2,1,"","",8,17,"","","","",Block17,"","","","","","",J,Stim15,NR,87,"",0,J,green,12,"","",3.44,1048,"","",4,82.22
588853,297,297,block_Trng,3,task_Trng,2,1,"","",9,17,"","","","",Block17,"","","","","","",K,Stim13,LR,60,"",0,K,blue,10,"","",3.44,1050,"","",4,82.5
588853,298,298,block_Trng,3,task_Trng,2,1,"","",10,17,"","","","",Block17,"","","","","","",K,Stim14,NR,8,"",0,K,green,11,"","",3.44,1050,"","",4,82.78
588853,299,299,block_Trng,3,task_Trng,2,0,"","",11,17,"","","","",Block17,"","","","","","",K,Stim16,LR,97,"",0,J,blue,13,"","",3.44,1050,"","",4,83.06
588853,300,300,block_Trng,3,task_Trng,2,1,"","",12,17,"","","","",Block17,"","","","","","",J,Stim14,HR,62,"",0,J,red,10,"","",3.44,1060,"","",4,83.33
588853,301,301,block_Trng,3,task_Trng,2,1,"","",13,17,"","","","",Block17,"","","","","","",K,PreISI1,NR,5,"",0,K,green,13,"","",3.44,1060,"","",4,83.61
588853,302,302,block_Trng,3,task_Trng,2,1,"","",14,17,"","","","",Block17,"","","","","","",K,Stim13,NR,7,"",0,K,green,9,"","",3.44,1060,"","",4,83.89
588853,303,303,block_Trng,3,task_Trng,2,1,"","",15,17,"","","","",Block17,"","","","","","",J,Stim12,LR,14,"",0,J,blue,9,"","",3.44,1062,"","",4,84.17
588853,304,304,block_Trng,3,task_Trng,2,1,"","",16,17,"","","","",Block17,"","","","","","",K,PreISI1,HR,1,"",0,K,red,13,"","",3.44,1072,"","",4,84.44
588853,305,305,block_Trng,3,task_Trng,2,1,"","",17,17,"","","","",Block17,"","","","","","",J,Stim14,NR,7,"",0,J,green,10,"","",3.44,1072,"","",4,84.72
588853,306,306,block_Trng,3,task_Trng,2,1,"","",18,17,"","","","",Block17,"","","","","","",K,Stim12,HR,35,"",0,K,red,9,"","",3.44,1082,"","",4,85
588853,307,307,block_Trng,3,task_Trng,2,1,"","",1,18,"","","","",Block18,"","","","","","",J,Stim14,LR,99,"",0,J,blue,11,"","",3.44,1084,"","",4,85.28
588853,308,308,block_Trng,3,task_Trng,2,1,"","",2,18,"","","","",Block18,"","","","","","",K,Stim13,NR,56,"",0,K,green,9,"","",3.44,1084,"","",4,85.56
588853,309,309,block_Trng,3,task_Trng,2,1,"","",3,18,"","","","",Block18,"","","","","","",J,Stim13,HR,37,"",0,J,red,8,"","",3.44,1094,"","",4,85.83
588853,310,310,block_Trng,3,task_Trng,2,1,"","",4,18,"","","","",Block18,"","","","","","",J,PreISI1,LR,22,"",0,J,blue,13,"","",3.44,1096,"","",4,86.11
588853,311,311,block_Trng,3,task_Trng,2,1,"","",5,18,"","","","",Block18,"","","","","","",K,Stim15,LR,84,"",0,K,blue,12,"","",3.44,1098,"","",4,86.39
588853,312,312,block_Trng,3,task_Trng,2,1,"","",6,18,"","","","",Block18,"","","","","","",J,Stim13,NR,115,"",0,J,green,10,"","",3.44,1098,"","",4,86.67
588853,313,313,block_Trng,3,task_Trng,2,1,"","",7,18,"","","","",Block18,"","","","","","",K,Stim13,HR,122,"",0,K,red,11,"","",3.44,1108,"","",4,86.94
588853,314,314,block_Trng,3,task_Trng,2,1,"","",8,18,"","","","",Block18,"","","","","","",K,Stim13,LR,110,"",0,K,blue,10,"","",3.44,1110,"","",4,87.22
588853,315,315,block_Trng,3,task_Trng,2,1,"","",9,18,"","","","",Block18,"","","","","","",J,Stim12,LR,78,"",0,J,blue,9,"","",3.44,1112,"","",4,87.5
588853,316,316,block_Trng,3,task_Trng,2,1,"","",10,18,"","","","",Block18,"","","","","","",J,Stim14,HR,89,"",0,J,red,10,"","",3.44,1122,"","",4,87.78
588853,317,317,block_Trng,3,task_Trng,2,1,"","",11,18,"","","","",Block18,"","","","","","",K,Stim11,LR,70,"",0,K,blue,8,"","",3.44,1124,"","",4,88.06
588853,318,318,block_Trng,3,task_Trng,2,1,"","",12,18,"","","","",Block18,"","","","","","",K,Stim16,HR,4,"",0,K,red,13,"","",3.44,1134,"","",4,88.33
588853,319,319,block_Trng,3,task_Trng,2,1,"","",13,18,"","","","",Block18,"","","","","","",J,Stim12,NR,4,"",0,J,green,8,"","",3.44,1134,"","",4,88.61
588853,320,320,block_Trng,3,task_Trng,2,1,"","",14,18,"","","","",Block18,"","","","","","",J,Stim16,HR,28,"",0,J,red,12,"","",3.44,1144,"","",4,88.89
588853,321,321,block_Trng,3,task_Trng,2,1,"","",15,18,"","","","",Block18,"","","","","","",J,Stim15,NR,33,"",0,J,green,12,"","",3.44,1144,"","",4,89.17
588853,322,322,block_Trng,3,task_Trng,2,0,"","",16,18,"","","","",Block18,"","","","","","",J,PreISI1,NR,35,"",0,K,green,13,"","",3.44,1144,"","",4,89.44
588853,323,323,block_Trng,3,task_Trng,2,1,"","",17,18,"","","","",Block18,"","","","","","",K,Stim15,NR,97,"",0,K,green,11,"","",3.44,1144,"","",4,89.72
588853,324,324,block_Trng,3,task_Trng,2,1,"","",18,18,"","","","",Block18,"","","","","","",K,Stim12,HR,31,"",0,K,red,9,"","",3.44,1154,"","",4,90
588853,325,325,block_Trng,3,task_Trng,2,1,"","",1,19,"","","","",Block19,"","","","","","",K,PreISI1,NR,35,"",0,K,green,13,"","",3.44,1154,"","",4,90.28
588853,326,326,block_Trng,3,task_Trng,2,1,"","",2,19,"","","","",Block19,"","","","","","",J,PreISI1,LR,20,"",0,J,blue,13,"","",3.44,1156,"","",4,90.56
588853,327,327,block_Trng,3,task_Trng,2,1,"","",3,19,"","","","",Block19,"","","","","","",J,Stim15,NR,95,"",0,J,green,12,"","",3.44,1156,"","",4,90.83
588853,328,328,block_Trng,3,task_Trng,2,1,"","",4,19,"","","","",Block19,"","","","","","",J,Stim14,LR,104,"",0,J,blue,11,"","",3.44,1158,"","",4,91.11
588853,329,329,block_Trng,3,task_Trng,2,0,"","",5,19,"","","","",Block19,"","","","","","",J,Stim11,LR,115,"",0,K,blue,8,"","",3.44,1158,"","",4,91.39
588853,330,330,block_Trng,3,task_Trng,2,1,"","",6,19,"","","","",Block19,"","","","","","",K,Stim16,HR,10,"",0,K,red,13,"","",3.44,1168,"","",4,91.67
588853,331,331,block_Trng,3,task_Trng,2,1,"","",7,19,"","","","",Block19,"","","","","","",K,Stim13,NR,100,"",0,K,green,9,"","",3.44,1168,"","",4,91.94
588853,332,332,block_Trng,3,task_Trng,2,1,"","",8,19,"","","","",Block19,"","","","","","",J,Stim15,HR,101,"",0,J,red,12,"","",3.44,1178,"","",4,92.22
588853,333,333,block_Trng,3,task_Trng,2,1,"","",9,19,"","","","",Block19,"","","","","","",J,Stim11,HR,122,"",0,J,red,8,"","",3.44,1188,"","",4,92.5
588853,334,334,block_Trng,3,task_Trng,2,1,"","",10,19,"","","","",Block19,"","","","","","",K,Stim14,NR,21,"",0,K,green,11,"","",3.44,1188,"","",4,92.78
588853,335,335,block_Trng,3,task_Trng,2,1,"","",11,19,"","","","",Block19,"","","","","","",K,Stim13,LR,86,"",0,K,blue,10,"","",3.44,1190,"","",4,93.06
588853,336,336,block_Trng,3,task_Trng,2,1,"","",12,19,"","","","",Block19,"","","","","","",K,Stim13,HR,22,"",0,K,red,9,"","",3.44,1200,"","",4,93.33
588853,337,337,block_Trng,3,task_Trng,2,1,"","",13,19,"","","","",Block19,"","","","","","",J,Stim11,NR,116,"",0,J,green,8,"","",3.44,1200,"","",4,93.61
588853,338,338,block_Trng,3,task_Trng,2,1,"","",14,19,"","","","",Block19,"","","","","","",K,Stim14,HR,79,"",0,K,red,11,"","",3.44,1210,"","",4,93.89
588853,339,339,block_Trng,3,task_Trng,2,1,"","",15,19,"","","","",Block19,"","","","","","",J,Stim13,LR,7,"",0,J,blue,9,"","",3.44,1212,"","",4,94.17
588853,340,340,block_Trng,3,task_Trng,2,1,"","",16,19,"","","","",Block19,"","","","","","",J,Stim15,NR,29,"",0,J,green,10,"","",3.44,1212,"","",4,94.44
588853,341,341,block_Trng,3,task_Trng,2,1,"","",17,19,"","","","",Block19,"","","","","","",J,Stim13,HR,89,"",0,J,red,10,"","",3.44,1222,"","",4,94.72
588853,342,342,block_Trng,3,task_Trng,2,1,"","",18,19,"","","","",Block19,"","","","","","",K,Stim15,LR,68,"",0,K,blue,12,"","",3.44,1224,"","",4,95
588853,343,343,block_Trng,3,task_Trng,2,1,"","",1,20,"","","","",Block20,"","","","","","",K,Stim15,LR,80,"",0,K,blue,12,"","",3.44,1226,"","",4,95.28
588853,344,344,block_Trng,3,task_Trng,2,1,"","",2,20,"","","","",Block20,"","","","","","",K,Stim13,HR,35,"",0,K,red,9,"","",3.44,1236,"","",4,95.56
588853,345,345,block_Trng,3,task_Trng,2,0,"","",3,20,"","","","",Block20,"","","","","","",K,Stim15,HR,12,"",0,J,red,12,"","",3.44,1236,"","",4,95.83
588853,346,346,block_Trng,3,task_Trng,2,1,"","",4,20,"","","","",Block20,"","","","","","",K,PreISI1,NR,222,"",0,K,green,13,"","",3.44,1236,"","",4,96.11
588853,347,347,block_Trng,3,task_Trng,2,1,"","",5,20,"","","","",Block20,"","","","","","",K,Stim11,LR,115,"",0,K,blue,8,"","",3.44,1238,"","",4,96.39
588853,348,348,block_Trng,3,task_Trng,2,1,"","",6,20,"","","","",Block20,"","","","","","",J,Stim15,LR,25,"",0,J,blue,11,"","",3.44,1240,"","",4,96.67
588853,349,349,block_Trng,3,task_Trng,2,1,"","",7,20,"","","","",Block20,"","","","","","",K,Stim12,NR,110,"",0,K,green,9,"","",3.44,1240,"","",4,96.94
588853,350,350,block_Trng,3,task_Trng,2,1,"","",8,20,"","","","",Block20,"","","","","","",J,Stim11,NR,122,"",0,J,green,8,"","",3.44,1240,"","",4,97.22
588853,351,351,block_Trng,3,task_Trng,2,1,"","",9,20,"","","","",Block20,"","","","","","",K,Stim14,HR,6,"",0,K,red,11,"","",3.44,1250,"","",4,97.5
588853,352,352,block_Trng,3,task_Trng,2,1,"","",10,20,"","","","",Block20,"","","","","","",J,Stim13,NR,69,"",0,J,green,10,"","",3.44,1250,"","",4,97.78
588853,353,353,block_Trng,3,task_Trng,2,1,"","",11,20,"","","","",Block20,"","","","","","",K,Stim14,NR,91,"",0,K,green,11,"","",3.44,1250,"","",4,98.06
588853,354,354,block_Trng,3,task_Trng,2,1,"","",12,20,"","","","",Block20,"","","","","","",J,Stim12,LR,123,"",0,J,blue,9,"","",3.44,1252,"","",4,98.33
588853,355,355,block_Trng,3,task_Trng,2,1,"","",13,20,"","","","",Block20,"","","","","","",K,Stim16,HR,8,"",0,K,red,13,"","",3.44,1262,"","",4,98.61
588853,356,356,block_Trng,3,task_Trng,2,0,"","",14,20,"","","","",Block20,"","","","","","",K,Stim13,HR,7,"",0,J,red,10,"","",3.44,1262,"","",4,98.89
588853,357,357,block_Trng,3,task_Trng,2,1,"","",15,20,"","","","",Block20,"","","","","","",K,Stim13,LR,66,"",0,K,blue,10,"","",3.44,1264,"","",4,99.17
588853,358,358,block_Trng,3,task_Trng,2,1,"","",16,20,"","","","",Block20,"","","","","","",J,Stim16,LR,98,"",0,J,blue,13,"","",3.44,1266,"","",4,99.44
588853,359,359,block_Trng,3,task_Trng,2,1,"","",17,20,"","","","",Block20,"","","","","","",J,Stim15,NR,118,"",0,J,green,12,"","",3.44,1266,"","",4,99.72
588853,360,360,block_Trng,3,task_Trng,2,1,"","",18,20,"","","","",Block20,"","","","","","",J,Stim12,HR,42,"",0,J,red,8,"","",3.44,1276,"","",4,100
