Rec_Session_Id,Trial_Nr,Trial_Id,Block_Name,Block_Nr,Task_Name,Task_Nr,ACC,ACC_Total_Prac,Age,BlkTrial_Nr,Condition_Id,Consent,Contact,copy_of_factor1_tg1_task2,Email,factor1_tg1_task2,Fdbck_Slow,Feedback,MatricNo,Name,PAYNOW,Recontact,RESP,RESP_Frame,Reward,RT_FromFramePress,Sex,SlowResp,Targ,TargCol,TargPos,Testing_BreakCount,Testing_Progress,TotalMoney,TotalPoints,TotalPoints_prac,Trial_Nr_prac,Trng_BreakCount,Trng_Progress
581971,1,1,block_TrngInstructions,1,task_Consent,1,"","","","",1,Yes,"","","","","","","","","","","","","","","","","","","","","","","","","","",""
581971,1,1,block_TrngInstructions,1,task_Trng_Instructions,2,"","","","",1,"","","","","","","","","","","","","","","","","","","","","","","","","","","",""
581971,1,1,block_Practice,2,task_GetReady,1,"","","","",1,"","","","","","","","","","","","","","","","","","","","","","","","","","","",""
581971,1,1,block_Practice,2,task_Trng_Prac,2,0,0,"","",1,"","","","","",Slow!,"","","","","",J,PreISI2,Disallowed,40,"",1,K,green,11,"","","",0,0,"","",""
581971,2,2,block_Practice,2,task_Trng_Prac,2,1,1,"","",1,"","","","","","","","","","","",J,Stim9,Disallowed,105,"",1,J,green,9,"","","",0,0,"","",""
581971,3,3,block_Practice,2,task_Trng_Prac,2,0,1,"","",1,"","","","","","","","","","","",K,Stim12,Disallowed,60,"",1,J,blue,12,"","","",0,0,"","",""
581971,4,4,block_Practice,2,task_Trng_Prac,2,0,0,"","",1,"","","","","",Slow!,"","","","","","","",Disallowed,0,"",2,K,red,8,"","","",0,0,"","",""
581971,5,5,block_Practice,2,task_Trng_Prac,2,0,0,"","",1,"","","","","","","","","","","",J,Stim10,Disallowed,44,"",2,K,red,10,"","","",0,0,"","",""
581971,6,6,block_Practice,2,task_Trng_Prac,2,1,0,"","",1,"","","","","","","","","","","",J,Stim14,Disallowed,94,"",2,J,blue,13,"","","",0,0,"","",""
581971,1,1,block_Practice,2,task_GetReady,1,"","","","",1,"","","","","","","","","","","","","","","","","","","","","","","","","","","",""
581971,1,1,block_Practice,2,task_Trng_Prac,2,0,0,"","",1,"","","","","","","","","","","",J,Stim8,Disallowed,36,"",2,K,red,8,"","","",0,0,"","",""
581971,2,2,block_Practice,2,task_Trng_Prac,2,1,1,"","",1,"","","","","","","","","","","",J,Stim13,Disallowed,61,"",2,J,blue,13,"","","",0,0,"","",""
581971,3,3,block_Practice,2,task_Trng_Prac,2,0,1,"","",1,"","","","","","","","","","","",J,Stim11,Disallowed,16,"",2,K,green,11,"","","",0,0,"","",""
581971,4,4,block_Practice,2,task_Trng_Prac,2,1,2,"","",1,"","","","","","","","","","","",J,Stim12,Disallowed,82,"",2,J,blue,12,"","","",0,0,"","",""
581971,5,5,block_Practice,2,task_Trng_Prac,2,0,2,"","",1,"","","","","","","","","","","",K,Stim9,Disallowed,30,"",2,J,green,9,"","","",0,0,"","",""
581971,6,6,block_Practice,2,task_Trng_Prac,2,0,0,"","",1,"","","","","","","","","","","",J,Stim10,Disallowed,21,"",2,K,red,10,"","","",0,0,"","",""
581971,1,1,block_Practice,2,task_Trng_Prac,2,0,0,"","",1,"","","","","","","","","","","",J,Stim10,Disallowed,10,"",2,K,red,10,"","","",0,0,"","",""
581971,2,2,block_Practice,2,task_Trng_Prac,2,0,0,"","",1,"","","","","","","","","","","",J,Stim8,Disallowed,38,"",2,K,red,8,"","","",0,0,"","",""
581971,3,3,block_Practice,2,task_Trng_Prac,2,0,0,"","",1,"","","","","","","","","","","",J,Stim11,Disallowed,8,"",2,K,green,11,"","","",0,0,"","",""
581971,4,4,block_Practice,2,task_Trng_Prac,2,0,0,"","",1,"","","","","","","","","","","",K,Stim12,Disallowed,100,"",2,J,blue,12,"","","",0,0,"","",""
581971,5,5,block_Practice,2,task_Trng_Prac,2,1,1,"","",1,"","","","","","","","","","","",J,Stim13,Disallowed,62,"",2,J,blue,13,"","","",0,0,"","",""
581971,6,6,block_Practice,2,task_Trng_Prac,2,1,0,"","",1,"","","","","","","","","","","",J,Stim9,Disallowed,93,"",2,J,green,9,"","","",0,0,"","",""
581971,1,1,block_Practice,2,task_GetReady,1,"","","","",1,"","","","","","","","","","","","","","","","","","","","","","","","","","","",""
581971,1,1,block_Practice,2,task_GetReady,1,"","","","",1,"","","","","","","","","","","","","","","","","","","","","","","","","","","",""
581971,1,1,block_Practice,2,task_Trng_Prac,2,1,1,"","",1,"","","","","","","","","","","",J,Stim9,Disallowed,89,"",2,J,green,9,"","","",0,0,"","",""
581971,2,2,block_Practice,2,task_Trng_Prac,2,1,2,"","",1,"","","","","","","","","","","",J,Stim12,Disallowed,90,"",2,J,blue,12,"","","",0,0,"","",""
581971,3,3,block_Practice,2,task_Trng_Prac,2,0,2,"","",1,"","","","","","","","","","","",J,Stim10,Disallowed,7,"",2,K,red,10,"","","",0,0,"","",""
581971,4,4,block_Practice,2,task_Trng_Prac,2,1,3,"","",1,"","","","","","","","","","","",K,Stim11,Disallowed,18,"",2,K,green,11,"","","",0,0,"","",""
581971,5,5,block_Practice,2,task_Trng_Prac,2,0,3,"","",1,"","","","","","","","","","","",J,Stim8,Disallowed,64,"",2,K,red,8,"","","",0,0,"","",""
581971,6,6,block_Practice,2,task_Trng_Prac,2,0,0,"","",1,"","","","","","","","","","","",K,Stim13,Disallowed,69,"",2,J,blue,13,"","","",0,0,"","",""
581971,1,1,block_Practice,2,task_GetReady,1,"","","","",1,"","","","","","","","","","","","","","","","","","","","","","","","","","","",""
581971,1,1,block_Practice,2,task_Trng_Prac,2,0,0,"","",1,"","","","","","","","","","","",K,Stim13,Disallowed,4,"",2,J,blue,13,"","","",0,0,"","",""
581971,2,2,block_Practice,2,task_Trng_Prac,2,0,0,"","",1,"","","","","","","","","","","",J,Stim11,Disallowed,87,"",2,K,green,11,"","","",0,0,"","",""
581971,3,3,block_Practice,2,task_Trng_Prac,2,1,1,"","",1,"","","","","","","","","","","",K,Stim8,Disallowed,65,"",2,K,red,8,"","","",0,0,"","",""
581971,4,4,block_Practice,2,task_Trng_Prac,2,0,1,"","",1,"","","","","","","","","","","",K,Stim9,Disallowed,36,"",2,J,green,9,"","","",0,0,"","",""
581971,5,5,block_Practice,2,task_Trng_Prac,2,1,2,"","",1,"","","","","","","","","","","",K,Stim10,Disallowed,95,"",2,K,red,10,"","","",0,0,"","",""
581971,6,6,block_Practice,2,task_Trng_Prac,2,0,0,"","",1,"","","","","","","","","","","",K,Stim12,Disallowed,92,"",2,J,blue,12,"","","",0,0,"","",""
581971,1,1,block_Practice,2,task_GetReady,1,"","","","",1,"","","","","","","","","","","","","","","","","","","","","","","","","","","",""
581971,1,1,block_Practice,2,task_Trng_Prac,2,0,0,"","",1,"","","","","","","","","","","",J,Stim10,Disallowed,58,"",2,K,red,10,"","","",0,0,"","",""
581971,2,2,block_Practice,2,task_Trng_Prac,2,1,1,"","",1,"","","","","","","","","","","",K,Stim8,Disallowed,35,"",2,K,red,8,"","","",0,0,"","",""
581971,3,3,block_Practice,2,task_Trng_Prac,2,1,2,"","",1,"","","","","","","","","","","",J,Stim9,Disallowed,64,"",2,J,green,9,"","","",0,0,"","",""
581971,4,4,block_Practice,2,task_Trng_Prac,2,1,3,"","",1,"","","","","","","","","","","",K,Stim11,Disallowed,11,"",2,K,green,11,"","","",0,0,"","",""
581971,5,5,block_Practice,2,task_Trng_Prac,2,1,4,"","",1,"","","","","","","","","","","",J,Stim13,Disallowed,32,"",2,J,blue,12,"","","",0,0,"","",""
581971,6,6,block_Practice,2,task_Trng_Prac,2,1,5,"","",1,"","","","","","","","","","","",J,Stim13,Disallowed,16,"",2,J,blue,13,"","","",0,0,"","",""
581971,1,1,block_Trng,3,task_GetReady,1,"","","","",1,"","","","","","","","","","","","","","","","","","","","","","","","","","","",""
581971,1,1,block_Trng,3,task_Trng,2,0,"","",1,1,"","","","",Block1,"","","","","","",J,Stim10,HR,66,"",0,K,blue,10,"","",0,0,"","",0,0.28
581971,2,2,block_Trng,3,task_Trng,2,1,"","",2,1,"","","","",Block1,"","","","","","",K,Stim9,NR,2,"",0,K,red,9,"","",0,0,"","",0,0.56
581971,3,3,block_Trng,3,task_Trng,2,0,"","",3,1,"","","","",Block1,"","","","","","",K,Stim10,NR,48,"",0,J,red,10,"","",0,0,"","",0,0.83
581971,4,4,block_Trng,3,task_Trng,2,0,"","",4,1,"","","","",Block1,"","","","","","",K,Stim12,LR,44,"",0,J,green,12,"","",0,0,"","",0,1.11
581971,5,5,block_Trng,3,task_Trng,2,1,"","",5,1,"","","","",Block1,"","","","","","",K,Stim11,NR,54,"",0,K,red,11,"","",0,0,"","",0,1.39
581971,6,6,block_Trng,3,task_Trng,2,0,"","",6,1,"","","","",Block1,"","","","","","",K,Stim8,NR,6,"",0,J,red,8,"","",0,0,"","",0,1.67
581971,7,7,block_Trng,3,task_Trng,2,0,"","",7,1,"","","","",Block1,"","","","","","",J,Stim13,NR,32,"",0,K,red,13,"","",0,0,"","",0,1.94
581971,8,8,block_Trng,3,task_Trng,2,0,"","",8,1,"","","","",Block1,Slow!,"","","","","","","",LR,0,"",1,K,green,13,"","",0,0,"","",0,2.22
581971,9,9,block_Trng,3,task_Trng,2,0,"","",9,1,"","","","",Block1,"","","","","","",K,Stim11,HR,56,"",0,J,blue,11,"","",0,0,"","",0,2.5
581971,10,10,block_Trng,3,task_Trng,2,1,"","",10,1,"","","","",Block1,"","","","","","",J,Stim8,LR,9,"",0,J,green,8,"","",0,2,"","",0,2.78
581971,11,11,block_Trng,3,task_Trng,2,0,"","",11,1,"","","","",Block1,"","","","","","",J,Stim9,LR,64,"",0,K,green,9,"","",0,2,"","",0,3.06
581971,12,12,block_Trng,3,task_Trng,2,0,"","",12,1,"","","","",Block1,"","","","","","",J,Stim11,LR,85,"",0,K,green,11,"","",0,2,"","",0,3.33
581971,13,13,block_Trng,3,task_Trng,2,1,"","",13,1,"","","","",Block1,"","","","","","",J,Stim10,LR,16,"",0,J,green,10,"","",0,4,"","",0,3.61
581971,14,14,block_Trng,3,task_Trng,2,1,"","",14,1,"","","","",Block1,"","","","","","",J,Stim13,NR,38,"",0,J,red,12,"","",0,4,"","",0,3.89
581971,15,15,block_Trng,3,task_Trng,2,0,"","",15,1,"","","","",Block1,"","","","","","",J,Stim12,HR,60,"",0,K,blue,12,"","",0,4,"","",0,4.17
581971,16,16,block_Trng,3,task_Trng,2,0,"","",16,1,"","","","",Block1,"","","","","","",J,Stim8,HR,69,"",0,K,blue,8,"","",0,4,"","",0,4.44
581971,17,17,block_Trng,3,task_Trng,2,0,"","",17,1,"","","","",Block1,"","","","","","",K,Stim14,HR,96,"",0,J,blue,13,"","",0,4,"","",0,4.72
581971,18,18,block_Trng,3,task_Trng,2,0,"","",18,1,"","","","",Block1,"","","","","","",K,Stim9,HR,98,"",0,J,blue,9,"","",0,4,"","",0,5
581971,19,19,block_Trng,3,task_Trng,2,1,"","",1,2,"","","","",Block2,"","","","","","",J,Stim9,HR,99,"",0,J,blue,9,"","",0,14,"","",0,5.28
581971,20,20,block_Trng,3,task_Trng,2,0,"","",2,2,"","","","",Block2,"","","","","","",K,Stim12,LR,101,"",0,J,green,12,"","",0,14,"","",0,5.56
581971,21,21,block_Trng,3,task_Trng,2,0,"","",3,2,"","","","",Block2,"","","","","","",J,Stim10,HR,15,"",0,K,blue,10,"","",0,14,"","",0,5.83
581971,22,22,block_Trng,3,task_Trng,2,0,"","",4,2,"","","","",Block2,"","","","","","",K,Stim11,LR,32,"",0,J,green,10,"","",0,14,"","",0,6.11
581971,23,23,block_Trng,3,task_Trng,2,0,"","",5,2,"","","","",Block2,"","","","","","",K,Stim13,HR,77,"",0,J,blue,13,"","",0,14,"","",0,6.39
581971,24,24,block_Trng,3,task_Trng,2,1,"","",6,2,"","","","",Block2,"","","","","","",K,Stim14,NR,22,"",0,K,red,13,"","",0,14,"","",0,6.67
581971,25,25,block_Trng,3,task_Trng,2,1,"","",7,2,"","","","",Block2,"","","","","","",K,Stim13,HR,13,"",0,K,blue,12,"","",0,24,"","",0,6.94
581971,26,26,block_Trng,3,task_Trng,2,0,"","",8,2,"","","","",Block2,"","","","","","",J,Stim13,LR,77,"",0,K,green,13,"","",0,24,"","",0,7.22
581971,27,27,block_Trng,3,task_Trng,2,0,"","",9,2,"","","","",Block2,"","","","","","",J,Stim9,LR,61,"",0,K,green,9,"","",0,24,"","",0,7.5
581971,28,28,block_Trng,3,task_Trng,2,1,"","",10,2,"","","","",Block2,"","","","","","",K,Stim11,NR,3,"",0,K,red,11,"","",0,24,"","",0,7.78
581971,29,29,block_Trng,3,task_Trng,2,0,"","",11,2,"","","","",Block2,"","","","","","",K,Stim11,HR,75,"",0,J,blue,11,"","",0,24,"","",0,8.06
581971,30,30,block_Trng,3,task_Trng,2,0,"","",12,2,"","","","",Block2,"","","","","","",K,Stim10,NR,85,"",0,J,red,10,"","",0,24,"","",0,8.33
581971,31,31,block_Trng,3,task_Trng,2,1,"","",13,2,"","","","",Block2,"","","","","","",K,Stim9,NR,25,"",0,K,red,9,"","",0,24,"","",0,8.61
581971,32,32,block_Trng,3,task_Trng,2,1,"","",14,2,"","","","",Block2,"","","","","","",K,Stim11,LR,84,"",0,K,green,11,"","",0,26,"","",0,8.89
581971,33,33,block_Trng,3,task_Trng,2,0,"","",15,2,"","","","",Block2,"","","","","","",K,Stim12,NR,79,"",0,J,red,12,"","",0,26,"","",0,9.17
581971,34,34,block_Trng,3,task_Trng,2,0,"","",16,2,"","","","",Block2,"","","","","","",K,Stim9,LR,5,"",0,J,green,8,"","",0,26,"","",0,9.44
581971,35,35,block_Trng,3,task_Trng,2,0,"","",17,2,"","","","",Block2,"","","","","","",J,Stim8,HR,69,"",0,K,blue,8,"","",0,26,"","",0,9.72
581971,36,36,block_Trng,3,task_Trng,2,1,"","",18,2,"","","","",Block2,"","","","","","",J,Stim8,NR,49,"",0,J,red,8,"","",0,26,"","",0,10
581971,37,37,block_Trng,3,task_Trng,2,1,"","",1,3,"","","","",Block3,"","","","","","",K,Stim9,LR,9,"",0,K,green,9,"","",0,28,"","",0,10.28
581971,38,38,block_Trng,3,task_Trng,2,1,"","",2,3,"","","","",Block3,"","","","","","",K,Stim12,NR,63,"",0,K,red,11,"","",0,28,"","",0,10.56
581971,39,39,block_Trng,3,task_Trng,2,1,"","",3,3,"","","","",Block3,"","","","","","",J,Stim13,HR,82,"",0,J,blue,13,"","",0,38,"","",0,10.83
581971,40,40,block_Trng,3,task_Trng,2,0,"","",4,3,"","","","",Block3,Slow!,"","","","","","","",HR,0,"",1,K,blue,8,"","",0,38,"","",0,11.11
581971,41,41,block_Trng,3,task_Trng,2,0,"","",5,3,"","","","",Block3,Slow!,"","","","","","","",HR,0,"",2,J,blue,9,"","",0,38,"","",0,11.39
581971,42,42,block_Trng,3,task_Trng,2,0,"","",6,3,"","","","",Block3,Slow!,"","","","","","","",NR,0,"",3,K,red,13,"","",0,38,"","",0,11.67
581971,43,43,block_Trng,3,task_Trng,2,0,"","",7,3,"","","","",Block3,Slow!,"","","","","","","",LR,0,"",4,J,green,10,"","",0,38,"","",0,11.94
581971,44,44,block_Trng,3,task_Trng,2,0,"","",8,3,"","","","",Block3,Slow!,"","","","","","","",LR,0,"",5,J,green,12,"","",0,38,"","",0,12.22
581971,45,45,block_Trng,3,task_Trng,2,0,"","",9,3,"","","","",Block3,Slow!,"","","","","","","",NR,0,"",6,K,red,9,"","",0,38,"","",0,12.5
581971,46,46,block_Trng,3,task_Trng,2,0,"","",10,3,"","","","",Block3,Slow!,"","","","","","","",HR,0,"",7,K,blue,10,"","",0,38,"","",0,12.78
581971,47,47,block_Trng,3,task_Trng,2,0,"","",11,3,"","","","",Block3,Slow!,"","","","","","","",NR,0,"",8,J,red,12,"","",0,38,"","",0,13.06
581971,48,48,block_Trng,3,task_Trng,2,0,"","",12,3,"","","","",Block3,Slow!,"","","","","","","",HR,0,"",9,J,blue,11,"","",0,38,"","",0,13.33
581971,49,49,block_Trng,3,task_Trng,2,0,"","",13,3,"","","","",Block3,Slow!,"","","","","","","",NR,0,"",10,J,red,10,"","",0,38,"","",0,13.61
581971,50,50,block_Trng,3,task_Trng,2,0,"","",14,3,"","","","",Block3,Slow!,"","","","","","","",HR,0,"",11,K,blue,12,"","",0,38,"","",0,13.89
581971,51,51,block_Trng,3,task_Trng,2,0,"","",15,3,"","","","",Block3,Slow!,"","","","","","","",LR,0,"",12,J,green,8,"","",0,38,"","",0,14.17
581971,52,52,block_Trng,3,task_Trng,2,0,"","",16,3,"","","","",Block3,Slow!,"","","","","","","",LR,0,"",13,K,green,11,"","",0,38,"","",0,14.44
581971,53,53,block_Trng,3,task_Trng,2,1,"","",17,3,"","","","",Block3,"","","","","","",J,Stim8,NR,35,"",0,J,red,8,"","",0,38,"","",0,14.72
581971,54,54,block_Trng,3,task_Trng,2,1,"","",18,3,"","","","",Block3,"","","","","","",K,Stim13,LR,34,"",0,K,green,13,"","",0,40,"","",0,15
581971,55,55,block_Trng,3,task_Trng,2,0,"","",1,4,"","","","",Block4,"","","","","","",K,Stim8,LR,25,"",0,J,green,8,"","",0,40,"","",0,15.28
581971,56,56,block_Trng,3,task_Trng,2,1,"","",2,4,"","","","",Block4,"","","","","","",K,Stim10,HR,107,"",0,K,blue,10,"","",0,50,"","",0,15.56
581971,57,57,block_Trng,3,task_Trng,2,1,"","",3,4,"","","","",Block4,"","","","","","",J,Stim12,NR,41,"",0,J,red,12,"","",0,50,"","",0,15.83
581971,58,58,block_Trng,3,task_Trng,2,1,"","",4,4,"","","","",Block4,"","","","","","",J,Stim13,HR,67,"",0,J,blue,13,"","",0,60,"","",0,16.11
581971,59,59,block_Trng,3,task_Trng,2,0,"","",5,4,"","","","",Block4,"","","","","","",J,Stim9,LR,1,"",0,K,green,9,"","",0,60,"","",0,16.39
581971,60,60,block_Trng,3,task_Trng,2,0,"","",6,4,"","","","",Block4,"","","","","","",J,Stim8,HR,83,"",0,K,blue,8,"","",0,60,"","",0,16.67
581971,61,61,block_Trng,3,task_Trng,2,0,"","",7,4,"","","","",Block4,"","","","","","",K,Stim11,HR,81,"",0,J,blue,11,"","",0,60,"","",0,16.94
581971,62,62,block_Trng,3,task_Trng,2,0,"","",8,4,"","","","",Block4,"","","","","","",J,Stim9,NR,53,"",0,K,red,9,"","",0,60,"","",0,17.22
581971,63,63,block_Trng,3,task_Trng,2,0,"","",9,4,"","","","",Block4,"","","","","","",J,Stim11,LR,13,"",0,K,green,11,"","",0,60,"","",0,17.5
581971,64,64,block_Trng,3,task_Trng,2,0,"","",10,4,"","","","",Block4,"","","","","","",J,Stim13,NR,0,"",0,K,red,13,"","",0,60,"","",0,17.78
581971,65,65,block_Trng,3,task_Trng,2,1,"","",11,4,"","","","",Block4,"","","","","","",K,Stim11,NR,79,"",0,K,red,11,"","",0,60,"","",0,18.06
581971,66,66,block_Trng,3,task_Trng,2,0,"","",12,4,"","","","",Block4,"","","","","","",J,Stim12,HR,8,"",0,K,blue,12,"","",0,60,"","",0,18.33
581971,67,67,block_Trng,3,task_Trng,2,0,"","",13,4,"","","","",Block4,"","","","","","",J,Stim13,LR,2,"",0,K,green,13,"","",0,60,"","",0,18.61
581971,68,68,block_Trng,3,task_Trng,2,0,"","",14,4,"","","","",Block4,"","","","","","",K,Stim12,LR,82,"",0,J,green,12,"","",0,60,"","",0,18.89
581971,69,69,block_Trng,3,task_Trng,2,0,"","",15,4,"","","","",Block4,"","","","","","",K,Stim8,NR,58,"",0,J,red,8,"","",0,60,"","",0,19.17
581971,70,70,block_Trng,3,task_Trng,2,0,"","",16,4,"","","","",Block4,"","","","","","",K,Stim9,HR,88,"",0,J,blue,9,"","",0,60,"","",0,19.44
581971,71,71,block_Trng,3,task_Trng,2,0,"","",17,4,"","","","",Block4,"","","","","","",K,Stim10,NR,31,"",0,J,red,10,"","",0,60,"","",0,19.72
581971,72,72,block_Trng,3,task_Trng,2,1,"","",18,4,"","","","",Block4,"","","","","","",J,Stim10,LR,76,"",0,J,green,10,"","",0.21,62,"","",1,20
581971,73,73,block_Trng,3,task_Trng,2,1,"","",1,5,"","","","",Block5,"","","","","","",K,Stim10,HR,52,"",0,K,blue,10,"","",0.21,72,"","",1,20.28
581971,74,74,block_Trng,3,task_Trng,2,0,"","",2,5,"","","","",Block5,"","","","","","",K,Stim11,NR,50,"",0,J,red,10,"","",0.21,72,"","",1,20.56
581971,75,75,block_Trng,3,task_Trng,2,1,"","",3,5,"","","","",Block5,"","","","","","",J,Stim12,LR,6,"",0,J,green,12,"","",0.21,74,"","",1,20.83
581971,76,76,block_Trng,3,task_Trng,2,0,"","",4,5,"","","","",Block5,"","","","","","",J,Stim13,NR,4,"",0,K,red,13,"","",0.21,74,"","",1,21.11
581971,77,77,block_Trng,3,task_Trng,2,0,"","",5,5,"","","","",Block5,"","","","","","",K,Stim10,LR,8,"",0,J,green,10,"","",0.21,74,"","",1,21.39
581971,78,78,block_Trng,3,task_Trng,2,1,"","",6,5,"","","","",Block5,"","","","","","",K,Stim9,NR,77,"",0,K,red,9,"","",0.21,74,"","",1,21.67
581971,79,79,block_Trng,3,task_Trng,2,0,"","",7,5,"","","","",Block5,"","","","","","",J,Stim12,HR,46,"",0,K,blue,12,"","",0.21,74,"","",1,21.94
581971,80,80,block_Trng,3,task_Trng,2,1,"","",8,5,"","","","",Block5,"","","","","","",K,Stim11,NR,8,"",0,K,red,11,"","",0.21,74,"","",1,22.22
581971,81,81,block_Trng,3,task_Trng,2,1,"","",9,5,"","","","",Block5,"","","","","","",K,Stim9,LR,8,"",0,K,green,9,"","",0.21,76,"","",1,22.5
581971,82,82,block_Trng,3,task_Trng,2,0,"","",10,5,"","","","",Block5,"","","","","","",K,Stim12,NR,7,"",0,J,red,12,"","",0.21,76,"","",1,22.78
581971,83,83,block_Trng,3,task_Trng,2,1,"","",11,5,"","","","",Block5,"","","","","","",K,Stim8,HR,102,"",0,K,blue,8,"","",0.21,86,"","",1,23.06
581971,84,84,block_Trng,3,task_Trng,2,0,"","",12,5,"","","","",Block5,"","","","","","",K,Stim8,LR,99,"",0,J,green,8,"","",0.21,86,"","",1,23.33
581971,85,85,block_Trng,3,task_Trng,2,1,"","",13,5,"","","","",Block5,"","","","","","",J,Stim13,HR,86,"",0,J,blue,13,"","",0.21,96,"","",1,23.61
581971,86,86,block_Trng,3,task_Trng,2,1,"","",14,5,"","","","",Block5,"","","","","","",J,Stim11,HR,52,"",0,J,blue,11,"","",0.21,106,"","",1,23.89
581971,87,87,block_Trng,3,task_Trng,2,1,"","",15,5,"","","","",Block5,"","","","","","",J,Stim8,NR,12,"",0,J,red,8,"","",0.21,106,"","",1,24.17
581971,88,88,block_Trng,3,task_Trng,2,1,"","",16,5,"","","","",Block5,"","","","","","",K,Stim12,LR,8,"",0,K,green,11,"","",0.21,108,"","",1,24.44
581971,89,89,block_Trng,3,task_Trng,2,0,"","",17,5,"","","","",Block5,"","","","","","",J,Stim13,LR,78,"",0,K,green,13,"","",0.21,108,"","",1,24.72
581971,90,90,block_Trng,3,task_Trng,2,1,"","",18,5,"","","","",Block5,"","","","","","",J,Stim9,HR,19,"",0,J,blue,9,"","",0.21,118,"","",1,25
581971,91,91,block_Trng,3,task_Trng,2,0,"","",1,6,"","","","",Block6,"","","","","","",K,Stim12,NR,73,"",0,J,red,12,"","",0.21,118,"","",1,25.28
581971,92,92,block_Trng,3,task_Trng,2,0,"","",2,6,"","","","",Block6,"","","","","","",J,Stim11,LR,41,"",0,K,green,11,"","",0.21,118,"","",1,25.56
581971,93,93,block_Trng,3,task_Trng,2,1,"","",3,6,"","","","",Block6,"","","","","","",K,Stim11,HR,37,"",0,K,blue,10,"","",0.21,128,"","",1,25.83
581971,94,94,block_Trng,3,task_Trng,2,1,"","",4,6,"","","","",Block6,"","","","","","",J,Stim9,HR,23,"",0,J,blue,9,"","",0.21,138,"","",1,26.11
581971,95,95,block_Trng,3,task_Trng,2,0,"","",5,6,"","","","",Block6,"","","","","","",K,Stim13,HR,113,"",0,J,blue,13,"","",0.21,138,"","",1,26.39
581971,96,96,block_Trng,3,task_Trng,2,0,"","",6,6,"","","","",Block6,"","","","","","",K,Stim8,NR,20,"",0,J,red,8,"","",0.21,138,"","",1,26.67
581971,97,97,block_Trng,3,task_Trng,2,0,"","",7,6,"","","","",Block6,"","","","","","",J,Stim13,NR,56,"",0,K,red,13,"","",0.21,138,"","",1,26.94
581971,98,98,block_Trng,3,task_Trng,2,1,"","",8,6,"","","","",Block6,"","","","","","",K,Stim9,LR,39,"",0,K,green,9,"","",0.21,140,"","",1,27.22
581971,99,99,block_Trng,3,task_Trng,2,0,"","",9,6,"","","","",Block6,"","","","","","",J,Stim12,HR,85,"",0,K,blue,12,"","",0.21,140,"","",1,27.5
581971,100,100,block_Trng,3,task_Trng,2,1,"","",10,6,"","","","",Block6,"","","","","","",K,Stim8,HR,19,"",0,K,blue,8,"","",0.21,150,"","",1,27.78
581971,101,101,block_Trng,3,task_Trng,2,0,"","",11,6,"","","","",Block6,"","","","","","",J,Stim11,NR,53,"",0,K,red,11,"","",0.21,150,"","",1,28.06
581971,102,102,block_Trng,3,task_Trng,2,0,"","",12,6,"","","","",Block6,"","","","","","",J,Stim9,NR,116,"",0,K,red,9,"","",0.21,150,"","",1,28.33
581971,103,103,block_Trng,3,task_Trng,2,1,"","",13,6,"","","","",Block6,"","","","","","",J,Stim10,LR,51,"",0,J,green,10,"","",0.21,152,"","",1,28.61
581971,104,104,block_Trng,3,task_Trng,2,1,"","",14,6,"","","","",Block6,"","","","","","",K,Stim13,LR,91,"",0,K,green,13,"","",0.21,154,"","",1,28.89
581971,105,105,block_Trng,3,task_Trng,2,0,"","",15,6,"","","","",Block6,"","","","","","",K,Stim9,LR,37,"",0,J,green,8,"","",0.21,154,"","",1,29.17
581971,106,106,block_Trng,3,task_Trng,2,1,"","",16,6,"","","","",Block6,"","","","","","",J,Stim12,LR,61,"",0,J,green,12,"","",0.21,156,"","",1,29.44
581971,107,107,block_Trng,3,task_Trng,2,0,"","",17,6,"","","","",Block6,"","","","","","",K,Stim11,HR,47,"",0,J,blue,11,"","",0.21,156,"","",1,29.72
581971,108,108,block_Trng,3,task_Trng,2,0,"","",18,6,"","","","",Block6,"","","","","","",K,Stim10,NR,81,"",0,J,red,10,"","",0.21,156,"","",1,30
581971,109,109,block_Trng,3,task_Trng,2,0,"","",1,7,"","","","",Block7,"","","","","","",K,Stim10,LR,20,"",0,J,green,10,"","",0.21,156,"","",1,30.28
581971,110,110,block_Trng,3,task_Trng,2,1,"","",2,7,"","","","",Block7,"","","","","","",K,Stim9,NR,67,"",0,K,red,9,"","",0.21,156,"","",1,30.56
581971,111,111,block_Trng,3,task_Trng,2,1,"","",3,7,"","","","",Block7,"","","","","","",J,Stim13,HR,108,"",0,J,blue,13,"","",0.21,166,"","",1,30.83
581971,112,112,block_Trng,3,task_Trng,2,0,"","",4,7,"","","","",Block7,"","","","","","",K,Stim12,NR,11,"",0,J,red,12,"","",0.21,166,"","",1,31.11
581971,113,113,block_Trng,3,task_Trng,2,1,"","",5,7,"","","","",Block7,"","","","","","",K,Stim11,NR,115,"",0,K,red,11,"","",0.21,166,"","",1,31.39
581971,114,114,block_Trng,3,task_Trng,2,1,"","",6,7,"","","","",Block7,"","","","","","",J,Stim8,LR,44,"",0,J,green,8,"","",0.21,168,"","",1,31.67
581971,115,115,block_Trng,3,task_Trng,2,0,"","",7,7,"","","","",Block7,"","","","","","",J,Stim13,NR,14,"",0,K,red,13,"","",0.21,168,"","",1,31.94
581971,116,116,block_Trng,3,task_Trng,2,0,"","",8,7,"","","","",Block7,"","","","","","",J,Stim11,LR,1,"",0,K,green,11,"","",0.21,168,"","",1,32.22
581971,117,117,block_Trng,3,task_Trng,2,1,"","",9,7,"","","","",Block7,"","","","","","",K,Stim10,HR,103,"",0,K,blue,10,"","",0.21,178,"","",1,32.5
581971,118,118,block_Trng,3,task_Trng,2,1,"","",10,7,"","","","",Block7,"","","","","","",K,Stim9,LR,18,"",0,K,green,9,"","",0.21,180,"","",1,32.78
581971,119,119,block_Trng,3,task_Trng,2,0,"","",11,7,"","","","",Block7,"","","","","","",K,Stim12,LR,7,"",0,J,green,12,"","",0.21,180,"","",1,33.06
581971,120,120,block_Trng,3,task_Trng,2,1,"","",12,7,"","","","",Block7,"","","","","","",K,Stim13,LR,105,"",0,K,green,13,"","",0.21,182,"","",1,33.33
581971,121,121,block_Trng,3,task_Trng,2,1,"","",13,7,"","","","",Block7,"","","","","","",J,Stim10,NR,118,"",0,J,red,10,"","",0.21,182,"","",1,33.61
581971,122,122,block_Trng,3,task_Trng,2,0,"","",14,7,"","","","",Block7,"","","","","","",J,Stim12,HR,1,"",0,K,blue,12,"","",0.21,182,"","",1,33.89
581971,123,123,block_Trng,3,task_Trng,2,1,"","",15,7,"","","","",Block7,"","","","","","",J,Stim9,HR,22,"",0,J,blue,9,"","",0.21,192,"","",1,34.17
581971,124,124,block_Trng,3,task_Trng,2,1,"","",16,7,"","","","",Block7,"","","","","","",J,Stim8,NR,74,"",0,J,red,8,"","",0.21,192,"","",1,34.44
581971,125,125,block_Trng,3,task_Trng,2,1,"","",17,7,"","","","",Block7,"","","","","","",J,Stim11,HR,61,"",0,J,blue,11,"","",0.21,202,"","",1,34.72
581971,126,126,block_Trng,3,task_Trng,2,0,"","",18,7,"","","","",Block7,"","","","","","",J,Stim8,HR,36,"",0,K,blue,8,"","",0.21,202,"","",1,35
581971,127,127,block_Trng,3,task_Trng,2,0,"","",1,8,"","","","",Block8,"","","","","","",J,Stim8,HR,9,"",0,K,blue,8,"","",0.21,202,"","",1,35.28
581971,128,128,block_Trng,3,task_Trng,2,1,"","",2,8,"","","","",Block8,"","","","","","",K,Stim11,NR,78,"",0,K,red,11,"","",0.21,202,"","",1,35.56
581971,129,129,block_Trng,3,task_Trng,2,1,"","",3,8,"","","","",Block8,"","","","","","",K,Stim11,LR,68,"",0,K,green,11,"","",0.21,204,"","",1,35.83
581971,130,130,block_Trng,3,task_Trng,2,0,"","",4,8,"","","","",Block8,"","","","","","",J,Stim13,LR,16,"",0,K,green,13,"","",0.21,204,"","",1,36.11
581971,131,131,block_Trng,3,task_Trng,2,1,"","",5,8,"","","","",Block8,"","","","","","",K,Stim9,LR,103,"",0,K,green,9,"","",0.21,206,"","",1,36.39
581971,132,132,block_Trng,3,task_Trng,2,1,"","",6,8,"","","","",Block8,"","","","","","",J,Stim9,NR,3,"",0,J,red,8,"","",0.21,206,"","",1,36.67
581971,133,133,block_Trng,3,task_Trng,2,0,"","",7,8,"","","","",Block8,"","","","","","",K,Stim13,HR,58,"",0,J,blue,13,"","",0.21,206,"","",1,36.94
581971,134,134,block_Trng,3,task_Trng,2,0,"","",8,8,"","","","",Block8,"","","","","","",K,Stim8,LR,11,"",0,J,green,8,"","",0.21,206,"","",1,37.22
581971,135,135,block_Trng,3,task_Trng,2,1,"","",9,8,"","","","",Block8,"","","","","","",K,Stim12,HR,12,"",0,K,blue,12,"","",0.21,216,"","",1,37.5
581971,136,136,block_Trng,3,task_Trng,2,0,"","",10,8,"","","","",Block8,"","","","","","",K,Stim10,LR,93,"",0,J,green,10,"","",0.21,216,"","",1,37.78
581971,137,137,block_Trng,3,task_Trng,2,0,"","",11,8,"","","","",Block8,"","","","","","",K,Stim10,NR,35,"",0,J,red,10,"","",0.21,216,"","",1,38.06
581971,138,138,block_Trng,3,task_Trng,2,0,"","",12,8,"","","","",Block8,"","","","","","",K,Stim12,NR,3,"",0,J,red,12,"","",0.21,216,"","",1,38.33
581971,139,139,block_Trng,3,task_Trng,2,0,"","",13,8,"","","","",Block8,"","","","","","",J,Stim9,NR,10,"",0,K,red,9,"","",0.21,216,"","",1,38.61
581971,140,140,block_Trng,3,task_Trng,2,1,"","",14,8,"","","","",Block8,"","","","","","",J,Stim9,HR,24,"",0,J,blue,9,"","",0.21,226,"","",1,38.89
581971,141,141,block_Trng,3,task_Trng,2,1,"","",15,8,"","","","",Block8,"","","","","","",K,Stim13,NR,30,"",0,K,red,13,"","",0.21,226,"","",1,39.17
581971,142,142,block_Trng,3,task_Trng,2,1,"","",16,8,"","","","",Block8,"","","","","","",K,Stim10,HR,85,"",0,K,blue,10,"","",0.21,236,"","",1,39.44
581971,143,143,block_Trng,3,task_Trng,2,1,"","",17,8,"","","","",Block8,"","","","","","",J,Stim11,HR,25,"",0,J,blue,11,"","",0.21,246,"","",1,39.72
581971,144,144,block_Trng,3,task_Trng,2,1,"","",18,8,"","","","",Block8,"","","","","","",J,Stim13,LR,2,"",0,J,green,12,"","",0.84,248,"","",2,40
581971,145,145,block_Trng,3,task_Trng,2,0,"","",1,9,"","","","",Block9,"","","","","","",J,Stim8,HR,86,"",0,K,blue,8,"","",0.84,248,"","",2,40.28
581971,146,146,block_Trng,3,task_Trng,2,1,"","",2,9,"","","","",Block9,"","","","","","",J,Stim12,LR,8,"",0,J,green,12,"","",0.84,250,"","",2,40.56
581971,147,147,block_Trng,3,task_Trng,2,1,"","",3,9,"","","","",Block9,"","","","","","",K,Stim10,HR,66,"",0,K,blue,10,"","",0.84,260,"","",2,40.83
581971,148,148,block_Trng,3,task_Trng,2,1,"","",4,9,"","","","",Block9,"","","","","","",J,Stim12,NR,40,"",0,J,red,12,"","",0.84,260,"","",2,41.11
581971,149,149,block_Trng,3,task_Trng,2,0,"","",5,9,"","","","",Block9,"","","","","","",J,Stim9,LR,106,"",0,K,green,9,"","",0.84,260,"","",2,41.39
581971,150,150,block_Trng,3,task_Trng,2,0,"","",6,9,"","","","",Block9,Slow!,"","","","","",J,PreISI2,HR,32,"",1,K,blue,12,"","",0.84,260,"","",2,41.67
581971,151,151,block_Trng,3,task_Trng,2,1,"","",7,9,"","","","",Block9,"","","","","","",J,Stim10,NR,78,"",0,J,red,10,"","",0.84,260,"","",2,41.94
581971,152,152,block_Trng,3,task_Trng,2,0,"","",8,9,"","","","",Block9,"","","","","","",J,Stim9,NR,8,"",0,K,red,9,"","",0.84,260,"","",2,42.22
581971,153,153,block_Trng,3,task_Trng,2,0,"","",9,9,"","","","",Block9,"","","","","","",J,Stim11,NR,26,"",0,K,red,11,"","",0.84,260,"","",2,42.5
581971,154,154,block_Trng,3,task_Trng,2,1,"","",10,9,"","","","",Block9,"","","","","","",J,Stim9,HR,74,"",0,J,blue,9,"","",0.84,270,"","",2,42.78
581971,155,155,block_Trng,3,task_Trng,2,1,"","",11,9,"","","","",Block9,"","","","","","",K,Stim13,LR,111,"",0,K,green,13,"","",0.84,272,"","",2,43.06
581971,156,156,block_Trng,3,task_Trng,2,0,"","",12,9,"","","","",Block9,"","","","","","",J,Stim13,NR,31,"",0,K,red,13,"","",0.84,272,"","",2,43.33
581971,157,157,block_Trng,3,task_Trng,2,0,"","",13,9,"","","","",Block9,"","","","","","",K,Stim8,LR,70,"",0,J,green,8,"","",0.84,272,"","",2,43.61
581971,158,158,block_Trng,3,task_Trng,2,1,"","",14,9,"","","","",Block9,"","","","","","",J,Stim11,HR,31,"",0,J,blue,11,"","",0.84,282,"","",2,43.89
581971,159,159,block_Trng,3,task_Trng,2,1,"","",15,9,"","","","",Block9,"","","","","","",J,Stim13,HR,84,"",0,J,blue,13,"","",0.84,292,"","",2,44.17
581971,160,160,block_Trng,3,task_Trng,2,1,"","",16,9,"","","","",Block9,"","","","","","",J,Stim10,LR,29,"",0,J,green,10,"","",0.84,294,"","",2,44.44
581971,161,161,block_Trng,3,task_Trng,2,0,"","",17,9,"","","","",Block9,"","","","","","",J,Stim11,LR,29,"",0,K,green,11,"","",0.84,294,"","",2,44.72
581971,162,162,block_Trng,3,task_Trng,2,0,"","",18,9,"","","","",Block9,"","","","","","",K,Stim8,NR,71,"",0,J,red,8,"","",0.84,294,"","",2,45
581971,163,163,block_Trng,3,task_Trng,2,0,"","",1,10,"","","","",Block10,"","","","","","",K,Stim8,NR,83,"",0,J,red,8,"","",0.84,294,"","",2,45.28
581971,164,164,block_Trng,3,task_Trng,2,0,"","",2,10,"","","","",Block10,"","","","","","",K,Stim10,LR,66,"",0,J,green,10,"","",0.84,294,"","",2,45.56
581971,165,165,block_Trng,3,task_Trng,2,1,"","",3,10,"","","","",Block10,"","","","","","",K,Stim13,LR,74,"",0,K,green,13,"","",0.84,296,"","",2,45.83
581971,166,166,block_Trng,3,task_Trng,2,1,"","",4,10,"","","","",Block10,"","","","","","",J,Stim12,LR,49,"",0,J,green,12,"","",0.84,298,"","",2,46.11
581971,167,167,block_Trng,3,task_Trng,2,1,"","",5,10,"","","","",Block10,"","","","","","",J,Stim10,NR,1,"",0,J,red,10,"","",0.84,298,"","",2,46.39
581971,168,168,block_Trng,3,task_Trng,2,0,"","",6,10,"","","","",Block10,"","","","","","",J,Stim12,HR,86,"",0,K,blue,12,"","",0.84,298,"","",2,46.67
581971,169,169,block_Trng,3,task_Trng,2,0,"","",7,10,"","","","",Block10,"","","","","","",J,Stim11,HR,20,"",0,K,blue,10,"","",0.84,298,"","",2,46.94
581971,170,170,block_Trng,3,task_Trng,2,0,"","",8,10,"","","","",Block10,"","","","","","",J,Stim9,LR,104,"",0,K,green,9,"","",0.84,298,"","",2,47.22
581971,171,171,block_Trng,3,task_Trng,2,0,"","",9,10,"","","","",Block10,"","","","","","",J,Stim13,NR,21,"",0,K,red,13,"","",0.84,298,"","",2,47.5
581971,172,172,block_Trng,3,task_Trng,2,0,"","",10,10,"","","","",Block10,"","","","","","",K,Stim11,HR,67,"",0,J,blue,11,"","",0.84,298,"","",2,47.78
581971,173,173,block_Trng,3,task_Trng,2,0,"","",11,10,"","","","",Block10,"","","","","","",J,Stim8,HR,14,"",0,K,blue,8,"","",0.84,298,"","",2,48.06
581971,174,174,block_Trng,3,task_Trng,2,1,"","",12,10,"","","","",Block10,"","","","","","",J,Stim8,LR,23,"",0,J,green,8,"","",0.84,300,"","",2,48.33
581971,175,175,block_Trng,3,task_Trng,2,0,"","",13,10,"","","","",Block10,"","","","","","",J,Stim11,LR,26,"",0,K,green,11,"","",0.84,300,"","",2,48.61
581971,176,176,block_Trng,3,task_Trng,2,0,"","",14,10,"","","","",Block10,"","","","","","",K,Stim14,HR,56,"",0,J,blue,13,"","",0.84,300,"","",2,48.89
581971,177,177,block_Trng,3,task_Trng,2,0,"","",15,10,"","","","",Block10,"","","","","","",K,Stim12,NR,74,"",0,J,red,12,"","",0.84,300,"","",2,49.17
581971,178,178,block_Trng,3,task_Trng,2,0,"","",16,10,"","","","",Block10,"","","","","","",J,Stim9,NR,85,"",0,K,red,9,"","",0.84,300,"","",2,49.44
581971,179,179,block_Trng,3,task_Trng,2,1,"","",17,10,"","","","",Block10,"","","","","","",K,Stim12,NR,8,"",0,K,red,11,"","",0.84,300,"","",2,49.72
581971,180,180,block_Trng,3,task_Trng,2,0,"","",18,10,"","","","",Block10,"","","","","","",K,Stim9,HR,35,"",0,J,blue,9,"","",0.84,300,"","",2,50
581971,181,181,block_Trng,3,task_Trng,2,1,"","",1,11,"","","","",Block11,"","","","","","",J,Stim8,LR,35,"",0,J,green,8,"","",0.84,302,"","",2,50.28
581971,182,182,block_Trng,3,task_Trng,2,1,"","",2,11,"","","","",Block11,"","","","","","",J,Stim11,NR,32,"",0,J,red,10,"","",0.84,302,"","",2,50.56
581971,183,183,block_Trng,3,task_Trng,2,0,"","",3,11,"","","","",Block11,"","","","","","",J,Stim11,LR,42,"",0,K,green,11,"","",0.84,302,"","",2,50.83
581971,184,184,block_Trng,3,task_Trng,2,0,"","",4,11,"","","","",Block11,"","","","","","",J,Stim11,NR,102,"",0,K,red,11,"","",0.84,302,"","",2,51.11
581971,185,185,block_Trng,3,task_Trng,2,0,"","",5,11,"","","","",Block11,"","","","","","",K,Stim11,LR,9,"",0,J,green,10,"","",0.84,302,"","",2,51.39
581971,186,186,block_Trng,3,task_Trng,2,0,"","",6,11,"","","","",Block11,"","","","","","",K,Stim12,HR,25,"",0,J,blue,11,"","",0.84,302,"","",2,51.67
581971,187,187,block_Trng,3,task_Trng,2,1,"","",7,11,"","","","",Block11,"","","","","","",K,Stim13,LR,28,"",0,K,green,13,"","",0.84,304,"","",2,51.94
581971,188,188,block_Trng,3,task_Trng,2,1,"","",8,11,"","","","",Block11,"","","","","","",J,Stim12,NR,109,"",0,J,red,12,"","",0.84,304,"","",2,52.22
581971,189,189,block_Trng,3,task_Trng,2,1,"","",9,11,"","","","",Block11,"","","","","","",J,Stim9,HR,105,"",0,J,blue,9,"","",0.84,314,"","",2,52.5
581971,190,190,block_Trng,3,task_Trng,2,0,"","",10,11,"","","","",Block11,"","","","","","",J,Stim9,HR,87,"",0,K,blue,8,"","",0.84,314,"","",2,52.78
581971,191,191,block_Trng,3,task_Trng,2,0,"","",11,11,"","","","",Block11,"","","","","","",J,Stim10,NR,22,"",0,K,red,9,"","",0.84,314,"","",2,53.06
581971,192,192,block_Trng,3,task_Trng,2,0,"","",12,11,"","","","",Block11,"","","","","","",K,Stim12,LR,50,"",0,J,green,12,"","",0.84,314,"","",2,53.33
581971,193,193,block_Trng,3,task_Trng,2,0,"","",13,11,"","","","",Block11,"","","","","","",J,Stim12,HR,116,"",0,K,blue,12,"","",0.84,314,"","",2,53.61
581971,194,194,block_Trng,3,task_Trng,2,0,"","",14,11,"","","","",Block11,"","","","","","",J,Stim13,NR,87,"",0,K,red,13,"","",0.84,314,"","",2,53.89
581971,195,195,block_Trng,3,task_Trng,2,0,"","",15,11,"","","","",Block11,"","","","","","",J,Stim10,HR,4,"",0,K,blue,10,"","",0.84,314,"","",2,54.17
581971,196,196,block_Trng,3,task_Trng,2,0,"","",16,11,"","","","",Block11,"","","","","","",J,Stim9,LR,7,"",0,K,green,9,"","",0.84,314,"","",2,54.44
581971,197,197,block_Trng,3,task_Trng,2,1,"","",17,11,"","","","",Block11,"","","","","","",J,Stim13,HR,26,"",0,J,blue,13,"","",0.84,324,"","",2,54.72
581971,198,198,block_Trng,3,task_Trng,2,1,"","",18,11,"","","","",Block11,"","","","","","",J,Stim8,NR,94,"",0,J,red,8,"","",0.84,324,"","",2,55
581971,199,199,block_Trng,3,task_Trng,2,1,"","",1,12,"","","","",Block12,"","","","","","",K,Stim8,HR,58,"",0,K,blue,8,"","",0.84,334,"","",2,55.28
581971,200,200,block_Trng,3,task_Trng,2,0,"","",2,12,"","","","",Block12,"","","","","","",J,Stim11,LR,68,"",0,K,green,11,"","",0.84,334,"","",2,55.56
581971,201,201,block_Trng,3,task_Trng,2,1,"","",3,12,"","","","",Block12,"","","","","","",K,Stim14,LR,10,"",0,K,green,13,"","",0.84,336,"","",2,55.83
581971,202,202,block_Trng,3,task_Trng,2,0,"","",4,12,"","","","",Block12,"","","","","","",J,Stim10,HR,14,"",0,K,blue,10,"","",0.84,336,"","",2,56.11
581971,203,203,block_Trng,3,task_Trng,2,0,"","",5,12,"","","","",Block12,"","","","","","",J,Stim11,NR,10,"",0,K,red,11,"","",0.84,336,"","",2,56.39
581971,204,204,block_Trng,3,task_Trng,2,1,"","",6,12,"","","","",Block12,"","","","","","",K,Stim9,LR,8,"",0,K,green,9,"","",0.84,338,"","",2,56.67
581971,205,205,block_Trng,3,task_Trng,2,0,"","",7,12,"","","","",Block12,"","","","","","",K,Stim11,HR,58,"",0,J,blue,11,"","",0.84,338,"","",2,56.94
581971,206,206,block_Trng,3,task_Trng,2,0,"","",8,12,"","","","",Block12,"","","","","","",K,Stim10,NR,44,"",0,J,red,10,"","",0.84,338,"","",2,57.22
581971,207,207,block_Trng,3,task_Trng,2,0,"","",9,12,"","","","",Block12,"","","","","","",J,Stim12,HR,110,"",0,K,blue,12,"","",0.84,338,"","",2,57.5
581971,208,208,block_Trng,3,task_Trng,2,0,"","",10,12,"","","","",Block12,"","","","","","",K,Stim11,LR,14,"",0,J,green,10,"","",0.84,338,"","",2,57.78
581971,209,209,block_Trng,3,task_Trng,2,0,"","",11,12,"","","","",Block12,"","","","","","",K,Stim9,HR,75,"",0,J,blue,9,"","",0.84,338,"","",2,58.06
581971,210,210,block_Trng,3,task_Trng,2,1,"","",12,12,"","","","",Block12,"","","","","","",K,Stim9,NR,86,"",0,K,red,9,"","",0.84,338,"","",2,58.33
581971,211,211,block_Trng,3,task_Trng,2,0,"","",13,12,"","","","",Block12,"","","","","","",K,Stim13,HR,90,"",0,J,blue,13,"","",0.84,338,"","",2,58.61
581971,212,212,block_Trng,3,task_Trng,2,0,"","",14,12,"","","","",Block12,"","","","","","",K,Stim9,LR,31,"",0,J,green,8,"","",0.84,338,"","",2,58.89
581971,213,213,block_Trng,3,task_Trng,2,1,"","",15,12,"","","","",Block12,"","","","","","",J,Stim12,LR,28,"",0,J,green,12,"","",0.84,340,"","",2,59.17
581971,214,214,block_Trng,3,task_Trng,2,1,"","",16,12,"","","","",Block12,"","","","","","",J,Stim13,NR,9,"",0,J,red,12,"","",0.84,340,"","",2,59.44
581971,215,215,block_Trng,3,task_Trng,2,0,"","",17,12,"","","","",Block12,"","","","","","",K,Stim9,NR,87,"",0,J,red,8,"","",0.84,340,"","",2,59.72
581971,216,216,block_Trng,3,task_Trng,2,0,"","",18,12,"","","","",Block12,"","","","","","",J,Stim13,NR,28,"",0,K,red,13,"","",1.16,340,"","",3,60
581971,217,217,block_Trng,3,task_Trng,2,0,"","",1,13,"","","","",Block13,"","","","","","",K,Stim13,HR,63,"",0,J,blue,13,"","",1.16,340,"","",3,60.28
581971,218,218,block_Trng,3,task_Trng,2,1,"","",2,13,"","","","",Block13,"","","","","","",K,Stim9,NR,0,"",0,K,red,9,"","",1.16,340,"","",3,60.56
581971,219,219,block_Trng,3,task_Trng,2,1,"","",3,13,"","","","",Block13,"","","","","","",J,Stim10,LR,110,"",0,J,green,10,"","",1.16,342,"","",3,60.83
581971,220,220,block_Trng,3,task_Trng,2,0,"","",4,13,"","","","",Block13,"","","","","","",K,Stim9,HR,86,"",0,J,blue,9,"","",1.16,342,"","",3,61.11
581971,221,221,block_Trng,3,task_Trng,2,0,"","",5,13,"","","","",Block13,"","","","","","",K,Stim10,NR,10,"",0,J,red,10,"","",1.16,342,"","",3,61.39
581971,222,222,block_Trng,3,task_Trng,2,1,"","",6,13,"","","","",Block13,"","","","","","",J,Stim12,LR,28,"",0,J,green,12,"","",1.16,344,"","",3,61.67
581971,223,223,block_Trng,3,task_Trng,2,1,"","",7,13,"","","","",Block13,"","","","","","",K,Stim10,HR,21,"",0,K,blue,10,"","",1.16,354,"","",3,61.94
581971,224,224,block_Trng,3,task_Trng,2,0,"","",8,13,"","","","",Block13,"","","","","","",J,Stim14,NR,4,"",0,K,red,13,"","",1.16,354,"","",3,62.22
581971,225,225,block_Trng,3,task_Trng,2,0,"","",9,13,"","","","",Block13,"","","","","","",J,Stim8,HR,23,"",0,K,blue,8,"","",1.16,354,"","",3,62.5
581971,226,226,block_Trng,3,task_Trng,2,1,"","",10,13,"","","","",Block13,"","","","","","",K,Stim11,LR,31,"",0,K,green,11,"","",1.16,356,"","",3,62.78
581971,227,227,block_Trng,3,task_Trng,2,1,"","",11,13,"","","","",Block13,"","","","","","",J,Stim8,NR,88,"",0,J,red,8,"","",1.16,356,"","",3,63.06
581971,228,228,block_Trng,3,task_Trng,2,0,"","",12,13,"","","","",Block13,"","","","","","",K,Stim11,HR,70,"",0,J,blue,11,"","",1.16,356,"","",3,63.33
581971,229,229,block_Trng,3,task_Trng,2,0,"","",13,13,"","","","",Block13,"","","","","","",J,Stim11,NR,2,"",0,K,red,11,"","",1.16,356,"","",3,63.61
581971,230,230,block_Trng,3,task_Trng,2,0,"","",14,13,"","","","",Block13,"","","","","","",J,Stim12,HR,90,"",0,K,blue,12,"","",1.16,356,"","",3,63.89
581971,231,231,block_Trng,3,task_Trng,2,0,"","",15,13,"","","","",Block13,"","","","","","",K,Stim12,NR,115,"",0,J,red,12,"","",1.16,356,"","",3,64.17
581971,232,232,block_Trng,3,task_Trng,2,1,"","",16,13,"","","","",Block13,"","","","","","",K,Stim9,LR,21,"",0,K,green,9,"","",1.16,358,"","",3,64.44
581971,233,233,block_Trng,3,task_Trng,2,0,"","",17,13,"","","","",Block13,"","","","","","",J,Stim13,LR,104,"",0,K,green,13,"","",1.16,358,"","",3,64.72
581971,234,234,block_Trng,3,task_Trng,2,1,"","",18,13,"","","","",Block13,"","","","","","",J,Stim8,LR,8,"",0,J,green,8,"","",1.16,360,"","",3,65
581971,235,235,block_Trng,3,task_Trng,2,0,"","",1,14,"","","","",Block14,"","","","","","",J,Stim9,NR,8,"",0,K,red,9,"","",1.16,360,"","",3,65.28
581971,236,236,block_Trng,3,task_Trng,2,1,"","",2,14,"","","","",Block14,"","","","","","",K,Stim12,HR,99,"",0,K,blue,12,"","",1.16,370,"","",3,65.56
581971,237,237,block_Trng,3,task_Trng,2,0,"","",3,14,"","","","",Block14,"","","","","","",J,Stim8,HR,8,"",0,K,blue,8,"","",1.16,370,"","",3,65.83
581971,238,238,block_Trng,3,task_Trng,2,1,"","",4,14,"","","","",Block14,"","","","","","",K,Stim11,LR,59,"",0,K,green,11,"","",1.16,372,"","",3,66.11
581971,239,239,block_Trng,3,task_Trng,2,1,"","",5,14,"","","","",Block14,"","","","","","",J,Stim9,HR,81,"",0,J,blue,9,"","",1.16,382,"","",3,66.39
581971,240,240,block_Trng,3,task_Trng,2,0,"","",6,14,"","","","",Block14,"","","","","","",J,Stim13,NR,50,"",0,K,red,13,"","",1.16,382,"","",3,66.67
581971,241,241,block_Trng,3,task_Trng,2,1,"","",7,14,"","","","",Block14,"","","","","","",J,Stim13,HR,68,"",0,J,blue,13,"","",1.16,392,"","",3,66.94
581971,242,242,block_Trng,3,task_Trng,2,1,"","",8,14,"","","","",Block14,"","","","","","",J,Stim9,LR,17,"",0,J,green,8,"","",1.16,394,"","",3,67.22
581971,243,243,block_Trng,3,task_Trng,2,0,"","",9,14,"","","","",Block14,"","","","","","",K,Stim12,NR,59,"",0,J,red,12,"","",1.16,394,"","",3,67.5
581971,244,244,block_Trng,3,task_Trng,2,0,"","",10,14,"","","","",Block14,"","","","","","",K,Stim8,NR,1,"",0,J,red,8,"","",1.16,394,"","",3,67.78
581971,245,245,block_Trng,3,task_Trng,2,0,"","",11,14,"","","","",Block14,"","","","","","",K,Stim10,NR,80,"",0,J,red,10,"","",1.16,394,"","",3,68.06
581971,246,246,block_Trng,3,task_Trng,2,0,"","",12,14,"","","","",Block14,"","","","","","",J,Stim11,NR,21,"",0,K,red,11,"","",1.16,394,"","",3,68.33
581971,247,247,block_Trng,3,task_Trng,2,1,"","",13,14,"","","","",Block14,"","","","","","",K,Stim10,HR,12,"",0,K,blue,10,"","",1.16,404,"","",3,68.61
581971,248,248,block_Trng,3,task_Trng,2,1,"","",14,14,"","","","",Block14,"","","","","","",J,Stim10,LR,81,"",0,J,green,10,"","",1.16,406,"","",3,68.89
581971,249,249,block_Trng,3,task_Trng,2,0,"","",15,14,"","","","",Block14,"","","","","","",J,Stim13,LR,30,"",0,K,green,13,"","",1.16,406,"","",3,69.17
581971,250,250,block_Trng,3,task_Trng,2,1,"","",16,14,"","","","",Block14,"","","","","","",K,Stim9,LR,86,"",0,K,green,9,"","",1.16,408,"","",3,69.44
581971,251,251,block_Trng,3,task_Trng,2,0,"","",17,14,"","","","",Block14,"","","","","","",K,Stim12,LR,16,"",0,J,green,12,"","",1.16,408,"","",3,69.72
581971,252,252,block_Trng,3,task_Trng,2,1,"","",18,14,"","","","",Block14,"","","","","","",J,Stim11,HR,72,"",0,J,blue,11,"","",1.16,418,"","",3,70
581971,253,253,block_Trng,3,task_Trng,2,0,"","",1,15,"","","","",Block15,"","","","","","",J,Stim10,HR,79,"",0,K,blue,10,"","",1.16,418,"","",3,70.28
581971,254,254,block_Trng,3,task_Trng,2,0,"","",2,15,"","","","",Block15,"","","","","","",K,Stim12,LR,48,"",0,J,green,12,"","",1.16,418,"","",3,70.56
581971,255,255,block_Trng,3,task_Trng,2,0,"","",3,15,"","","","",Block15,"","","","","","",J,Stim9,NR,43,"",0,K,red,9,"","",1.16,418,"","",3,70.83
581971,256,256,block_Trng,3,task_Trng,2,0,"","",4,15,"","","","",Block15,"","","","","","",K,Stim11,HR,113,"",0,J,blue,11,"","",1.16,418,"","",3,71.11
581971,257,257,block_Trng,3,task_Trng,2,0,"","",5,15,"","","","",Block15,"","","","","","",K,Stim13,HR,36,"",0,J,blue,13,"","",1.16,418,"","",3,71.39
581971,258,258,block_Trng,3,task_Trng,2,0,"","",6,15,"","","","",Block15,"","","","","","",J,Stim8,HR,70,"",0,K,blue,8,"","",1.16,418,"","",3,71.67
581971,259,259,block_Trng,3,task_Trng,2,0,"","",7,15,"","","","",Block15,"","","","","","",J,Stim11,LR,13,"",0,K,green,11,"","",1.16,418,"","",3,71.94
581971,260,260,block_Trng,3,task_Trng,2,0,"","",8,15,"","","","",Block15,"","","","","","",J,Stim13,NR,70,"",0,K,red,13,"","",1.16,418,"","",3,72.22
581971,261,261,block_Trng,3,task_Trng,2,1,"","",9,15,"","","","",Block15,"","","","","","",J,Stim9,HR,52,"",0,J,blue,9,"","",1.16,428,"","",3,72.5
581971,262,262,block_Trng,3,task_Trng,2,0,"","",10,15,"","","","",Block15,"","","","","","",K,Stim8,LR,35,"",0,J,green,8,"","",1.16,428,"","",3,72.78
581971,263,263,block_Trng,3,task_Trng,2,1,"","",11,15,"","","","",Block15,"","","","","","",J,Stim8,NR,19,"",0,J,red,8,"","",1.16,428,"","",3,73.06
581971,264,264,block_Trng,3,task_Trng,2,0,"","",12,15,"","","","",Block15,"","","","","","",J,Stim11,NR,51,"",0,K,red,11,"","",1.16,428,"","",3,73.33
581971,265,265,block_Trng,3,task_Trng,2,1,"","",13,15,"","","","",Block15,"","","","","","",K,Stim13,LR,8,"",0,K,green,13,"","",1.16,430,"","",3,73.61
581971,266,266,block_Trng,3,task_Trng,2,0,"","",14,15,"","","","",Block15,"","","","","","",K,Stim10,NR,27,"",0,J,red,10,"","",1.16,430,"","",3,73.89
581971,267,267,block_Trng,3,task_Trng,2,0,"","",15,15,"","","","",Block15,"","","","","","",J,Stim13,HR,38,"",0,K,blue,12,"","",1.16,430,"","",3,74.17
581971,268,268,block_Trng,3,task_Trng,2,0,"","",16,15,"","","","",Block15,"","","","","","",K,Stim10,LR,55,"",0,J,green,10,"","",1.16,430,"","",3,74.44
581971,269,269,block_Trng,3,task_Trng,2,0,"","",17,15,"","","","",Block15,"","","","","","",K,Stim12,NR,28,"",0,J,red,12,"","",1.16,430,"","",3,74.72
581971,270,270,block_Trng,3,task_Trng,2,0,"","",18,15,"","","","",Block15,"","","","","","",J,Stim9,LR,23,"",0,K,green,9,"","",1.16,430,"","",3,75
581971,271,271,block_Trng,3,task_Trng,2,1,"","",1,16,"","","","",Block16',"","","","","","",J,Stim10,LR,117,"",0,J,green,10,"","",1.16,432,"","",3,75.28
581971,272,272,block_Trng,3,task_Trng,2,1,"","",2,16,"","","","",Block16',"","","","","","",K,Stim10,HR,97,"",0,K,blue,10,"","",1.16,442,"","",3,75.56
581971,273,273,block_Trng,3,task_Trng,2,1,"","",3,16,"","","","",Block16',"","","","","","",K,Stim9,NR,117,"",0,K,red,9,"","",1.16,442,"","",3,75.83
581971,274,274,block_Trng,3,task_Trng,2,1,"","",4,16,"","","","",Block16',"","","","","","",K,Stim8,HR,66,"",0,K,blue,8,"","",1.16,452,"","",3,76.11
581971,275,275,block_Trng,3,task_Trng,2,1,"","",5,16,"","","","",Block16',"","","","","","",J,Stim11,NR,22,"",0,J,red,10,"","",1.16,452,"","",3,76.39
581971,276,276,block_Trng,3,task_Trng,2,1,"","",6,16,"","","","",Block16',"","","","","","",J,Stim13,HR,115,"",0,J,blue,13,"","",1.16,462,"","",3,76.67
581971,277,277,block_Trng,3,task_Trng,2,0,"","",7,16,"","","","",Block16',"","","","","","",J,Stim11,LR,80,"",0,K,green,11,"","",1.16,462,"","",3,76.94
581971,278,278,block_Trng,3,task_Trng,2,1,"","",8,16,"","","","",Block16',"","","","","","",K,Stim13,LR,118,"",0,K,green,13,"","",1.16,464,"","",3,77.22
581971,279,279,block_Trng,3,task_Trng,2,0,"","",9,16,"","","","",Block16',"","","","","","",J,Stim9,LR,44,"",0,K,green,9,"","",1.16,464,"","",3,77.5
581971,280,280,block_Trng,3,task_Trng,2,0,"","",10,16,"","","","",Block16',"","","","","","",K,Stim8,NR,82,"",0,J,red,8,"","",1.16,464,"","",3,77.78
581971,281,281,block_Trng,3,task_Trng,2,0,"","",11,16,"","","","",Block16',"","","","","","",K,Stim12,LR,98,"",0,J,green,12,"","",1.16,464,"","",3,78.06
581971,282,282,block_Trng,3,task_Trng,2,1,"","",12,16,"","","","",Block16',"","","","","","",J,Stim11,HR,11,"",0,J,blue,11,"","",1.16,474,"","",3,78.33
581971,283,283,block_Trng,3,task_Trng,2,1,"","",13,16,"","","","",Block16',"","","","","","",K,Stim12,HR,70,"",0,K,blue,12,"","",1.16,484,"","",3,78.61
581971,284,284,block_Trng,3,task_Trng,2,0,"","",14,16,"","","","",Block16',"","","","","","",K,Stim13,NR,22,"",0,J,red,12,"","",1.16,484,"","",3,78.89
581971,285,285,block_Trng,3,task_Trng,2,0,"","",15,16,"","","","",Block16',"","","","","","",J,Stim11,NR,81,"",0,K,red,11,"","",1.16,484,"","",3,79.17
581971,286,286,block_Trng,3,task_Trng,2,0,"","",16,16,"","","","",Block16',"","","","","","",J,Stim13,NR,42,"",0,K,red,13,"","",1.16,484,"","",3,79.44
581971,287,287,block_Trng,3,task_Trng,2,1,"","",17,16,"","","","",Block16',"","","","","","",J,Stim13,LR,9,"",0,J,green,8,"","",1.16,486,"","",3,79.72
581971,288,288,block_Trng,3,task_Trng,2,0,"","",18,16,"","","","",Block16',"","","","","","",K,Stim9,HR,43,"",0,J,blue,9,"","",1.65,486,"","",4,80
581971,289,289,block_Trng,3,task_Trng,2,0,"","",1,17,"","","","",Block17,"","","","","","",K,Stim8,NR,8,"",0,J,red,8,"","",1.65,486,"","",4,80.28
581971,290,290,block_Trng,3,task_Trng,2,1,"","",2,17,"","","","",Block17,"","","","","","",K,Stim11,LR,80,"",0,K,green,11,"","",1.65,488,"","",4,80.56
581971,291,291,block_Trng,3,task_Trng,2,1,"","",3,17,"","","","",Block17,"","","","","","",K,Stim8,HR,37,"",0,K,blue,8,"","",1.65,498,"","",4,80.83
581971,292,292,block_Trng,3,task_Trng,2,1,"","",4,17,"","","","",Block17,"","","","","","",J,Stim12,NR,44,"",0,J,red,12,"","",1.65,498,"","",4,81.11
581971,293,293,block_Trng,3,task_Trng,2,0,"","",5,17,"","","","",Block17,"","","","","","",K,Stim9,HR,92,"",0,J,blue,9,"","",1.65,498,"","",4,81.39
581971,294,294,block_Trng,3,task_Trng,2,1,"","",6,17,"","","","",Block17,"","","","","","",J,Stim13,HR,9,"",0,J,blue,13,"","",1.65,508,"","",4,81.67
581971,295,295,block_Trng,3,task_Trng,2,1,"","",7,17,"","","","",Block17,"","","","","","",J,Stim10,LR,94,"",0,J,green,10,"","",1.65,510,"","",4,81.94
581971,296,296,block_Trng,3,task_Trng,2,0,"","",8,17,"","","","",Block17,"","","","","","",J,Stim11,NR,79,"",0,K,red,11,"","",1.65,510,"","",4,82.22
581971,297,297,block_Trng,3,task_Trng,2,1,"","",9,17,"","","","",Block17,"","","","","","",K,Stim12,HR,46,"",0,K,blue,12,"","",1.65,520,"","",4,82.5
581971,298,298,block_Trng,3,task_Trng,2,0,"","",10,17,"","","","",Block17,"","","","","","",J,Stim10,HR,32,"",0,K,blue,10,"","",1.65,520,"","",4,82.78
581971,299,299,block_Trng,3,task_Trng,2,1,"","",11,17,"","","","",Block17,"","","","","","",J,Stim12,LR,88,"",0,J,green,12,"","",1.65,522,"","",4,83.06
581971,300,300,block_Trng,3,task_Trng,2,1,"","",12,17,"","","","",Block17,"","","","","","",J,Stim11,HR,91,"",0,J,blue,11,"","",1.65,532,"","",4,83.33
581971,301,301,block_Trng,3,task_Trng,2,0,"","",13,17,"","","","",Block17,"","","","","","",J,Stim13,NR,48,"",0,K,red,13,"","",1.65,532,"","",4,83.61
581971,302,302,block_Trng,3,task_Trng,2,0,"","",14,17,"","","","",Block17,"","","","","","",J,Stim9,LR,103,"",0,K,green,9,"","",1.65,532,"","",4,83.89
581971,303,303,block_Trng,3,task_Trng,2,1,"","",15,17,"","","","",Block17,"","","","","","",K,Stim13,LR,12,"",0,K,green,13,"","",1.65,534,"","",4,84.17
581971,304,304,block_Trng,3,task_Trng,2,0,"","",16,17,"","","","",Block17,"","","","","","",K,Stim10,NR,108,"",0,J,red,10,"","",1.65,534,"","",4,84.44
581971,305,305,block_Trng,3,task_Trng,2,0,"","",17,17,"","","","",Block17,"","","","","","",J,Stim9,NR,31,"",0,K,red,9,"","",1.65,534,"","",4,84.72
581971,306,306,block_Trng,3,task_Trng,2,1,"","",18,17,"","","","",Block17,"","","","","","",J,Stim13,LR,29,"",0,J,green,8,"","",1.65,536,"","",4,85
581971,307,307,block_Trng,3,task_Trng,2,1,"","",1,18,"","","","",Block18,"","","","","","",K,Stim8,HR,74,"",0,K,blue,8,"","",1.65,546,"","",4,85.28
581971,308,308,block_Trng,3,task_Trng,2,0,"","",2,18,"","","","",Block18,"","","","","","",K,Stim8,NR,4,"",0,J,red,8,"","",1.65,546,"","",4,85.56
581971,309,309,block_Trng,3,task_Trng,2,0,"","",3,18,"","","","",Block18,"","","","","","",J,Stim13,NR,56,"",0,K,red,13,"","",1.65,546,"","",4,85.83
581971,310,310,block_Trng,3,task_Trng,2,0,"","",4,18,"","","","",Block18,"","","","","","",J,Stim9,NR,30,"",0,K,red,9,"","",1.65,546,"","",4,86.11
581971,311,311,block_Trng,3,task_Trng,2,0,"","",5,18,"","","","",Block18,"","","","","","",J,Stim9,LR,66,"",0,K,green,9,"","",1.65,546,"","",4,86.39
581971,312,312,block_Trng,3,task_Trng,2,0,"","",6,18,"","","","",Block18,"","","","","","",K,Stim13,LR,90,"",0,J,green,10,"","",1.65,546,"","",4,86.67
581971,313,313,block_Trng,3,task_Trng,2,1,"","",7,18,"","","","",Block18,"","","","","","",J,Stim12,LR,36,"",0,J,green,12,"","",1.65,548,"","",4,86.94
581971,314,314,block_Trng,3,task_Trng,2,1,"","",8,18,"","","","",Block18,"","","","","","",J,Stim11,NR,25,"",0,J,red,10,"","",1.65,548,"","",4,87.22
581971,315,315,block_Trng,3,task_Trng,2,1,"","",9,18,"","","","",Block18,Slow!,"","","","","",J,ISI,NR,414,"",1,J,red,12,"","",1.65,548,"","",4,87.5
581971,316,316,block_Trng,3,task_Trng,2,0,"","",10,18,"","","","",Block18,"","","","","","",K,Stim11,HR,36,"",0,J,blue,11,"","",1.65,548,"","",4,87.78
581971,317,317,block_Trng,3,task_Trng,2,0,"","",11,18,"","","","",Block18,"","","","","","",J,Stim10,HR,116,"",0,K,blue,10,"","",1.65,548,"","",4,88.06
581971,318,318,block_Trng,3,task_Trng,2,1,"","",12,18,"","","","",Block18,"","","","","","",K,Stim12,LR,87,"",0,K,green,11,"","",1.65,550,"","",4,88.33
581971,319,319,block_Trng,3,task_Trng,2,1,"","",13,18,"","","","",Block18,"","","","","","",J,Stim14,HR,73,"",0,J,blue,13,"","",1.65,560,"","",4,88.61
581971,320,320,block_Trng,3,task_Trng,2,0,"","",14,18,"","","","",Block18,"","","","","","",J,Stim13,LR,1,"",0,K,green,13,"","",1.65,560,"","",4,88.89
581971,321,321,block_Trng,3,task_Trng,2,1,"","",15,18,"","","","",Block18,"","","","","","",K,Stim13,HR,8,"",0,K,blue,12,"","",1.65,570,"","",4,89.17
581971,322,322,block_Trng,3,task_Trng,2,0,"","",16,18,"","","","",Block18,"","","","","","",J,Stim11,NR,22,"",0,K,red,11,"","",1.65,570,"","",4,89.44
581971,323,323,block_Trng,3,task_Trng,2,0,"","",17,18,"","","","",Block18,"","","","","","",K,Stim9,HR,70,"",0,J,blue,9,"","",1.65,570,"","",4,89.72
581971,324,324,block_Trng,3,task_Trng,2,0,"","",18,18,"","","","",Block18,"","","","","","",K,Stim8,LR,38,"",0,J,green,8,"","",1.65,570,"","",4,90
581971,325,325,block_Trng,3,task_Trng,2,0,"","",1,19,"","","","",Block19,"","","","","","",K,Stim9,HR,104,"",0,J,blue,9,"","",1.65,570,"","",4,90.28
581971,326,326,block_Trng,3,task_Trng,2,1,"","",2,19,"","","","",Block19,"","","","","","",K,Stim9,LR,57,"",0,K,green,9,"","",1.65,572,"","",4,90.56
581971,327,327,block_Trng,3,task_Trng,2,0,"","",3,19,"","","","",Block19,"","","","","","",J,Stim9,HR,49,"",0,K,blue,8,"","",1.65,572,"","",4,90.83
581971,328,328,block_Trng,3,task_Trng,2,1,"","",4,19,"","","","",Block19,"","","","","","",K,Stim9,NR,12,"",0,K,red,9,"","",1.65,572,"","",4,91.11
581971,329,329,block_Trng,3,task_Trng,2,1,"","",5,19,"","","","",Block19,"","","","","","",K,Stim11,LR,72,"",0,K,green,11,"","",1.65,574,"","",4,91.39
581971,330,330,block_Trng,3,task_Trng,2,0,"","",6,19,"","","","",Block19,Slow!,"","","","","",K,PreISI2,LR,26,"",1,J,green,10,"","",1.65,574,"","",4,91.67
581971,331,331,block_Trng,3,task_Trng,2,1,"","",7,19,"","","","",Block19,"","","","","","",J,Stim13,LR,79,"",0,J,green,12,"","",1.65,576,"","",4,91.94
581971,332,332,block_Trng,3,task_Trng,2,1,"","",8,19,"","","","",Block19,"","","","","","",J,PreISI1,HR,287,"",0,J,blue,13,"","",1.65,586,"","",4,92.22
581971,333,333,block_Trng,3,task_Trng,2,0,"","",9,19,"","","","",Block19,"","","","","","",K,Stim14,NR,105,"",0,J,red,10,"","",1.65,586,"","",4,92.5
581971,334,334,block_Trng,3,task_Trng,2,0,"","",10,19,"","","","",Block19,"","","","","","",J,Stim14,HR,2,"",0,K,blue,12,"","",1.65,586,"","",4,92.78
581971,335,335,block_Trng,3,task_Trng,2,1,"","",11,19,"","","","",Block19,"","","","","","",J,Stim8,NR,100,"",0,J,red,8,"","",1.65,586,"","",4,93.06
581971,336,336,block_Trng,3,task_Trng,2,1,"","",12,19,"","","","",Block19,"","","","","","",J,Stim12,NR,119,"",0,J,red,12,"","",1.65,586,"","",4,93.33
581971,337,337,block_Trng,3,task_Trng,2,1,"","",13,19,"","","","",Block19,"","","","","","",K,Stim13,NR,3,"",0,K,red,13,"","",1.65,586,"","",4,93.61
581971,338,338,block_Trng,3,task_Trng,2,0,"","",14,19,"","","","",Block19,"","","","","","",J,Stim10,HR,76,"",0,K,blue,10,"","",1.65,586,"","",4,93.89
581971,339,339,block_Trng,3,task_Trng,2,1,"","",15,19,"","","","",Block19,"","","","","","",K,Stim13,LR,62,"",0,K,green,13,"","",1.65,588,"","",4,94.17
581971,340,340,block_Trng,3,task_Trng,2,1,"","",16,19,"","","","",Block19,"","","","","","",J,Stim11,HR,1,"",0,J,blue,11,"","",1.65,598,"","",4,94.44
581971,341,341,block_Trng,3,task_Trng,2,1,"","",17,19,"","","","",Block19,"","","","","","",J,Stim8,LR,16,"",0,J,green,8,"","",1.65,600,"","",4,94.72
581971,342,342,block_Trng,3,task_Trng,2,0,"","",18,19,"","","","",Block19,"","","","","","",J,Stim11,NR,36,"",0,K,red,11,"","",1.65,600,"","",4,95
581971,343,343,block_Trng,3,task_Trng,2,1,"","",1,20,"","","","",Block20,"","","","","","",K,Stim12,HR,90,"",0,K,blue,12,"","",1.65,610,"","",4,95.28
581971,344,344,block_Trng,3,task_Trng,2,0,"","",2,20,"","","","",Block20,"","","","","","",K,Stim12,NR,62,"",0,J,red,12,"","",1.65,610,"","",4,95.56
581971,345,345,block_Trng,3,task_Trng,2,1,"","",3,20,"","","","",Block20,"","","","","","",K,Stim11,LR,57,"",0,K,green,11,"","",1.65,612,"","",4,95.83
581971,346,346,block_Trng,3,task_Trng,2,1,"","",4,20,"","","","",Block20,"","","","","","",J,Stim13,HR,47,"",0,J,blue,13,"","",1.65,622,"","",4,96.11
581971,347,347,block_Trng,3,task_Trng,2,0,"","",5,20,"","","","",Block20,"","","","","","",K,Stim11,HR,47,"",0,J,blue,11,"","",1.65,622,"","",4,96.39
581971,348,348,block_Trng,3,task_Trng,2,0,"","",6,20,"","","","",Block20,"","","","","","",K,Stim11,LR,19,"",0,J,green,10,"","",1.65,622,"","",4,96.67
581971,349,349,block_Trng,3,task_Trng,2,0,"","",7,20,"","","","",Block20,"","","","","","",J,Stim14,NR,8,"",0,K,red,13,"","",1.65,622,"","",4,96.94
581971,350,350,block_Trng,3,task_Trng,2,1,"","",8,20,"","","","",Block20,"","","","","","",J,Stim11,NR,77,"",0,J,red,10,"","",1.65,622,"","",4,97.22
581971,351,351,block_Trng,3,task_Trng,2,0,"","",9,20,"","","","",Block20,"","","","","","",J,Stim9,LR,91,"",0,K,green,9,"","",1.65,622,"","",4,97.5
581971,352,352,block_Trng,3,task_Trng,2,1,"","",10,20,"","","","",Block20,"","","","","","",J,Stim13,LR,8,"",0,J,green,12,"","",1.65,624,"","",4,97.78
581971,353,353,block_Trng,3,task_Trng,2,0,"","",11,20,"","","","",Block20,"","","","","","",J,Stim10,HR,92,"",0,K,blue,8,"","",1.65,624,"","",4,98.06
581971,354,354,block_Trng,3,task_Trng,2,1,"","",12,20,"","","","",Block20,"","","","","","",J,Stim8,NR,18,"",0,J,red,8,"","",1.65,624,"","",4,98.33
581971,355,355,block_Trng,3,task_Trng,2,0,"","",13,20,"","","","",Block20,"","","","","","",J,Stim12,HR,23,"",0,K,blue,10,"","",1.65,624,"","",4,98.61
581971,356,356,block_Trng,3,task_Trng,2,1,"","",14,20,"","","","",Block20,"","","","","","",J,Stim9,HR,15,"",0,J,blue,9,"","",1.65,634,"","",4,98.89
581971,357,357,block_Trng,3,task_Trng,2,1,"","",15,20,"","","","",Block20,Slow!,"","","","","",J,ISI,LR,408,"",1,J,green,8,"","",1.65,634,"","",4,99.17
581971,358,358,block_Trng,3,task_Trng,2,0,"","",16,20,"","","","",Block20,"","","","","","",J,Stim13,LR,33,"",0,K,green,13,"","",1.65,634,"","",4,99.44
581971,359,359,block_Trng,3,task_Trng,2,0,"","",17,20,"","","","",Block20,"","","","","","",J,Stim9,NR,32,"",0,K,red,9,"","",1.65,634,"","",4,99.72
581971,360,360,block_Trng,3,task_Trng,2,0,"","",18,20,"","","","",Block20,"","","","","","",J,Stim11,NR,79,"",0,K,red,11,"","",1.65,634,"","",4,100
581971,1,1,block_Testing,4,task_Testing_Instructions,1,"","","","",1,"","","","","","","","","","","","","","","","","","","","","","","","","","","",""
581971,1,1,block_Testing,4,task_Testing,2,0,"","",1,1,"","",Block1,"","",Slow!,"","","","","","","",HR,0,"",1,J,blue,13,0,0.56,"",634,"","","",""
581971,2,2,block_Testing,4,task_Testing,2,0,"","",2,1,"","",Block1,"","","","","","","","",J,Stim13,LR,33,"",0,K,green,13,0,1.11,"",634,"","","",""
581971,3,3,block_Testing,4,task_Testing,2,1,"","",3,1,"","",Block1,"","","","","","","","",J,Stim8,LR,8,"",0,J,green,8,0,1.67,"",634,"","","",""
581971,4,4,block_Testing,4,task_Testing,2,0,"","",4,1,"","",Block1,"","","","","","","","",J,Stim10,HR,66,"",0,K,blue,10,0,2.22,"",634,"","","",""
581971,5,5,block_Testing,4,task_Testing,2,1,"","",5,1,"","",Block1,"","","","","","","","",J,Stim8,NR,99,"",0,J,red,8,0,2.78,"",634,"","","",""
581971,6,6,block_Testing,4,task_Testing,2,0,"","",6,1,"","",Block1,"","","","","","","","",J,Stim9,LR,44,"",0,K,green,9,0,3.33,"",634,"","","",""
581971,7,7,block_Testing,4,task_Testing,2,1,"","",7,1,"","",Block1,"","","","","","","","",K,Stim8,HR,6,"",0,K,blue,8,0,3.89,"",634,"","","",""
581971,8,8,block_Testing,4,task_Testing,2,1,"","",8,1,"","",Block1,"","","","","","","","",K,Stim11,NR,27,"",0,K,red,11,0,4.44,"",634,"","","",""
581971,9,9,block_Testing,4,task_Testing,2,0,"","",9,1,"","",Block1,"","","","","","","","",K,Stim11,HR,59,"",0,J,blue,11,0,5,"",634,"","","",""
581971,10,10,block_Testing,4,task_Testing,2,1,"","",10,1,"","",Block1,"","","","","","","","",K,Stim12,HR,1,"",0,K,blue,12,0,5.56,"",634,"","","",""
581971,11,11,block_Testing,4,task_Testing,2,1,"","",11,1,"","",Block1,"","","","","","","","",J,Stim12,LR,82,"",0,J,green,12,0,6.11,"",634,"","","",""
581971,12,12,block_Testing,4,task_Testing,2,1,"","",12,1,"","",Block1,"","","","","","","","",J,Stim9,HR,32,"",0,J,blue,9,0,6.67,"",634,"","","",""
581971,13,13,block_Testing,4,task_Testing,2,0,"","",13,1,"","",Block1,"","","","","","","","",J,Stim10,NR,8,"",0,K,red,9,0,7.22,"",634,"","","",""
581971,14,14,block_Testing,4,task_Testing,2,1,"","",14,1,"","",Block1,"","","","","","","","",J,Stim10,NR,93,"",0,J,red,10,0,7.78,"",634,"","","",""
581971,15,15,block_Testing,4,task_Testing,2,1,"","",15,1,"","",Block1,"","","","","","","","",K,Stim11,LR,17,"",0,K,green,11,0,8.33,"",634,"","","",""
581971,16,16,block_Testing,4,task_Testing,2,0,"","",16,1,"","",Block1,"","","","","","","","",J,Stim13,NR,25,"",0,K,red,13,0,8.89,"",634,"","","",""
581971,17,17,block_Testing,4,task_Testing,2,0,"","",17,1,"","",Block1,"","","","","","","","",K,Stim10,LR,36,"",0,J,green,10,0,9.44,"",634,"","","",""
581971,18,18,block_Testing,4,task_Testing,2,0,"","",18,1,"","",Block1,"","","","","","","","",K,Stim12,NR,16,"",0,J,red,12,0,10,"",634,"","","",""
581971,19,19,block_Testing,4,task_Testing,2,1,"","",1,2,"","",Block2,"","","","","","","","",K,Stim13,NR,3,"",0,K,red,13,0,10.56,"",634,"","","",""
581971,20,20,block_Testing,4,task_Testing,2,1,"","",2,2,"","",Block2,"","","","","","","","",K,Stim11,LR,1,"",0,K,green,11,0,11.11,"",634,"","","",""
581971,21,21,block_Testing,4,task_Testing,2,0,"","",3,2,"","",Block2,"","","","","","","","",J,Stim9,NR,9,"",0,K,red,9,0,11.67,"",634,"","","",""
581971,22,22,block_Testing,4,task_Testing,2,0,"","",4,2,"","",Block2,"","","","","","","","",K,Stim12,LR,10,"",0,J,green,12,0,12.22,"",634,"","","",""
581971,23,23,block_Testing,4,task_Testing,2,0,"","",5,2,"","",Block2,"","","","","","","","",J,Stim12,HR,79,"",0,K,blue,12,0,12.78,"",634,"","","",""
581971,24,24,block_Testing,4,task_Testing,2,1,"","",6,2,"","",Block2,"","","","","","","","",J,Stim8,NR,6,"",0,J,red,8,0,13.33,"",634,"","","",""
581971,25,25,block_Testing,4,task_Testing,2,1,"","",7,2,"","",Block2,"","","","","","","","",J,Stim12,NR,7,"",0,J,red,12,0,13.89,"",634,"","","",""
581971,26,26,block_Testing,4,task_Testing,2,0,"","",8,2,"","",Block2,"","","","","","","","",K,Stim11,LR,5,"",0,J,green,10,0,14.44,"",634,"","","",""
581971,27,27,block_Testing,4,task_Testing,2,1,"","",9,2,"","",Block2,"","","","","","","","",K,Stim10,HR,81,"",0,K,blue,10,0,15,"",634,"","","",""
581971,28,28,block_Testing,4,task_Testing,2,0,"","",10,2,"","",Block2,"","","","","","","","",J,Stim14,LR,36,"",0,K,green,13,0,15.56,"",634,"","","",""
581971,29,29,block_Testing,4,task_Testing,2,0,"","",11,2,"","",Block2,"","","","","","","","",J,Stim8,HR,62,"",0,K,blue,8,0,16.11,"",634,"","","",""
581971,30,30,block_Testing,4,task_Testing,2,1,"","",12,2,"","",Block2,"","","","","","","","",J,Stim11,HR,6,"",0,J,blue,11,0,16.67,"",634,"","","",""
581971,31,31,block_Testing,4,task_Testing,2,1,"","",13,2,"","",Block2,"","","","","","","","",J,Stim10,NR,6,"",0,J,red,10,0,17.22,"",634,"","","",""
581971,32,32,block_Testing,4,task_Testing,2,1,"","",14,2,"","",Block2,"","","","","","","","",J,Stim8,LR,57,"",0,J,green,8,0,17.78,"",634,"","","",""
581971,33,33,block_Testing,4,task_Testing,2,1,"","",15,2,"","",Block2,"","","","","","","","",J,Stim13,HR,9,"",0,J,blue,13,0,18.33,"",634,"","","",""
581971,34,34,block_Testing,4,task_Testing,2,1,"","",16,2,"","",Block2,"","","","","","","","",K,Stim9,LR,111,"",0,K,green,9,0,18.89,"",634,"","","",""
581971,35,35,block_Testing,4,task_Testing,2,1,"","",17,2,"","",Block2,"","","","","","","","",J,Stim9,HR,97,"",0,J,blue,9,0,19.44,"",634,"","","",""
581971,36,36,block_Testing,4,task_Testing,2,0,"","",18,2,"","",Block2,"","","","","","","","",J,Stim11,NR,42,"",0,K,red,11,0,20,"",634,"","","",""
581971,37,37,block_Testing,4,task_Testing,2,0,"","",1,3,"","",Block3,"","","","","","","","",K,Stim10,NR,21,"",0,J,red,10,0,20.56,"",634,"","","",""
581971,38,38,block_Testing,4,task_Testing,2,1,"","",2,3,"","",Block3,"","","","","","","","",K,Stim12,NR,78,"",0,K,red,11,0,21.11,"",634,"","","",""
581971,39,39,block_Testing,4,task_Testing,2,0,"","",3,3,"","",Block3,"","",Slow!,"","","","","","","",LR,0,"",1,J,green,10,0,21.67,"",634,"","","",""
581971,40,40,block_Testing,4,task_Testing,2,0,"","",4,3,"","",Block3,"","",Slow!,"","","","","","","",LR,0,"",2,K,green,11,0,22.22,"",634,"","","",""
581971,41,41,block_Testing,4,task_Testing,2,0,"","",5,3,"","",Block3,"","",Slow!,"","","","","","","",HR,0,"",3,J,blue,13,0,22.78,"",634,"","","",""
581971,42,42,block_Testing,4,task_Testing,2,0,"","",6,3,"","",Block3,"","",Slow!,"","","","","","","",LR,0,"",4,J,green,8,0,23.33,"",634,"","","",""
581971,43,43,block_Testing,4,task_Testing,2,0,"","",7,3,"","",Block3,"","",Slow!,"","","","","","","",NR,0,"",5,K,red,9,0,23.89,"",634,"","","",""
581971,44,44,block_Testing,4,task_Testing,2,0,"","",8,3,"","",Block3,"","",Slow!,"","","","","","","",HR,0,"",6,K,blue,10,0,24.44,"",634,"","","",""
581971,45,45,block_Testing,4,task_Testing,2,0,"","",9,3,"","",Block3,"","",Slow!,"","","","","","","",LR,0,"",7,J,green,12,0,25,"",634,"","","",""
581971,46,46,block_Testing,4,task_Testing,2,0,"","",10,3,"","",Block3,"","",Slow!,"","","","","","","",NR,0,"",8,J,red,12,0,25.56,"",634,"","","",""
581971,47,47,block_Testing,4,task_Testing,2,0,"","",11,3,"","",Block3,"","",Slow!,"","","","","","","",NR,0,"",9,K,red,13,0,26.11,"",634,"","","",""
581971,48,48,block_Testing,4,task_Testing,2,0,"","",12,3,"","",Block3,"","",Slow!,"","","","","","","",LR,0,"",10,K,green,13,0,26.67,"",634,"","","",""
581971,49,49,block_Testing,4,task_Testing,2,0,"","",13,3,"","",Block3,"","",Slow!,"","","","","","","",LR,0,"",11,K,green,9,0,27.22,"",634,"","","",""
581971,50,50,block_Testing,4,task_Testing,2,0,"","",14,3,"","",Block3,"","",Slow!,"","","","","","","",HR,0,"",12,J,blue,9,0,27.78,"",634,"","","",""
581971,51,51,block_Testing,4,task_Testing,2,0,"","",15,3,"","",Block3,"","",Slow!,"","","","","","","",NR,0,"",13,J,red,8,0,28.33,"",634,"","","",""
581971,52,52,block_Testing,4,task_Testing,2,0,"","",16,3,"","",Block3,"","",Slow!,"","","","","","","",HR,0,"",14,K,blue,8,0,28.89,"",634,"","","",""
581971,53,53,block_Testing,4,task_Testing,2,0,"","",17,3,"","",Block3,"","",Slow!,"","","","","","","",HR,0,"",15,K,blue,12,0,29.44,"",634,"","","",""
581971,54,54,block_Testing,4,task_Testing,2,0,"","",18,3,"","",Block3,"","",Slow!,"","","","","","","",HR,0,"",16,J,blue,11,1,30,"",634,"","","",""
581971,55,55,block_Testing,4,task_Testing,2,0,"","",1,4,"","",Block4,"","",Slow!,"","","","","","","",NR,0,"",17,K,red,9,1,30.56,"",634,"","","",""
581971,56,56,block_Testing,4,task_Testing,2,0,"","",2,4,"","",Block4,"","",Slow!,"","","","","","","",NR,0,"",18,J,red,12,1,31.11,"",634,"","","",""
581971,57,57,block_Testing,4,task_Testing,2,0,"","",3,4,"","",Block4,"","",Slow!,"","","","","","","",HR,0,"",19,J,blue,11,1,31.67,"",634,"","","",""
581971,58,58,block_Testing,4,task_Testing,2,0,"","",4,4,"","",Block4,"","",Slow!,"","","","","","","",HR,0,"",20,K,blue,8,1,32.22,"",634,"","","",""
581971,59,59,block_Testing,4,task_Testing,2,0,"","",5,4,"","",Block4,"","",Slow!,"","","","","","","",LR,0,"",21,K,green,11,1,32.78,"",634,"","","",""
581971,60,60,block_Testing,4,task_Testing,2,0,"","",6,4,"","",Block4,"","",Slow!,"","","","","","","",LR,0,"",22,J,green,12,1,33.33,"",634,"","","",""
581971,61,61,block_Testing,4,task_Testing,2,0,"","",7,4,"","",Block4,"","",Slow!,"","","","","","","",HR,0,"",23,K,blue,12,1,33.89,"",634,"","","",""
581971,62,62,block_Testing,4,task_Testing,2,0,"","",8,4,"","",Block4,"","",Slow!,"","","","","","","",LR,0,"",24,K,green,9,1,34.44,"",634,"","","",""
581971,63,63,block_Testing,4,task_Testing,2,0,"","",9,4,"","",Block4,"","",Slow!,"","","","","","","",HR,0,"",25,J,blue,9,1,35,"",634,"","","",""
581971,64,64,block_Testing,4,task_Testing,2,0,"","",10,4,"","",Block4,"","",Slow!,"","","","","","","",NR,0,"",26,K,red,13,1,35.56,"",634,"","","",""
581971,65,65,block_Testing,4,task_Testing,2,0,"","",11,4,"","",Block4,"","",Slow!,"","","","","","","",LR,0,"",27,K,green,13,1,36.11,"",634,"","","",""
581971,66,66,block_Testing,4,task_Testing,2,0,"","",12,4,"","",Block4,"","",Slow!,"","","","","","","",NR,0,"",28,J,red,10,1,36.67,"",634,"","","",""
581971,67,67,block_Testing,4,task_Testing,2,0,"","",13,4,"","",Block4,"","",Slow!,"","","","","","","",LR,0,"",29,J,green,8,1,37.22,"",634,"","","",""
581971,68,68,block_Testing,4,task_Testing,2,0,"","",14,4,"","",Block4,"","",Slow!,"","","","","","","",NR,0,"",30,J,red,8,1,37.78,"",634,"","","",""
581971,69,69,block_Testing,4,task_Testing,2,0,"","",15,4,"","",Block4,"","",Slow!,"","","","","","","",HR,0,"",31,K,blue,10,1,38.33,"",634,"","","",""
581971,70,70,block_Testing,4,task_Testing,2,0,"","",16,4,"","",Block4,"","",Slow!,"","","","","","","",LR,0,"",32,J,green,10,1,38.89,"",634,"","","",""
581971,71,71,block_Testing,4,task_Testing,2,0,"","",17,4,"","",Block4,"","",Slow!,"","","","","","","",NR,0,"",33,K,red,11,1,39.44,"",634,"","","",""
581971,72,72,block_Testing,4,task_Testing,2,0,"","",18,4,"","",Block4,"","",Slow!,"","","","","","","",HR,0,"",34,J,blue,13,1,40,"",634,"","","",""
581971,73,73,block_Testing,4,task_Testing,2,0,"","",1,5,"","",Block5,"","",Slow!,"","","","","","","",LR,0,"",35,K,green,13,1,40.56,"",634,"","","",""
581971,74,74,block_Testing,4,task_Testing,2,0,"","",2,5,"","",Block5,"","",Slow!,"","","","","","","",HR,0,"",36,K,blue,8,1,41.11,"",634,"","","",""
581971,75,75,block_Testing,4,task_Testing,2,0,"","",3,5,"","",Block5,"","",Slow!,"","","","","","","",HR,0,"",37,J,blue,13,1,41.67,"",634,"","","",""
581971,76,76,block_Testing,4,task_Testing,2,0,"","",4,5,"","",Block5,"","",Slow!,"","","","","","","",HR,0,"",38,K,blue,12,1,42.22,"",634,"","","",""
581971,77,77,block_Testing,4,task_Testing,2,0,"","",5,5,"","",Block5,"","",Slow!,"","","","","","","",HR,0,"",39,J,blue,11,1,42.78,"",634,"","","",""
581971,78,78,block_Testing,4,task_Testing,2,0,"","",6,5,"","",Block5,"","",Slow!,"","","","","","","",NR,0,"",40,K,red,11,1,43.33,"",634,"","","",""
581971,79,79,block_Testing,4,task_Testing,2,0,"","",7,5,"","",Block5,"","",Slow!,"","","","","","","",HR,0,"",41,J,blue,9,1,43.89,"",634,"","","",""
581971,80,80,block_Testing,4,task_Testing,2,0,"","",8,5,"","",Block5,"","",Slow!,"","","","","","","",LR,0,"",42,J,green,12,1,44.44,"",634,"","","",""
581971,81,81,block_Testing,4,task_Testing,2,0,"","",9,5,"","",Block5,"","",Slow!,"","","","","","","",LR,0,"",43,J,green,8,1,45,"",634,"","","",""
581971,82,82,block_Testing,4,task_Testing,2,0,"","",10,5,"","",Block5,"","",Slow!,"","","","","","","",HR,0,"",44,K,blue,10,1,45.56,"",634,"","","",""
581971,83,83,block_Testing,4,task_Testing,2,0,"","",11,5,"","",Block5,"","",Slow!,"","","","","","","",LR,0,"",45,K,green,9,1,46.11,"",634,"","","",""
581971,84,84,block_Testing,4,task_Testing,2,0,"","",12,5,"","",Block5,"","",Slow!,"","","","","","","",NR,0,"",46,K,red,9,1,46.67,"",634,"","","",""
581971,85,85,block_Testing,4,task_Testing,2,0,"","",13,5,"","",Block5,"","",Slow!,"","","","","","","",NR,0,"",47,K,red,13,1,47.22,"",634,"","","",""
581971,86,86,block_Testing,4,task_Testing,2,0,"","",14,5,"","",Block5,"","",Slow!,"","","","","","","",LR,0,"",48,J,green,10,1,47.78,"",634,"","","",""
581971,87,87,block_Testing,4,task_Testing,2,0,"","",15,5,"","",Block5,"","",Slow!,"","","","","","","",LR,0,"",49,K,green,11,1,48.33,"",634,"","","",""
581971,88,88,block_Testing,4,task_Testing,2,0,"","",16,5,"","",Block5,"","",Slow!,"","","","","","","",NR,0,"",50,J,red,12,1,48.89,"",634,"","","",""
581971,89,89,block_Testing,4,task_Testing,2,0,"","",17,5,"","",Block5,"","",Slow!,"","","","","","","",NR,0,"",51,J,red,10,1,49.44,"",634,"","","",""
581971,90,90,block_Testing,4,task_Testing,2,0,"","",18,5,"","",Block5,"","",Slow!,"","","","","","","",NR,0,"",52,J,red,8,1,50,"",634,"","","",""
581971,91,91,block_Testing,4,task_Testing,2,0,"","",1,6,"","",Block6,"","",Slow!,"","","","","","","",HR,0,"",53,K,blue,12,1,50.56,"",634,"","","",""
581971,92,92,block_Testing,4,task_Testing,2,0,"","",2,6,"","",Block6,"","",Slow!,"","","","","","","",HR,0,"",54,K,blue,8,1,51.11,"",634,"","","",""
581971,93,93,block_Testing,4,task_Testing,2,0,"","",3,6,"","",Block6,"","",Slow!,"","","","","","","",LR,0,"",55,J,green,12,1,51.67,"",634,"","","",""
581971,94,94,block_Testing,4,task_Testing,2,0,"","",4,6,"","",Block6,"","",Slow!,"","","","","","","",NR,0,"",56,J,red,12,1,52.22,"",634,"","","",""
581971,95,95,block_Testing,4,task_Testing,2,0,"","",5,6,"","",Block6,"","",Slow!,"","","","","","","",HR,0,"",57,J,blue,9,1,52.78,"",634,"","","",""
581971,96,96,block_Testing,4,task_Testing,2,0,"","",6,6,"","",Block6,"","",Slow!,"","","","","","","",HR,0,"",58,J,blue,11,1,53.33,"",634,"","","",""
581971,97,97,block_Testing,4,task_Testing,2,0,"","",7,6,"","",Block6,"","",Slow!,"","","","","","","",NR,0,"",59,J,red,10,1,53.89,"",634,"","","",""
581971,98,98,block_Testing,4,task_Testing,2,0,"","",8,6,"","",Block6,"","",Slow!,"","","","","","","",LR,0,"",60,K,green,9,1,54.44,"",634,"","","",""
581971,99,99,block_Testing,4,task_Testing,2,1,"","",9,6,"","",Block6,"","","","","","","","",K,Stim11,LR,80,"",0,K,green,11,1,55,"",634,"","","",""
581971,100,100,block_Testing,4,task_Testing,2,0,"","",10,6,"","",Block6,"","","","","","","","",K,Stim13,HR,102,"",0,J,blue,13,1,55.56,"",634,"","","",""
581971,101,101,block_Testing,4,task_Testing,2,0,"","",11,6,"","",Block6,"","","","","","","","",K,Stim8,LR,58,"",0,J,green,8,1,56.11,"",634,"","","",""
581971,102,102,block_Testing,4,task_Testing,2,1,"","",12,6,"","",Block6,"","","","","","","","",K,Stim13,NR,11,"",0,K,red,13,1,56.67,"",634,"","","",""
581971,103,103,block_Testing,4,task_Testing,2,1,"","",13,6,"","",Block6,"","","","","","","","",K,Stim10,HR,97,"",0,K,blue,10,1,57.22,"",634,"","","",""
581971,104,104,block_Testing,4,task_Testing,2,1,"","",14,6,"","",Block6,"","","","","","","","",K,Stim11,NR,73,"",0,K,red,11,1,57.78,"",634,"","","",""
581971,105,105,block_Testing,4,task_Testing,2,0,"","",15,6,"","",Block6,"","","","","","","","",J,Stim9,NR,83,"",0,K,red,9,1,58.33,"",634,"","","",""
581971,106,106,block_Testing,4,task_Testing,2,1,"","",16,6,"","",Block6,"","","","","","","","",K,Stim13,LR,77,"",0,K,green,13,1,58.89,"",634,"","","",""
581971,107,107,block_Testing,4,task_Testing,2,1,"","",17,6,"","",Block6,"","","","","","","","",J,Stim8,NR,43,"",0,J,red,8,1,59.44,"",634,"","","",""
581971,108,108,block_Testing,4,task_Testing,2,0,"","",18,6,"","",Block6,"","","","","","","","",K,Stim10,LR,32,"",0,J,green,10,2,60,"",634,"","","",""
581971,109,109,block_Testing,4,task_Testing,2,1,"","",1,7,"","",Block7,"","","","","","","","",J,Stim13,HR,37,"",0,J,blue,13,2,60.56,"",634,"","","",""
581971,110,110,block_Testing,4,task_Testing,2,0,"","",2,7,"","",Block7,"","","","","","","","",J,Stim13,LR,86,"",0,K,green,13,2,61.11,"",634,"","","",""
581971,111,111,block_Testing,4,task_Testing,2,0,"","",3,7,"","",Block7,"","","","","","","","",J,Stim8,HR,110,"",0,K,blue,8,2,61.67,"",634,"","","",""
581971,112,112,block_Testing,4,task_Testing,2,0,"","",4,7,"","",Block7,"","","","","","","","",K,Stim12,NR,9,"",0,J,red,12,2,62.22,"",634,"","","",""
581971,113,113,block_Testing,4,task_Testing,2,0,"","",5,7,"","",Block7,"","","","","","","","",K,Stim11,HR,11,"",0,J,blue,11,2,62.78,"",634,"","","",""
581971,114,114,block_Testing,4,task_Testing,2,0,"","",6,7,"","",Block7,"","","","","","","","",J,Stim12,NR,41,"",0,K,red,11,2,63.33,"",634,"","","",""
581971,115,115,block_Testing,4,task_Testing,2,0,"","",7,7,"","",Block7,"","","","","","","","",J,Stim12,HR,24,"",0,K,blue,10,2,63.89,"",634,"","","",""
581971,116,116,block_Testing,4,task_Testing,2,1,"","",8,7,"","",Block7,"","","","","","","","",J,Stim8,NR,62,"",0,J,red,8,2,64.44,"",634,"","","",""
581971,117,117,block_Testing,4,task_Testing,2,1,"","",9,7,"","",Block7,"","","","","","","","",K,Stim9,NR,22,"",0,K,red,9,2,65,"",634,"","","",""
581971,118,118,block_Testing,4,task_Testing,2,0,"","",10,7,"","",Block7,"","","","","","","","",K,Stim10,LR,1,"",0,J,green,10,2,65.56,"",634,"","","",""
581971,119,119,block_Testing,4,task_Testing,2,1,"","",11,7,"","",Block7,"","","","","","","","",J,Stim8,LR,54,"",0,J,green,8,2,66.11,"",634,"","","",""
581971,120,120,block_Testing,4,task_Testing,2,0,"","",12,7,"","",Block7,"","","","","","","","",K,Stim12,LR,42,"",0,J,green,12,2,66.67,"",634,"","","",""
581971,121,121,block_Testing,4,task_Testing,2,0,"","",13,7,"","",Block7,"","","","","","","","",K,Stim9,HR,106,"",0,J,blue,9,2,67.22,"",634,"","","",""
581971,122,122,block_Testing,4,task_Testing,2,0,"","",14,7,"","",Block7,"","","","","","","","",J,Stim12,HR,22,"",0,K,blue,12,2,67.78,"",634,"","","",""
581971,123,123,block_Testing,4,task_Testing,2,1,"","",15,7,"","",Block7,"","","","","","","","",K,Stim11,LR,94,"",0,K,green,11,2,68.33,"",634,"","","",""
581971,124,124,block_Testing,4,task_Testing,2,1,"","",16,7,"","",Block7,"","","","","","","","",J,Stim10,NR,112,"",0,J,red,10,2,68.89,"",634,"","","",""
581971,125,125,block_Testing,4,task_Testing,2,0,"","",17,7,"","",Block7,"","","","","","","","",J,Stim13,NR,45,"",0,K,red,13,2,69.44,"",634,"","","",""
581971,126,126,block_Testing,4,task_Testing,2,0,"","",18,7,"","",Block7,"","","","","","","","",J,Stim9,LR,5,"",0,K,green,9,2,70,"",634,"","","",""
581971,127,127,block_Testing,4,task_Testing,2,0,"","",1,8,"","",Block8,"","","","","","","","",J,Stim9,NR,77,"",0,K,red,9,2,70.56,"",634,"","","",""
581971,128,128,block_Testing,4,task_Testing,2,1,"","",2,8,"","",Block8,"","","","","","","","",K,Stim11,NR,24,"",0,K,red,11,2,71.11,"",634,"","","",""
581971,129,129,block_Testing,4,task_Testing,2,1,"","",3,8,"","",Block8,"","","","","","","","",K,Stim8,HR,58,"",0,K,blue,8,2,71.67,"",634,"","","",""
581971,130,130,block_Testing,4,task_Testing,2,1,"","",4,8,"","",Block8,"","","","","","","","",K,Stim14,NR,5,"",0,K,red,13,2,72.22,"",634,"","","",""
581971,131,131,block_Testing,4,task_Testing,2,1,"","",5,8,"","",Block8,"","","","","","","","",J,Stim12,LR,80,"",0,J,green,12,2,72.78,"",634,"","","",""
581971,132,132,block_Testing,4,task_Testing,2,1,"","",6,8,"","",Block8,"","","","","","","","",J,Stim8,NR,6,"",0,J,red,8,2,73.33,"",634,"","","",""
581971,133,133,block_Testing,4,task_Testing,2,0,"","",7,8,"","",Block8,"","","","","","","","",J,PreISI1,LR,83,"",0,K,green,11,2,73.89,"",634,"","","",""
581971,134,134,block_Testing,4,task_Testing,2,1,"","",8,8,"","",Block8,"","","","","","","","",J,Stim13,HR,101,"",0,J,blue,13,2,74.44,"",634,"","","",""
581971,135,135,block_Testing,4,task_Testing,2,0,"","",9,8,"","",Block8,"","","","","","","","",K,Stim10,LR,6,"",0,J,green,10,2,75,"",634,"","","",""
581971,136,136,block_Testing,4,task_Testing,2,0,"","",10,8,"","",Block8,"","","","","","","","",K,Stim12,NR,13,"",0,J,red,12,2,75.56,"",634,"","","",""
581971,137,137,block_Testing,4,task_Testing,2,0,"","",11,8,"","",Block8,"","","","","","","","",J,Stim9,LR,63,"",0,K,green,9,2,76.11,"",634,"","","",""
581971,138,138,block_Testing,4,task_Testing,2,1,"","",12,8,"","",Block8,"","","","","","","","",K,Stim13,LR,52,"",0,K,green,13,2,76.67,"",634,"","","",""
581971,139,139,block_Testing,4,task_Testing,2,1,"","",13,8,"","",Block8,"","","","","","","","",K,Stim12,HR,32,"",0,K,blue,12,2,77.22,"",634,"","","",""
581971,140,140,block_Testing,4,task_Testing,2,0,"","",14,8,"","",Block8,"","","","","","","","",K,Stim8,LR,23,"",0,J,green,8,2,77.78,"",634,"","","",""
581971,141,141,block_Testing,4,task_Testing,2,1,"","",15,8,"","",Block8,"","","","","","","","",J,Stim10,HR,29,"",0,J,blue,9,2,78.33,"",634,"","","",""
581971,142,142,block_Testing,4,task_Testing,2,0,"","",16,8,"","",Block8,"","","","","","","","",J,Stim10,HR,8,"",0,K,blue,10,2,78.89,"",634,"","","",""
581971,143,143,block_Testing,4,task_Testing,2,1,"","",17,8,"","",Block8,"","","","","","","","",J,Stim10,NR,44,"",0,J,red,10,2,79.44,"",634,"","","",""
581971,144,144,block_Testing,4,task_Testing,2,1,"","",18,8,"","",Block8,"","","","","","","","",J,Stim11,HR,95,"",0,J,blue,11,2,80,"",634,"","","",""
581971,145,145,block_Testing,4,task_Testing,2,1,"","",1,9,"","",Block9,"","","","","","","","",J,Stim11,HR,81,"",0,J,blue,11,2,80.56,"",634,"","","",""
581971,146,146,block_Testing,4,task_Testing,2,1,"","",2,9,"","",Block9,"","","","","","","","",K,Stim8,HR,18,"",0,K,blue,8,2,81.11,"",634,"","","",""
581971,147,147,block_Testing,4,task_Testing,2,0,"","",3,9,"","",Block9,"","","","","","","","",K,Stim9,NR,1,"",0,J,red,8,2,81.67,"",634,"","","",""
581971,148,148,block_Testing,4,task_Testing,2,1,"","",4,9,"","",Block9,"","","","","","","","",K,Stim11,NR,0,"",0,K,red,11,2,82.22,"",634,"","","",""
581971,149,149,block_Testing,4,task_Testing,2,1,"","",5,9,"","",Block9,"","","","","","","","",J,Stim8,LR,5,"",0,J,green,8,2,82.78,"",634,"","","",""
581971,150,150,block_Testing,4,task_Testing,2,1,"","",6,9,"","",Block9,"","","","","","","","",K,Stim10,HR,71,"",0,K,blue,10,2,83.33,"",634,"","","",""
581971,151,151,block_Testing,4,task_Testing,2,1,"","",7,9,"","",Block9,"","","","","","","","",K,Stim13,NR,15,"",0,K,red,13,2,83.89,"",634,"","","",""
581971,152,152,block_Testing,4,task_Testing,2,1,"","",8,9,"","",Block9,"","","","","","","","",K,Stim12,HR,50,"",0,K,blue,12,2,84.44,"",634,"","","",""
581971,153,153,block_Testing,4,task_Testing,2,0,"","",9,9,"","",Block9,"","","","","","","","",J,Stim13,LR,20,"",0,K,green,13,2,85,"",634,"","","",""
581971,154,154,block_Testing,4,task_Testing,2,1,"","",10,9,"","",Block9,"","","","","","","","",J,Stim10,NR,111,"",0,J,red,10,2,85.56,"",634,"","","",""
581971,155,155,block_Testing,4,task_Testing,2,1,"","",11,9,"","",Block9,"","","","","","","","",J,Stim10,LR,24,"",0,J,green,10,2,86.11,"",634,"","","",""
581971,156,156,block_Testing,4,task_Testing,2,1,"","",12,9,"","",Block9,"","","","","","","","",J,Stim12,LR,60,"",0,J,green,12,2,86.67,"",634,"","","",""
581971,157,157,block_Testing,4,task_Testing,2,1,"","",13,9,"","",Block9,"","","","","","","","",K,Stim9,NR,13,"",0,K,red,9,2,87.22,"",634,"","","",""
581971,158,158,block_Testing,4,task_Testing,2,0,"","",14,9,"","",Block9,"","","","","","","","",K,Stim12,NR,17,"",0,J,red,12,2,87.78,"",634,"","","",""
581971,159,159,block_Testing,4,task_Testing,2,0,"","",15,9,"","",Block9,"","","","","","","","",K,Stim13,HR,82,"",0,J,blue,13,2,88.33,"",634,"","","",""
581971,160,160,block_Testing,4,task_Testing,2,0,"","",16,9,"","",Block9,"","","","","","","","",K,Stim10,HR,1,"",0,J,blue,9,2,88.89,"",634,"","","",""
581971,161,161,block_Testing,4,task_Testing,2,0,"","",17,9,"","",Block9,"","","","","","","","",J,Stim9,LR,83,"",0,K,green,9,2,89.44,"",634,"","","",""
581971,162,162,block_Testing,4,task_Testing,2,0,"","",18,9,"","",Block9,"","","","","","","","",J,Stim11,LR,2,"",0,K,green,11,2,90,"",634,"","","",""
581971,163,163,block_Testing,4,task_Testing,2,0,"","",1,10,"","",Block10,"","","","","","","","",J,Stim11,NR,63,"",0,K,red,11,2,90.56,"",634,"","","",""
581971,164,164,block_Testing,4,task_Testing,2,0,"","",2,10,"","",Block10,"","","","","","","","",J,Stim14,LR,37,"",0,K,green,13,2,91.11,"",634,"","","",""
581971,165,165,block_Testing,4,task_Testing,2,0,"","",3,10,"","",Block10,"","",Slow!,"","","","","","","",HR,0,"",1,K,blue,12,2,91.67,"",634,"","","",""
581971,166,166,block_Testing,4,task_Testing,2,0,"","",4,10,"","",Block10,"","","","","","","","",J,Stim13,NR,11,"",0,K,red,13,2,92.22,"",634,"","","",""
581971,167,167,block_Testing,4,task_Testing,2,1,"","",5,10,"","",Block10,"","","","","","","","",K,Stim10,HR,108,"",0,K,blue,10,2,92.78,"",634,"","","",""
581971,168,168,block_Testing,4,task_Testing,2,0,"","",6,10,"","",Block10,"","",Slow!,"","","","","",J,PreISI2,LR,1013,"",1,K,green,9,2,93.33,"",634,"","","",""
581971,169,169,block_Testing,4,task_Testing,2,1,"","",7,10,"","",Block10,"","","","","","","","",K,Stim11,LR,39,"",0,K,green,11,2,93.89,"",634,"","","",""
581971,170,170,block_Testing,4,task_Testing,2,0,"","",8,10,"","",Block10,"","","","","","","","",K,Stim10,NR,55,"",0,J,red,10,2,94.44,"",634,"","","",""
581971,171,171,block_Testing,4,task_Testing,2,1,"","",9,10,"","",Block10,"","","","","","","","",K,Stim9,NR,21,"",0,K,red,9,2,95,"",634,"","","",""
581971,172,172,block_Testing,4,task_Testing,2,0,"","",10,10,"","",Block10,"","",Slow!,"","","","","","","",HR,0,"",1,J,blue,11,2,95.56,"",634,"","","",""
581971,173,173,block_Testing,4,task_Testing,2,0,"","",11,10,"","",Block10,"","",Slow!,"","","","","","","",LR,0,"",2,J,green,8,2,96.11,"",634,"","","",""
581971,174,174,block_Testing,4,task_Testing,2,1,"","",12,10,"","",Block10,"","","","","","","","",J,Stim15,HR,89,"",0,J,blue,9,2,96.67,"",634,"","","",""
581971,175,175,block_Testing,4,task_Testing,2,0,"","",13,10,"","",Block10,"","","","","","","","",K,Stim12,NR,76,"",0,J,red,12,2,97.22,"",634,"","","",""
581971,176,176,block_Testing,4,task_Testing,2,0,"","",14,10,"","",Block10,"","","","","","","","",K,Stim10,LR,18,"",0,J,green,10,2,97.78,"",634,"","","",""
581971,177,177,block_Testing,4,task_Testing,2,0,"","",15,10,"","",Block10,"","","","","","","","",K,Stim12,LR,68,"",0,J,green,12,2,98.33,"",634,"","","",""
581971,178,178,block_Testing,4,task_Testing,2,1,"","",16,10,"","",Block10,"","","","","","","","",K,Stim14,HR,69,"",0,K,blue,8,2,98.89,"",634,"","","",""
581971,179,179,block_Testing,4,task_Testing,2,1,"","",17,10,"","",Block10,"","","","","","","","",J,Stim15,HR,88,"",0,J,blue,13,2,99.44,"",634,"","","",""
581971,180,180,block_Testing,4,task_Testing,2,0,"","",18,10,"","",Block10,"","","","","","","","",K,Stim9,NR,11,"",0,J,red,8,2,100,"",634,"","","",""
581971,1,1,block_Trng,3,task_Trng_End,3,"","","","",1,"","","","","","","","","","","","","","","","","","","","","","",2.16,634,"","","",""
581971,1,1,block_End,5,task_Demog_End,1,"","",30,"",1,"","","",peterperk3103@gmail.com,"","","","","","","","","","","",Female,"","","","","","","","","","","",""
