trial type,trial number,T1,D1,T2,D2,RSVP length,fixation duration,RSVP duration,video duration
RP2,1,J,6, K,3,5,0.52,0.5,1.33
RP2,2,Y,7, E,2,5,0.47,0.5,1.28
RP2,3,E,3, R,2,5,0.48,0.5,1.28
RP2,4,A,6, U,2,5,0.48,0.5,1.28
RP2,5,K,6, U,3,5,0.3,0.5,1.1
RP2,6,K,3, N,6,5,0.63,0.5,1.43
RP2,7,G,7, R,6,5,0.58,0.5,1.38
RP2,8,B,7, H,2,5,0.4,0.5,1.2
RP2,9,A,4, X,3,5,0.4,0.5,1.2
RP2,10,L,2, B,7,5,0.57,0.5,1.38
RP2,11,Y,3, X,7,5,0.48,0.5,1.28
RP2,12,R,6, X,7,5,0.35,0.5,1.15
RP2,13,G,2, P,3,5,0.3,0.5,1.1
RP2,14,V,2, K,4,5,0.48,0.5,1.28
RP2,15,L,6, M,3,5,0.62,0.5,1.43
RP2,16,L,6, G,2,5,0.62,0.5,1.43
RP2,17,M,2, Y,3,5,0.5,0.5,1.3
RP2,18,Y,7, E,6,5,0.7,0.5,1.5
RP2,19,C,2, U,4,5,0.32,0.5,1.13
RP2,20,R,6, L,3,5,0.35,0.5,1.15
RP2,21,N,4, C,7,5,0.5,0.5,1.3
RP2,22,K,6, X,7,5,0.35,0.5,1.15
RP2,23,R,3, Y,2,5,0.42,0.5,1.23
RP2,24,Y,2, K,6,5,0.52,0.5,1.33
RP2,25,V,2, X,4,5,0.47,0.5,1.28
RP2,26,K,2, L,4,5,0.3,0.5,1.1
RP2,27,L,4, Y,3,5,0.55,0.5,1.35
RP2,28,M,2, X,3,5,0.53,0.5,1.33
RP2,29,C,2, U,4,5,0.55,0.5,1.35
RP2,30,E,6, L,3,5,0.43,0.5,1.23
RP2,31,C,7, B,2,5,0.4,0.5,1.2
RP2,32,C,6, A,4,5,0.5,0.5,1.3
RP2,33,M,7, B,3,5,0.5,0.5,1.3
RP2,34,H,2, B,7,5,0.33,0.5,1.13
RP2,35,L,4, P,2,5,0.67,0.5,1.48
RP2,36,V,3, J,4,5,0.38,0.5,1.18
RP2,37,U,3, E,4,5,0.53,0.5,1.33
RP2,38,P,7, Y,4,5,0.4,0.5,1.2
RP2,39,A,6, H,7,5,0.58,0.5,1.38
RP2,40,B,7, W,6,5,0.62,0.5,1.43
RP2,41,A,2, W,7,5,0.32,0.5,1.13
RP2,42,R,6, W,2,5,0.62,0.5,1.43
RP2,43,V,7, W,3,5,0.7,0.5,1.5
RP2,44,U,2, K,3,5,0.52,0.5,1.33
RP2,45,V,3, R,2,5,0.32,0.5,1.13
RP2,46,C,7, V,3,5,0.33,0.5,1.13
RP2,47,J,4, R,3,5,0.5,0.5,1.3
RP2,48,N,7, A,4,5,0.5,0.5,1.3
RP2,49,Y,6, H,2,5,0.67,0.5,1.48
RP2,50,C,2, Y,7,5,0.47,0.5,1.28
RP2,51,H,3, G,7,5,0.4,0.5,1.2
RP2,52,N,7, W,6,5,0.3,0.5,1.1
RP2,53,U,2, C,6,5,0.32,0.5,1.13
RP2,54,M,7, W,2,5,0.42,0.5,1.23
RP2,55,Y,6, E,3,5,0.57,0.5,1.38
RP2,56,W,6, X,3,5,0.65,0.5,1.45
RP2,57,L,7, V,6,5,0.7,0.5,1.5
RP2,58,V,7, C,4,5,0.53,0.5,1.33
RP2,59,F,3, X,4,5,0.37,0.5,1.18
RP2,60,V,7, L,6,5,0.67,0.5,1.48
BP2,1,U,6, W,3,5,0.58,0.5,1.38
BP2,2,L,3, W,2,5,0.43,0.5,1.23
BP2,3,K,7, J,3,5,0.48,0.5,1.28
BP2,4,H,3, X,2,5,0.57,0.5,1.38
BP2,5,C,4, U,3,5,0.43,0.5,1.23
BP2,6,Y,4, L,7,5,0.63,0.5,1.43
BP2,7,R,7, U,2,5,0.38,0.5,1.18
BP2,8,L,2, Y,4,5,0.53,0.5,1.33
BP2,9,L,3, P,6,5,0.6,0.5,1.4
BP2,10,C,6, H,3,5,0.4,0.5,1.2
BP2,11,A,6, F,3,5,0.43,0.5,1.23
BP2,12,W,2, M,6,5,0.42,0.5,1.23
BP2,13,W,7, L,3,5,0.57,0.5,1.38
BP2,14,C,6, W,2,5,0.3,0.5,1.1
BP2,15,F,2, H,3,5,0.47,0.5,1.28
BP2,16,M,7, G,3,5,0.35,0.5,1.15
BP2,17,P,6, F,3,5,0.55,0.5,1.35
BP2,18,J,3, L,6,5,0.57,0.5,1.38
BP2,19,J,6, C,7,5,0.6,0.5,1.4
BP2,20,B,3, Y,7,5,0.4,0.5,1.2
BP2,21,C,6, E,4,5,0.38,0.5,1.18
BP2,22,R,4, W,2,5,0.58,0.5,1.38
BP2,23,R,4, F,3,5,0.68,0.5,1.48
BP2,24,V,4, R,3,5,0.67,0.5,1.48
BP2,25,R,3, C,6,5,0.43,0.5,1.23
BP2,26,M,2, W,6,5,0.5,0.5,1.3
BP2,27,Y,4, R,2,5,0.45,0.5,1.25
BP2,28,P,6, J,3,5,0.47,0.5,1.28
BP2,29,R,4, V,2,5,0.67,0.5,1.48
BP2,30,R,4, N,7,5,0.52,0.5,1.33
BP2,31,U,4, B,3,5,0.67,0.5,1.48
BP2,32,A,2, M,7,5,0.4,0.5,1.2
BP2,33,R,2, W,7,5,0.52,0.5,1.33
BP2,34,N,3, U,7,5,0.52,0.5,1.33
BP2,35,H,6, Y,4,5,0.47,0.5,1.28
BP2,36,W,6, Y,7,5,0.33,0.5,1.13
BP2,37,B,2, M,7,5,0.37,0.5,1.18
BP2,38,C,4, A,7,5,0.67,0.5,1.48
BP2,39,G,7, R,4,5,0.63,0.5,1.43
BP2,40,G,7, X,2,5,0.47,0.5,1.28
BP2,41,V,2, Y,4,5,0.55,0.5,1.35
BP2,42,E,3, A,7,5,0.45,0.5,1.25
BP2,43,H,2, P,4,5,0.62,0.5,1.43
BP2,44,J,3, L,4,5,0.45,0.5,1.25
BP2,45,Y,3, J,7,5,0.42,0.5,1.23
BP2,46,U,4, L,3,5,0.43,0.5,1.23
BP2,47,U,6, P,3,5,0.5,0.5,1.3
BP2,48,N,2, V,7,5,0.58,0.5,1.38
BP2,49,C,4, X,2,5,0.3,0.5,1.1
BP2,50,G,2, B,7,5,0.55,0.5,1.35
BP2,51,K,7, J,3,5,0.68,0.5,1.48
BP2,52,L,3, W,4,5,0.63,0.5,1.43
BP2,53,X,7, R,6,5,0.42,0.5,1.23
BP2,54,V,2, K,3,5,0.38,0.5,1.18
BP2,55,P,4, B,3,5,0.7,0.5,1.5
BP2,56,B,6, V,3,5,0.3,0.5,1.1
BP2,57,H,7, N,3,5,0.62,0.5,1.43
BP2,58,N,4, G,6,5,0.48,0.5,1.28
BP2,59,P,6, C,3,5,0.5,0.5,1.3
BP2,60,C,6, F,7,5,0.57,0.5,1.38
GP2,1,U,2, K,3,5,0.48,0.5,1.28
GP2,2,L,4, A,6,5,0.55,0.5,1.35
GP2,3,Y,3, A,7,5,0.5,0.5,1.3
GP2,4,C,3, H,7,5,0.62,0.5,1.43
GP2,5,L,2, F,3,5,0.43,0.5,1.23
GP2,6,L,3, M,4,5,0.37,0.5,1.18
GP2,7,W,3, H,6,5,0.47,0.5,1.28
GP2,8,E,3, W,4,5,0.32,0.5,1.13
GP2,9,K,6, C,2,5,0.52,0.5,1.33
GP2,10,F,4, B,3,5,0.42,0.5,1.23
GP2,11,E,4, K,2,5,0.45,0.5,1.25
GP2,12,G,4, W,7,5,0.6,0.5,1.4
GP2,13,E,6, U,7,5,0.57,0.5,1.38
GP2,14,H,6, V,7,5,0.38,0.5,1.18
GP2,15,N,3, A,4,5,0.67,0.5,1.48
GP2,16,H,4, M,3,5,0.42,0.5,1.23
GP2,17,A,7, N,6,5,0.4,0.5,1.2
GP2,18,W,6, M,4,5,0.33,0.5,1.13
GP2,19,K,4, N,2,5,0.53,0.5,1.33
GP2,20,H,2, X,3,5,0.37,0.5,1.18
GP2,21,A,7, N,3,5,0.47,0.5,1.28
GP2,22,M,4, E,3,5,0.35,0.5,1.15
GP2,23,Y,2, K,7,5,0.65,0.5,1.45
GP2,24,W,2, A,4,5,0.33,0.5,1.13
GP2,25,C,6, W,4,5,0.52,0.5,1.33
GP2,26,K,2, N,6,5,0.58,0.5,1.38
GP2,27,K,2, G,7,5,0.45,0.5,1.25
GP2,28,U,7, G,3,5,0.58,0.5,1.38
GP2,29,X,4, V,7,5,0.7,0.5,1.5
GP2,30,G,3, H,4,5,0.5,0.5,1.3
GP2,31,J,6, E,3,5,0.48,0.5,1.28
GP2,32,E,2, Y,3,5,0.42,0.5,1.23
GP2,33,U,4, N,7,5,0.53,0.5,1.33
GP2,34,R,2, F,6,5,0.3,0.5,1.1
GP2,35,B,7, X,6,5,0.37,0.5,1.18
GP2,36,B,7, P,2,5,0.58,0.5,1.38
GP2,37,U,2, C,7,5,0.53,0.5,1.33
GP2,38,E,2, M,6,5,0.57,0.5,1.38
GP2,39,C,4, U,3,5,0.67,0.5,1.48
GP2,40,N,7, P,2,5,0.6,0.5,1.4
GP2,41,X,2, V,4,5,0.52,0.5,1.33
GP2,42,E,7, W,3,5,0.33,0.5,1.13
GP2,43,X,6, F,3,5,0.52,0.5,1.33
GP2,44,L,6, C,3,5,0.7,0.5,1.5
GP2,45,P,4, J,6,5,0.32,0.5,1.13
GP2,46,G,2, W,3,5,0.52,0.5,1.33
GP2,47,M,6, V,2,5,0.37,0.5,1.18
GP2,48,G,7, H,4,5,0.57,0.5,1.38
GP2,49,F,4, N,3,5,0.42,0.5,1.23
GP2,50,K,7, A,2,5,0.45,0.5,1.25
GP2,51,M,7, A,3,5,0.48,0.5,1.28
GP2,52,F,7, E,6,5,0.65,0.5,1.45
GP2,53,F,6, W,7,5,0.68,0.5,1.48
GP2,54,M,7, U,4,5,0.43,0.5,1.23
GP2,55,N,2, E,4,5,0.6,0.5,1.4
GP2,56,F,7, H,6,5,0.4,0.5,1.2
GP2,57,L,4, X,6,5,0.68,0.5,1.48
GP2,58,X,3, M,2,5,0.3,0.5,1.1
GP2,59,B,2, P,6,5,0.7,0.5,1.5
GP2,60,M,3, K,2,5,0.38,0.5,1.18
RP8,1,H,7, U,4,11,0.5,1.1,1.92
RP8,2,E,7, V,6,11,0.35,1.1,1.75
RP8,3,L,7, G,2,11,0.37,1.1,1.78
RP8,4,A,7, X,3,11,0.48,1.1,1.88
RP8,5,W,6, H,2,11,0.32,1.1,1.73
RP8,6,K,4, F,3,11,0.57,1.1,1.98
RP8,7,A,7, K,4,11,0.57,1.1,1.98
RP8,8,X,4, F,7,11,0.6,1.1,2
RP8,9,L,3, H,2,11,0.45,1.1,1.85
RP8,10,W,3, J,4,11,0.42,1.1,1.83
RP8,11,B,7, X,3,11,0.37,1.1,1.78
RP8,12,E,6, U,4,11,0.4,1.1,1.8
RP8,13,W,4, H,3,11,0.33,1.1,1.73
RP8,14,H,6, C,4,11,0.32,1.1,1.73
RP8,15,G,4, A,6,11,0.65,1.1,2.05
RP8,16,Y,3, J,7,11,0.35,1.1,1.75
RP8,17,J,3, G,4,11,0.33,1.1,1.73
RP8,18,C,3, X,7,11,0.67,1.1,2.08
RP8,19,L,4, E,2,11,0.3,1.1,1.72
RP8,20,U,6, H,3,11,0.52,1.1,1.93
RP8,21,E,6, K,7,11,0.38,1.1,1.78
RP8,22,P,7, E,4,11,0.63,1.1,2.03
RP8,23,F,6, V,2,11,0.6,1.1,2
RP8,24,E,3, B,2,11,0.7,1.1,2.1
RP8,25,U,4, H,2,11,0.67,1.1,2.08
RP8,26,A,4, H,2,11,0.33,1.1,1.73
RP8,27,P,2, U,7,11,0.45,1.1,1.85
RP8,28,J,4, P,2,11,0.3,1.1,1.72
RP8,29,U,4, R,6,11,0.7,1.1,2.1
RP8,30,B,3, W,2,11,0.37,1.1,1.78
RP8,31,R,7, L,6,11,0.43,1.1,1.83
RP8,32,K,4, P,7,11,0.32,1.1,1.73
RP8,33,U,3, R,6,11,0.47,1.1,1.88
RP8,34,F,2, C,3,11,0.48,1.1,1.88
RP8,35,W,7, J,6,11,0.37,1.1,1.78
RP8,36,B,7, X,6,11,0.65,1.1,2.05
RP8,37,P,6, H,7,11,0.32,1.1,1.73
RP8,38,X,6, B,3,11,0.62,1.1,2.03
RP8,39,V,2, A,3,11,0.38,1.1,1.78
RP8,40,F,2, A,6,11,0.4,1.1,1.8
RP8,41,V,6, W,2,11,0.6,1.1,2
RP8,42,E,4, L,2,11,0.5,1.1,1.92
RP8,43,J,3, W,2,11,0.48,1.1,1.88
RP8,44,Y,2, G,7,11,0.55,1.1,1.97
RP8,45,A,6, V,4,11,0.33,1.1,1.73
RP8,46,E,6, P,4,11,0.45,1.1,1.85
RP8,47,C,3, N,7,11,0.62,1.1,2.03
RP8,48,K,7, F,4,11,0.4,1.1,1.8
RP8,49,V,3, K,6,11,0.37,1.1,1.78
RP8,50,V,2, K,7,11,0.45,1.1,1.85
RP8,51,X,2, F,3,11,0.7,1.1,2.1
RP8,52,F,7, J,3,11,0.32,1.1,1.73
RP8,53,U,3, K,4,11,0.68,1.1,2.08
RP8,54,L,7, H,2,11,0.57,1.1,1.98
RP8,55,M,2, H,3,11,0.53,1.1,1.93
RP8,56,L,2, X,4,11,0.58,1.1,1.98
RP8,57,R,3, X,2,11,0.7,1.1,2.1
RP8,58,F,6, X,4,11,0.38,1.1,1.78
RP8,59,L,7, H,3,11,0.52,1.1,1.93
RP8,60,M,4, F,3,11,0.68,1.1,2.08
BP8,1,J,6, P,7,11,0.33,1.1,1.73
BP8,2,X,2, V,6,11,0.58,1.1,1.98
BP8,3,J,2, H,4,11,0.35,1.1,1.75
BP8,4,F,7, X,4,11,0.58,1.1,1.98
BP8,5,U,2, N,6,11,0.53,1.1,1.93
BP8,6,L,4, G,7,11,0.6,1.1,2
BP8,7,G,2, K,3,11,0.65,1.1,2.05
BP8,8,F,6, W,4,11,0.5,1.1,1.92
BP8,9,W,2, L,7,11,0.62,1.1,2.03
BP8,10,U,4, L,3,11,0.6,1.1,2
BP8,11,E,4, K,3,11,0.33,1.1,1.73
BP8,12,L,6, X,2,11,0.7,1.1,2.1
BP8,13,Y,2, U,6,11,0.37,1.1,1.78
BP8,14,U,6, R,2,11,0.4,1.1,1.8
BP8,15,C,2, J,7,11,0.35,1.1,1.75
BP8,16,K,4, J,2,11,0.33,1.1,1.73
BP8,17,H,7, B,2,11,0.63,1.1,2.03
BP8,18,W,7, B,4,11,0.67,1.1,2.08
BP8,19,P,2, L,7,11,0.32,1.1,1.73
BP8,20,L,3, R,7,11,0.37,1.1,1.78
BP8,21,Y,6, W,2,11,0.6,1.1,2
BP8,22,P,6, E,3,11,0.7,1.1,2.1
BP8,23,N,4, B,2,11,0.43,1.1,1.83
BP8,24,R,3, G,2,11,0.43,1.1,1.83
BP8,25,X,4, Y,7,11,0.7,1.1,2.1
BP8,26,V,6, J,3,11,0.33,1.1,1.73
BP8,27,B,6, H,3,11,0.38,1.1,1.78
BP8,28,E,4, V,6,11,0.35,1.1,1.75
BP8,29,N,6, J,4,11,0.35,1.1,1.75
BP8,30,L,3, G,2,11,0.55,1.1,1.97
BP8,31,C,2, Y,6,11,0.7,1.1,2.1
BP8,32,F,7, U,4,11,0.32,1.1,1.73
BP8,33,P,2, A,6,11,0.32,1.1,1.73
BP8,34,W,7, C,3,11,0.32,1.1,1.73
BP8,35,A,4, C,7,11,0.58,1.1,1.98
BP8,36,R,6, J,4,11,0.48,1.1,1.88
BP8,37,P,4, A,7,11,0.7,1.1,2.1
BP8,38,H,2, V,3,11,0.4,1.1,1.8
BP8,39,W,7, H,2,11,0.38,1.1,1.78
BP8,40,L,6, F,2,11,0.42,1.1,1.83
BP8,41,U,7, W,4,11,0.58,1.1,1.98
BP8,42,V,7, B,3,11,0.57,1.1,1.98
BP8,43,E,3, P,2,11,0.45,1.1,1.85
BP8,44,N,4, J,3,11,0.63,1.1,2.03
BP8,45,M,7, G,3,11,0.48,1.1,1.88
BP8,46,V,7, N,4,11,0.35,1.1,1.75
BP8,47,Y,2, H,6,11,0.38,1.1,1.78
BP8,48,L,3, C,7,11,0.42,1.1,1.83
BP8,49,V,6, F,2,11,0.45,1.1,1.85
BP8,50,U,6, L,7,11,0.47,1.1,1.88
BP8,51,M,2, K,7,11,0.42,1.1,1.83
BP8,52,A,3, X,4,11,0.67,1.1,2.08
BP8,53,Y,7, W,3,11,0.3,1.1,1.72
BP8,54,H,2, U,4,11,0.45,1.1,1.85
BP8,55,K,3, W,7,11,0.37,1.1,1.78
BP8,56,K,2, H,3,11,0.35,1.1,1.75
BP8,57,B,6, J,4,11,0.57,1.1,1.98
BP8,58,R,6, G,3,11,0.63,1.1,2.03
BP8,59,C,4, M,7,11,0.53,1.1,1.93
BP8,60,R,6, M,2,11,0.5,1.1,1.92
GP8,1,V,2, U,7,11,0.4,1.1,1.8
GP8,2,J,2, F,3,11,0.57,1.1,1.98
GP8,3,F,2, M,4,11,0.58,1.1,1.98
GP8,4,M,4, P,3,11,0.57,1.1,1.98
GP8,5,Y,3, K,7,11,0.45,1.1,1.85
GP8,6,G,7, A,6,11,0.48,1.1,1.88
GP8,7,M,4, U,6,11,0.48,1.1,1.88
GP8,8,G,7, M,6,11,0.3,1.1,1.72
GP8,9,K,6, U,2,11,0.45,1.1,1.85
GP8,10,H,3, K,7,11,0.67,1.1,2.08
GP8,11,U,7, C,4,11,0.4,1.1,1.8
GP8,12,A,7, U,3,11,0.68,1.1,2.08
GP8,13,Y,4, A,3,11,0.52,1.1,1.93
GP8,14,B,3, L,2,11,0.53,1.1,1.93
GP8,15,N,4, E,3,11,0.48,1.1,1.88
GP8,16,W,2, H,7,11,0.65,1.1,2.05
GP8,17,N,7, V,4,11,0.68,1.1,2.08
GP8,18,F,6, U,4,11,0.3,1.1,1.72
GP8,19,R,7, E,4,11,0.47,1.1,1.88
GP8,20,V,4, H,6,11,0.38,1.1,1.78
GP8,21,Y,3, U,4,11,0.47,1.1,1.88
GP8,22,B,4, M,6,11,0.6,1.1,2
GP8,23,N,7, M,2,11,0.62,1.1,2.03
GP8,24,M,4, G,7,11,0.68,1.1,2.08
GP8,25,L,4, U,7,11,0.7,1.1,2.1
GP8,26,A,4, X,2,11,0.38,1.1,1.78
GP8,27,W,3, H,7,11,0.67,1.1,2.08
GP8,28,R,7, F,6,11,0.57,1.1,1.98
GP8,29,F,7, Y,4,11,0.57,1.1,1.98
GP8,30,F,7, V,6,11,0.53,1.1,1.93
GP8,31,M,2, F,7,11,0.55,1.1,1.97
GP8,32,W,6, R,3,11,0.55,1.1,1.97
GP8,33,M,6, E,3,11,0.63,1.1,2.03
GP8,34,W,3, B,4,11,0.32,1.1,1.73
GP8,35,V,3, J,7,11,0.68,1.1,2.08
GP8,36,G,7, M,3,11,0.42,1.1,1.83
GP8,37,K,7, W,3,11,0.65,1.1,2.05
GP8,38,N,2, P,3,11,0.35,1.1,1.75
GP8,39,V,4, L,2,11,0.4,1.1,1.8
GP8,40,A,7, P,3,11,0.38,1.1,1.78
GP8,41,P,7, B,3,11,0.43,1.1,1.83
GP8,42,L,2, X,7,11,0.58,1.1,1.98
GP8,43,V,7, H,4,11,0.48,1.1,1.88
GP8,44,X,3, B,4,11,0.52,1.1,1.93
GP8,45,H,6, N,2,11,0.33,1.1,1.73
GP8,46,X,2, U,4,11,0.33,1.1,1.73
GP8,47,X,2, R,7,11,0.4,1.1,1.8
GP8,48,G,7, U,2,11,0.45,1.1,1.85
GP8,49,R,2, B,4,11,0.67,1.1,2.08
GP8,50,Y,6, P,3,11,0.6,1.1,2
GP8,51,E,6, C,3,11,0.4,1.1,1.8
GP8,52,B,6, F,2,11,0.3,1.1,1.72
GP8,53,C,6, L,7,11,0.32,1.1,1.73
GP8,54,W,3, P,6,11,0.63,1.1,2.03
GP8,55,R,3, A,6,11,0.68,1.1,2.08
GP8,56,H,6, X,7,11,0.33,1.1,1.73
GP8,57,U,4, W,3,11,0.68,1.1,2.08
GP8,58,B,6, U,7,11,0.52,1.1,1.93
GP8,59,L,7, E,2,11,0.4,1.1,1.8
GP8,60,Y,2, R,6,11,0.63,1.1,2.03