trial_number,block,trial_type,SpTr,SpNum,T1,D1,T2,D2,RSVPlength,fixationduration,RSVPduration,videoduration,Reward,LinkName,Colour
1,1,BP8_18,BP8,18,W,7,B,4,11,0.67,1.1,2.08,NR,Lag8/BP8_18,blue
2,1,RP8_22,RP8,22,P,7,E,4,11,0.63,1.1,2.03,LR,Lag8/RP8_22,red
3,1,BP8_26,BP8,26,V,6,J,3,11,0.33,1.1,1.73,NR,Lag8/BP8_26,blue
4,1,BP2_10,BP2,10,C,6,H,3,5,0.4,0.5,1.2,NR,Lag2/BP2_10,blue
5,1,RP2_17,RP2,17,M,2,Y,3,5,0.5,0.5,1.3,LR,Lag2/RP2_17,red
6,1,BP8_6,BP8,6,L,4,G,7,11,0.6,1.1,2,NR,Lag8/BP8_6,blue
7,1,BP2_20,BP2,20,B,3,Y,7,5,0.4,0.5,1.2,NR,Lag2/BP2_20,blue
8,1,BP2_22,BP2,22,R,4,W,2,5,0.58,0.5,1.38,NR,Lag2/BP2_22,blue
9,1,GP2_6,GP2,6,L,3,M,4,5,0.37,0.5,1.18,HR,Lag2/GP2_6,green
10,1,BP2_14,BP2,14,C,6,W,2,5,0.3,0.5,1.1,NR,Lag2/BP2_14,blue
11,1,BP2_3,BP2,3,K,7,J,3,5,0.48,0.5,1.28,NR,Lag2/BP2_3,blue
12,1,GP2_19,GP2,19,K,4,N,2,5,0.53,0.5,1.33,HR,Lag2/GP2_19,green
13,1,GP2_3,GP2,3,Y,3,A,7,5,0.5,0.5,1.3,HR,Lag2/GP2_3,green
14,1,GP2_23,GP2,23,Y,2,K,7,5,0.65,0.5,1.45,HR,Lag2/GP2_23,green
15,1,BP8_2,BP8,2,X,2,V,6,11,0.58,1.1,1.98,NR,Lag8/BP8_2,blue
16,1,BP2_25,BP2,25,R,3,C,6,5,0.43,0.5,1.23,NR,Lag2/BP2_25,blue
17,1,RP2_30,RP2,30,E,6,L,3,5,0.43,0.5,1.23,LR,Lag2/RP2_30,red
18,1,BP2_1,BP2,1,U,6,W,3,5,0.58,0.5,1.38,NR,Lag2/BP2_1,blue
19,1,RP8_26,RP8,26,A,4,H,2,11,0.33,1.1,1.73,LR,Lag8/RP8_26,red
20,1,RP2_28,RP2,28,M,2,X,3,5,0.53,0.5,1.33,LR,Lag2/RP2_28,red
21,1,GP2_13,GP2,13,E,6,U,7,5,0.57,0.5,1.38,HR,Lag2/GP2_13,green
22,1,GP2_20,GP2,20,H,2,X,3,5,0.37,0.5,1.18,HR,Lag2/GP2_20,green
23,1,RP2_15,RP2,15,L,6,M,3,5,0.62,0.5,1.43,LR,Lag2/RP2_15,red
24,1,BP2_28,BP2,28,P,6,J,3,5,0.47,0.5,1.28,NR,Lag2/BP2_28,blue
25,1,GP8_7,GP8,7,M,4,U,6,11,0.48,1.1,1.88,HR,Lag8/GP8_7,green
26,1,BP2_13,BP2,13,W,7,L,3,5,0.57,0.5,1.38,NR,Lag2/BP2_13,blue
27,1,BP8_10,BP8,10,U,4,L,3,11,0.6,1.1,2,NR,Lag8/BP8_10,blue
28,1,GP2_2,GP2,2,L,4,A,6,5,0.55,0.5,1.35,HR,Lag2/GP2_2,green
29,1,RP2_29,RP2,29,C,2,U,4,5,0.55,0.5,1.35,LR,Lag2/RP2_29,red
30,1,BP8_17,BP8,17,H,7,B,2,11,0.63,1.1,2.03,NR,Lag8/BP8_17,blue
31,1,RP8_11,RP8,11,B,7,X,3,11,0.37,1.1,1.78,LR,Lag8/RP8_11,red
32,1,GP2_30,GP2,30,G,3,H,4,5,0.5,0.5,1.3,HR,Lag2/GP2_30,green
33,1,RP2_20,RP2,20,R,6,L,3,5,0.35,0.5,1.15,LR,Lag2/RP2_20,red
34,1,GP2_4,GP2,4,C,3,H,7,5,0.62,0.5,1.43,HR,Lag2/GP2_4,green
35,1,GP2_22,GP2,22,M,4,E,3,5,0.35,0.5,1.15,HR,Lag2/GP2_22,green
36,1,GP8_14,GP8,14,B,3,L,2,11,0.53,1.1,1.93,HR,Lag8/GP8_14,green
37,1,BP8_16,BP8,16,K,4,J,2,11,0.33,1.1,1.73,NR,Lag8/BP8_16,blue
38,1,GP2_21,GP2,21,A,7,N,3,5,0.47,0.5,1.28,HR,Lag2/GP2_21,green
39,1,BP2_5,BP2,5,C,4,U,3,5,0.43,0.5,1.23,NR,Lag2/BP2_5,blue
40,1,RP2_13,RP2,13,G,2,P,3,5,0.3,0.5,1.1,LR,Lag2/RP2_13,red
41,1,RP2_19,RP2,19,C,2,U,4,5,0.32,0.5,1.13,LR,Lag2/RP2_19,red
42,1,RP2_27,RP2,27,L,4,Y,3,5,0.55,0.5,1.35,LR,Lag2/RP2_27,red
43,1,RP2_18,RP2,18,Y,7,E,6,5,0.7,0.5,1.5,LR,Lag2/RP2_18,red
44,1,RP8_29,RP8,29,U,4,R,6,11,0.7,1.1,2.1,LR,Lag8/RP8_29,red
45,1,GP8_28,GP8,28,R,7,F,6,11,0.57,1.1,1.98,HR,Lag8/GP8_28,green
46,1,RP8_10,RP8,10,W,3,J,4,11,0.42,1.1,1.83,LR,Lag8/RP8_10,red
47,1,GP8_17,GP8,17,N,7,V,4,11,0.68,1.1,2.08,HR,Lag8/GP8_17,green
48,1,GP8_19,GP8,19,R,7,E,4,11,0.47,1.1,1.88,HR,Lag8/GP8_19,green
49,1,RP2_11,RP2,11,Y,3,X,7,5,0.48,0.5,1.28,LR,Lag2/RP2_11,red
50,1,BP2_17,BP2,17,P,6,F,3,5,0.55,0.5,1.35,NR,Lag2/BP2_17,blue
51,1,RP2_1,RP2,1,J,6,K,3,5,0.52,0.5,1.33,LR,Lag2/RP2_1,red
52,1,RP2_12,RP2,12,R,6,X,7,5,0.35,0.5,1.15,LR,Lag2/RP2_12,red
53,1,BP8_9,BP8,9,W,2,L,7,11,0.62,1.1,2.03,NR,Lag8/BP8_9,blue
54,1,BP2_11,BP2,11,A,6,F,3,5,0.43,0.5,1.23,NR,Lag2/BP2_11,blue
55,1,GP8_5,GP8,5,Y,3,K,7,11,0.45,1.1,1.85,HR,Lag8/GP8_5,green
56,1,RP8_25,RP8,25,U,4,H,2,11,0.67,1.1,2.08,LR,Lag8/RP8_25,red
57,1,RP8_2,RP8,2,E,7,V,6,11,0.35,1.1,1.75,LR,Lag8/RP8_2,red
58,1,GP2_29,GP2,29,X,4,V,7,5,0.7,0.5,1.5,HR,Lag2/GP2_29,green
59,1,RP8_20,RP8,20,U,6,H,3,11,0.52,1.1,1.93,LR,Lag8/RP8_20,red
60,1,BP2_19,BP2,19,J,6,C,7,5,0.6,0.5,1.4,NR,Lag2/BP2_19,blue
61,1,GP2_14,GP2,14,H,6,V,7,5,0.38,0.5,1.18,HR,Lag2/GP2_14,green
62,1,BP8_13,BP8,13,Y,2,U,6,11,0.37,1.1,1.78,NR,Lag8/BP8_13,blue
63,1,GP8_1,GP8,1,V,2,U,7,11,0.4,1.1,1.8,HR,Lag8/GP8_1,green
64,1,BP8_20,BP8,20,L,3,R,7,11,0.37,1.1,1.78,NR,Lag8/BP8_20,blue
65,1,GP2_27,GP2,27,K,2,G,7,5,0.45,0.5,1.25,HR,Lag2/GP2_27,green
66,1,RP8_17,RP8,17,J,3,G,4,11,0.33,1.1,1.73,LR,Lag8/RP8_17,red
67,1,BP8_30,BP8,30,L,3,G,2,11,0.55,1.1,1.97,NR,Lag8/BP8_30,blue
68,1,BP8_23,BP8,23,N,4,B,2,11,0.43,1.1,1.83,NR,Lag8/BP8_23,blue
69,1,GP2_25,GP2,25,C,6,W,4,5,0.52,0.5,1.33,HR,Lag2/GP2_25,green
70,1,GP8_24,GP8,24,M,4,G,7,11,0.68,1.1,2.08,HR,Lag8/GP8_24,green
71,1,RP8_16,RP8,16,Y,3,J,7,11,0.35,1.1,1.75,LR,Lag8/RP8_16,red
72,1,GP2_24,GP2,24,W,2,A,4,5,0.33,0.5,1.13,HR,Lag2/GP2_24,green
73,1,BP8_1,BP8,1,J,6,P,7,11,0.33,1.1,1.73,NR,Lag8/BP8_1,blue
74,1,GP2_8,GP2,8,E,3,W,4,5,0.32,0.5,1.13,HR,Lag2/GP2_8,green
75,1,RP8_7,RP8,7,A,7,K,4,11,0.57,1.1,1.98,LR,Lag8/RP8_7,red
76,1,BP2_26,BP2,26,M,2,W,6,5,0.5,0.5,1.3,NR,Lag2/BP2_26,blue
77,1,GP2_12,GP2,12,G,4,W,7,5,0.6,0.5,1.4,HR,Lag2/GP2_12,green
78,1,BP8_25,BP8,25,X,4,Y,7,11,0.7,1.1,2.1,NR,Lag8/BP8_25,blue
79,1,BP2_23,BP2,23,R,4,F,3,5,0.68,0.5,1.48,NR,Lag2/BP2_23,blue
80,1,RP2_6,RP2,6,K,3,N,6,5,0.63,0.5,1.43,LR,Lag2/RP2_6,red
81,1,RP8_23,RP8,23,F,6,V,2,11,0.6,1.1,2,LR,Lag8/RP8_23,red
82,1,BP8_14,BP8,14,U,6,R,2,11,0.4,1.1,1.8,NR,Lag8/BP8_14,blue
83,1,RP8_30,RP8,30,B,3,W,2,11,0.37,1.1,1.78,LR,Lag8/RP8_30,red
84,1,GP2_9,GP2,9,K,6,C,2,5,0.52,0.5,1.33,HR,Lag2/GP2_9,green
85,1,GP8_27,GP8,27,W,3,H,7,11,0.67,1.1,2.08,HR,Lag8/GP8_27,green
86,1,BP2_24,BP2,24,V,4,R,3,5,0.67,0.5,1.48,NR,Lag2/BP2_24,blue
87,1,GP8_20,GP8,20,V,4,H,6,11,0.38,1.1,1.78,HR,Lag8/GP8_20,green
88,1,BP8_21,BP8,21,Y,6,W,2,11,0.6,1.1,2,NR,Lag8/BP8_21,blue
89,1,GP8_26,GP8,26,A,4,X,2,11,0.38,1.1,1.78,HR,Lag8/GP8_26,green
90,1,BP8_29,BP8,29,N,6,J,4,11,0.35,1.1,1.75,NR,Lag8/BP8_29,blue
91,1,RP8_27,RP8,27,P,2,U,7,11,0.45,1.1,1.85,LR,Lag8/RP8_27,red
92,1,BP8_22,BP8,22,P,6,E,3,11,0.7,1.1,2.1,NR,Lag8/BP8_22,blue
93,1,RP8_6,RP8,6,K,4,F,3,11,0.57,1.1,1.98,LR,Lag8/RP8_6,red
94,1,GP2_28,GP2,28,U,7,G,3,5,0.58,0.5,1.38,HR,Lag2/GP2_28,green
95,1,BP2_15,BP2,15,F,2,H,3,5,0.47,0.5,1.28,NR,Lag2/BP2_15,blue
96,1,GP8_25,GP8,25,L,4,U,7,11,0.7,1.1,2.1,HR,Lag8/GP8_25,green
97,1,RP8_28,RP8,28,J,4,P,2,11,0.3,1.1,1.72,LR,Lag8/RP8_28,red
98,1,GP8_8,GP8,8,G,7,M,6,11,0.3,1.1,1.72,HR,Lag8/GP8_8,green
99,1,BP8_3,BP8,3,J,2,H,4,11,0.35,1.1,1.75,NR,Lag8/BP8_3,blue
100,1,GP8_13,GP8,13,Y,4,A,3,11,0.52,1.1,1.93,HR,Lag8/GP8_13,green
101,1,BP8_19,BP8,19,P,2,L,7,11,0.32,1.1,1.73,NR,Lag8/BP8_19,blue
102,1,GP8_4,GP8,4,M,4,P,3,11,0.57,1.1,1.98,HR,Lag8/GP8_4,green
103,1,BP2_16,BP2,16,M,7,G,3,5,0.35,0.5,1.15,NR,Lag2/BP2_16,blue
104,1,BP8_15,BP8,15,C,2,J,7,11,0.35,1.1,1.75,NR,Lag8/BP8_15,blue
105,1,GP8_9,GP8,9,K,6,U,2,11,0.45,1.1,1.85,HR,Lag8/GP8_9,green
106,1,RP8_4,RP8,4,A,7,X,3,11,0.48,1.1,1.88,LR,Lag8/RP8_4,red
107,1,BP2_9,BP2,9,L,3,P,6,5,0.6,0.5,1.4,NR,Lag2/BP2_9,blue
108,1,RP2_10,RP2,10,L,2,B,7,5,0.57,0.5,1.38,LR,Lag2/RP2_10,red
109,1,RP2_23,RP2,23,R,3,Y,2,5,0.42,0.5,1.23,LR,Lag2/RP2_23,red
110,1,BP2_29,BP2,29,R,4,V,2,5,0.67,0.5,1.48,NR,Lag2/BP2_29,blue
111,1,BP2_18,BP2,18,J,3,L,6,5,0.57,0.5,1.38,NR,Lag2/BP2_18,blue
112,1,GP8_15,GP8,15,N,4,E,3,11,0.48,1.1,1.88,HR,Lag8/GP8_15,green
113,1,BP2_21,BP2,21,C,6,E,4,5,0.38,0.5,1.18,NR,Lag2/BP2_21,blue
114,1,RP8_3,RP8,3,L,7,G,2,11,0.37,1.1,1.78,LR,Lag8/RP8_3,red
115,1,GP8_29,GP8,29,F,7,Y,4,11,0.57,1.1,1.98,HR,Lag8/GP8_29,green
116,1,GP2_11,GP2,11,E,4,K,2,5,0.45,0.5,1.25,HR,Lag2/GP2_11,green
117,1,RP8_8,RP8,8,X,4,F,7,11,0.6,1.1,2,LR,Lag8/RP8_8,red
118,1,BP2_2,BP2,2,L,3,W,2,5,0.43,0.5,1.23,NR,Lag2/BP2_2,blue
119,1,GP8_3,GP8,3,F,2,M,4,11,0.58,1.1,1.98,HR,Lag8/GP8_3,green
120,1,RP8_19,RP8,19,L,4,E,2,11,0.3,1.1,1.72,LR,Lag8/RP8_19,red
121,1,RP8_5,RP8,5,W,6,H,2,11,0.32,1.1,1.73,LR,Lag8/RP8_5,red
122,1,RP2_5,RP2,5,K,6,U,3,5,0.3,0.5,1.1,LR,Lag2/RP2_5,red
123,1,GP8_6,GP8,6,G,7,A,6,11,0.48,1.1,1.88,HR,Lag8/GP8_6,green
124,1,GP2_26,GP2,26,K,2,N,6,5,0.58,0.5,1.38,HR,Lag2/GP2_26,green
125,1,BP2_6,BP2,6,Y,4,L,7,5,0.63,0.5,1.43,NR,Lag2/BP2_6,blue
126,1,BP2_8,BP2,8,L,2,Y,4,5,0.53,0.5,1.33,NR,Lag2/BP2_8,blue
127,1,GP8_11,GP8,11,U,7,C,4,11,0.4,1.1,1.8,HR,Lag8/GP8_11,green
128,1,GP2_1,GP2,1,U,2,K,3,5,0.48,0.5,1.28,HR,Lag2/GP2_1,green
129,1,RP8_13,RP8,13,W,4,H,3,11,0.33,1.1,1.73,LR,Lag8/RP8_13,red
130,1,GP2_17,GP2,17,A,7,N,6,5,0.4,0.5,1.2,HR,Lag2/GP2_17,green
131,1,RP8_18,RP8,18,C,3,X,7,11,0.67,1.1,2.08,LR,Lag8/RP8_18,red
132,1,GP8_12,GP8,12,A,7,U,3,11,0.68,1.1,2.08,HR,Lag8/GP8_12,green
133,1,RP2_25,RP2,25,V,2,X,4,5,0.47,0.5,1.28,LR,Lag2/RP2_25,red
134,1,BP2_7,BP2,7,R,7,U,2,5,0.38,0.5,1.18,NR,Lag2/BP2_7,blue
135,1,RP2_7,RP2,7,G,7,R,6,5,0.58,0.5,1.38,LR,Lag2/RP2_7,red
136,1,RP2_21,RP2,21,N,4,C,7,5,0.5,0.5,1.3,LR,Lag2/RP2_21,red
137,1,RP2_2,RP2,2,Y,7,E,2,5,0.47,0.5,1.28,LR,Lag2/RP2_2,red
138,1,GP2_16,GP2,16,H,4,M,3,5,0.42,0.5,1.23,HR,Lag2/GP2_16,green
139,1,GP8_16,GP8,16,W,2,H,7,11,0.65,1.1,2.05,HR,Lag8/GP8_16,green
140,1,BP8_4,BP8,4,F,7,X,4,11,0.58,1.1,1.98,NR,Lag8/BP8_4,blue
141,1,GP2_5,GP2,5,L,2,F,3,5,0.43,0.5,1.23,HR,Lag2/GP2_5,green
142,1,GP8_23,GP8,23,N,7,M,2,11,0.62,1.1,2.03,HR,Lag8/GP8_23,green
143,1,BP2_30,BP2,30,R,4,N,7,5,0.52,0.5,1.33,NR,Lag2/BP2_30,blue
144,1,RP8_12,RP8,12,E,6,U,4,11,0.4,1.1,1.8,LR,Lag8/RP8_12,red
145,1,RP2_8,RP2,8,B,7,H,2,5,0.4,0.5,1.2,LR,Lag2/RP2_8,red
146,1,GP8_21,GP8,21,Y,3,U,4,11,0.47,1.1,1.88,HR,Lag8/GP8_21,green
147,1,RP2_24,RP2,24,Y,2,K,6,5,0.52,0.5,1.33,LR,Lag2/RP2_24,red
148,1,RP2_14,RP2,14,V,2,K,4,5,0.48,0.5,1.28,LR,Lag2/RP2_14,red
149,1,GP8_30,GP8,30,F,7,V,6,11,0.53,1.1,1.93,HR,Lag8/GP8_30,green
150,1,GP8_10,GP8,10,H,3,K,7,11,0.67,1.1,2.08,HR,Lag8/GP8_10,green
151,1,BP8_7,BP8,7,G,2,K,3,11,0.65,1.1,2.05,NR,Lag8/BP8_7,blue
152,1,GP8_18,GP8,18,F,6,U,4,11,0.3,1.1,1.72,HR,Lag8/GP8_18,green
153,1,RP2_16,RP2,16,L,6,G,2,5,0.62,0.5,1.43,LR,Lag2/RP2_16,red
154,1,RP8_24,RP8,24,E,3,B,2,11,0.7,1.1,2.1,LR,Lag8/RP8_24,red
155,1,GP2_18,GP2,18,W,6,M,4,5,0.33,0.5,1.13,HR,Lag2/GP2_18,green
156,1,BP2_12,BP2,12,W,2,M,6,5,0.42,0.5,1.23,NR,Lag2/BP2_12,blue
157,1,RP2_4,RP2,4,A,6,U,2,5,0.48,0.5,1.28,LR,Lag2/RP2_4,red
158,1,RP2_9,RP2,9,A,4,X,3,5,0.4,0.5,1.2,LR,Lag2/RP2_9,red
159,1,GP2_7,GP2,7,W,3,H,6,5,0.47,0.5,1.28,HR,Lag2/GP2_7,green
160,1,RP2_22,RP2,22,K,6,X,7,5,0.35,0.5,1.15,LR,Lag2/RP2_22,red
161,1,RP2_3,RP2,3,E,3,R,2,5,0.48,0.5,1.28,LR,Lag2/RP2_3,red
162,1,BP8_24,BP8,24,R,3,G,2,11,0.43,1.1,1.83,NR,Lag8/BP8_24,blue
163,1,GP2_10,GP2,10,F,4,B,3,5,0.42,0.5,1.23,HR,Lag2/GP2_10,green
164,1,RP8_9,RP8,9,L,3,H,2,11,0.45,1.1,1.85,LR,Lag8/RP8_9,red
165,1,GP8_2,GP8,2,J,2,F,3,11,0.57,1.1,1.98,HR,Lag8/GP8_2,green
166,1,BP8_12,BP8,12,L,6,X,2,11,0.7,1.1,2.1,NR,Lag8/BP8_12,blue
167,1,BP2_4,BP2,4,H,3,X,2,5,0.57,0.5,1.38,NR,Lag2/BP2_4,blue
168,1,GP8_22,GP8,22,B,4,M,6,11,0.6,1.1,2,HR,Lag8/GP8_22,green
169,1,RP8_21,RP8,21,E,6,K,7,11,0.38,1.1,1.78,LR,Lag8/RP8_21,red
170,1,BP8_11,BP8,11,E,4,K,3,11,0.33,1.1,1.73,NR,Lag8/BP8_11,blue
171,1,BP8_8,BP8,8,F,6,W,4,11,0.5,1.1,1.92,NR,Lag8/BP8_8,blue
172,1,BP8_28,BP8,28,E,4,V,6,11,0.35,1.1,1.75,NR,Lag8/BP8_28,blue
173,1,BP2_27,BP2,27,Y,4,R,2,5,0.45,0.5,1.25,NR,Lag2/BP2_27,blue
174,1,RP8_15,RP8,15,G,4,A,6,11,0.65,1.1,2.05,LR,Lag8/RP8_15,red
175,1,BP8_5,BP8,5,U,2,N,6,11,0.53,1.1,1.93,NR,Lag8/BP8_5,blue
176,1,RP8_14,RP8,14,H,6,C,4,11,0.32,1.1,1.73,LR,Lag8/RP8_14,red
177,1,BP8_27,BP8,27,B,6,H,3,11,0.38,1.1,1.78,NR,Lag8/BP8_27,blue
178,1,RP2_26,RP2,26,K,2,L,4,5,0.3,0.5,1.1,LR,Lag2/RP2_26,red
179,1,RP8_1,RP8,1,H,7,U,4,11,0.5,1.1,1.92,LR,Lag8/RP8_1,red
180,1,GP2_15,GP2,15,N,3,A,4,5,0.67,0.5,1.48,HR,Lag2/GP2_15,green
181,2,BP2_31,BP2,31,U,4,B,3,5,0.67,0.5,1.48,NR,Lag2/BP2_31,blue
182,2,RP8_49,RP8,49,V,3,K,6,11,0.37,1.1,1.78,LR,Lag8/RP8_49,red
183,2,GP2_58,GP2,58,X,3,M,2,5,0.3,0.5,1.1,HR,Lag2/GP2_58,green
184,2,BP2_44,BP2,44,J,3,L,4,5,0.45,0.5,1.25,NR,Lag2/BP2_44,blue
185,2,RP8_58,RP8,58,F,6,X,4,11,0.38,1.1,1.78,LR,Lag8/RP8_58,red
186,2,GP2_55,GP2,55,N,2,E,4,5,0.6,0.5,1.4,HR,Lag2/GP2_55,green
187,2,GP8_43,GP8,43,V,7,H,4,11,0.48,1.1,1.88,HR,Lag8/GP8_43,green
188,2,BP8_34,BP8,34,W,7,C,3,11,0.32,1.1,1.73,NR,Lag8/BP8_34,blue
189,2,GP8_37,GP8,37,K,7,W,3,11,0.65,1.1,2.05,HR,Lag8/GP8_37,green
190,2,BP8_47,BP8,47,Y,2,H,6,11,0.38,1.1,1.78,NR,Lag8/BP8_47,blue
191,2,GP2_47,GP2,47,M,6,V,2,5,0.37,0.5,1.18,HR,Lag2/GP2_47,green
192,2,BP2_42,BP2,42,E,3,A,7,5,0.45,0.5,1.25,NR,Lag2/BP2_42,blue
193,2,RP2_35,RP2,35,L,4,P,2,5,0.67,0.5,1.48,LR,Lag2/RP2_35,red
194,2,GP8_31,GP8,31,M,2,F,7,11,0.55,1.1,1.97,HR,Lag8/GP8_31,green
195,2,GP2_37,GP2,37,U,2,C,7,5,0.53,0.5,1.33,HR,Lag2/GP2_37,green
196,2,BP8_48,BP8,48,L,3,C,7,11,0.42,1.1,1.83,NR,Lag8/BP8_48,blue
197,2,BP2_33,BP2,33,R,2,W,7,5,0.52,0.5,1.33,NR,Lag2/BP2_33,blue
198,2,BP8_38,BP8,38,H,2,V,3,11,0.4,1.1,1.8,NR,Lag8/BP8_38,blue
199,2,RP8_48,RP8,48,K,7,F,4,11,0.4,1.1,1.8,LR,Lag8/RP8_48,red
200,2,GP2_56,GP2,56,F,7,H,6,5,0.4,0.5,1.2,HR,Lag2/GP2_56,green
201,2,RP2_50,RP2,50,C,2,Y,7,5,0.47,0.5,1.28,LR,Lag2/RP2_50,red
202,2,RP8_59,RP8,59,L,7,H,3,11,0.52,1.1,1.93,LR,Lag8/RP8_59,red
203,2,GP8_39,GP8,39,V,4,L,2,11,0.4,1.1,1.8,HR,Lag8/GP8_39,green
204,2,GP2_41,GP2,41,X,2,V,4,5,0.52,0.5,1.33,HR,Lag2/GP2_41,green
205,2,GP8_45,GP8,45,H,6,N,2,11,0.33,1.1,1.73,HR,Lag8/GP8_45,green
206,2,RP2_40,RP2,40,B,7,W,6,5,0.62,0.5,1.43,LR,Lag2/RP2_40,red
207,2,BP8_43,BP8,43,E,3,P,2,11,0.45,1.1,1.85,NR,Lag8/BP8_43,blue
208,2,RP8_55,RP8,55,M,2,H,3,11,0.53,1.1,1.93,LR,Lag8/RP8_55,red
209,2,RP8_42,RP8,42,E,4,L,2,11,0.5,1.1,1.92,LR,Lag8/RP8_42,red
210,2,RP8_51,RP8,51,X,2,F,3,11,0.7,1.1,2.1,LR,Lag8/RP8_51,red
211,2,BP8_49,BP8,49,V,6,F,2,11,0.45,1.1,1.85,NR,Lag8/BP8_49,blue
212,2,BP8_53,BP8,53,Y,7,W,3,11,0.3,1.1,1.72,NR,Lag8/BP8_53,blue
213,2,BP2_49,BP2,49,C,4,X,2,5,0.3,0.5,1.1,NR,Lag2/BP2_49,blue
214,2,GP8_50,GP8,50,Y,6,P,3,11,0.6,1.1,2,HR,Lag8/GP8_50,green
215,2,RP8_40,RP8,40,F,2,A,6,11,0.4,1.1,1.8,LR,Lag8/RP8_40,red
216,2,GP8_59,GP8,59,L,7,E,2,11,0.4,1.1,1.8,HR,Lag8/GP8_59,green
217,2,RP8_47,RP8,47,C,3,N,7,11,0.62,1.1,2.03,LR,Lag8/RP8_47,red
218,2,BP8_51,BP8,51,M,2,K,7,11,0.42,1.1,1.83,NR,Lag8/BP8_51,blue
219,2,RP2_53,RP2,53,U,2,C,6,5,0.32,0.5,1.13,LR,Lag2/RP2_53,red
220,2,RP8_32,RP8,32,K,4,P,7,11,0.32,1.1,1.73,LR,Lag8/RP8_32,red
221,2,BP2_43,BP2,43,H,2,P,4,5,0.62,0.5,1.43,NR,Lag2/BP2_43,blue
222,2,GP8_41,GP8,41,P,7,B,3,11,0.43,1.1,1.83,HR,Lag8/GP8_41,green
223,2,BP8_52,BP8,52,A,3,X,4,11,0.67,1.1,2.08,NR,Lag8/BP8_52,blue
224,2,GP2_42,GP2,42,E,7,W,3,5,0.33,0.5,1.13,HR,Lag2/GP2_42,green
225,2,GP8_57,GP8,57,U,4,W,3,11,0.68,1.1,2.08,HR,Lag8/GP8_57,green
226,2,GP2_49,GP2,49,F,4,N,3,5,0.42,0.5,1.23,HR,Lag2/GP2_49,green
227,2,RP2_39,RP2,39,A,6,H,7,5,0.58,0.5,1.38,LR,Lag2/RP2_39,red
228,2,GP8_35,GP8,35,V,3,J,7,11,0.68,1.1,2.08,HR,Lag8/GP8_35,green
229,2,GP8_54,GP8,54,W,3,P,6,11,0.63,1.1,2.03,HR,Lag8/GP8_54,green
230,2,BP2_36,BP2,36,W,6,Y,7,5,0.33,0.5,1.13,NR,Lag2/BP2_36,blue
231,2,GP2_57,GP2,57,L,4,X,6,5,0.68,0.5,1.48,HR,Lag2/GP2_57,green
232,2,BP2_58,BP2,58,N,4,G,6,5,0.48,0.5,1.28,NR,Lag2/BP2_58,blue
233,2,GP8_33,GP8,33,M,6,E,3,11,0.63,1.1,2.03,HR,Lag8/GP8_33,green
234,2,GP2_38,GP2,38,E,2,M,6,5,0.57,0.5,1.38,HR,Lag2/GP2_38,green
235,2,GP2_54,GP2,54,M,7,U,4,5,0.43,0.5,1.23,HR,Lag2/GP2_54,green
236,2,RP8_37,RP8,37,P,6,H,7,11,0.32,1.1,1.73,LR,Lag8/RP8_37,red
237,2,BP8_56,BP8,56,K,2,H,3,11,0.35,1.1,1.75,NR,Lag8/BP8_56,blue
238,2,BP2_32,BP2,32,A,2,M,7,5,0.4,0.5,1.2,NR,Lag2/BP2_32,blue
239,2,GP2_45,GP2,45,P,4,J,6,5,0.32,0.5,1.13,HR,Lag2/GP2_45,green
240,2,GP8_48,GP8,48,G,7,U,2,11,0.45,1.1,1.85,HR,Lag8/GP8_48,green
241,2,RP2_60,RP2,60,V,7,L,6,5,0.67,0.5,1.48,LR,Lag2/RP2_60,red
242,2,BP2_48,BP2,48,N,2,V,7,5,0.58,0.5,1.38,NR,Lag2/BP2_48,blue
243,2,GP8_58,GP8,58,B,6,U,7,11,0.52,1.1,1.93,HR,Lag8/GP8_58,green
244,2,RP2_37,RP2,37,U,3,E,4,5,0.53,0.5,1.33,LR,Lag2/RP2_37,red
245,2,RP2_51,RP2,51,H,3,G,7,5,0.4,0.5,1.2,LR,Lag2/RP2_51,red
246,2,RP8_50,RP8,50,V,2,K,7,11,0.45,1.1,1.85,LR,Lag8/RP8_50,red
247,2,GP2_53,GP2,53,F,6,W,7,5,0.68,0.5,1.48,HR,Lag2/GP2_53,green
248,2,BP8_58,BP8,58,R,6,G,3,11,0.63,1.1,2.03,NR,Lag8/BP8_58,blue
249,2,RP8_38,RP8,38,X,6,B,3,11,0.62,1.1,2.03,LR,Lag8/RP8_38,red
250,2,GP8_42,GP8,42,L,2,X,7,11,0.58,1.1,1.98,HR,Lag8/GP8_42,green
251,2,GP8_38,GP8,38,N,2,P,3,11,0.35,1.1,1.75,HR,Lag8/GP8_38,green
252,2,GP2_59,GP2,59,B,2,P,6,5,0.7,0.5,1.5,HR,Lag2/GP2_59,green
253,2,RP8_34,RP8,34,F,2,C,3,11,0.48,1.1,1.88,LR,Lag8/RP8_34,red
254,2,RP8_45,RP8,45,A,6,V,4,11,0.33,1.1,1.73,LR,Lag8/RP8_45,red
255,2,GP2_31,GP2,31,J,6,E,3,5,0.48,0.5,1.28,HR,Lag2/GP2_31,green
256,2,RP2_49,RP2,49,Y,6,H,2,5,0.67,0.5,1.48,LR,Lag2/RP2_49,red
257,2,RP2_31,RP2,31,C,7,B,2,5,0.4,0.5,1.2,LR,Lag2/RP2_31,red
258,2,GP2_52,GP2,52,F,7,E,6,5,0.65,0.5,1.45,HR,Lag2/GP2_52,green
259,2,GP2_32,GP2,32,E,2,Y,3,5,0.42,0.5,1.23,HR,Lag2/GP2_32,green
260,2,GP8_44,GP8,44,X,3,B,4,11,0.52,1.1,1.93,HR,Lag8/GP8_44,green
261,2,BP8_40,BP8,40,L,6,F,2,11,0.42,1.1,1.83,NR,Lag8/BP8_40,blue
262,2,GP8_47,GP8,47,X,2,R,7,11,0.4,1.1,1.8,HR,Lag8/GP8_47,green
263,2,GP2_60,GP2,60,M,3,K,2,5,0.38,0.5,1.18,HR,Lag2/GP2_60,green
264,2,BP2_37,BP2,37,B,2,M,7,5,0.37,0.5,1.18,NR,Lag2/BP2_37,blue
265,2,RP8_53,RP8,53,U,3,K,4,11,0.68,1.1,2.08,LR,Lag8/RP8_53,red
266,2,RP2_34,RP2,34,H,2,B,7,5,0.33,0.5,1.13,LR,Lag2/RP2_34,red
267,2,RP2_59,RP2,59,F,3,X,4,5,0.37,0.5,1.18,LR,Lag2/RP2_59,red
268,2,RP2_44,RP2,44,U,2,K,3,5,0.52,0.5,1.33,LR,Lag2/RP2_44,red
269,2,RP8_36,RP8,36,B,7,X,6,11,0.65,1.1,2.05,LR,Lag8/RP8_36,red
270,2,BP2_35,BP2,35,H,6,Y,4,5,0.47,0.5,1.28,NR,Lag2/BP2_35,blue
271,2,RP8_57,RP8,57,R,3,X,2,11,0.7,1.1,2.1,LR,Lag8/RP8_57,red
272,2,RP8_39,RP8,39,V,2,A,3,11,0.38,1.1,1.78,LR,Lag8/RP8_39,red
273,2,BP8_33,BP8,33,P,2,A,6,11,0.32,1.1,1.73,NR,Lag8/BP8_33,blue
274,2,BP2_52,BP2,52,L,3,W,4,5,0.63,0.5,1.43,NR,Lag2/BP2_52,blue
275,2,GP2_40,GP2,40,N,7,P,2,5,0.6,0.5,1.4,HR,Lag2/GP2_40,green
276,2,BP8_37,BP8,37,P,4,A,7,11,0.7,1.1,2.1,NR,Lag8/BP8_37,blue
277,2,GP8_60,GP8,60,Y,2,R,6,11,0.63,1.1,2.03,HR,Lag8/GP8_60,green
278,2,RP2_54,RP2,54,M,7,W,2,5,0.42,0.5,1.23,LR,Lag2/RP2_54,red
279,2,GP2_36,GP2,36,B,7,P,2,5,0.58,0.5,1.38,HR,Lag2/GP2_36,green
280,2,RP8_41,RP8,41,V,6,W,2,11,0.6,1.1,2,LR,Lag8/RP8_41,red
281,2,RP8_33,RP8,33,U,3,R,6,11,0.47,1.1,1.88,LR,Lag8/RP8_33,red
282,2,GP8_34,GP8,34,W,3,B,4,11,0.32,1.1,1.73,HR,Lag8/GP8_34,green
283,2,BP2_57,BP2,57,H,7,N,3,5,0.62,0.5,1.43,NR,Lag2/BP2_57,blue
284,2,GP2_51,GP2,51,M,7,A,3,5,0.48,0.5,1.28,HR,Lag2/GP2_51,green
285,2,BP2_55,BP2,55,P,4,B,3,5,0.7,0.5,1.5,NR,Lag2/BP2_55,blue
286,2,GP8_36,GP8,36,G,7,M,3,11,0.42,1.1,1.83,HR,Lag8/GP8_36,green
287,2,BP8_60,BP8,60,R,6,M,2,11,0.5,1.1,1.92,NR,Lag8/BP8_60,blue
288,2,RP8_35,RP8,35,W,7,J,6,11,0.37,1.1,1.78,LR,Lag8/RP8_35,red
289,2,GP2_39,GP2,39,C,4,U,3,5,0.67,0.5,1.48,HR,Lag2/GP2_39,green
290,2,GP2_46,GP2,46,G,2,W,3,5,0.52,0.5,1.33,HR,Lag2/GP2_46,green
291,2,BP2_50,BP2,50,G,2,B,7,5,0.55,0.5,1.35,NR,Lag2/BP2_50,blue
292,2,GP2_50,GP2,50,K,7,A,2,5,0.45,0.5,1.25,HR,Lag2/GP2_50,green
293,2,BP8_45,BP8,45,M,7,G,3,11,0.48,1.1,1.88,NR,Lag8/BP8_45,blue
294,2,GP2_35,GP2,35,B,7,X,6,5,0.37,0.5,1.18,HR,Lag2/GP2_35,green
295,2,GP8_32,GP8,32,W,6,R,3,11,0.55,1.1,1.97,HR,Lag8/GP8_32,green
296,2,BP2_39,BP2,39,G,7,R,4,5,0.63,0.5,1.43,NR,Lag2/BP2_39,blue
297,2,RP2_33,RP2,33,M,7,B,3,5,0.5,0.5,1.3,LR,Lag2/RP2_33,red
298,2,GP8_56,GP8,56,H,6,X,7,11,0.33,1.1,1.73,HR,Lag8/GP8_56,green
299,2,GP8_46,GP8,46,X,2,U,4,11,0.33,1.1,1.73,HR,Lag8/GP8_46,green
300,2,GP8_52,GP8,52,B,6,F,2,11,0.3,1.1,1.72,HR,Lag8/GP8_52,green
301,2,BP8_32,BP8,32,F,7,U,4,11,0.32,1.1,1.73,NR,Lag8/BP8_32,blue
302,2,BP8_54,BP8,54,H,2,U,4,11,0.45,1.1,1.85,NR,Lag8/BP8_54,blue
303,2,RP2_55,RP2,55,Y,6,E,3,5,0.57,0.5,1.38,LR,Lag2/RP2_55,red
304,2,BP8_59,BP8,59,C,4,M,7,11,0.53,1.1,1.93,NR,Lag8/BP8_59,blue
305,2,RP2_47,RP2,47,J,4,R,3,5,0.5,0.5,1.3,LR,Lag2/RP2_47,red
306,2,RP8_60,RP8,60,M,4,F,3,11,0.68,1.1,2.08,LR,Lag8/RP8_60,red
307,2,BP8_42,BP8,42,V,7,B,3,11,0.57,1.1,1.98,NR,Lag8/BP8_42,blue
308,2,BP2_38,BP2,38,C,4,A,7,5,0.67,0.5,1.48,NR,Lag2/BP2_38,blue
309,2,BP8_35,BP8,35,A,4,C,7,11,0.58,1.1,1.98,NR,Lag8/BP8_35,blue
310,2,BP2_56,BP2,56,B,6,V,3,5,0.3,0.5,1.1,NR,Lag2/BP2_56,blue
311,2,RP2_48,RP2,48,N,7,A,4,5,0.5,0.5,1.3,LR,Lag2/RP2_48,red
312,2,BP8_36,BP8,36,R,6,J,4,11,0.48,1.1,1.88,NR,Lag8/BP8_36,blue
313,2,BP8_50,BP8,50,U,6,L,7,11,0.47,1.1,1.88,NR,Lag8/BP8_50,blue
314,2,GP8_49,GP8,49,R,2,B,4,11,0.67,1.1,2.08,HR,Lag8/GP8_49,green
315,2,BP2_40,BP2,40,G,7,X,2,5,0.47,0.5,1.28,NR,Lag2/BP2_40,blue
316,2,RP2_46,RP2,46,C,7,V,3,5,0.33,0.5,1.13,LR,Lag2/RP2_46,red
317,2,BP2_54,BP2,54,V,2,K,3,5,0.38,0.5,1.18,NR,Lag2/BP2_54,blue
318,2,GP8_40,GP8,40,A,7,P,3,11,0.38,1.1,1.78,HR,Lag8/GP8_40,green
319,2,RP2_56,RP2,56,W,6,X,3,5,0.65,0.5,1.45,LR,Lag2/RP2_56,red
320,2,RP8_44,RP8,44,Y,2,G,7,11,0.55,1.1,1.97,LR,Lag8/RP8_44,red
321,2,BP8_55,BP8,55,K,3,W,7,11,0.37,1.1,1.78,NR,Lag8/BP8_55,blue
322,2,RP8_43,RP8,43,J,3,W,2,11,0.48,1.1,1.88,LR,Lag8/RP8_43,red
323,2,BP2_51,BP2,51,K,7,J,3,5,0.68,0.5,1.48,NR,Lag2/BP2_51,blue
324,2,BP2_59,BP2,59,P,6,C,3,5,0.5,0.5,1.3,NR,Lag2/BP2_59,blue
325,2,RP2_38,RP2,38,P,7,Y,4,5,0.4,0.5,1.2,LR,Lag2/RP2_38,red
326,2,RP2_52,RP2,52,N,7,W,6,5,0.3,0.5,1.1,LR,Lag2/RP2_52,red
327,2,RP2_42,RP2,42,R,6,W,2,5,0.62,0.5,1.43,LR,Lag2/RP2_42,red
328,2,RP8_31,RP8,31,R,7,L,6,11,0.43,1.1,1.83,LR,Lag8/RP8_31,red
329,2,RP8_52,RP8,52,F,7,J,3,11,0.32,1.1,1.73,LR,Lag8/RP8_52,red
330,2,GP2_33,GP2,33,U,4,N,7,5,0.53,0.5,1.33,HR,Lag2/GP2_33,green
331,2,GP8_51,GP8,51,E,6,C,3,11,0.4,1.1,1.8,HR,Lag8/GP8_51,green
332,2,GP2_44,GP2,44,L,6,C,3,5,0.7,0.5,1.5,HR,Lag2/GP2_44,green
333,2,GP8_53,GP8,53,C,6,L,7,11,0.32,1.1,1.73,HR,Lag8/GP8_53,green
334,2,BP2_45,BP2,45,Y,3,J,7,5,0.42,0.5,1.23,NR,Lag2/BP2_45,blue
335,2,RP2_36,RP2,36,V,3,J,4,5,0.38,0.5,1.18,LR,Lag2/RP2_36,red
336,2,BP2_34,BP2,34,N,3,U,7,5,0.52,0.5,1.33,NR,Lag2/BP2_34,blue
337,2,RP8_54,RP8,54,L,7,H,2,11,0.57,1.1,1.98,LR,Lag8/RP8_54,red
338,2,RP8_56,RP8,56,L,2,X,4,11,0.58,1.1,1.98,LR,Lag8/RP8_56,red
339,2,RP8_46,RP8,46,E,6,P,4,11,0.45,1.1,1.85,LR,Lag8/RP8_46,red
340,2,BP8_31,BP8,31,C,2,Y,6,11,0.7,1.1,2.1,NR,Lag8/BP8_31,blue
341,2,BP8_57,BP8,57,B,6,J,4,11,0.57,1.1,1.98,NR,Lag8/BP8_57,blue
342,2,BP2_60,BP2,60,C,6,F,7,5,0.57,0.5,1.38,NR,Lag2/BP2_60,blue
343,2,BP2_41,BP2,41,V,2,Y,4,5,0.55,0.5,1.35,NR,Lag2/BP2_41,blue
344,2,BP8_44,BP8,44,N,4,J,3,11,0.63,1.1,2.03,NR,Lag8/BP8_44,blue
345,2,BP8_41,BP8,41,U,7,W,4,11,0.58,1.1,1.98,NR,Lag8/BP8_41,blue
346,2,BP2_46,BP2,46,U,4,L,3,5,0.43,0.5,1.23,NR,Lag2/BP2_46,blue
347,2,RP2_45,RP2,45,V,3,R,2,5,0.32,0.5,1.13,LR,Lag2/RP2_45,red
348,2,BP8_46,BP8,46,V,7,N,4,11,0.35,1.1,1.75,NR,Lag8/BP8_46,blue
349,2,GP2_48,GP2,48,G,7,H,4,5,0.57,0.5,1.38,HR,Lag2/GP2_48,green
350,2,RP2_32,RP2,32,C,6,A,4,5,0.5,0.5,1.3,LR,Lag2/RP2_32,red
351,2,RP2_58,RP2,58,V,7,C,4,5,0.53,0.5,1.33,LR,Lag2/RP2_58,red
352,2,GP2_34,GP2,34,R,2,F,6,5,0.3,0.5,1.1,HR,Lag2/GP2_34,green
353,2,BP2_47,BP2,47,U,6,P,3,5,0.5,0.5,1.3,NR,Lag2/BP2_47,blue
354,2,BP2_53,BP2,53,X,7,R,6,5,0.42,0.5,1.23,NR,Lag2/BP2_53,blue
355,2,BP8_39,BP8,39,W,7,H,2,11,0.38,1.1,1.78,NR,Lag8/BP8_39,blue
356,2,RP2_57,RP2,57,L,7,V,6,5,0.7,0.5,1.5,LR,Lag2/RP2_57,red
357,2,RP2_41,RP2,41,A,2,W,7,5,0.32,0.5,1.13,LR,Lag2/RP2_41,red
358,2,GP2_43,GP2,43,X,6,F,3,5,0.52,0.5,1.33,HR,Lag2/GP2_43,green
359,2,RP2_43,RP2,43,V,7,W,3,5,0.7,0.5,1.5,LR,Lag2/RP2_43,red
360,2,GP8_55,GP8,55,R,3,A,6,11,0.68,1.1,2.08,HR,Lag8/GP8_55,green
