J,8,red,Stim8,#fc7f7f,HR,10,0,1,1,Disallowed,Disallowed,Disallowed,Disallowed,Disallowed,Disallowed,Disallowed,Disallowed,Disallowed,Disallowed,Allowed,Allowed,Allowed,Allowed,Allowed,Allowed,Allowed,Allowed,Allowed,Allowed,Allowed,Allowed,Disallowed,Disallowed,Disallowed,BefT,7,Stim7
K,9,red,Stim9,#fc7f7f,HR,10,0,2,1,Disallowed,Disallowed,Disallowed,Disallowed,Disallowed,Disallowed,Disallowed,Disallowed,Disallowed,Disallowed,Disallowed,Allowed,Allowed,Allowed,Allowed,Allowed,Allowed,Allowed,Allowed,Allowed,Allowed,Allowed,Disallowed,Disallowed,Disallowed,BefT,8,Stim8
J,10,red,Stim10,#fc7f7f,HR,10,0,3,1,Disallowed,Disallowed,Disallowed,Disallowed,Disallowed,Disallowed,Disallowed,Disallowed,Disallowed,Disallowed,Disallowed,Disallowed,Allowed,Allowed,Allowed,Allowed,Allowed,Allowed,Allowed,Allowed,Allowed,Allowed,Disallowed,Disallowed,Disallowed,BefT,9,Stim9
K,11,red,Stim11,#fc7f7f,HR,10,0,4,1,Disallowed,Disallowed,Disallowed,Disallowed,Disallowed,Disallowed,Disallowed,Disallowed,Disallowed,Disallowed,Disallowed,Disallowed,Disallowed,Allowed,Allowed,Allowed,Allowed,Allowed,Allowed,Allowed,Allowed,Allowed,Disallowed,Disallowed,Disallowed,BefT,10,Stim10
J,12,red,Stim12,#fc7f7f,HR,10,0,5,1,Disallowed,Disallowed,Disallowed,Disallowed,Disallowed,Disallowed,Disallowed,Disallowed,Disallowed,Disallowed,Disallowed,Disallowed,Disallowed,Disallowed,Allowed,Allowed,Allowed,Allowed,Allowed,Allowed,Allowed,Allowed,Disallowed,Disallowed,Disallowed,BefT,11,Stim11
K,13,red,Stim13,#fc7f7f,HR,10,0,6,1,Disallowed,Disallowed,Disallowed,Disallowed,Disallowed,Disallowed,Disallowed,Disallowed,Disallowed,Disallowed,Disallowed,Disallowed,Disallowed,Disallowed,Disallowed,Allowed,Allowed,Allowed,Allowed,Allowed,Allowed,Allowed,Disallowed,Disallowed,Disallowed,BefT,12,Stim12
K,8,blue,Stim8,#7fb4ff,LR,2,0,7,1,Disallowed,Disallowed,Disallowed,Disallowed,Disallowed,Disallowed,Disallowed,Disallowed,Disallowed,Disallowed,Allowed,Allowed,Allowed,Allowed,Allowed,Allowed,Allowed,Allowed,Allowed,Allowed,Allowed,Allowed,Disallowed,Disallowed,Disallowed,BefT,7,Stim7
J,9,blue,Stim9,#7fb4ff,LR,2,0,8,1,Disallowed,Disallowed,Disallowed,Disallowed,Disallowed,Disallowed,Disallowed,Disallowed,Disallowed,Disallowed,Disallowed,Allowed,Allowed,Allowed,Allowed,Allowed,Allowed,Allowed,Allowed,Allowed,Allowed,Allowed,Disallowed,Disallowed,Disallowed,BefT,8,Stim8
K,10,blue,Stim10,#7fb4ff,LR,2,0,9,1,Disallowed,Disallowed,Disallowed,Disallowed,Disallowed,Disallowed,Disallowed,Disallowed,Disallowed,Disallowed,Disallowed,Disallowed,Allowed,Allowed,Allowed,Allowed,Allowed,Allowed,Allowed,Allowed,Allowed,Allowed,Disallowed,Disallowed,Disallowed,BefT,9,Stim9
J,11,blue,Stim11,#7fb4ff,LR,2,0,10,1,Disallowed,Disallowed,Disallowed,Disallowed,Disallowed,Disallowed,Disallowed,Disallowed,Disallowed,Disallowed,Disallowed,Disallowed,Disallowed,Allowed,Allowed,Allowed,Allowed,Allowed,Allowed,Allowed,Allowed,Allowed,Disallowed,Disallowed,Disallowed,BefT,10,Stim10
K,12,blue,Stim12,#7fb4ff,LR,2,0,11,1,Disallowed,Disallowed,Disallowed,Disallowed,Disallowed,Disallowed,Disallowed,Disallowed,Disallowed,Disallowed,Disallowed,Disallowed,Disallowed,Disallowed,Allowed,Allowed,Allowed,Allowed,Allowed,Allowed,Allowed,Allowed,Disallowed,Disallowed,Disallowed,BefT,11,Stim11
J,13,blue,Stim13,#7fb4ff,LR,2,0,12,1,Disallowed,Disallowed,Disallowed,Disallowed,Disallowed,Disallowed,Disallowed,Disallowed,Disallowed,Disallowed,Disallowed,Disallowed,Disallowed,Disallowed,Disallowed,Allowed,Allowed,Allowed,Allowed,Allowed,Allowed,Allowed,Disallowed,Disallowed,Disallowed,BefT,12,Stim12
J,8,green,Stim8,#7fdd7f,NR,0,0,13,1,Disallowed,Disallowed,Disallowed,Disallowed,Disallowed,Disallowed,Disallowed,Disallowed,Disallowed,Disallowed,Allowed,Allowed,Allowed,Allowed,Allowed,Allowed,Allowed,Allowed,Allowed,Allowed,Allowed,Allowed,Disallowed,Disallowed,Disallowed,BefT,7,Stim7
K,9,green,Stim9,#7fdd7f,NR,0,0,14,1,Disallowed,Disallowed,Disallowed,Disallowed,Disallowed,Disallowed,Disallowed,Disallowed,Disallowed,Disallowed,Disallowed,Allowed,Allowed,Allowed,Allowed,Allowed,Allowed,Allowed,Allowed,Allowed,Allowed,Allowed,Disallowed,Disallowed,Disallowed,BefT,8,Stim8
J,10,green,Stim10,#7fdd7f,NR,0,0,15,1,Disallowed,Disallowed,Disallowed,Disallowed,Disallowed,Disallowed,Disallowed,Disallowed,Disallowed,Disallowed,Disallowed,Disallowed,Allowed,Allowed,Allowed,Allowed,Allowed,Allowed,Allowed,Allowed,Allowed,Allowed,Disallowed,Disallowed,Disallowed,BefT,9,Stim9
K,11,green,Stim11,#7fdd7f,NR,0,0,16,1,Disallowed,Disallowed,Disallowed,Disallowed,Disallowed,Disallowed,Disallowed,Disallowed,Disallowed,Disallowed,Disallowed,Disallowed,Disallowed,Allowed,Allowed,Allowed,Allowed,Allowed,Allowed,Allowed,Allowed,Allowed,Disallowed,Disallowed,Disallowed,BefT,10,Stim10
J,12,green,Stim12,#7fdd7f,NR,0,0,17,1,Disallowed,Disallowed,Disallowed,Disallowed,Disallowed,Disallowed,Disallowed,Disallowed,Disallowed,Disallowed,Disallowed,Disallowed,Disallowed,Disallowed,Allowed,Allowed,Allowed,Allowed,Allowed,Allowed,Allowed,Allowed,Disallowed,Disallowed,Disallowed,BefT,11,Stim11
K,13,green,Stim13,#7fdd7f,NR,0,0,18,1,Disallowed,Disallowed,Disallowed,Disallowed,Disallowed,Disallowed,Disallowed,Disallowed,Disallowed,Disallowed,Disallowed,Disallowed,Disallowed,Disallowed,Disallowed,Allowed,Allowed,Allowed,Allowed,Allowed,Allowed,Allowed,Disallowed,Disallowed,Disallowed,BefT,12,Stim12
J,8,red,Stim8,#fc7f7f,HR,10,0,19,1,Disallowed,Disallowed,Disallowed,Disallowed,Disallowed,Disallowed,Disallowed,Disallowed,Disallowed,Disallowed,Allowed,Allowed,Allowed,Allowed,Allowed,Allowed,Allowed,Allowed,Allowed,Allowed,Allowed,Allowed,Disallowed,Disallowed,Disallowed,AftT,9,Stim9
K,9,red,Stim9,#fc7f7f,HR,10,0,20,1,Disallowed,Disallowed,Disallowed,Disallowed,Disallowed,Disallowed,Disallowed,Disallowed,Disallowed,Disallowed,Disallowed,Allowed,Allowed,Allowed,Allowed,Allowed,Allowed,Allowed,Allowed,Allowed,Allowed,Allowed,Disallowed,Disallowed,Disallowed,AftT,10,Stim10
J,10,red,Stim10,#fc7f7f,HR,10,0,21,1,Disallowed,Disallowed,Disallowed,Disallowed,Disallowed,Disallowed,Disallowed,Disallowed,Disallowed,Disallowed,Disallowed,Disallowed,Allowed,Allowed,Allowed,Allowed,Allowed,Allowed,Allowed,Allowed,Allowed,Allowed,Disallowed,Disallowed,Disallowed,AftT,11,Stim11
K,11,red,Stim11,#fc7f7f,HR,10,0,22,1,Disallowed,Disallowed,Disallowed,Disallowed,Disallowed,Disallowed,Disallowed,Disallowed,Disallowed,Disallowed,Disallowed,Disallowed,Disallowed,Allowed,Allowed,Allowed,Allowed,Allowed,Allowed,Allowed,Allowed,Allowed,Disallowed,Disallowed,Disallowed,AftT,12,Stim12
J,12,red,Stim12,#fc7f7f,HR,10,0,23,1,Disallowed,Disallowed,Disallowed,Disallowed,Disallowed,Disallowed,Disallowed,Disallowed,Disallowed,Disallowed,Disallowed,Disallowed,Disallowed,Disallowed,Allowed,Allowed,Allowed,Allowed,Allowed,Allowed,Allowed,Allowed,Disallowed,Disallowed,Disallowed,AftT,13,Stim13
K,13,red,Stim13,#fc7f7f,HR,10,0,24,1,Disallowed,Disallowed,Disallowed,Disallowed,Disallowed,Disallowed,Disallowed,Disallowed,Disallowed,Disallowed,Disallowed,Disallowed,Disallowed,Disallowed,Disallowed,Allowed,Allowed,Allowed,Allowed,Allowed,Allowed,Allowed,Disallowed,Disallowed,Disallowed,AftT,14,Stim14
K,8,blue,Stim8,#7fb4ff,LR,2,0,25,1,Disallowed,Disallowed,Disallowed,Disallowed,Disallowed,Disallowed,Disallowed,Disallowed,Disallowed,Disallowed,Allowed,Allowed,Allowed,Allowed,Allowed,Allowed,Allowed,Allowed,Allowed,Allowed,Allowed,Allowed,Disallowed,Disallowed,Disallowed,AftT,9,Stim9
J,9,blue,Stim9,#7fb4ff,LR,2,0,26,1,Disallowed,Disallowed,Disallowed,Disallowed,Disallowed,Disallowed,Disallowed,Disallowed,Disallowed,Disallowed,Disallowed,Allowed,Allowed,Allowed,Allowed,Allowed,Allowed,Allowed,Allowed,Allowed,Allowed,Allowed,Disallowed,Disallowed,Disallowed,AftT,10,Stim10
K,10,blue,Stim10,#7fb4ff,LR,2,0,27,1,Disallowed,Disallowed,Disallowed,Disallowed,Disallowed,Disallowed,Disallowed,Disallowed,Disallowed,Disallowed,Disallowed,Disallowed,Allowed,Allowed,Allowed,Allowed,Allowed,Allowed,Allowed,Allowed,Allowed,Allowed,Disallowed,Disallowed,Disallowed,AftT,11,Stim11
J,11,blue,Stim11,#7fb4ff,LR,2,0,28,1,Disallowed,Disallowed,Disallowed,Disallowed,Disallowed,Disallowed,Disallowed,Disallowed,Disallowed,Disallowed,Disallowed,Disallowed,Disallowed,Allowed,Allowed,Allowed,Allowed,Allowed,Allowed,Allowed,Allowed,Allowed,Disallowed,Disallowed,Disallowed,AftT,12,Stim12
K,12,blue,Stim12,#7fb4ff,LR,2,0,29,1,Disallowed,Disallowed,Disallowed,Disallowed,Disallowed,Disallowed,Disallowed,Disallowed,Disallowed,Disallowed,Disallowed,Disallowed,Disallowed,Disallowed,Allowed,Allowed,Allowed,Allowed,Allowed,Allowed,Allowed,Allowed,Disallowed,Disallowed,Disallowed,AftT,13,Stim13
J,13,blue,Stim13,#7fb4ff,LR,2,0,30,1,Disallowed,Disallowed,Disallowed,Disallowed,Disallowed,Disallowed,Disallowed,Disallowed,Disallowed,Disallowed,Disallowed,Disallowed,Disallowed,Disallowed,Disallowed,Allowed,Allowed,Allowed,Allowed,Allowed,Allowed,Allowed,Disallowed,Disallowed,Disallowed,AftT,14,Stim14
J,8,green,Stim8,#7fdd7f,NR,0,0,31,1,Disallowed,Disallowed,Disallowed,Disallowed,Disallowed,Disallowed,Disallowed,Disallowed,Disallowed,Disallowed,Allowed,Allowed,Allowed,Allowed,Allowed,Allowed,Allowed,Allowed,Allowed,Allowed,Allowed,Allowed,Disallowed,Disallowed,Disallowed,AftT,9,Stim9
K,9,green,Stim9,#7fdd7f,NR,0,0,32,1,Disallowed,Disallowed,Disallowed,Disallowed,Disallowed,Disallowed,Disallowed,Disallowed,Disallowed,Disallowed,Disallowed,Allowed,Allowed,Allowed,Allowed,Allowed,Allowed,Allowed,Allowed,Allowed,Allowed,Allowed,Disallowed,Disallowed,Disallowed,AftT,10,Stim10
J,10,green,Stim10,#7fdd7f,NR,0,0,33,1,Disallowed,Disallowed,Disallowed,Disallowed,Disallowed,Disallowed,Disallowed,Disallowed,Disallowed,Disallowed,Disallowed,Disallowed,Allowed,Allowed,Allowed,Allowed,Allowed,Allowed,Allowed,Allowed,Allowed,Allowed,Disallowed,Disallowed,Disallowed,AftT,11,Stim11
K,11,green,Stim11,#7fdd7f,NR,0,0,34,1,Disallowed,Disallowed,Disallowed,Disallowed,Disallowed,Disallowed,Disallowed,Disallowed,Disallowed,Disallowed,Disallowed,Disallowed,Disallowed,Allowed,Allowed,Allowed,Allowed,Allowed,Allowed,Allowed,Allowed,Allowed,Disallowed,Disallowed,Disallowed,AftT,12,Stim12
J,12,green,Stim12,#7fdd7f,NR,0,0,35,1,Disallowed,Disallowed,Disallowed,Disallowed,Disallowed,Disallowed,Disallowed,Disallowed,Disallowed,Disallowed,Disallowed,Disallowed,Disallowed,Disallowed,Allowed,Allowed,Allowed,Allowed,Allowed,Allowed,Allowed,Allowed,Disallowed,Disallowed,Disallowed,AftT,13,Stim13
K,13,green,Stim13,#7fdd7f,NR,0,0,36,1,Disallowed,Disallowed,Disallowed,Disallowed,Disallowed,Disallowed,Disallowed,Disallowed,Disallowed,Disallowed,Disallowed,Disallowed,Disallowed,Disallowed,Disallowed,Allowed,Allowed,Allowed,Allowed,Allowed,Allowed,Allowed,Disallowed,Disallowed,Disallowed,AftT,14,Stim14
