K,8,red,Stim8,#fc7f7f,Disallowed,Disallowed,Disallowed,Disallowed,Disallowed,Disallowed,Disallowed,Disallowed,Disallowed,Disallowed,Allowed,Allowed,Allowed,Allowed,Allowed,Allowed,Allowed,Allowed,Allowed,Allowed,Allowed,Allowed,Disallowed,Disallowed,Disallowed,AftT,9,Stim9
J,9,green,Stim9,#7fdd7f,Disallowed,Disallowed,Disallowed,Disallowed,Disallowed,Disallowed,Disallowed,Disallowed,Disallowed,Disallowed,Disallowed,Allowed,Allowed,Allowed,Allowed,Allowed,Allowed,Allowed,Allowed,Allowed,Allowed,Allowed,Disallowed,Disallowed,Disallowed,BefT,8,Stim8
K,10,red,Stim10,#fc7f7f,Disallowed,Disallowed,Disallowed,Disallowed,Disallowed,Disallowed,Disallowed,Disallowed,Disallowed,Disallowed,Disallowed,Disallowed,Allowed,Allowed,Allowed,Allowed,Allowed,Allowed,Allowed,Allowed,Allowed,Allowed,Disallowed,Disallowed,Disallowed,BefT,9,Stim9
K,11,green,Stim11,#7fdd7f,Disallowed,Disallowed,Disallowed,Disallowed,Disallowed,Disallowed,Disallowed,Disallowed,Disallowed,Disallowed,Disallowed,Disallowed,Disallowed,Allowed,Allowed,Allowed,Allowed,Allowed,Allowed,Allowed,Allowed,Allowed,Disallowed,Disallowed,Disallowed,AftT,12,Stim12
J,12,blue,Stim12,#7fb4ff,Disallowed,Disallowed,Disallowed,Disallowed,Disallowed,Disallowed,Disallowed,Disallowed,Disallowed,Disallowed,Disallowed,Disallowed,Disallowed,Disallowed,Allowed,Allowed,Allowed,Allowed,Allowed,Allowed,Allowed,Allowed,Disallowed,Disallowed,Disallowed,BefT,11,Stim11
J,13,blue,Stim13,#7fb4ff,Disallowed,Disallowed,Disallowed,Disallowed,Disallowed,Disallowed,Disallowed,Disallowed,Disallowed,Disallowed,Disallowed,Disallowed,Disallowed,Disallowed,Disallowed,Allowed,Allowed,Allowed,Allowed,Allowed,Allowed,Allowed,Disallowed,Disallowed,Disallowed,AftT,14,Stim14
