"","SubID","ToExclude","Num_NATrials","Num_SlowTrials","Num_TotalExcludedTrials","Group","ProlificID","Age","Sex"
"1","1092702","No","0","0","0","R1",NA,"22","Male"
"2","1124615","No","0","1","1","R1",NA,"47","Male"
"3","1127256","No","0","3","3","R1","64de2358a20af46420e8c1af","38","Female"
"4","1127963","No","0","0","0","R1","5f600669b846780f0fe45709","34","Male"
"5","1127965","No","1","0","1","R1","664a70b48ff64eb6fa5d8b05","26","Male"
"6","1128961","No","1","134","135","R1","66be028d536c5f123b0e156f","44","Male"
"7","1128962","No","0","0","0","R1","6124a4ba3df07e768bd9c90b","22","Male"
"8","1128963","No","0","0","0","R1","61691fa01c2849c2c168753e","26","Female"
"9","1128981","No","0","1","1","R1","607a8e7efb2df390116207fa","23","Male"
"10","1129306","No","0","0","0","R1","66426a28be4750708ea0e591","77","Female"
"11","1130620","No","1","4","5","R1","660d6bee5d3ed2412017d418","26","Male"
"12","1131756","No","0","5","5","R1","6511e688100fd33b378fa688","21","Male"
"13","1133803","No","0","0","0","R1","587d4ed4e4404c0001c9d1b9","42","Male"
"14","1133804","No","0","0","0","R1","66227700b26cd7c01ca380af","52","Male"
"15","1133805","No","0","0","0","R1","61717173748006894b2b54ff","21","Male"
"16","1133806","No","0","0","0","R1","63d05dfdf2faf2f6c3910784","31","Female"
"17","1133807","No","1","2","3","R1","666d92377e3607bbf08ce90f","24","Male"
"18","1134053","No","0","0","0","R1","66842e27db5502074ad7cb0a","24","Male"
"19","1134054","No","0","11","11","R1","5c48be0496d59b000183e68d","47","Male"
"20","1134055","No","0","0","0","R1","60410999fb894b08f5b08061","31","Male"
"21","1134057","No","1","19","20","R1","6638e801816da06f1cecaa3a","29","Male"
"22","1134110","No","1","7","8","R1","66c5d9618c0b42026ca508a4","35","Male"
"23","1134841","No","0","5","5","R1","6150dc583977d6a9c20da620","25","Female"
"24","1134842","No","0","6","6","R1","606e25a44f91ae062662e014","23","Male"
"25","1134845","No","0","0","0","R1","65d62588a69b90e7c1ce9bf5","22","Female"
"26","1134847","No","0","27","27","R1","614b55e22ff3944a165736bb","22","Female"
"27","1134860","No","1","8","9","R1","66a4e921f2cf006d6e8c9faa","0","Male"
"28","1140279","No","0","0","0","G2","66cce225a816890db4a5735a","22","Male"
"29","1140280","No","0","11","11","G2","60315645c8c7420a2f1ade9c","37","Male"
"30","1140281","No","0","4","4","G2","6166e283ad10722d3fb0f62c","24","Male"
"31","1140282","No","1","1","2","G2","5de905ba6f1d17000a6cf72a","30","Male"
"32","1141330","No","0","3","3","G2","666db47c26bc80222f8b15ba","41","Male"
"33","1141373","No","0","0","0","G2","6634e4d4f1950b4dcd44d4d9","21","Male"
"34","1141513","No","0","0","0","G2","657214e072730da7c05da41b","19","Male"
"35","1141527","No","0","1","1","G2","651c59ec0cb6fef4208190f5","22","Male"
"36","1141535","No","1","3","4","G2","65257c1a7780ceee7f6ef9bd","23","Male"
"37","1142274","No","1","1","2","G2","651b075a8bfaebfd2f74e195","41","Female"
"38","1142424","No","0","0","0","G2","5d7d0cc0e32539001a174642","24","Male"
"39","1142554","No","0","1","1","G2","60ddfb3db6a71ad9ba75e387","22","Male"
"40","1142560","No","0","18","18","G2","65fade256d70be4d6ea4ecaa","25","Female"
"41","1142599","No","0","19","19","G2","664b46dfb51d89a53d3f215a","27","Male"
"42","1142819","No","0","1","1","G2","6070f7d0c52057db9d9a9dd9","24","Female"
"43","1142820","No","0","0","0","G2","60a0b744298c64d46b63e893","59","Female"
"44","1142822","No","0","0","0","G2","614de6895ac2892842f52ec7","44","Male"
"45","1142831","No","0","0","0","G2","6172a1d4cffa5162140cc8c2","26","Female"
"46","1142861","No","0","10","10","G2","60ef2e52a188d9859f92bb58","28","Male"
"47","1143034","No","0","2","2","G2","5a6e8532e6cc4a0001b6d728","34","Female"
"48","1143035","No","1","0","1","G2","60aad516e34718d318bfb44d","30","Female"
"49","1143036","No","0","1","1","G2","5ddf074601fadfe804d466a2","41","Female"
"50","1143038","No","0","0","0","G2","58d3bc1642648b0001f21ca4","31","Male"
"51","1143083","No","0","3","3","G2","66bf9b656ace0e05a0f8ea8b","35","Male"
"52","1144021","No","0","3","3","G1","61301fcb49db2f170cb02b93","26","Male"
"53","1144074","No","0","0","0","G1","545d347afdf99b7f9fca22c7","34","Male"
"54","1144081","No","1","9","10","G1","6661b7808dd1cb864550c052","22","Female"
"55","1144222","No","0","3","3","G1","66c64d1c143d20ed4b9812f9","29","Male"
"56","1144224","No","0","2","2","G1","668a929a0b1af4158ed5f301","20","Male"
"57","1144226","No","1","37","38","G1","66d99cd2d21ab67cc5e446d0","29","Male"
"58","1144229","No","0","1","1","G1","66cb72998d3a6ce089cea00b","48","Male"
"59","1144265","No","0","2","2","G1","6511f1f1490c9df9f8c7890e","24","Male"
"60","1147968","No","0","1","1","G1","6140ef8d27499e70e8740918","23","Female"
"61","1147969","No","3","24","27","G1","65aa3779709984f97eb7ea32","35","Female"
"62","1147970","No","0","1","1","G1","60fd34f73733790ac7088cff","27","Non-binary/third gender"
"63","1147971","No","0","3","3","G1","601951245f481e000980504f","26","Female"
"64","1147972","No","0","2","2","G1","655652e4d1acd4df9b343078","25","Male"
"65","1148088","No","0","7","7","G1","5ec79cbd44972a1fceed2719","64","Male"
"66","1148089","No","0","29","29","G1","5dd25456cc192027096069bb","26","Female"
"67","1148090","No","0","0","0","G1","667034ee17a62a216f169b12","35","Non-binary/third gender"
"68","1148091","No","0","1","1","G1","56a8a9e47f2472000d937820","36","Male"
"69","1148092","No","0","1","1","G1","66a502272f546f0bf6174944","24","Male"
"70","1149666","No","0","1","1","G1","664b3dbcb30dd9b94a597726","24","Male"
"71","1149667","No","0","45","45","G1","6161bdbff67e4b4621b530e7","66","Female"
"72","1149668","No","0","2","2","G1","66c0e527746d984d9bff5f3f","32","Male"
"73","1149669","No","0","0","0","G1","60bf28df4926a8b6391df575","22","Male"
"74","1149670","No","0","3","3","G1","661b94faac9c89cd36866f56","26","Male"
"75","1215321","No","0","0","0","R2","66573389a0c8468204a088cc","23","Male"
"76","1215842","No","0","1","1","R2","664b3ea5896bf020d4a4dba5","20","Male"
"77","1216087","No","2","22","24","R2","673b694b8d15e20276e3ce1a","32","Male"
"78","1216089","No","0","0","0","R2","5f0ae2ee66001b3ca1202926","32","Female"
"79","1216092","No","1","15","16","R2","6745fc45b0948503ebe2645d","25","Female"
"80","1216797","No","0","0","0","R2","60b6245e249c0b94ab54dd2e","30","Female"
"81","1217183","No","1","1","2","R2","671e53b7fdce7eeb9ebdcd69","26","Male"
"82","1217184","No","0","3","3","R2","603a293ee62ae15da2674441","22","Male"
"83","1217185","No","0","0","0","R2","6614daf007670261189c3e8a","37","Female"
"84","1217243","No","0","0","0","R2","5faeb56b25a37f01d47d326c","18","Male"
"85","1217720","No","0","0","0","R2","674dc32400f538862eb27f89","30","Male"
"86","1217721","No","0","1","1","R2","5f086edf1a4e890792a6c0b0","53","Non-binary/third gender"
"87","1217724","No","0","1","1","R2","66027ecb57ff798269b84a2a","26","Male"
"88","1217730","No","0","2","2","R2","6713ff833df413a8e1d83bf8","23","Male"
"89","1217731","No","0","2","2","R2","6731b9370d1b6f7ca55e0959","52","Male"
"90","1218502","No","0","0","0","R2","6693ad02e4dd0cfa3a193d75","39","Female"
"91","1218503","No","0","0","0","R2","67270215b5ff7147c67afb89","23","Male"
"92","1218504","No","0","2","2","R2","66cddbbd0e5ae728cba8aed4","21","Male"
"93","1218505","No","0","0","0","R2","661564c766603e80ca4c3184","48","Male"
"94","1218507","No","0","1","1","R2","66db184764f3cc95113637b9","32","Male"
"95","1218765","No","0","0","0","R2","661690a2544d7c542afaa209","53","Female"
"96","1218766","No","0","0","0","R2","5fe3932b8d3c668577f04f13","22","Female"
"97","1218767","No","0","0","0","R2","66156b2dc0794709cb34b38b","34","Male"
"98","1218768","No","0","0","0","R2","6753477efa79816b49fe56fd","21","Male"
"99","1218769","No","0","5","5","R2","671ea8aa6fe43d49c85d039f","21","Male"
"100","1219744","No","0","0","0","R1","6672ee650699d871b742ca6b","24","Male"
"101","1219915","No","0","0","0","G2","5fdf808af53c7a7e9199b430","25","Male"
"102","1219916","No","2","52","54","G2","60e7218db2691424068d718c","32","Female"
"103","1219917","Yes","5","58","63","G2","5f78e7a0d14cd84e060fde57","39","Female"
"104","1220181","No","0","0","0","G1","64401708880c30ec28b9aef4","27","Male"
"105","1220182","No","0","0","0","G1","669f4d0531a6e90c5f0e355c","30","Male"
"106","1220183","No","1","3","4","G1","5d4dd58bbd127b0019c6d59b","32","Female"
"107","1220184","No","0","6","6","G1","611e2078cadc8161a119af67","26","Female"
"108","1220255","Yes","0","6","6","R2","5f5eec89adff681a180f6aa4","29","Female"
"109","1220256","No","0","2","2","R2","609fba4900794b6d944da77e","25","Male"
"110","1220281","No","0","27","27","G2","60561bed5ea5ad8dbe3fae07","23","Male"
"111","1220367","No","0","0","0","G1","5c437f6a4fe4f800016e3d52","25","Male"
"112","1220495","No","0","0","0","R2","671b23ad48265220d2591cb6","27","Male"
"113","1220500","No","0","0","0","R2","65ba64c07847d4c34ec00de1","47","Female"
