Targ,TargPos,ColourScheme,StimPosName,DisColHex,TrialType,RewMagWin,RewMagLose,TrialNum,Group,TrialStart,trial_fix1,trial_fix2,Stim1,Stim2,Stim3,Stim4,Stim5,Stim6,Stim7,Stim8,Stim9,Stim10,Stim11,Stim12,Stim13,Stim14,Stim15,Stim16,Stim17,Stim18,Stim19,Stim20,PreISI1,PreISI2,ISI,Fdbck,Fdbck_Slow,Break,DistractType,DistracLoc,DisPosName,TargColHex
J,7,green,Stim7,#BEFC7F,RTS,10,0,1,G1,Disallowed,Disallowed,Disallowed,Disallowed,Disallowed,Disallowed,Disallowed,Disallowed,Disallowed,Allowed,Allowed,Allowed,Allowed,Allowed,Allowed,Allowed,Allowed,Allowed,Allowed,Allowed,Allowed,Allowed,Allowed,Allowed,Allowed,Allowed,Disallowed,Disallowed,Disallowed,Lag1,6,Stim6,#FCFC7F
K,8,green,Stim8,#BEFC7F,RTS,10,0,2,G1,Disallowed,Disallowed,Disallowed,Disallowed,Disallowed,Disallowed,Disallowed,Disallowed,Disallowed,Disallowed,Allowed,Allowed,Allowed,Allowed,Allowed,Allowed,Allowed,Allowed,Allowed,Allowed,Allowed,Allowed,Allowed,Allowed,Allowed,Allowed,Disallowed,Disallowed,Disallowed,Lag1,7,Stim7,#FCFC7F
J,9,green,Stim9,#BEFC7F,RTS,10,0,3,G1,Disallowed,Disallowed,Disallowed,Disallowed,Disallowed,Disallowed,Disallowed,Disallowed,Disallowed,Disallowed,Disallowed,Allowed,Allowed,Allowed,Allowed,Allowed,Allowed,Allowed,Allowed,Allowed,Allowed,Allowed,Allowed,Allowed,Allowed,Allowed,Disallowed,Disallowed,Disallowed,Lag1,8,Stim8,#FCFC7F
K,10,green,Stim10,#BEFC7F,RTS,10,0,4,G1,Disallowed,Disallowed,Disallowed,Disallowed,Disallowed,Disallowed,Disallowed,Disallowed,Disallowed,Disallowed,Disallowed,Disallowed,Allowed,Allowed,Allowed,Allowed,Allowed,Allowed,Allowed,Allowed,Allowed,Allowed,Allowed,Allowed,Allowed,Allowed,Disallowed,Disallowed,Disallowed,Lag1,9,Stim9,#FCFC7F
J,11,green,Stim11,#BEFC7F,RTS,10,0,5,G1,Disallowed,Disallowed,Disallowed,Disallowed,Disallowed,Disallowed,Disallowed,Disallowed,Disallowed,Disallowed,Disallowed,Disallowed,Disallowed,Allowed,Allowed,Allowed,Allowed,Allowed,Allowed,Allowed,Allowed,Allowed,Allowed,Allowed,Allowed,Allowed,Disallowed,Disallowed,Disallowed,Lag1,10,Stim10,#FCFC7F
K,12,green,Stim12,#BEFC7F,RTS,10,0,6,G1,Disallowed,Disallowed,Disallowed,Disallowed,Disallowed,Disallowed,Disallowed,Disallowed,Disallowed,Disallowed,Disallowed,Disallowed,Disallowed,Disallowed,Allowed,Allowed,Allowed,Allowed,Allowed,Allowed,Allowed,Allowed,Allowed,Allowed,Allowed,Allowed,Disallowed,Disallowed,Disallowed,Lag1,11,Stim11,#FCFC7F
J,13,green,Stim13,#BEFC7F,RTS,10,0,7,G1,Disallowed,Disallowed,Disallowed,Disallowed,Disallowed,Disallowed,Disallowed,Disallowed,Disallowed,Disallowed,Disallowed,Disallowed,Disallowed,Disallowed,Disallowed,Allowed,Allowed,Allowed,Allowed,Allowed,Allowed,Allowed,Allowed,Allowed,Allowed,Allowed,Disallowed,Disallowed,Disallowed,Lag1,12,Stim12,#FCFC7F
K,14,green,Stim14,#BEFC7F,RTS,10,0,8,G1,Disallowed,Disallowed,Disallowed,Disallowed,Disallowed,Disallowed,Disallowed,Disallowed,Disallowed,Disallowed,Disallowed,Disallowed,Disallowed,Disallowed,Disallowed,Disallowed,Allowed,Allowed,Allowed,Allowed,Allowed,Allowed,Allowed,Allowed,Allowed,Allowed,Disallowed,Disallowed,Disallowed,Lag1,13,Stim13,#FCFC7F
J,15,green,Stim15,#BEFC7F,RTS,10,0,9,G1,Disallowed,Disallowed,Disallowed,Disallowed,Disallowed,Disallowed,Disallowed,Disallowed,Disallowed,Disallowed,Disallowed,Disallowed,Disallowed,Disallowed,Disallowed,Disallowed,Disallowed,Allowed,Allowed,Allowed,Allowed,Allowed,Allowed,Allowed,Allowed,Allowed,Disallowed,Disallowed,Disallowed,Lag1,14,Stim14,#FCFC7F
K,7,green,Stim7,#BEFC7F,UTS,0,0,10,G1,Disallowed,Disallowed,Disallowed,Disallowed,Disallowed,Disallowed,Disallowed,Disallowed,Disallowed,Allowed,Allowed,Allowed,Allowed,Allowed,Allowed,Allowed,Allowed,Allowed,Allowed,Allowed,Allowed,Allowed,Allowed,Allowed,Allowed,Allowed,Disallowed,Disallowed,Disallowed,Lag1,6,Stim6,#80FC7F
J,8,green,Stim8,#BEFC7F,UTS,0,0,11,G1,Disallowed,Disallowed,Disallowed,Disallowed,Disallowed,Disallowed,Disallowed,Disallowed,Disallowed,Disallowed,Allowed,Allowed,Allowed,Allowed,Allowed,Allowed,Allowed,Allowed,Allowed,Allowed,Allowed,Allowed,Allowed,Allowed,Allowed,Allowed,Disallowed,Disallowed,Disallowed,Lag1,7,Stim7,#80FC7F
K,9,green,Stim9,#BEFC7F,UTS,0,0,12,G1,Disallowed,Disallowed,Disallowed,Disallowed,Disallowed,Disallowed,Disallowed,Disallowed,Disallowed,Disallowed,Disallowed,Allowed,Allowed,Allowed,Allowed,Allowed,Allowed,Allowed,Allowed,Allowed,Allowed,Allowed,Allowed,Allowed,Allowed,Allowed,Disallowed,Disallowed,Disallowed,Lag1,8,Stim8,#80FC7F
J,10,green,Stim10,#BEFC7F,UTS,0,0,13,G1,Disallowed,Disallowed,Disallowed,Disallowed,Disallowed,Disallowed,Disallowed,Disallowed,Disallowed,Disallowed,Disallowed,Disallowed,Allowed,Allowed,Allowed,Allowed,Allowed,Allowed,Allowed,Allowed,Allowed,Allowed,Allowed,Allowed,Allowed,Allowed,Disallowed,Disallowed,Disallowed,Lag1,9,Stim9,#80FC7F
K,11,green,Stim11,#BEFC7F,UTS,0,0,14,G1,Disallowed,Disallowed,Disallowed,Disallowed,Disallowed,Disallowed,Disallowed,Disallowed,Disallowed,Disallowed,Disallowed,Disallowed,Disallowed,Allowed,Allowed,Allowed,Allowed,Allowed,Allowed,Allowed,Allowed,Allowed,Allowed,Allowed,Allowed,Allowed,Disallowed,Disallowed,Disallowed,Lag1,10,Stim10,#80FC7F
J,12,green,Stim12,#BEFC7F,UTS,0,0,15,G1,Disallowed,Disallowed,Disallowed,Disallowed,Disallowed,Disallowed,Disallowed,Disallowed,Disallowed,Disallowed,Disallowed,Disallowed,Disallowed,Disallowed,Allowed,Allowed,Allowed,Allowed,Allowed,Allowed,Allowed,Allowed,Allowed,Allowed,Allowed,Allowed,Disallowed,Disallowed,Disallowed,Lag1,11,Stim11,#80FC7F
K,13,green,Stim13,#BEFC7F,UTS,0,0,16,G1,Disallowed,Disallowed,Disallowed,Disallowed,Disallowed,Disallowed,Disallowed,Disallowed,Disallowed,Disallowed,Disallowed,Disallowed,Disallowed,Disallowed,Disallowed,Allowed,Allowed,Allowed,Allowed,Allowed,Allowed,Allowed,Allowed,Allowed,Allowed,Allowed,Disallowed,Disallowed,Disallowed,Lag1,12,Stim12,#80FC7F
J,14,green,Stim14,#BEFC7F,UTS,0,0,17,G1,Disallowed,Disallowed,Disallowed,Disallowed,Disallowed,Disallowed,Disallowed,Disallowed,Disallowed,Disallowed,Disallowed,Disallowed,Disallowed,Disallowed,Disallowed,Disallowed,Allowed,Allowed,Allowed,Allowed,Allowed,Allowed,Allowed,Allowed,Allowed,Allowed,Disallowed,Disallowed,Disallowed,Lag1,13,Stim13,#80FC7F
K,15,green,Stim15,#BEFC7F,UTS,0,0,18,G1,Disallowed,Disallowed,Disallowed,Disallowed,Disallowed,Disallowed,Disallowed,Disallowed,Disallowed,Disallowed,Disallowed,Disallowed,Disallowed,Disallowed,Disallowed,Disallowed,Disallowed,Allowed,Allowed,Allowed,Allowed,Allowed,Allowed,Allowed,Allowed,Allowed,Disallowed,Disallowed,Disallowed,Lag1,14,Stim14,#80FC7F
J,7,green,Stim7,#BEFC7F,DAR,10,0,19,G1,Disallowed,Disallowed,Disallowed,Disallowed,Disallowed,Disallowed,Disallowed,Disallowed,Disallowed,Allowed,Allowed,Allowed,Allowed,Allowed,Allowed,Allowed,Allowed,Allowed,Allowed,Allowed,Allowed,Allowed,Allowed,Allowed,Allowed,Allowed,Disallowed,Disallowed,Disallowed,Lag1,6,Stim6,#FCFC7F
K,8,green,Stim8,#BEFC7F,DAR,10,0,20,G1,Disallowed,Disallowed,Disallowed,Disallowed,Disallowed,Disallowed,Disallowed,Disallowed,Disallowed,Disallowed,Allowed,Allowed,Allowed,Allowed,Allowed,Allowed,Allowed,Allowed,Allowed,Allowed,Allowed,Allowed,Allowed,Allowed,Allowed,Allowed,Disallowed,Disallowed,Disallowed,Lag1,7,Stim7,#FCFC7F
J,9,green,Stim9,#BEFC7F,DAR,10,0,21,G1,Disallowed,Disallowed,Disallowed,Disallowed,Disallowed,Disallowed,Disallowed,Disallowed,Disallowed,Disallowed,Disallowed,Allowed,Allowed,Allowed,Allowed,Allowed,Allowed,Allowed,Allowed,Allowed,Allowed,Allowed,Allowed,Allowed,Allowed,Allowed,Disallowed,Disallowed,Disallowed,Lag1,8,Stim8,#FCFC7F
K,10,green,Stim10,#BEFC7F,DAR,10,0,22,G1,Disallowed,Disallowed,Disallowed,Disallowed,Disallowed,Disallowed,Disallowed,Disallowed,Disallowed,Disallowed,Disallowed,Disallowed,Allowed,Allowed,Allowed,Allowed,Allowed,Allowed,Allowed,Allowed,Allowed,Allowed,Allowed,Allowed,Allowed,Allowed,Disallowed,Disallowed,Disallowed,Lag1,9,Stim9,#FCFC7F
J,11,green,Stim11,#BEFC7F,DAR,10,0,23,G1,Disallowed,Disallowed,Disallowed,Disallowed,Disallowed,Disallowed,Disallowed,Disallowed,Disallowed,Disallowed,Disallowed,Disallowed,Disallowed,Allowed,Allowed,Allowed,Allowed,Allowed,Allowed,Allowed,Allowed,Allowed,Allowed,Allowed,Allowed,Allowed,Disallowed,Disallowed,Disallowed,Lag1,10,Stim10,#FCFC7F
K,12,green,Stim12,#BEFC7F,DAR,10,0,24,G1,Disallowed,Disallowed,Disallowed,Disallowed,Disallowed,Disallowed,Disallowed,Disallowed,Disallowed,Disallowed,Disallowed,Disallowed,Disallowed,Disallowed,Allowed,Allowed,Allowed,Allowed,Allowed,Allowed,Allowed,Allowed,Allowed,Allowed,Allowed,Allowed,Disallowed,Disallowed,Disallowed,Lag1,11,Stim11,#FCFC7F
J,13,green,Stim13,#BEFC7F,DAR,10,0,25,G1,Disallowed,Disallowed,Disallowed,Disallowed,Disallowed,Disallowed,Disallowed,Disallowed,Disallowed,Disallowed,Disallowed,Disallowed,Disallowed,Disallowed,Disallowed,Allowed,Allowed,Allowed,Allowed,Allowed,Allowed,Allowed,Allowed,Allowed,Allowed,Allowed,Disallowed,Disallowed,Disallowed,Lag1,12,Stim12,#FCFC7F
K,14,green,Stim14,#BEFC7F,DAR,10,0,26,G1,Disallowed,Disallowed,Disallowed,Disallowed,Disallowed,Disallowed,Disallowed,Disallowed,Disallowed,Disallowed,Disallowed,Disallowed,Disallowed,Disallowed,Disallowed,Disallowed,Allowed,Allowed,Allowed,Allowed,Allowed,Allowed,Allowed,Allowed,Allowed,Allowed,Disallowed,Disallowed,Disallowed,Lag1,13,Stim13,#FCFC7F
J,15,green,Stim15,#BEFC7F,DAR,10,0,27,G1,Disallowed,Disallowed,Disallowed,Disallowed,Disallowed,Disallowed,Disallowed,Disallowed,Disallowed,Disallowed,Disallowed,Disallowed,Disallowed,Disallowed,Disallowed,Disallowed,Disallowed,Allowed,Allowed,Allowed,Allowed,Allowed,Allowed,Allowed,Allowed,Allowed,Disallowed,Disallowed,Disallowed,Lag1,14,Stim14,#FCFC7F
K,7,green,Stim7,#BEFC7F,DAR,10,0,28,G1,Disallowed,Disallowed,Disallowed,Disallowed,Disallowed,Disallowed,Disallowed,Disallowed,Disallowed,Allowed,Allowed,Allowed,Allowed,Allowed,Allowed,Allowed,Allowed,Allowed,Allowed,Allowed,Allowed,Allowed,Allowed,Allowed,Allowed,Allowed,Disallowed,Disallowed,Disallowed,Lag1,6,Stim6,#FCFC7F
J,8,green,Stim8,#BEFC7F,DAR,10,0,29,G1,Disallowed,Disallowed,Disallowed,Disallowed,Disallowed,Disallowed,Disallowed,Disallowed,Disallowed,Disallowed,Allowed,Allowed,Allowed,Allowed,Allowed,Allowed,Allowed,Allowed,Allowed,Allowed,Allowed,Allowed,Allowed,Allowed,Allowed,Allowed,Disallowed,Disallowed,Disallowed,Lag1,7,Stim7,#FCFC7F
K,9,green,Stim9,#BEFC7F,DAR,10,0,30,G1,Disallowed,Disallowed,Disallowed,Disallowed,Disallowed,Disallowed,Disallowed,Disallowed,Disallowed,Disallowed,Disallowed,Allowed,Allowed,Allowed,Allowed,Allowed,Allowed,Allowed,Allowed,Allowed,Allowed,Allowed,Allowed,Allowed,Allowed,Allowed,Disallowed,Disallowed,Disallowed,Lag1,8,Stim8,#FCFC7F
J,10,green,Stim10,#BEFC7F,DAR,10,0,31,G1,Disallowed,Disallowed,Disallowed,Disallowed,Disallowed,Disallowed,Disallowed,Disallowed,Disallowed,Disallowed,Disallowed,Disallowed,Allowed,Allowed,Allowed,Allowed,Allowed,Allowed,Allowed,Allowed,Allowed,Allowed,Allowed,Allowed,Allowed,Allowed,Disallowed,Disallowed,Disallowed,Lag1,9,Stim9,#FCFC7F
K,11,green,Stim11,#BEFC7F,DAR,10,0,32,G1,Disallowed,Disallowed,Disallowed,Disallowed,Disallowed,Disallowed,Disallowed,Disallowed,Disallowed,Disallowed,Disallowed,Disallowed,Disallowed,Allowed,Allowed,Allowed,Allowed,Allowed,Allowed,Allowed,Allowed,Allowed,Allowed,Allowed,Allowed,Allowed,Disallowed,Disallowed,Disallowed,Lag1,10,Stim10,#FCFC7F
J,12,green,Stim12,#BEFC7F,DAR,10,0,33,G1,Disallowed,Disallowed,Disallowed,Disallowed,Disallowed,Disallowed,Disallowed,Disallowed,Disallowed,Disallowed,Disallowed,Disallowed,Disallowed,Disallowed,Allowed,Allowed,Allowed,Allowed,Allowed,Allowed,Allowed,Allowed,Allowed,Allowed,Allowed,Allowed,Disallowed,Disallowed,Disallowed,Lag1,11,Stim11,#FCFC7F
K,13,green,Stim13,#BEFC7F,DAR,10,0,34,G1,Disallowed,Disallowed,Disallowed,Disallowed,Disallowed,Disallowed,Disallowed,Disallowed,Disallowed,Disallowed,Disallowed,Disallowed,Disallowed,Disallowed,Disallowed,Allowed,Allowed,Allowed,Allowed,Allowed,Allowed,Allowed,Allowed,Allowed,Allowed,Allowed,Disallowed,Disallowed,Disallowed,Lag1,12,Stim12,#FCFC7F
J,14,green,Stim14,#BEFC7F,DAR,10,0,35,G1,Disallowed,Disallowed,Disallowed,Disallowed,Disallowed,Disallowed,Disallowed,Disallowed,Disallowed,Disallowed,Disallowed,Disallowed,Disallowed,Disallowed,Disallowed,Disallowed,Allowed,Allowed,Allowed,Allowed,Allowed,Allowed,Allowed,Allowed,Allowed,Allowed,Disallowed,Disallowed,Disallowed,Lag1,13,Stim13,#FCFC7F
K,15,green,Stim15,#BEFC7F,DAR,10,0,36,G1,Disallowed,Disallowed,Disallowed,Disallowed,Disallowed,Disallowed,Disallowed,Disallowed,Disallowed,Disallowed,Disallowed,Disallowed,Disallowed,Disallowed,Disallowed,Disallowed,Disallowed,Allowed,Allowed,Allowed,Allowed,Allowed,Allowed,Allowed,Allowed,Allowed,Disallowed,Disallowed,Disallowed,Lag1,14,Stim14,#FCFC7F
J,7,green,Stim7,#BEFC7F,DAR,10,0,37,G1,Disallowed,Disallowed,Disallowed,Disallowed,Disallowed,Disallowed,Disallowed,Disallowed,Disallowed,Allowed,Allowed,Allowed,Allowed,Allowed,Allowed,Allowed,Allowed,Allowed,Allowed,Allowed,Allowed,Allowed,Allowed,Allowed,Allowed,Allowed,Disallowed,Disallowed,Disallowed,Lag1,6,Stim6,#FCFC7F
K,8,green,Stim8,#BEFC7F,DAR,10,0,38,G1,Disallowed,Disallowed,Disallowed,Disallowed,Disallowed,Disallowed,Disallowed,Disallowed,Disallowed,Disallowed,Allowed,Allowed,Allowed,Allowed,Allowed,Allowed,Allowed,Allowed,Allowed,Allowed,Allowed,Allowed,Allowed,Allowed,Allowed,Allowed,Disallowed,Disallowed,Disallowed,Lag1,7,Stim7,#FCFC7F
J,9,green,Stim9,#BEFC7F,DAR,10,0,39,G1,Disallowed,Disallowed,Disallowed,Disallowed,Disallowed,Disallowed,Disallowed,Disallowed,Disallowed,Disallowed,Disallowed,Allowed,Allowed,Allowed,Allowed,Allowed,Allowed,Allowed,Allowed,Allowed,Allowed,Allowed,Allowed,Allowed,Allowed,Allowed,Disallowed,Disallowed,Disallowed,Lag1,8,Stim8,#FCFC7F
K,10,green,Stim10,#BEFC7F,DAR,10,0,40,G1,Disallowed,Disallowed,Disallowed,Disallowed,Disallowed,Disallowed,Disallowed,Disallowed,Disallowed,Disallowed,Disallowed,Disallowed,Allowed,Allowed,Allowed,Allowed,Allowed,Allowed,Allowed,Allowed,Allowed,Allowed,Allowed,Allowed,Allowed,Allowed,Disallowed,Disallowed,Disallowed,Lag1,9,Stim9,#FCFC7F
J,11,green,Stim11,#BEFC7F,DAR,10,0,41,G1,Disallowed,Disallowed,Disallowed,Disallowed,Disallowed,Disallowed,Disallowed,Disallowed,Disallowed,Disallowed,Disallowed,Disallowed,Disallowed,Allowed,Allowed,Allowed,Allowed,Allowed,Allowed,Allowed,Allowed,Allowed,Allowed,Allowed,Allowed,Allowed,Disallowed,Disallowed,Disallowed,Lag1,10,Stim10,#FCFC7F
K,12,green,Stim12,#BEFC7F,DAR,10,0,42,G1,Disallowed,Disallowed,Disallowed,Disallowed,Disallowed,Disallowed,Disallowed,Disallowed,Disallowed,Disallowed,Disallowed,Disallowed,Disallowed,Disallowed,Allowed,Allowed,Allowed,Allowed,Allowed,Allowed,Allowed,Allowed,Allowed,Allowed,Allowed,Allowed,Disallowed,Disallowed,Disallowed,Lag1,11,Stim11,#FCFC7F
J,13,green,Stim13,#BEFC7F,DAR,10,0,43,G1,Disallowed,Disallowed,Disallowed,Disallowed,Disallowed,Disallowed,Disallowed,Disallowed,Disallowed,Disallowed,Disallowed,Disallowed,Disallowed,Disallowed,Disallowed,Allowed,Allowed,Allowed,Allowed,Allowed,Allowed,Allowed,Allowed,Allowed,Allowed,Allowed,Disallowed,Disallowed,Disallowed,Lag1,12,Stim12,#FCFC7F
K,14,green,Stim14,#BEFC7F,DAR,10,0,44,G1,Disallowed,Disallowed,Disallowed,Disallowed,Disallowed,Disallowed,Disallowed,Disallowed,Disallowed,Disallowed,Disallowed,Disallowed,Disallowed,Disallowed,Disallowed,Disallowed,Allowed,Allowed,Allowed,Allowed,Allowed,Allowed,Allowed,Allowed,Allowed,Allowed,Disallowed,Disallowed,Disallowed,Lag1,13,Stim13,#FCFC7F
J,15,green,Stim15,#BEFC7F,DAR,10,0,45,G1,Disallowed,Disallowed,Disallowed,Disallowed,Disallowed,Disallowed,Disallowed,Disallowed,Disallowed,Disallowed,Disallowed,Disallowed,Disallowed,Disallowed,Disallowed,Disallowed,Disallowed,Allowed,Allowed,Allowed,Allowed,Allowed,Allowed,Allowed,Allowed,Allowed,Disallowed,Disallowed,Disallowed,Lag1,14,Stim14,#FCFC7F
K,7,green,Stim7,#BEFC7F,DAR,10,0,46,G1,Disallowed,Disallowed,Disallowed,Disallowed,Disallowed,Disallowed,Disallowed,Disallowed,Disallowed,Allowed,Allowed,Allowed,Allowed,Allowed,Allowed,Allowed,Allowed,Allowed,Allowed,Allowed,Allowed,Allowed,Allowed,Allowed,Allowed,Allowed,Disallowed,Disallowed,Disallowed,Lag1,6,Stim6,#FCFC7F
J,8,green,Stim8,#BEFC7F,DAR,10,0,47,G1,Disallowed,Disallowed,Disallowed,Disallowed,Disallowed,Disallowed,Disallowed,Disallowed,Disallowed,Disallowed,Allowed,Allowed,Allowed,Allowed,Allowed,Allowed,Allowed,Allowed,Allowed,Allowed,Allowed,Allowed,Allowed,Allowed,Allowed,Allowed,Disallowed,Disallowed,Disallowed,Lag1,7,Stim7,#FCFC7F
K,9,green,Stim9,#BEFC7F,DAR,10,0,48,G1,Disallowed,Disallowed,Disallowed,Disallowed,Disallowed,Disallowed,Disallowed,Disallowed,Disallowed,Disallowed,Disallowed,Allowed,Allowed,Allowed,Allowed,Allowed,Allowed,Allowed,Allowed,Allowed,Allowed,Allowed,Allowed,Allowed,Allowed,Allowed,Disallowed,Disallowed,Disallowed,Lag1,8,Stim8,#FCFC7F
J,10,green,Stim10,#BEFC7F,DAR,10,0,49,G1,Disallowed,Disallowed,Disallowed,Disallowed,Disallowed,Disallowed,Disallowed,Disallowed,Disallowed,Disallowed,Disallowed,Disallowed,Allowed,Allowed,Allowed,Allowed,Allowed,Allowed,Allowed,Allowed,Allowed,Allowed,Allowed,Allowed,Allowed,Allowed,Disallowed,Disallowed,Disallowed,Lag1,9,Stim9,#FCFC7F
K,11,green,Stim11,#BEFC7F,DAR,10,0,50,G1,Disallowed,Disallowed,Disallowed,Disallowed,Disallowed,Disallowed,Disallowed,Disallowed,Disallowed,Disallowed,Disallowed,Disallowed,Disallowed,Allowed,Allowed,Allowed,Allowed,Allowed,Allowed,Allowed,Allowed,Allowed,Allowed,Allowed,Allowed,Allowed,Disallowed,Disallowed,Disallowed,Lag1,10,Stim10,#FCFC7F
J,12,green,Stim12,#BEFC7F,DAR,10,0,51,G1,Disallowed,Disallowed,Disallowed,Disallowed,Disallowed,Disallowed,Disallowed,Disallowed,Disallowed,Disallowed,Disallowed,Disallowed,Disallowed,Disallowed,Allowed,Allowed,Allowed,Allowed,Allowed,Allowed,Allowed,Allowed,Allowed,Allowed,Allowed,Allowed,Disallowed,Disallowed,Disallowed,Lag1,11,Stim11,#FCFC7F
K,13,green,Stim13,#BEFC7F,DAR,10,0,52,G1,Disallowed,Disallowed,Disallowed,Disallowed,Disallowed,Disallowed,Disallowed,Disallowed,Disallowed,Disallowed,Disallowed,Disallowed,Disallowed,Disallowed,Disallowed,Allowed,Allowed,Allowed,Allowed,Allowed,Allowed,Allowed,Allowed,Allowed,Allowed,Allowed,Disallowed,Disallowed,Disallowed,Lag1,12,Stim12,#FCFC7F
J,14,green,Stim14,#BEFC7F,DAR,10,0,53,G1,Disallowed,Disallowed,Disallowed,Disallowed,Disallowed,Disallowed,Disallowed,Disallowed,Disallowed,Disallowed,Disallowed,Disallowed,Disallowed,Disallowed,Disallowed,Disallowed,Allowed,Allowed,Allowed,Allowed,Allowed,Allowed,Allowed,Allowed,Allowed,Allowed,Disallowed,Disallowed,Disallowed,Lag1,13,Stim13,#FCFC7F
K,15,green,Stim15,#BEFC7F,DAR,10,0,54,G1,Disallowed,Disallowed,Disallowed,Disallowed,Disallowed,Disallowed,Disallowed,Disallowed,Disallowed,Disallowed,Disallowed,Disallowed,Disallowed,Disallowed,Disallowed,Disallowed,Disallowed,Allowed,Allowed,Allowed,Allowed,Allowed,Allowed,Allowed,Allowed,Allowed,Disallowed,Disallowed,Disallowed,Lag1,14,Stim14,#FCFC7F
J,7,green,Stim7,#BEFC7F,DAR,10,0,55,G1,Disallowed,Disallowed,Disallowed,Disallowed,Disallowed,Disallowed,Disallowed,Disallowed,Disallowed,Allowed,Allowed,Allowed,Allowed,Allowed,Allowed,Allowed,Allowed,Allowed,Allowed,Allowed,Allowed,Allowed,Allowed,Allowed,Allowed,Allowed,Disallowed,Disallowed,Disallowed,Lag1,6,Stim6,#FCFC7F
K,8,green,Stim8,#BEFC7F,DAR,10,0,56,G1,Disallowed,Disallowed,Disallowed,Disallowed,Disallowed,Disallowed,Disallowed,Disallowed,Disallowed,Disallowed,Allowed,Allowed,Allowed,Allowed,Allowed,Allowed,Allowed,Allowed,Allowed,Allowed,Allowed,Allowed,Allowed,Allowed,Allowed,Allowed,Disallowed,Disallowed,Disallowed,Lag1,7,Stim7,#FCFC7F
J,9,green,Stim9,#BEFC7F,DAR,10,0,57,G1,Disallowed,Disallowed,Disallowed,Disallowed,Disallowed,Disallowed,Disallowed,Disallowed,Disallowed,Disallowed,Disallowed,Allowed,Allowed,Allowed,Allowed,Allowed,Allowed,Allowed,Allowed,Allowed,Allowed,Allowed,Allowed,Allowed,Allowed,Allowed,Disallowed,Disallowed,Disallowed,Lag1,8,Stim8,#FCFC7F
K,10,green,Stim10,#BEFC7F,DAR,10,0,58,G1,Disallowed,Disallowed,Disallowed,Disallowed,Disallowed,Disallowed,Disallowed,Disallowed,Disallowed,Disallowed,Disallowed,Disallowed,Allowed,Allowed,Allowed,Allowed,Allowed,Allowed,Allowed,Allowed,Allowed,Allowed,Allowed,Allowed,Allowed,Allowed,Disallowed,Disallowed,Disallowed,Lag1,9,Stim9,#FCFC7F
J,11,green,Stim11,#BEFC7F,DAR,10,0,59,G1,Disallowed,Disallowed,Disallowed,Disallowed,Disallowed,Disallowed,Disallowed,Disallowed,Disallowed,Disallowed,Disallowed,Disallowed,Disallowed,Allowed,Allowed,Allowed,Allowed,Allowed,Allowed,Allowed,Allowed,Allowed,Allowed,Allowed,Allowed,Allowed,Disallowed,Disallowed,Disallowed,Lag1,10,Stim10,#FCFC7F
K,12,green,Stim12,#BEFC7F,DAR,10,0,60,G1,Disallowed,Disallowed,Disallowed,Disallowed,Disallowed,Disallowed,Disallowed,Disallowed,Disallowed,Disallowed,Disallowed,Disallowed,Disallowed,Disallowed,Allowed,Allowed,Allowed,Allowed,Allowed,Allowed,Allowed,Allowed,Allowed,Allowed,Allowed,Allowed,Disallowed,Disallowed,Disallowed,Lag1,11,Stim11,#FCFC7F
J,13,green,Stim13,#BEFC7F,DAR,10,0,61,G1,Disallowed,Disallowed,Disallowed,Disallowed,Disallowed,Disallowed,Disallowed,Disallowed,Disallowed,Disallowed,Disallowed,Disallowed,Disallowed,Disallowed,Disallowed,Allowed,Allowed,Allowed,Allowed,Allowed,Allowed,Allowed,Allowed,Allowed,Allowed,Allowed,Disallowed,Disallowed,Disallowed,Lag1,12,Stim12,#FCFC7F
K,14,green,Stim14,#BEFC7F,DAR,10,0,62,G1,Disallowed,Disallowed,Disallowed,Disallowed,Disallowed,Disallowed,Disallowed,Disallowed,Disallowed,Disallowed,Disallowed,Disallowed,Disallowed,Disallowed,Disallowed,Disallowed,Allowed,Allowed,Allowed,Allowed,Allowed,Allowed,Allowed,Allowed,Allowed,Allowed,Disallowed,Disallowed,Disallowed,Lag1,13,Stim13,#FCFC7F
J,15,green,Stim15,#BEFC7F,DAR,10,0,63,G1,Disallowed,Disallowed,Disallowed,Disallowed,Disallowed,Disallowed,Disallowed,Disallowed,Disallowed,Disallowed,Disallowed,Disallowed,Disallowed,Disallowed,Disallowed,Disallowed,Disallowed,Allowed,Allowed,Allowed,Allowed,Allowed,Allowed,Allowed,Allowed,Allowed,Disallowed,Disallowed,Disallowed,Lag1,14,Stim14,#FCFC7F
K,7,green,Stim7,#BEFC7F,DAR,10,0,64,G1,Disallowed,Disallowed,Disallowed,Disallowed,Disallowed,Disallowed,Disallowed,Disallowed,Disallowed,Allowed,Allowed,Allowed,Allowed,Allowed,Allowed,Allowed,Allowed,Allowed,Allowed,Allowed,Allowed,Allowed,Allowed,Allowed,Allowed,Allowed,Disallowed,Disallowed,Disallowed,Lag1,6,Stim6,#FCFC7F
J,8,green,Stim8,#BEFC7F,DAR,10,0,65,G1,Disallowed,Disallowed,Disallowed,Disallowed,Disallowed,Disallowed,Disallowed,Disallowed,Disallowed,Disallowed,Allowed,Allowed,Allowed,Allowed,Allowed,Allowed,Allowed,Allowed,Allowed,Allowed,Allowed,Allowed,Allowed,Allowed,Allowed,Allowed,Disallowed,Disallowed,Disallowed,Lag1,7,Stim7,#FCFC7F
K,9,green,Stim9,#BEFC7F,DAR,10,0,66,G1,Disallowed,Disallowed,Disallowed,Disallowed,Disallowed,Disallowed,Disallowed,Disallowed,Disallowed,Disallowed,Disallowed,Allowed,Allowed,Allowed,Allowed,Allowed,Allowed,Allowed,Allowed,Allowed,Allowed,Allowed,Allowed,Allowed,Allowed,Allowed,Disallowed,Disallowed,Disallowed,Lag1,8,Stim8,#FCFC7F
J,10,green,Stim10,#BEFC7F,DAR,10,0,67,G1,Disallowed,Disallowed,Disallowed,Disallowed,Disallowed,Disallowed,Disallowed,Disallowed,Disallowed,Disallowed,Disallowed,Disallowed,Allowed,Allowed,Allowed,Allowed,Allowed,Allowed,Allowed,Allowed,Allowed,Allowed,Allowed,Allowed,Allowed,Allowed,Disallowed,Disallowed,Disallowed,Lag1,9,Stim9,#FCFC7F
K,11,green,Stim11,#BEFC7F,DAR,10,0,68,G1,Disallowed,Disallowed,Disallowed,Disallowed,Disallowed,Disallowed,Disallowed,Disallowed,Disallowed,Disallowed,Disallowed,Disallowed,Disallowed,Allowed,Allowed,Allowed,Allowed,Allowed,Allowed,Allowed,Allowed,Allowed,Allowed,Allowed,Allowed,Allowed,Disallowed,Disallowed,Disallowed,Lag1,10,Stim10,#FCFC7F
J,12,green,Stim12,#BEFC7F,DAR,10,0,69,G1,Disallowed,Disallowed,Disallowed,Disallowed,Disallowed,Disallowed,Disallowed,Disallowed,Disallowed,Disallowed,Disallowed,Disallowed,Disallowed,Disallowed,Allowed,Allowed,Allowed,Allowed,Allowed,Allowed,Allowed,Allowed,Allowed,Allowed,Allowed,Allowed,Disallowed,Disallowed,Disallowed,Lag1,11,Stim11,#FCFC7F
K,7,green,Stim7,#BEFC7F,DAU,0,0,70,G1,Disallowed,Disallowed,Disallowed,Disallowed,Disallowed,Disallowed,Disallowed,Disallowed,Disallowed,Allowed,Allowed,Allowed,Allowed,Allowed,Allowed,Allowed,Allowed,Allowed,Allowed,Allowed,Allowed,Allowed,Allowed,Allowed,Allowed,Allowed,Disallowed,Disallowed,Disallowed,Lag1,6,Stim6,#80FC7F
J,8,green,Stim8,#BEFC7F,DAU,0,0,71,G1,Disallowed,Disallowed,Disallowed,Disallowed,Disallowed,Disallowed,Disallowed,Disallowed,Disallowed,Disallowed,Allowed,Allowed,Allowed,Allowed,Allowed,Allowed,Allowed,Allowed,Allowed,Allowed,Allowed,Allowed,Allowed,Allowed,Allowed,Allowed,Disallowed,Disallowed,Disallowed,Lag1,7,Stim7,#80FC7F
K,9,green,Stim9,#BEFC7F,DAU,0,0,72,G1,Disallowed,Disallowed,Disallowed,Disallowed,Disallowed,Disallowed,Disallowed,Disallowed,Disallowed,Disallowed,Disallowed,Allowed,Allowed,Allowed,Allowed,Allowed,Allowed,Allowed,Allowed,Allowed,Allowed,Allowed,Allowed,Allowed,Allowed,Allowed,Disallowed,Disallowed,Disallowed,Lag1,8,Stim8,#80FC7F
J,10,green,Stim10,#BEFC7F,DAU,0,0,73,G1,Disallowed,Disallowed,Disallowed,Disallowed,Disallowed,Disallowed,Disallowed,Disallowed,Disallowed,Disallowed,Disallowed,Disallowed,Allowed,Allowed,Allowed,Allowed,Allowed,Allowed,Allowed,Allowed,Allowed,Allowed,Allowed,Allowed,Allowed,Allowed,Disallowed,Disallowed,Disallowed,Lag1,9,Stim9,#80FC7F
K,11,green,Stim11,#BEFC7F,DAU,0,0,74,G1,Disallowed,Disallowed,Disallowed,Disallowed,Disallowed,Disallowed,Disallowed,Disallowed,Disallowed,Disallowed,Disallowed,Disallowed,Disallowed,Allowed,Allowed,Allowed,Allowed,Allowed,Allowed,Allowed,Allowed,Allowed,Allowed,Allowed,Allowed,Allowed,Disallowed,Disallowed,Disallowed,Lag1,10,Stim10,#80FC7F
J,12,green,Stim12,#BEFC7F,DAU,0,0,75,G1,Disallowed,Disallowed,Disallowed,Disallowed,Disallowed,Disallowed,Disallowed,Disallowed,Disallowed,Disallowed,Disallowed,Disallowed,Disallowed,Disallowed,Allowed,Allowed,Allowed,Allowed,Allowed,Allowed,Allowed,Allowed,Allowed,Allowed,Allowed,Allowed,Disallowed,Disallowed,Disallowed,Lag1,11,Stim11,#80FC7F
K,13,green,Stim13,#BEFC7F,DAU,0,0,76,G1,Disallowed,Disallowed,Disallowed,Disallowed,Disallowed,Disallowed,Disallowed,Disallowed,Disallowed,Disallowed,Disallowed,Disallowed,Disallowed,Disallowed,Disallowed,Allowed,Allowed,Allowed,Allowed,Allowed,Allowed,Allowed,Allowed,Allowed,Allowed,Allowed,Disallowed,Disallowed,Disallowed,Lag1,12,Stim12,#80FC7F
J,14,green,Stim14,#BEFC7F,DAU,0,0,77,G1,Disallowed,Disallowed,Disallowed,Disallowed,Disallowed,Disallowed,Disallowed,Disallowed,Disallowed,Disallowed,Disallowed,Disallowed,Disallowed,Disallowed,Disallowed,Disallowed,Allowed,Allowed,Allowed,Allowed,Allowed,Allowed,Allowed,Allowed,Allowed,Allowed,Disallowed,Disallowed,Disallowed,Lag1,13,Stim13,#80FC7F
K,15,green,Stim15,#BEFC7F,DAU,0,0,78,G1,Disallowed,Disallowed,Disallowed,Disallowed,Disallowed,Disallowed,Disallowed,Disallowed,Disallowed,Disallowed,Disallowed,Disallowed,Disallowed,Disallowed,Disallowed,Disallowed,Disallowed,Allowed,Allowed,Allowed,Allowed,Allowed,Allowed,Allowed,Allowed,Allowed,Disallowed,Disallowed,Disallowed,Lag1,14,Stim14,#80FC7F
J,7,green,Stim7,#BEFC7F,DAU,0,0,79,G1,Disallowed,Disallowed,Disallowed,Disallowed,Disallowed,Disallowed,Disallowed,Disallowed,Disallowed,Allowed,Allowed,Allowed,Allowed,Allowed,Allowed,Allowed,Allowed,Allowed,Allowed,Allowed,Allowed,Allowed,Allowed,Allowed,Allowed,Allowed,Disallowed,Disallowed,Disallowed,Lag1,6,Stim6,#80FC7F
K,8,green,Stim8,#BEFC7F,DAU,0,0,80,G1,Disallowed,Disallowed,Disallowed,Disallowed,Disallowed,Disallowed,Disallowed,Disallowed,Disallowed,Disallowed,Allowed,Allowed,Allowed,Allowed,Allowed,Allowed,Allowed,Allowed,Allowed,Allowed,Allowed,Allowed,Allowed,Allowed,Allowed,Allowed,Disallowed,Disallowed,Disallowed,Lag1,7,Stim7,#80FC7F
J,9,green,Stim9,#BEFC7F,DAU,0,0,81,G1,Disallowed,Disallowed,Disallowed,Disallowed,Disallowed,Disallowed,Disallowed,Disallowed,Disallowed,Disallowed,Disallowed,Allowed,Allowed,Allowed,Allowed,Allowed,Allowed,Allowed,Allowed,Allowed,Allowed,Allowed,Allowed,Allowed,Allowed,Allowed,Disallowed,Disallowed,Disallowed,Lag1,8,Stim8,#80FC7F
K,10,green,Stim10,#BEFC7F,DAU,0,0,82,G1,Disallowed,Disallowed,Disallowed,Disallowed,Disallowed,Disallowed,Disallowed,Disallowed,Disallowed,Disallowed,Disallowed,Disallowed,Allowed,Allowed,Allowed,Allowed,Allowed,Allowed,Allowed,Allowed,Allowed,Allowed,Allowed,Allowed,Allowed,Allowed,Disallowed,Disallowed,Disallowed,Lag1,9,Stim9,#80FC7F
J,11,green,Stim11,#BEFC7F,DAU,0,0,83,G1,Disallowed,Disallowed,Disallowed,Disallowed,Disallowed,Disallowed,Disallowed,Disallowed,Disallowed,Disallowed,Disallowed,Disallowed,Disallowed,Allowed,Allowed,Allowed,Allowed,Allowed,Allowed,Allowed,Allowed,Allowed,Allowed,Allowed,Allowed,Allowed,Disallowed,Disallowed,Disallowed,Lag1,10,Stim10,#80FC7F
K,12,green,Stim12,#BEFC7F,DAU,0,0,84,G1,Disallowed,Disallowed,Disallowed,Disallowed,Disallowed,Disallowed,Disallowed,Disallowed,Disallowed,Disallowed,Disallowed,Disallowed,Disallowed,Disallowed,Allowed,Allowed,Allowed,Allowed,Allowed,Allowed,Allowed,Allowed,Allowed,Allowed,Allowed,Allowed,Disallowed,Disallowed,Disallowed,Lag1,11,Stim11,#80FC7F
J,13,green,Stim13,#BEFC7F,DAU,0,0,85,G1,Disallowed,Disallowed,Disallowed,Disallowed,Disallowed,Disallowed,Disallowed,Disallowed,Disallowed,Disallowed,Disallowed,Disallowed,Disallowed,Disallowed,Disallowed,Allowed,Allowed,Allowed,Allowed,Allowed,Allowed,Allowed,Allowed,Allowed,Allowed,Allowed,Disallowed,Disallowed,Disallowed,Lag1,12,Stim12,#80FC7F
K,14,green,Stim14,#BEFC7F,DAU,0,0,86,G1,Disallowed,Disallowed,Disallowed,Disallowed,Disallowed,Disallowed,Disallowed,Disallowed,Disallowed,Disallowed,Disallowed,Disallowed,Disallowed,Disallowed,Disallowed,Disallowed,Allowed,Allowed,Allowed,Allowed,Allowed,Allowed,Allowed,Allowed,Allowed,Allowed,Disallowed,Disallowed,Disallowed,Lag1,13,Stim13,#80FC7F
J,15,green,Stim15,#BEFC7F,DAU,0,0,87,G1,Disallowed,Disallowed,Disallowed,Disallowed,Disallowed,Disallowed,Disallowed,Disallowed,Disallowed,Disallowed,Disallowed,Disallowed,Disallowed,Disallowed,Disallowed,Disallowed,Disallowed,Allowed,Allowed,Allowed,Allowed,Allowed,Allowed,Allowed,Allowed,Allowed,Disallowed,Disallowed,Disallowed,Lag1,14,Stim14,#80FC7F
K,7,green,Stim7,#BEFC7F,DAU,0,0,88,G1,Disallowed,Disallowed,Disallowed,Disallowed,Disallowed,Disallowed,Disallowed,Disallowed,Disallowed,Allowed,Allowed,Allowed,Allowed,Allowed,Allowed,Allowed,Allowed,Allowed,Allowed,Allowed,Allowed,Allowed,Allowed,Allowed,Allowed,Allowed,Disallowed,Disallowed,Disallowed,Lag1,6,Stim6,#80FC7F
J,8,green,Stim8,#BEFC7F,DAU,0,0,89,G1,Disallowed,Disallowed,Disallowed,Disallowed,Disallowed,Disallowed,Disallowed,Disallowed,Disallowed,Disallowed,Allowed,Allowed,Allowed,Allowed,Allowed,Allowed,Allowed,Allowed,Allowed,Allowed,Allowed,Allowed,Allowed,Allowed,Allowed,Allowed,Disallowed,Disallowed,Disallowed,Lag1,7,Stim7,#80FC7F
K,9,green,Stim9,#BEFC7F,DAU,0,0,90,G1,Disallowed,Disallowed,Disallowed,Disallowed,Disallowed,Disallowed,Disallowed,Disallowed,Disallowed,Disallowed,Disallowed,Allowed,Allowed,Allowed,Allowed,Allowed,Allowed,Allowed,Allowed,Allowed,Allowed,Allowed,Allowed,Allowed,Allowed,Allowed,Disallowed,Disallowed,Disallowed,Lag1,8,Stim8,#80FC7F
J,10,green,Stim10,#BEFC7F,DAU,0,0,91,G1,Disallowed,Disallowed,Disallowed,Disallowed,Disallowed,Disallowed,Disallowed,Disallowed,Disallowed,Disallowed,Disallowed,Disallowed,Allowed,Allowed,Allowed,Allowed,Allowed,Allowed,Allowed,Allowed,Allowed,Allowed,Allowed,Allowed,Allowed,Allowed,Disallowed,Disallowed,Disallowed,Lag1,9,Stim9,#80FC7F
K,11,green,Stim11,#BEFC7F,DAU,0,0,92,G1,Disallowed,Disallowed,Disallowed,Disallowed,Disallowed,Disallowed,Disallowed,Disallowed,Disallowed,Disallowed,Disallowed,Disallowed,Disallowed,Allowed,Allowed,Allowed,Allowed,Allowed,Allowed,Allowed,Allowed,Allowed,Allowed,Allowed,Allowed,Allowed,Disallowed,Disallowed,Disallowed,Lag1,10,Stim10,#80FC7F
J,12,green,Stim12,#BEFC7F,DAU,0,0,93,G1,Disallowed,Disallowed,Disallowed,Disallowed,Disallowed,Disallowed,Disallowed,Disallowed,Disallowed,Disallowed,Disallowed,Disallowed,Disallowed,Disallowed,Allowed,Allowed,Allowed,Allowed,Allowed,Allowed,Allowed,Allowed,Allowed,Allowed,Allowed,Allowed,Disallowed,Disallowed,Disallowed,Lag1,11,Stim11,#80FC7F
K,13,green,Stim13,#BEFC7F,DAU,0,0,94,G1,Disallowed,Disallowed,Disallowed,Disallowed,Disallowed,Disallowed,Disallowed,Disallowed,Disallowed,Disallowed,Disallowed,Disallowed,Disallowed,Disallowed,Disallowed,Allowed,Allowed,Allowed,Allowed,Allowed,Allowed,Allowed,Allowed,Allowed,Allowed,Allowed,Disallowed,Disallowed,Disallowed,Lag1,12,Stim12,#80FC7F
J,14,green,Stim14,#BEFC7F,DAU,0,0,95,G1,Disallowed,Disallowed,Disallowed,Disallowed,Disallowed,Disallowed,Disallowed,Disallowed,Disallowed,Disallowed,Disallowed,Disallowed,Disallowed,Disallowed,Disallowed,Disallowed,Allowed,Allowed,Allowed,Allowed,Allowed,Allowed,Allowed,Allowed,Allowed,Allowed,Disallowed,Disallowed,Disallowed,Lag1,13,Stim13,#80FC7F
K,15,green,Stim15,#BEFC7F,DAU,0,0,96,G1,Disallowed,Disallowed,Disallowed,Disallowed,Disallowed,Disallowed,Disallowed,Disallowed,Disallowed,Disallowed,Disallowed,Disallowed,Disallowed,Disallowed,Disallowed,Disallowed,Disallowed,Allowed,Allowed,Allowed,Allowed,Allowed,Allowed,Allowed,Allowed,Allowed,Disallowed,Disallowed,Disallowed,Lag1,14,Stim14,#80FC7F
J,7,green,Stim7,#BEFC7F,DAU,0,0,97,G1,Disallowed,Disallowed,Disallowed,Disallowed,Disallowed,Disallowed,Disallowed,Disallowed,Disallowed,Allowed,Allowed,Allowed,Allowed,Allowed,Allowed,Allowed,Allowed,Allowed,Allowed,Allowed,Allowed,Allowed,Allowed,Allowed,Allowed,Allowed,Disallowed,Disallowed,Disallowed,Lag1,6,Stim6,#80FC7F
K,8,green,Stim8,#BEFC7F,DAU,0,0,98,G1,Disallowed,Disallowed,Disallowed,Disallowed,Disallowed,Disallowed,Disallowed,Disallowed,Disallowed,Disallowed,Allowed,Allowed,Allowed,Allowed,Allowed,Allowed,Allowed,Allowed,Allowed,Allowed,Allowed,Allowed,Allowed,Allowed,Allowed,Allowed,Disallowed,Disallowed,Disallowed,Lag1,7,Stim7,#80FC7F
J,9,green,Stim9,#BEFC7F,DAU,0,0,99,G1,Disallowed,Disallowed,Disallowed,Disallowed,Disallowed,Disallowed,Disallowed,Disallowed,Disallowed,Disallowed,Disallowed,Allowed,Allowed,Allowed,Allowed,Allowed,Allowed,Allowed,Allowed,Allowed,Allowed,Allowed,Allowed,Allowed,Allowed,Allowed,Disallowed,Disallowed,Disallowed,Lag1,8,Stim8,#80FC7F
K,10,green,Stim10,#BEFC7F,DAU,0,0,100,G1,Disallowed,Disallowed,Disallowed,Disallowed,Disallowed,Disallowed,Disallowed,Disallowed,Disallowed,Disallowed,Disallowed,Disallowed,Allowed,Allowed,Allowed,Allowed,Allowed,Allowed,Allowed,Allowed,Allowed,Allowed,Allowed,Allowed,Allowed,Allowed,Disallowed,Disallowed,Disallowed,Lag1,9,Stim9,#80FC7F
J,11,green,Stim11,#BEFC7F,DAU,0,0,101,G1,Disallowed,Disallowed,Disallowed,Disallowed,Disallowed,Disallowed,Disallowed,Disallowed,Disallowed,Disallowed,Disallowed,Disallowed,Disallowed,Allowed,Allowed,Allowed,Allowed,Allowed,Allowed,Allowed,Allowed,Allowed,Allowed,Allowed,Allowed,Allowed,Disallowed,Disallowed,Disallowed,Lag1,10,Stim10,#80FC7F
K,12,green,Stim12,#BEFC7F,DAU,0,0,102,G1,Disallowed,Disallowed,Disallowed,Disallowed,Disallowed,Disallowed,Disallowed,Disallowed,Disallowed,Disallowed,Disallowed,Disallowed,Disallowed,Disallowed,Allowed,Allowed,Allowed,Allowed,Allowed,Allowed,Allowed,Allowed,Allowed,Allowed,Allowed,Allowed,Disallowed,Disallowed,Disallowed,Lag1,11,Stim11,#80FC7F
J,13,green,Stim13,#BEFC7F,DAU,0,0,103,G1,Disallowed,Disallowed,Disallowed,Disallowed,Disallowed,Disallowed,Disallowed,Disallowed,Disallowed,Disallowed,Disallowed,Disallowed,Disallowed,Disallowed,Disallowed,Allowed,Allowed,Allowed,Allowed,Allowed,Allowed,Allowed,Allowed,Allowed,Allowed,Allowed,Disallowed,Disallowed,Disallowed,Lag1,12,Stim12,#80FC7F
K,14,green,Stim14,#BEFC7F,DAU,0,0,104,G1,Disallowed,Disallowed,Disallowed,Disallowed,Disallowed,Disallowed,Disallowed,Disallowed,Disallowed,Disallowed,Disallowed,Disallowed,Disallowed,Disallowed,Disallowed,Disallowed,Allowed,Allowed,Allowed,Allowed,Allowed,Allowed,Allowed,Allowed,Allowed,Allowed,Disallowed,Disallowed,Disallowed,Lag1,13,Stim13,#80FC7F
J,15,green,Stim15,#BEFC7F,DAU,0,0,105,G1,Disallowed,Disallowed,Disallowed,Disallowed,Disallowed,Disallowed,Disallowed,Disallowed,Disallowed,Disallowed,Disallowed,Disallowed,Disallowed,Disallowed,Disallowed,Disallowed,Disallowed,Allowed,Allowed,Allowed,Allowed,Allowed,Allowed,Allowed,Allowed,Allowed,Disallowed,Disallowed,Disallowed,Lag1,14,Stim14,#80FC7F
K,7,green,Stim7,#BEFC7F,DAU,0,0,106,G1,Disallowed,Disallowed,Disallowed,Disallowed,Disallowed,Disallowed,Disallowed,Disallowed,Disallowed,Allowed,Allowed,Allowed,Allowed,Allowed,Allowed,Allowed,Allowed,Allowed,Allowed,Allowed,Allowed,Allowed,Allowed,Allowed,Allowed,Allowed,Disallowed,Disallowed,Disallowed,Lag1,6,Stim6,#80FC7F
J,8,green,Stim8,#BEFC7F,DAU,0,0,107,G1,Disallowed,Disallowed,Disallowed,Disallowed,Disallowed,Disallowed,Disallowed,Disallowed,Disallowed,Disallowed,Allowed,Allowed,Allowed,Allowed,Allowed,Allowed,Allowed,Allowed,Allowed,Allowed,Allowed,Allowed,Allowed,Allowed,Allowed,Allowed,Disallowed,Disallowed,Disallowed,Lag1,7,Stim7,#80FC7F
K,9,green,Stim9,#BEFC7F,DAU,0,0,108,G1,Disallowed,Disallowed,Disallowed,Disallowed,Disallowed,Disallowed,Disallowed,Disallowed,Disallowed,Disallowed,Disallowed,Allowed,Allowed,Allowed,Allowed,Allowed,Allowed,Allowed,Allowed,Allowed,Allowed,Allowed,Allowed,Allowed,Allowed,Allowed,Disallowed,Disallowed,Disallowed,Lag1,8,Stim8,#80FC7F
J,10,green,Stim10,#BEFC7F,DAU,0,0,109,G1,Disallowed,Disallowed,Disallowed,Disallowed,Disallowed,Disallowed,Disallowed,Disallowed,Disallowed,Disallowed,Disallowed,Disallowed,Allowed,Allowed,Allowed,Allowed,Allowed,Allowed,Allowed,Allowed,Allowed,Allowed,Allowed,Allowed,Allowed,Allowed,Disallowed,Disallowed,Disallowed,Lag1,9,Stim9,#80FC7F
K,11,green,Stim11,#BEFC7F,DAU,0,0,110,G1,Disallowed,Disallowed,Disallowed,Disallowed,Disallowed,Disallowed,Disallowed,Disallowed,Disallowed,Disallowed,Disallowed,Disallowed,Disallowed,Allowed,Allowed,Allowed,Allowed,Allowed,Allowed,Allowed,Allowed,Allowed,Allowed,Allowed,Allowed,Allowed,Disallowed,Disallowed,Disallowed,Lag1,10,Stim10,#80FC7F
J,12,green,Stim12,#BEFC7F,DAU,0,0,111,G1,Disallowed,Disallowed,Disallowed,Disallowed,Disallowed,Disallowed,Disallowed,Disallowed,Disallowed,Disallowed,Disallowed,Disallowed,Disallowed,Disallowed,Allowed,Allowed,Allowed,Allowed,Allowed,Allowed,Allowed,Allowed,Allowed,Allowed,Allowed,Allowed,Disallowed,Disallowed,Disallowed,Lag1,11,Stim11,#80FC7F
K,13,green,Stim13,#BEFC7F,DAU,0,0,112,G1,Disallowed,Disallowed,Disallowed,Disallowed,Disallowed,Disallowed,Disallowed,Disallowed,Disallowed,Disallowed,Disallowed,Disallowed,Disallowed,Disallowed,Disallowed,Allowed,Allowed,Allowed,Allowed,Allowed,Allowed,Allowed,Allowed,Allowed,Allowed,Allowed,Disallowed,Disallowed,Disallowed,Lag1,12,Stim12,#80FC7F
J,14,green,Stim14,#BEFC7F,DAU,0,0,113,G1,Disallowed,Disallowed,Disallowed,Disallowed,Disallowed,Disallowed,Disallowed,Disallowed,Disallowed,Disallowed,Disallowed,Disallowed,Disallowed,Disallowed,Disallowed,Disallowed,Allowed,Allowed,Allowed,Allowed,Allowed,Allowed,Allowed,Allowed,Allowed,Allowed,Disallowed,Disallowed,Disallowed,Lag1,13,Stim13,#80FC7F
K,15,green,Stim15,#BEFC7F,DAU,0,0,114,G1,Disallowed,Disallowed,Disallowed,Disallowed,Disallowed,Disallowed,Disallowed,Disallowed,Disallowed,Disallowed,Disallowed,Disallowed,Disallowed,Disallowed,Disallowed,Disallowed,Disallowed,Allowed,Allowed,Allowed,Allowed,Allowed,Allowed,Allowed,Allowed,Allowed,Disallowed,Disallowed,Disallowed,Lag1,14,Stim14,#80FC7F
J,10,green,Stim10,#BEFC7F,DAU,0,0,115,G1,Disallowed,Disallowed,Disallowed,Disallowed,Disallowed,Disallowed,Disallowed,Disallowed,Disallowed,Disallowed,Disallowed,Disallowed,Allowed,Allowed,Allowed,Allowed,Allowed,Allowed,Allowed,Allowed,Allowed,Allowed,Allowed,Allowed,Allowed,Allowed,Disallowed,Disallowed,Disallowed,Lag1,9,Stim9,#80FC7F
K,11,green,Stim11,#BEFC7F,DAU,0,0,116,G1,Disallowed,Disallowed,Disallowed,Disallowed,Disallowed,Disallowed,Disallowed,Disallowed,Disallowed,Disallowed,Disallowed,Disallowed,Disallowed,Allowed,Allowed,Allowed,Allowed,Allowed,Allowed,Allowed,Allowed,Allowed,Allowed,Allowed,Allowed,Allowed,Disallowed,Disallowed,Disallowed,Lag1,10,Stim10,#80FC7F
J,12,green,Stim12,#BEFC7F,DAU,0,0,117,G1,Disallowed,Disallowed,Disallowed,Disallowed,Disallowed,Disallowed,Disallowed,Disallowed,Disallowed,Disallowed,Disallowed,Disallowed,Disallowed,Disallowed,Allowed,Allowed,Allowed,Allowed,Allowed,Allowed,Allowed,Allowed,Allowed,Allowed,Allowed,Allowed,Disallowed,Disallowed,Disallowed,Lag1,11,Stim11,#80FC7F
K,13,green,Stim13,#BEFC7F,DAU,0,0,118,G1,Disallowed,Disallowed,Disallowed,Disallowed,Disallowed,Disallowed,Disallowed,Disallowed,Disallowed,Disallowed,Disallowed,Disallowed,Disallowed,Disallowed,Disallowed,Allowed,Allowed,Allowed,Allowed,Allowed,Allowed,Allowed,Allowed,Allowed,Allowed,Allowed,Disallowed,Disallowed,Disallowed,Lag1,12,Stim12,#80FC7F
J,14,green,Stim14,#BEFC7F,DAU,0,0,119,G1,Disallowed,Disallowed,Disallowed,Disallowed,Disallowed,Disallowed,Disallowed,Disallowed,Disallowed,Disallowed,Disallowed,Disallowed,Disallowed,Disallowed,Disallowed,Disallowed,Allowed,Allowed,Allowed,Allowed,Allowed,Allowed,Allowed,Allowed,Allowed,Allowed,Disallowed,Disallowed,Disallowed,Lag1,13,Stim13,#80FC7F
K,15,green,Stim15,#BEFC7F,DAU,0,0,120,G1,Disallowed,Disallowed,Disallowed,Disallowed,Disallowed,Disallowed,Disallowed,Disallowed,Disallowed,Disallowed,Disallowed,Disallowed,Disallowed,Disallowed,Disallowed,Disallowed,Disallowed,Allowed,Allowed,Allowed,Allowed,Allowed,Allowed,Allowed,Allowed,Allowed,Disallowed,Disallowed,Disallowed,Lag1,14,Stim14,#80FC7F
